%!PS-Adobe-3.0 EPSF-3.0
%%Creator: graphviz version 2.43.0 (0)
%%Title: G
%%Pages: 1
%%BoundingBox: 36 36 258 254
%%EndComments
save
%%BeginProlog
/DotDict 200 dict def
DotDict begin

/setupLatin1 {
mark
/EncodingVector 256 array def
 EncodingVector 0

ISOLatin1Encoding 0 255 getinterval putinterval
EncodingVector 45 /hyphen put

% Set up ISO Latin 1 character encoding
/starnetISO {
        dup dup findfont dup length dict begin
        { 1 index /FID ne { def }{ pop pop } ifelse
        } forall
        /Encoding EncodingVector def
        currentdict end definefont
} def
/Times-Roman starnetISO def
/Times-Italic starnetISO def
/Times-Bold starnetISO def
/Times-BoldItalic starnetISO def
/Helvetica starnetISO def
/Helvetica-Oblique starnetISO def
/Helvetica-Bold starnetISO def
/Helvetica-BoldOblique starnetISO def
/Courier starnetISO def
/Courier-Oblique starnetISO def
/Courier-Bold starnetISO def
/Courier-BoldOblique starnetISO def
cleartomark
} bind def

%%BeginResource: procset graphviz 0 0
/coord-font-family /Times-Roman def
/default-font-family /Times-Roman def
/coordfont coord-font-family findfont 8 scalefont def

/InvScaleFactor 1.0 def
/set_scale {
       dup 1 exch div /InvScaleFactor exch def
       scale
} bind def

% styles
/solid { [] 0 setdash } bind def
/dashed { [9 InvScaleFactor mul dup ] 0 setdash } bind def
/dotted { [1 InvScaleFactor mul 6 InvScaleFactor mul] 0 setdash } bind def
/invis {/fill {newpath} def /stroke {newpath} def /show {pop newpath} def} bind def
/bold { 2 setlinewidth } bind def
/filled { } bind def
/unfilled { } bind def
/rounded { } bind def
/diagonals { } bind def
/tapered { } bind def

% hooks for setting color 
/nodecolor { sethsbcolor } bind def
/edgecolor { sethsbcolor } bind def
/graphcolor { sethsbcolor } bind def
/nopcolor {pop pop pop} bind def

/beginpage {	% i j npages
	/npages exch def
	/j exch def
	/i exch def
	/str 10 string def
	npages 1 gt {
		gsave
			coordfont setfont
			0 0 moveto
			(\() show i str cvs show (,) show j str cvs show (\)) show
		grestore
	} if
} bind def

/set_font {
	findfont exch
	scalefont setfont
} def

% draw text fitted to its expected width
/alignedtext {			% width text
	/text exch def
	/width exch def
	gsave
		width 0 gt {
			[] 0 setdash
			text stringwidth pop width exch sub text length div 0 text ashow
		} if
	grestore
} def

/boxprim {				% xcorner ycorner xsize ysize
		4 2 roll
		moveto
		2 copy
		exch 0 rlineto
		0 exch rlineto
		pop neg 0 rlineto
		closepath
} bind def

/ellipse_path {
	/ry exch def
	/rx exch def
	/y exch def
	/x exch def
	matrix currentmatrix
	newpath
	x y translate
	rx ry scale
	0 0 1 0 360 arc
	setmatrix
} bind def

/endpage { showpage } bind def
/showpage { } def

/layercolorseq
	[	% layer color sequence - darkest to lightest
		[0 0 0]
		[.2 .8 .8]
		[.4 .8 .8]
		[.6 .8 .8]
		[.8 .8 .8]
	]
def

/layerlen layercolorseq length def

/setlayer {/maxlayer exch def /curlayer exch def
	layercolorseq curlayer 1 sub layerlen mod get
	aload pop sethsbcolor
	/nodecolor {nopcolor} def
	/edgecolor {nopcolor} def
	/graphcolor {nopcolor} def
} bind def

/onlayer { curlayer ne {invis} if } def

/onlayers {
	/myupper exch def
	/mylower exch def
	curlayer mylower lt
	curlayer myupper gt
	or
	{invis} if
} def

/curlayer 0 def

%%EndResource
%%EndProlog
%%BeginSetup
14 default-font-family set_font
% /arrowlength 10 def
% /arrowwidth 5 def

% make sure pdfmark is harmless for PS-interpreters other than Distiller
/pdfmark where {pop} {userdict /pdfmark /cleartomark load put} ifelse
% make '<<' and '>>' safe on PS Level 1 devices
/languagelevel where {pop languagelevel}{1} ifelse
2 lt {
    userdict (<<) cvn ([) cvn load put
    userdict (>>) cvn ([) cvn load put
} if

%%EndSetup
setupLatin1
%%Page: 1 1
%%PageBoundingBox: 36 36 258 254
%%PageOrientation: Portrait
0 0 1 beginpage
gsave
36 36 222 218 boxprim clip newpath
1 1 set_scale 0 rotate 40 40 translate
% 0
gsave
0 0 0 nodecolor
83.9394 74.8561 1.8 1.8 ellipse_path fill
1 setlinewidth
filled
0 0 0 nodecolor
83.9394 74.8561 1.8 1.8 ellipse_path stroke
grestore
% 1
gsave
0 0 0 nodecolor
76.0408 109.8589 1.8 1.8 ellipse_path fill
1 setlinewidth
filled
0 0 0 nodecolor
76.0408 109.8589 1.8 1.8 ellipse_path stroke
grestore
% 0--1
gsave
1 setlinewidth
0 0 0 edgecolor
newpath 83.5148 76.738 moveto
82.1561 82.7588 77.9221 101.5216 76.5068 107.7935 curveto
stroke
grestore
% 2
gsave
0 0 0 nodecolor
65.3115 83.9556 1.8 1.8 ellipse_path fill
1 setlinewidth
filled
0 0 0 nodecolor
65.3115 83.9556 1.8 1.8 ellipse_path stroke
grestore
% 0--2
gsave
1 setlinewidth
0 0 0 edgecolor
newpath 82.2204 75.6958 moveto
78.7617 77.3853 70.9798 81.1867 67.305 82.9818 curveto
stroke
grestore
% 3
gsave
0 0 0 nodecolor
85.0963 95.3448 1.8 1.8 ellipse_path fill
1 setlinewidth
filled
0 0 0 nodecolor
85.0963 95.3448 1.8 1.8 ellipse_path stroke
grestore
% 0--3
gsave
1 setlinewidth
0 0 0 edgecolor
newpath 84.0462 76.7469 moveto
84.261 80.551 84.7443 89.1103 84.9725 93.1521 curveto
stroke
grestore
% 4
gsave
0 0 0 nodecolor
59.9829 103.3983 1.8 1.8 ellipse_path fill
1 setlinewidth
filled
0 0 0 nodecolor
59.9829 103.3983 1.8 1.8 ellipse_path stroke
grestore
% 0--4
gsave
1 setlinewidth
0 0 0 edgecolor
newpath 82.6514 76.3906 moveto
78.4529 81.3928 65.2013 97.1809 61.1627 101.9926 curveto
stroke
grestore
% 6
gsave
0 0 0 nodecolor
109.8057 85.0887 1.8 1.8 ellipse_path fill
1 setlinewidth
filled
0 0 0 nodecolor
109.8057 85.0887 1.8 1.8 ellipse_path stroke
grestore
% 0--6
gsave
1 setlinewidth
0 0 0 edgecolor
newpath 85.6366 75.5275 moveto
90.3122 77.3771 103.3453 82.533 108.0684 84.4014 curveto
stroke
grestore
% 7
gsave
0 0 0 nodecolor
102.1075 50.2772 1.8 1.8 ellipse_path fill
1 setlinewidth
filled
0 0 0 nodecolor
102.1075 50.2772 1.8 1.8 ellipse_path stroke
grestore
% 0--7
gsave
1 setlinewidth
0 0 0 edgecolor
newpath 85.1315 73.2434 moveto
88.4155 68.8005 97.5698 56.416 100.8872 51.928 curveto
stroke
grestore
% 8
gsave
0 0 0 nodecolor
112.864 72.0082 1.8 1.8 ellipse_path fill
1 setlinewidth
filled
0 0 0 nodecolor
112.864 72.0082 1.8 1.8 ellipse_path stroke
grestore
% 0--8
gsave
1 setlinewidth
0 0 0 edgecolor
newpath 85.8373 74.6692 moveto
91.0657 74.1545 105.6398 72.7195 110.9213 72.1995 curveto
stroke
grestore
% 9
gsave
0 0 0 nodecolor
75.8027 43.696 1.8 1.8 ellipse_path fill
1 setlinewidth
filled
0 0 0 nodecolor
75.8027 43.696 1.8 1.8 ellipse_path stroke
grestore
% 0--9
gsave
1 setlinewidth
0 0 0 edgecolor
newpath 83.4056 72.8116 moveto
81.9065 67.0708 77.6762 50.871 76.2664 45.4719 curveto
stroke
grestore
% 17
gsave
0 0 0 nodecolor
113.7086 55.7684 1.8 1.8 ellipse_path fill
1 setlinewidth
filled
0 0 0 nodecolor
113.7086 55.7684 1.8 1.8 ellipse_path stroke
grestore
% 0--17
gsave
1 setlinewidth
0 0 0 edgecolor
newpath 85.54 73.8298 moveto
90.6606 70.5466 106.618 60.3149 111.9521 56.8947 curveto
stroke
grestore
% 20
gsave
0 0 0 nodecolor
102.9011 106.6466 1.8 1.8 ellipse_path fill
1 setlinewidth
filled
0 0 0 nodecolor
102.9011 106.6466 1.8 1.8 ellipse_path stroke
grestore
% 0--20
gsave
1 setlinewidth
0 0 0 edgecolor
newpath 84.9589 76.5653 moveto
88.282 82.1367 98.7707 99.7217 101.9673 105.0809 curveto
stroke
grestore
% 24
gsave
0 0 0 nodecolor
56.7597 61.2328 1.8 1.8 ellipse_path fill
1 setlinewidth
filled
0 0 0 nodecolor
56.7597 61.2328 1.8 1.8 ellipse_path stroke
grestore
% 0--24
gsave
1 setlinewidth
0 0 0 edgecolor
newpath 82.1561 73.9622 moveto
77.2431 71.4997 63.5481 64.6354 58.5852 62.1478 curveto
stroke
grestore
% 39
gsave
0 0 0 nodecolor
61.5677 47.7404 1.8 1.8 ellipse_path fill
1 setlinewidth
filled
0 0 0 nodecolor
61.5677 47.7404 1.8 1.8 ellipse_path stroke
grestore
% 0--39
gsave
1 setlinewidth
0 0 0 edgecolor
newpath 82.7366 73.3982 moveto
78.8885 68.7341 66.8964 54.199 62.8878 49.3404 curveto
stroke
grestore
% 1--2
gsave
1 setlinewidth
0 0 0 edgecolor
newpath 75.3368 108.1593 moveto
73.3974 103.477 67.9912 90.4252 66.0321 85.6954 curveto
stroke
grestore
% 1--3
gsave
1 setlinewidth
0 0 0 edgecolor
newpath 77.1511 108.0791 moveto
78.8891 105.2935 82.2332 99.9336 83.9768 97.139 curveto
stroke
grestore
% 1--4
gsave
1 setlinewidth
0 0 0 edgecolor
newpath 74.0717 109.0667 moveto
70.9898 107.8267 65.0598 105.4409 61.968 104.197 curveto
stroke
grestore
% 19
gsave
0 0 0 nodecolor
61.7331 135.6481 1.8 1.8 ellipse_path fill
1 setlinewidth
filled
0 0 0 nodecolor
61.7331 135.6481 1.8 1.8 ellipse_path stroke
grestore
% 1--19
gsave
1 setlinewidth
0 0 0 edgecolor
newpath 75.102 111.551 moveto
72.5158 116.2126 65.3066 129.207 62.6941 133.9159 curveto
stroke
grestore
% 2--3
gsave
1 setlinewidth
0 0 0 edgecolor
newpath 67.1373 85.0067 moveto
70.9638 87.2094 79.7727 92.2802 83.4435 94.3933 curveto
stroke
grestore
% 2--4
gsave
1 setlinewidth
0 0 0 edgecolor
newpath 64.8197 85.7499 moveto
63.8304 89.3598 61.6043 97.4821 60.5531 101.3176 curveto
stroke
grestore
% 2--24
gsave
1 setlinewidth
0 0 0 edgecolor
newpath 64.6404 82.1726 moveto
63.0654 77.9877 59.1413 67.5611 57.4999 63.1997 curveto
stroke
grestore
% 63
gsave
0 0 0 nodecolor
47.7179 90.5304 1.8 1.8 ellipse_path fill
1 setlinewidth
filled
0 0 0 nodecolor
47.7179 90.5304 1.8 1.8 ellipse_path stroke
grestore
% 2--63
gsave
1 setlinewidth
0 0 0 edgecolor
newpath 63.4287 84.6592 moveto
60.0247 85.9313 52.8894 88.5978 49.5345 89.8515 curveto
stroke
grestore
% 3--4
gsave
1 setlinewidth
0 0 0 edgecolor
newpath 83.1257 95.9767 moveto
78.408 97.4896 66.5132 101.3041 61.8756 102.7913 curveto
stroke
grestore
% 3--6
gsave
1 setlinewidth
0 0 0 edgecolor
newpath 87.0352 94.54 moveto
91.677 92.6133 103.3804 87.7556 107.9434 85.8616 curveto
stroke
grestore
% 3--63
gsave
1 setlinewidth
0 0 0 edgecolor
newpath 83.0867 95.0859 moveto
76.5359 94.2422 55.8601 91.5791 49.5588 90.7675 curveto
stroke
grestore
% 98
gsave
0 0 0 nodecolor
122.3403 101.166 1.8 1.8 ellipse_path fill
1 setlinewidth
filled
0 0 0 nodecolor
122.3403 101.166 1.8 1.8 ellipse_path stroke
grestore
% 3--98
gsave
1 setlinewidth
0 0 0 edgecolor
newpath 87.0987 95.6577 moveto
93.6259 96.6779 114.2274 99.8979 120.506 100.8793 curveto
stroke
grestore
% 11
gsave
0 0 0 nodecolor
25.8 92.665 1.8 1.8 ellipse_path fill
1 setlinewidth
filled
0 0 0 nodecolor
25.8 92.665 1.8 1.8 ellipse_path stroke
grestore
% 4--11
gsave
1 setlinewidth
0 0 0 edgecolor
newpath 58.145 102.8212 moveto
52.2652 100.975 33.9419 95.2215 27.817 93.2983 curveto
stroke
grestore
% 13
gsave
0 0 0 nodecolor
32.8494 115.9116 1.8 1.8 ellipse_path fill
1 setlinewidth
filled
0 0 0 nodecolor
32.8494 115.9116 1.8 1.8 ellipse_path stroke
grestore
% 4--13
gsave
1 setlinewidth
0 0 0 edgecolor
newpath 58.2026 104.2193 moveto
53.2979 106.4812 39.6263 112.7863 34.6719 115.0712 curveto
stroke
grestore
% 4--19
gsave
1 setlinewidth
0 0 0 edgecolor
newpath 60.0977 105.5143 moveto
60.4202 111.4559 61.3301 128.2222 61.6334 133.8101 curveto
stroke
grestore
% 4--63
gsave
1 setlinewidth
0 0 0 edgecolor
newpath 58.4789 101.8204 moveto
56.125 99.3507 51.5957 94.5988 49.2342 92.1211 curveto
stroke
grestore
% 5
gsave
0 0 0 nodecolor
123.8 121.8 1.8 1.8 ellipse_path fill
1 setlinewidth
filled
0 0 0 nodecolor
123.8 121.8 1.8 1.8 ellipse_path stroke
grestore
% 10
gsave
0 0 0 nodecolor
135.5825 69.2728 1.8 1.8 ellipse_path fill
1 setlinewidth
filled
0 0 0 nodecolor
135.5825 69.2728 1.8 1.8 ellipse_path stroke
grestore
% 6--10
gsave
1 setlinewidth
0 0 0 edgecolor
newpath 111.497 84.0509 moveto
116.1564 81.1921 129.1445 73.223 133.8512 70.3351 curveto
stroke
grestore
% 7--10
gsave
1 setlinewidth
0 0 0 edgecolor
newpath 103.9072 51.2985 moveto
109.7739 54.6276 128.2906 65.135 133.9339 68.3373 curveto
stroke
grestore
% 27
gsave
0 0 0 nodecolor
113.2603 23.8 1.8 1.8 ellipse_path fill
1 setlinewidth
filled
0 0 0 nodecolor
113.2603 23.8 1.8 1.8 ellipse_path stroke
grestore
% 7--27
gsave
1 setlinewidth
0 0 0 edgecolor
newpath 102.8393 48.5399 moveto
104.8552 43.7539 110.4748 30.413 112.5112 25.5784 curveto
stroke
grestore
% 8--10
gsave
1 setlinewidth
0 0 0 edgecolor
newpath 114.9606 71.7558 moveto
119.3545 71.2268 129.4695 70.0089 133.6846 69.5014 curveto
stroke
grestore
% 10--17
gsave
1 setlinewidth
0 0 0 edgecolor
newpath 133.8661 68.2132 moveto
129.8375 65.726 119.8005 59.5294 115.602 56.9374 curveto
stroke
grestore
% 64
gsave
0 0 0 nodecolor
159.0356 49.6244 1.8 1.8 ellipse_path fill
1 setlinewidth
filled
0 0 0 nodecolor
159.0356 49.6244 1.8 1.8 ellipse_path stroke
grestore
% 10--64
gsave
1 setlinewidth
0 0 0 edgecolor
newpath 137.1213 67.9836 moveto
141.3607 64.432 153.1779 54.5318 157.4603 50.9441 curveto
stroke
grestore
% 88
gsave
0 0 0 nodecolor
164.3114 79.7099 1.8 1.8 ellipse_path fill
1 setlinewidth
filled
0 0 0 nodecolor
164.3114 79.7099 1.8 1.8 ellipse_path stroke
grestore
% 10--88
gsave
1 setlinewidth
0 0 0 edgecolor
newpath 137.4675 69.9576 moveto
142.6605 71.8442 157.1361 77.1031 162.3818 79.0088 curveto
stroke
grestore
% 10--98
gsave
1 setlinewidth
0 0 0 edgecolor
newpath 134.8705 70.9876 moveto
132.5927 76.4735 125.4944 93.5694 123.1216 99.2841 curveto
stroke
grestore
% 12
gsave
0 0 0 nodecolor
103.8 127.8 1.8 1.8 ellipse_path fill
1 setlinewidth
filled
0 0 0 nodecolor
103.8 127.8 1.8 1.8 ellipse_path stroke
grestore
% 14
gsave
0 0 0 nodecolor
83.8 129.8 1.8 1.8 ellipse_path fill
1 setlinewidth
filled
0 0 0 nodecolor
83.8 129.8 1.8 1.8 ellipse_path stroke
grestore
% 15
gsave
0 0 0 nodecolor
141.8 89.8 1.8 1.8 ellipse_path fill
1 setlinewidth
filled
0 0 0 nodecolor
141.8 89.8 1.8 1.8 ellipse_path stroke
grestore
% 16
gsave
0 0 0 nodecolor
143.8 109.8 1.8 1.8 ellipse_path fill
1 setlinewidth
filled
0 0 0 nodecolor
143.8 109.8 1.8 1.8 ellipse_path stroke
grestore
% 17--27
gsave
1 setlinewidth
0 0 0 edgecolor
newpath 113.6792 53.6709 moveto
113.5966 47.7812 113.3635 31.1611 113.2859 25.622 curveto
stroke
grestore
% 18
gsave
0 0 0 nodecolor
143.8 129.8 1.8 1.8 ellipse_path fill
1 setlinewidth
filled
0 0 0 nodecolor
143.8 129.8 1.8 1.8 ellipse_path stroke
grestore
% 48
gsave
0 0 0 nodecolor
39.0271 156.3655 1.8 1.8 ellipse_path fill
1 setlinewidth
filled
0 0 0 nodecolor
39.0271 156.3655 1.8 1.8 ellipse_path stroke
grestore
% 19--48
gsave
1 setlinewidth
0 0 0 edgecolor
newpath 60.2433 137.0074 moveto
56.139 140.7523 44.6982 151.1911 40.5522 154.974 curveto
stroke
grestore
% 53
gsave
0 0 0 nodecolor
72.2072 164.4515 1.8 1.8 ellipse_path fill
1 setlinewidth
filled
0 0 0 nodecolor
72.2072 164.4515 1.8 1.8 ellipse_path stroke
grestore
% 19--53
gsave
1 setlinewidth
0 0 0 edgecolor
newpath 62.4204 137.538 moveto
64.3136 142.7445 69.5912 157.2576 71.5037 162.5169 curveto
stroke
grestore
% 21
gsave
0 0 0 nodecolor
123.8 141.8 1.8 1.8 ellipse_path fill
1 setlinewidth
filled
0 0 0 nodecolor
123.8 141.8 1.8 1.8 ellipse_path stroke
grestore
% 22
gsave
0 0 0 nodecolor
103.8 147.8 1.8 1.8 ellipse_path fill
1 setlinewidth
filled
0 0 0 nodecolor
103.8 147.8 1.8 1.8 ellipse_path stroke
grestore
% 23
gsave
0 0 0 nodecolor
151.8 149.8 1.8 1.8 ellipse_path fill
1 setlinewidth
filled
0 0 0 nodecolor
151.8 149.8 1.8 1.8 ellipse_path stroke
grestore
% 25
gsave
0 0 0 nodecolor
133.8 49.8 1.8 1.8 ellipse_path fill
1 setlinewidth
filled
0 0 0 nodecolor
133.8 49.8 1.8 1.8 ellipse_path stroke
grestore
% 26
gsave
0 0 0 nodecolor
163.8 99.8 1.8 1.8 ellipse_path fill
1 setlinewidth
filled
0 0 0 nodecolor
163.8 99.8 1.8 1.8 ellipse_path stroke
grestore
% 28
gsave
0 0 0 nodecolor
163.8 119.8 1.8 1.8 ellipse_path fill
1 setlinewidth
filled
0 0 0 nodecolor
163.8 119.8 1.8 1.8 ellipse_path stroke
grestore
% 29
gsave
0 0 0 nodecolor
131.8 161.8 1.8 1.8 ellipse_path fill
1 setlinewidth
filled
0 0 0 nodecolor
131.8 161.8 1.8 1.8 ellipse_path stroke
grestore
% 30
gsave
0 0 0 nodecolor
111.8 167.8 1.8 1.8 ellipse_path fill
1 setlinewidth
filled
0 0 0 nodecolor
111.8 167.8 1.8 1.8 ellipse_path stroke
grestore
% 31
gsave
0 0 0 nodecolor
91.8 167.8 1.8 1.8 ellipse_path fill
1 setlinewidth
filled
0 0 0 nodecolor
91.8 167.8 1.8 1.8 ellipse_path stroke
grestore
% 32
gsave
0 0 0 nodecolor
41.8 135.8 1.8 1.8 ellipse_path fill
1 setlinewidth
filled
0 0 0 nodecolor
41.8 135.8 1.8 1.8 ellipse_path stroke
grestore
% 33
gsave
0 0 0 nodecolor
41.8 41.8 1.8 1.8 ellipse_path fill
1 setlinewidth
filled
0 0 0 nodecolor
41.8 41.8 1.8 1.8 ellipse_path stroke
grestore
% 34
gsave
0 0 0 nodecolor
171.8 139.8 1.8 1.8 ellipse_path fill
1 setlinewidth
filled
0 0 0 nodecolor
171.8 139.8 1.8 1.8 ellipse_path stroke
grestore
% 35
gsave
0 0 0 nodecolor
171.8 159.8 1.8 1.8 ellipse_path fill
1 setlinewidth
filled
0 0 0 nodecolor
171.8 159.8 1.8 1.8 ellipse_path stroke
grestore
% 36
gsave
0 0 0 nodecolor
151.8 169.8 1.8 1.8 ellipse_path fill
1 setlinewidth
filled
0 0 0 nodecolor
151.8 169.8 1.8 1.8 ellipse_path stroke
grestore
% 37
gsave
0 0 0 nodecolor
37.8 71.8 1.8 1.8 ellipse_path fill
1 setlinewidth
filled
0 0 0 nodecolor
37.8 71.8 1.8 1.8 ellipse_path stroke
grestore
% 38
gsave
0 0 0 nodecolor
51.8 175.8 1.8 1.8 ellipse_path fill
1 setlinewidth
filled
0 0 0 nodecolor
51.8 175.8 1.8 1.8 ellipse_path stroke
grestore
% 40
gsave
0 0 0 nodecolor
133.8 29.8 1.8 1.8 ellipse_path fill
1 setlinewidth
filled
0 0 0 nodecolor
133.8 29.8 1.8 1.8 ellipse_path stroke
grestore
% 41
gsave
0 0 0 nodecolor
153.8 29.8 1.8 1.8 ellipse_path fill
1 setlinewidth
filled
0 0 0 nodecolor
153.8 29.8 1.8 1.8 ellipse_path stroke
grestore
% 42
gsave
0 0 0 nodecolor
173.8 29.8 1.8 1.8 ellipse_path fill
1 setlinewidth
filled
0 0 0 nodecolor
173.8 29.8 1.8 1.8 ellipse_path stroke
grestore
% 43
gsave
0 0 0 nodecolor
179.8 49.8 1.8 1.8 ellipse_path fill
1 setlinewidth
filled
0 0 0 nodecolor
179.8 49.8 1.8 1.8 ellipse_path stroke
grestore
% 44
gsave
0 0 0 nodecolor
31.8 177.8 1.8 1.8 ellipse_path fill
1 setlinewidth
filled
0 0 0 nodecolor
31.8 177.8 1.8 1.8 ellipse_path stroke
grestore
% 45
gsave
0 0 0 nodecolor
181.8 179.8 1.8 1.8 ellipse_path fill
1 setlinewidth
filled
0 0 0 nodecolor
181.8 179.8 1.8 1.8 ellipse_path stroke
grestore
% 46
gsave
0 0 0 nodecolor
183.8 69.8 1.8 1.8 ellipse_path fill
1 setlinewidth
filled
0 0 0 nodecolor
183.8 69.8 1.8 1.8 ellipse_path stroke
grestore
% 47
gsave
0 0 0 nodecolor
183.8 89.8 1.8 1.8 ellipse_path fill
1 setlinewidth
filled
0 0 0 nodecolor
183.8 89.8 1.8 1.8 ellipse_path stroke
grestore
% 49
gsave
0 0 0 nodecolor
183.8 109.8 1.8 1.8 ellipse_path fill
1 setlinewidth
filled
0 0 0 nodecolor
183.8 109.8 1.8 1.8 ellipse_path stroke
grestore
% 50
gsave
0 0 0 nodecolor
131.8 181.8 1.8 1.8 ellipse_path fill
1 setlinewidth
filled
0 0 0 nodecolor
131.8 181.8 1.8 1.8 ellipse_path stroke
grestore
% 51
gsave
0 0 0 nodecolor
71.8 183.8 1.8 1.8 ellipse_path fill
1 setlinewidth
filled
0 0 0 nodecolor
71.8 183.8 1.8 1.8 ellipse_path stroke
grestore
% 52
gsave
0 0 0 nodecolor
61.8 23.8 1.8 1.8 ellipse_path fill
1 setlinewidth
filled
0 0 0 nodecolor
61.8 23.8 1.8 1.8 ellipse_path stroke
grestore
% 54
gsave
0 0 0 nodecolor
81.8 23.8 1.8 1.8 ellipse_path fill
1 setlinewidth
filled
0 0 0 nodecolor
81.8 23.8 1.8 1.8 ellipse_path stroke
grestore
% 55
gsave
0 0 0 nodecolor
23.8 21.8 1.8 1.8 ellipse_path fill
1 setlinewidth
filled
0 0 0 nodecolor
23.8 21.8 1.8 1.8 ellipse_path stroke
grestore
% 56
gsave
0 0 0 nodecolor
111.8 187.8 1.8 1.8 ellipse_path fill
1 setlinewidth
filled
0 0 0 nodecolor
111.8 187.8 1.8 1.8 ellipse_path stroke
grestore
% 57
gsave
0 0 0 nodecolor
91.8 187.8 1.8 1.8 ellipse_path fill
1 setlinewidth
filled
0 0 0 nodecolor
91.8 187.8 1.8 1.8 ellipse_path stroke
grestore
% 58
gsave
0 0 0 nodecolor
21.8 135.8 1.8 1.8 ellipse_path fill
1 setlinewidth
filled
0 0 0 nodecolor
21.8 135.8 1.8 1.8 ellipse_path stroke
grestore
% 59
gsave
0 0 0 nodecolor
21.8 51.8 1.8 1.8 ellipse_path fill
1 setlinewidth
filled
0 0 0 nodecolor
21.8 51.8 1.8 1.8 ellipse_path stroke
grestore
% 60
gsave
0 0 0 nodecolor
191.8 129.8 1.8 1.8 ellipse_path fill
1 setlinewidth
filled
0 0 0 nodecolor
191.8 129.8 1.8 1.8 ellipse_path stroke
grestore
% 61
gsave
0 0 0 nodecolor
191.8 149.8 1.8 1.8 ellipse_path fill
1 setlinewidth
filled
0 0 0 nodecolor
191.8 149.8 1.8 1.8 ellipse_path stroke
grestore
% 62
gsave
0 0 0 nodecolor
161.8 189.8 1.8 1.8 ellipse_path fill
1 setlinewidth
filled
0 0 0 nodecolor
161.8 189.8 1.8 1.8 ellipse_path stroke
grestore
% 65
gsave
0 0 0 nodecolor
19.8 157.8 1.8 1.8 ellipse_path fill
1 setlinewidth
filled
0 0 0 nodecolor
19.8 157.8 1.8 1.8 ellipse_path stroke
grestore
% 66
gsave
0 0 0 nodecolor
193.8 15.8 1.8 1.8 ellipse_path fill
1 setlinewidth
filled
0 0 0 nodecolor
193.8 15.8 1.8 1.8 ellipse_path stroke
grestore
% 67
gsave
0 0 0 nodecolor
17.8 73.8 1.8 1.8 ellipse_path fill
1 setlinewidth
filled
0 0 0 nodecolor
17.8 73.8 1.8 1.8 ellipse_path stroke
grestore
% 68
gsave
0 0 0 nodecolor
51.8 195.8 1.8 1.8 ellipse_path fill
1 setlinewidth
filled
0 0 0 nodecolor
51.8 195.8 1.8 1.8 ellipse_path stroke
grestore
% 69
gsave
0 0 0 nodecolor
13.8 115.8 1.8 1.8 ellipse_path fill
1 setlinewidth
filled
0 0 0 nodecolor
13.8 115.8 1.8 1.8 ellipse_path stroke
grestore
% 70
gsave
0 0 0 nodecolor
133.8 9.8 1.8 1.8 ellipse_path fill
1 setlinewidth
filled
0 0 0 nodecolor
133.8 9.8 1.8 1.8 ellipse_path stroke
grestore
% 71
gsave
0 0 0 nodecolor
153.8 9.8 1.8 1.8 ellipse_path fill
1 setlinewidth
filled
0 0 0 nodecolor
153.8 9.8 1.8 1.8 ellipse_path stroke
grestore
% 72
gsave
0 0 0 nodecolor
173.8 9.8 1.8 1.8 ellipse_path fill
1 setlinewidth
filled
0 0 0 nodecolor
173.8 9.8 1.8 1.8 ellipse_path stroke
grestore
% 73
gsave
0 0 0 nodecolor
199.8 35.8 1.8 1.8 ellipse_path fill
1 setlinewidth
filled
0 0 0 nodecolor
199.8 35.8 1.8 1.8 ellipse_path stroke
grestore
% 74
gsave
0 0 0 nodecolor
31.8 197.8 1.8 1.8 ellipse_path fill
1 setlinewidth
filled
0 0 0 nodecolor
31.8 197.8 1.8 1.8 ellipse_path stroke
grestore
% 75
gsave
0 0 0 nodecolor
11.8 197.8 1.8 1.8 ellipse_path fill
1 setlinewidth
filled
0 0 0 nodecolor
11.8 197.8 1.8 1.8 ellipse_path stroke
grestore
% 76
gsave
0 0 0 nodecolor
11.8 177.8 1.8 1.8 ellipse_path fill
1 setlinewidth
filled
0 0 0 nodecolor
11.8 177.8 1.8 1.8 ellipse_path stroke
grestore
% 77
gsave
0 0 0 nodecolor
201.8 169.8 1.8 1.8 ellipse_path fill
1 setlinewidth
filled
0 0 0 nodecolor
201.8 169.8 1.8 1.8 ellipse_path stroke
grestore
% 78
gsave
0 0 0 nodecolor
201.8 189.8 1.8 1.8 ellipse_path fill
1 setlinewidth
filled
0 0 0 nodecolor
201.8 189.8 1.8 1.8 ellipse_path stroke
grestore
% 79
gsave
0 0 0 nodecolor
181.8 199.8 1.8 1.8 ellipse_path fill
1 setlinewidth
filled
0 0 0 nodecolor
181.8 199.8 1.8 1.8 ellipse_path stroke
grestore
% 80
gsave
0 0 0 nodecolor
203.8 55.8 1.8 1.8 ellipse_path fill
1 setlinewidth
filled
0 0 0 nodecolor
203.8 55.8 1.8 1.8 ellipse_path stroke
grestore
% 81
gsave
0 0 0 nodecolor
203.8 75.8 1.8 1.8 ellipse_path fill
1 setlinewidth
filled
0 0 0 nodecolor
203.8 75.8 1.8 1.8 ellipse_path stroke
grestore
% 82
gsave
0 0 0 nodecolor
203.8 95.8 1.8 1.8 ellipse_path fill
1 setlinewidth
filled
0 0 0 nodecolor
203.8 95.8 1.8 1.8 ellipse_path stroke
grestore
% 83
gsave
0 0 0 nodecolor
141.8 201.8 1.8 1.8 ellipse_path fill
1 setlinewidth
filled
0 0 0 nodecolor
141.8 201.8 1.8 1.8 ellipse_path stroke
grestore
% 84
gsave
0 0 0 nodecolor
105.8 3.8 1.8 1.8 ellipse_path fill
1 setlinewidth
filled
0 0 0 nodecolor
105.8 3.8 1.8 1.8 ellipse_path stroke
grestore
% 85
gsave
0 0 0 nodecolor
71.8 203.8 1.8 1.8 ellipse_path fill
1 setlinewidth
filled
0 0 0 nodecolor
71.8 203.8 1.8 1.8 ellipse_path stroke
grestore
% 86
gsave
0 0 0 nodecolor
5.8 95.8 1.8 1.8 ellipse_path fill
1 setlinewidth
filled
0 0 0 nodecolor
5.8 95.8 1.8 1.8 ellipse_path stroke
grestore
% 87
gsave
0 0 0 nodecolor
43.8 3.8 1.8 1.8 ellipse_path fill
1 setlinewidth
filled
0 0 0 nodecolor
43.8 3.8 1.8 1.8 ellipse_path stroke
grestore
% 89
gsave
0 0 0 nodecolor
63.8 3.8 1.8 1.8 ellipse_path fill
1 setlinewidth
filled
0 0 0 nodecolor
63.8 3.8 1.8 1.8 ellipse_path stroke
grestore
% 90
gsave
0 0 0 nodecolor
83.8 3.8 1.8 1.8 ellipse_path fill
1 setlinewidth
filled
0 0 0 nodecolor
83.8 3.8 1.8 1.8 ellipse_path stroke
grestore
% 91
gsave
0 0 0 nodecolor
3.8 31.8 1.8 1.8 ellipse_path fill
1 setlinewidth
filled
0 0 0 nodecolor
3.8 31.8 1.8 1.8 ellipse_path stroke
grestore
% 92
gsave
0 0 0 nodecolor
3.8 11.8 1.8 1.8 ellipse_path fill
1 setlinewidth
filled
0 0 0 nodecolor
3.8 11.8 1.8 1.8 ellipse_path stroke
grestore
% 93
gsave
0 0 0 nodecolor
23.8 1.8 1.8 1.8 ellipse_path fill
1 setlinewidth
filled
0 0 0 nodecolor
23.8 1.8 1.8 1.8 ellipse_path stroke
grestore
% 94
gsave
0 0 0 nodecolor
121.8 207.8 1.8 1.8 ellipse_path fill
1 setlinewidth
filled
0 0 0 nodecolor
121.8 207.8 1.8 1.8 ellipse_path stroke
grestore
% 95
gsave
0 0 0 nodecolor
101.8 207.8 1.8 1.8 ellipse_path fill
1 setlinewidth
filled
0 0 0 nodecolor
101.8 207.8 1.8 1.8 ellipse_path stroke
grestore
% 96
gsave
0 0 0 nodecolor
1.8 137.8 1.8 1.8 ellipse_path fill
1 setlinewidth
filled
0 0 0 nodecolor
1.8 137.8 1.8 1.8 ellipse_path stroke
grestore
% 97
gsave
0 0 0 nodecolor
1.8 53.8 1.8 1.8 ellipse_path fill
1 setlinewidth
filled
0 0 0 nodecolor
1.8 53.8 1.8 1.8 ellipse_path stroke
grestore
% 99
gsave
0 0 0 nodecolor
211.8 115.8 1.8 1.8 ellipse_path fill
1 setlinewidth
filled
0 0 0 nodecolor
211.8 115.8 1.8 1.8 ellipse_path stroke
grestore
endpage
showpage
grestore
%%PageTrailer
%%EndPage: 1
%%Trailer
end
restore
%%EOF
