%!PS-Adobe-3.0 EPSF-3.0
%%Creator: graphviz version 2.43.0 (0)
%%Title: G
%%Pages: 1
%%BoundingBox: 36 36 241 285
%%EndComments
save
%%BeginProlog
/DotDict 200 dict def
DotDict begin

/setupLatin1 {
mark
/EncodingVector 256 array def
 EncodingVector 0

ISOLatin1Encoding 0 255 getinterval putinterval
EncodingVector 45 /hyphen put

% Set up ISO Latin 1 character encoding
/starnetISO {
        dup dup findfont dup length dict begin
        { 1 index /FID ne { def }{ pop pop } ifelse
        } forall
        /Encoding EncodingVector def
        currentdict end definefont
} def
/Times-Roman starnetISO def
/Times-Italic starnetISO def
/Times-Bold starnetISO def
/Times-BoldItalic starnetISO def
/Helvetica starnetISO def
/Helvetica-Oblique starnetISO def
/Helvetica-Bold starnetISO def
/Helvetica-BoldOblique starnetISO def
/Courier starnetISO def
/Courier-Oblique starnetISO def
/Courier-Bold starnetISO def
/Courier-BoldOblique starnetISO def
cleartomark
} bind def

%%BeginResource: procset graphviz 0 0
/coord-font-family /Times-Roman def
/default-font-family /Times-Roman def
/coordfont coord-font-family findfont 8 scalefont def

/InvScaleFactor 1.0 def
/set_scale {
       dup 1 exch div /InvScaleFactor exch def
       scale
} bind def

% styles
/solid { [] 0 setdash } bind def
/dashed { [9 InvScaleFactor mul dup ] 0 setdash } bind def
/dotted { [1 InvScaleFactor mul 6 InvScaleFactor mul] 0 setdash } bind def
/invis {/fill {newpath} def /stroke {newpath} def /show {pop newpath} def} bind def
/bold { 2 setlinewidth } bind def
/filled { } bind def
/unfilled { } bind def
/rounded { } bind def
/diagonals { } bind def
/tapered { } bind def

% hooks for setting color 
/nodecolor { sethsbcolor } bind def
/edgecolor { sethsbcolor } bind def
/graphcolor { sethsbcolor } bind def
/nopcolor {pop pop pop} bind def

/beginpage {	% i j npages
	/npages exch def
	/j exch def
	/i exch def
	/str 10 string def
	npages 1 gt {
		gsave
			coordfont setfont
			0 0 moveto
			(\() show i str cvs show (,) show j str cvs show (\)) show
		grestore
	} if
} bind def

/set_font {
	findfont exch
	scalefont setfont
} def

% draw text fitted to its expected width
/alignedtext {			% width text
	/text exch def
	/width exch def
	gsave
		width 0 gt {
			[] 0 setdash
			text stringwidth pop width exch sub text length div 0 text ashow
		} if
	grestore
} def

/boxprim {				% xcorner ycorner xsize ysize
		4 2 roll
		moveto
		2 copy
		exch 0 rlineto
		0 exch rlineto
		pop neg 0 rlineto
		closepath
} bind def

/ellipse_path {
	/ry exch def
	/rx exch def
	/y exch def
	/x exch def
	matrix currentmatrix
	newpath
	x y translate
	rx ry scale
	0 0 1 0 360 arc
	setmatrix
} bind def

/endpage { showpage } bind def
/showpage { } def

/layercolorseq
	[	% layer color sequence - darkest to lightest
		[0 0 0]
		[.2 .8 .8]
		[.4 .8 .8]
		[.6 .8 .8]
		[.8 .8 .8]
	]
def

/layerlen layercolorseq length def

/setlayer {/maxlayer exch def /curlayer exch def
	layercolorseq curlayer 1 sub layerlen mod get
	aload pop sethsbcolor
	/nodecolor {nopcolor} def
	/edgecolor {nopcolor} def
	/graphcolor {nopcolor} def
} bind def

/onlayer { curlayer ne {invis} if } def

/onlayers {
	/myupper exch def
	/mylower exch def
	curlayer mylower lt
	curlayer myupper gt
	or
	{invis} if
} def

/curlayer 0 def

%%EndResource
%%EndProlog
%%BeginSetup
14 default-font-family set_font
% /arrowlength 10 def
% /arrowwidth 5 def

% make sure pdfmark is harmless for PS-interpreters other than Distiller
/pdfmark where {pop} {userdict /pdfmark /cleartomark load put} ifelse
% make '<<' and '>>' safe on PS Level 1 devices
/languagelevel where {pop languagelevel}{1} ifelse
2 lt {
    userdict (<<) cvn ([) cvn load put
    userdict (>>) cvn ([) cvn load put
} if

%%EndSetup
setupLatin1
%%Page: 1 1
%%PageBoundingBox: 36 36 241 285
%%PageOrientation: Portrait
0 0 1 beginpage
gsave
36 36 205 249 boxprim clip newpath
1 1 set_scale 0 rotate 40 40 translate
% 0
gsave
0 0 0 nodecolor
93.7591 88.5711 1.8 1.8 ellipse_path fill
1 setlinewidth
filled
0 0 0 nodecolor
93.7591 88.5711 1.8 1.8 ellipse_path stroke
grestore
% 1
gsave
0 0 0 nodecolor
123.7814 129.7286 1.8 1.8 ellipse_path fill
1 setlinewidth
filled
0 0 0 nodecolor
123.7814 129.7286 1.8 1.8 ellipse_path stroke
grestore
% 0--1
gsave
1 setlinewidth
0 0 0 edgecolor
newpath 95.0492 90.3396 moveto
99.9875 97.1095 117.6576 121.3334 122.5296 128.0125 curveto
stroke
grestore
% 2
gsave
0 0 0 nodecolor
100.148 102.8207 1.8 1.8 ellipse_path fill
1 setlinewidth
filled
0 0 0 nodecolor
100.148 102.8207 1.8 1.8 ellipse_path stroke
grestore
% 0--2
gsave
1 setlinewidth
0 0 0 edgecolor
newpath 94.5425 90.3184 moveto
95.7687 93.0532 98.1281 98.3154 99.3582 101.0591 curveto
stroke
grestore
% 3
gsave
0 0 0 nodecolor
89.1834 114.6076 1.8 1.8 ellipse_path fill
1 setlinewidth
filled
0 0 0 nodecolor
89.1834 114.6076 1.8 1.8 ellipse_path stroke
grestore
% 0--3
gsave
1 setlinewidth
0 0 0 edgecolor
newpath 93.4001 90.6141 moveto
92.5405 95.5052 90.3733 107.8372 89.5283 112.6453 curveto
stroke
grestore
% 4
gsave
0 0 0 nodecolor
112.1354 128.3853 1.8 1.8 ellipse_path fill
1 setlinewidth
filled
0 0 0 nodecolor
112.1354 128.3853 1.8 1.8 ellipse_path stroke
grestore
% 0--4
gsave
1 setlinewidth
0 0 0 edgecolor
newpath 94.5488 90.2818 moveto
97.5715 96.8309 108.3871 120.2641 111.3692 126.7252 curveto
stroke
grestore
% 8
gsave
0 0 0 nodecolor
100.4535 126.2869 1.8 1.8 ellipse_path fill
1 setlinewidth
filled
0 0 0 nodecolor
100.4535 126.2869 1.8 1.8 ellipse_path stroke
grestore
% 0--8
gsave
1 setlinewidth
0 0 0 edgecolor
newpath 94.1191 90.5988 moveto
95.2923 97.2088 98.9953 118.0713 100.1238 124.4295 curveto
stroke
grestore
% 9
gsave
0 0 0 nodecolor
97.612 76.9597 1.8 1.8 ellipse_path fill
1 setlinewidth
filled
0 0 0 nodecolor
97.612 76.9597 1.8 1.8 ellipse_path stroke
grestore
% 0--9
gsave
1 setlinewidth
0 0 0 edgecolor
newpath 94.3611 86.7568 moveto
95.0723 84.6137 96.25 81.0642 96.9757 78.8771 curveto
stroke
grestore
% 19
gsave
0 0 0 nodecolor
36.2946 70.3526 1.8 1.8 ellipse_path fill
1 setlinewidth
filled
0 0 0 nodecolor
36.2946 70.3526 1.8 1.8 ellipse_path stroke
grestore
% 0--19
gsave
1 setlinewidth
0 0 0 edgecolor
newpath 91.8472 87.9649 moveto
83.1226 85.1989 47.1336 73.789 38.2726 70.9797 curveto
stroke
grestore
% 32
gsave
0 0 0 nodecolor
130.9586 68.3848 1.8 1.8 ellipse_path fill
1 setlinewidth
filled
0 0 0 nodecolor
130.9586 68.3848 1.8 1.8 ellipse_path stroke
grestore
% 0--32
gsave
1 setlinewidth
0 0 0 edgecolor
newpath 95.3576 87.7037 moveto
101.3652 84.4436 122.5799 72.9315 129.0627 69.4136 curveto
stroke
grestore
% 33
gsave
0 0 0 nodecolor
65.3772 122.6163 1.8 1.8 ellipse_path fill
1 setlinewidth
filled
0 0 0 nodecolor
65.3772 122.6163 1.8 1.8 ellipse_path stroke
grestore
% 0--33
gsave
1 setlinewidth
0 0 0 edgecolor
newpath 92.5396 90.034 moveto
87.8711 95.634 71.1665 115.6719 66.5606 121.1968 curveto
stroke
grestore
% 62
gsave
0 0 0 nodecolor
80.0877 144.7456 1.8 1.8 ellipse_path fill
1 setlinewidth
filled
0 0 0 nodecolor
80.0877 144.7456 1.8 1.8 ellipse_path stroke
grestore
% 0--62
gsave
1 setlinewidth
0 0 0 edgecolor
newpath 93.3043 90.4401 moveto
91.2286 98.9688 82.6665 134.1499 80.5583 142.8119 curveto
stroke
grestore
% 69
gsave
0 0 0 nodecolor
144.5282 93.6376 1.8 1.8 ellipse_path fill
1 setlinewidth
filled
0 0 0 nodecolor
144.5282 93.6376 1.8 1.8 ellipse_path stroke
grestore
% 0--69
gsave
1 setlinewidth
0 0 0 edgecolor
newpath 95.9406 88.7888 moveto
104.2916 89.6222 134.1725 92.6042 142.4114 93.4264 curveto
stroke
grestore
% 79
gsave
0 0 0 nodecolor
92.7179 35.3335 1.8 1.8 ellipse_path fill
1 setlinewidth
filled
0 0 0 nodecolor
92.7179 35.3335 1.8 1.8 ellipse_path stroke
grestore
% 0--79
gsave
1 setlinewidth
0 0 0 edgecolor
newpath 93.7144 86.2835 moveto
93.5431 77.5265 92.9303 46.1927 92.7613 37.5532 curveto
stroke
grestore
% 91
gsave
0 0 0 nodecolor
61.2539 48.4447 1.8 1.8 ellipse_path fill
1 setlinewidth
filled
0 0 0 nodecolor
61.2539 48.4447 1.8 1.8 ellipse_path stroke
grestore
% 0--91
gsave
1 setlinewidth
0 0 0 edgecolor
newpath 92.3624 86.8469 moveto
87.0156 80.2465 67.8842 56.6295 62.6092 50.1178 curveto
stroke
grestore
% 99
gsave
0 0 0 nodecolor
115.3842 141.3397 1.8 1.8 ellipse_path fill
1 setlinewidth
filled
0 0 0 nodecolor
115.3842 141.3397 1.8 1.8 ellipse_path stroke
grestore
% 0--99
gsave
1 setlinewidth
0 0 0 edgecolor
newpath 94.4786 90.3268 moveto
97.7619 98.3384 111.3052 131.3864 114.6398 139.5233 curveto
stroke
grestore
% 1--2
gsave
1 setlinewidth
0 0 0 edgecolor
newpath 122.5108 128.2819 moveto
118.4456 123.6534 105.7772 109.2298 101.5425 104.4084 curveto
stroke
grestore
% 1--3
gsave
1 setlinewidth
0 0 0 edgecolor
newpath 121.9213 128.9156 moveto
115.8578 126.2656 96.7199 117.9014 90.8873 115.3523 curveto
stroke
grestore
% 1--4
gsave
1 setlinewidth
0 0 0 edgecolor
newpath 121.9617 129.5187 moveto
119.8122 129.2707 116.2521 128.8601 114.0585 128.6071 curveto
stroke
grestore
% 5
gsave
0 0 0 nodecolor
114.3009 177.182 1.8 1.8 ellipse_path fill
1 setlinewidth
filled
0 0 0 nodecolor
114.3009 177.182 1.8 1.8 ellipse_path stroke
grestore
% 1--5
gsave
1 setlinewidth
0 0 0 edgecolor
newpath 123.3741 131.7676 moveto
121.8146 139.5732 116.2347 167.5026 114.6962 175.2034 curveto
stroke
grestore
% 7
gsave
0 0 0 nodecolor
65.3376 102.1646 1.8 1.8 ellipse_path fill
1 setlinewidth
filled
0 0 0 nodecolor
65.3376 102.1646 1.8 1.8 ellipse_path stroke
grestore
% 1--7
gsave
1 setlinewidth
0 0 0 edgecolor
newpath 121.8369 128.8115 moveto
112.9636 124.6265 76.3613 107.3637 67.3494 103.1134 curveto
stroke
grestore
% 1--8
gsave
1 setlinewidth
0 0 0 edgecolor
newpath 121.9509 129.4585 moveto
117.6546 128.8246 106.9503 127.2454 102.4728 126.5848 curveto
stroke
grestore
% 11
gsave
0 0 0 nodecolor
123.3646 112.0983 1.8 1.8 ellipse_path fill
1 setlinewidth
filled
0 0 0 nodecolor
123.3646 112.0983 1.8 1.8 ellipse_path stroke
grestore
% 1--11
gsave
1 setlinewidth
0 0 0 edgecolor
newpath 123.7368 127.8418 moveto
123.6562 124.4307 123.4871 117.2805 123.4076 113.9186 curveto
stroke
grestore
% 13
gsave
0 0 0 nodecolor
91.9758 161.6935 1.8 1.8 ellipse_path fill
1 setlinewidth
filled
0 0 0 nodecolor
91.9758 161.6935 1.8 1.8 ellipse_path stroke
grestore
% 1--13
gsave
1 setlinewidth
0 0 0 edgecolor
newpath 122.4148 131.1021 moveto
117.1831 136.36 98.4634 155.1734 93.302 160.3607 curveto
stroke
grestore
% 15
gsave
0 0 0 nodecolor
119.3519 79.6065 1.8 1.8 ellipse_path fill
1 setlinewidth
filled
0 0 0 nodecolor
119.3519 79.6065 1.8 1.8 ellipse_path stroke
grestore
% 1--15
gsave
1 setlinewidth
0 0 0 edgecolor
newpath 123.5911 127.5749 moveto
122.8625 119.3303 120.2554 89.8302 119.5366 81.6963 curveto
stroke
grestore
% 44
gsave
0 0 0 nodecolor
144.8076 157.5957 1.8 1.8 ellipse_path fill
1 setlinewidth
filled
0 0 0 nodecolor
144.8076 157.5957 1.8 1.8 ellipse_path stroke
grestore
% 1--44
gsave
1 setlinewidth
0 0 0 edgecolor
newpath 124.9119 131.2268 moveto
128.5286 136.0202 139.7994 150.9581 143.5669 155.9514 curveto
stroke
grestore
% 47
gsave
0 0 0 nodecolor
115.4198 152.9613 1.8 1.8 ellipse_path fill
1 setlinewidth
filled
0 0 0 nodecolor
115.4198 152.9613 1.8 1.8 ellipse_path stroke
grestore
% 1--47
gsave
1 setlinewidth
0 0 0 edgecolor
newpath 123.1253 131.5516 moveto
121.5545 135.916 117.5941 146.92 116.05 151.2103 curveto
stroke
grestore
% 49
gsave
0 0 0 nodecolor
169.7852 112.5918 1.8 1.8 ellipse_path fill
1 setlinewidth
filled
0 0 0 nodecolor
169.7852 112.5918 1.8 1.8 ellipse_path stroke
grestore
% 1--49
gsave
1 setlinewidth
0 0 0 edgecolor
newpath 125.7582 128.9922 moveto
133.3253 126.1734 160.4015 116.0873 167.867 113.3064 curveto
stroke
grestore
% 53
gsave
0 0 0 nodecolor
169.7826 141.4318 1.8 1.8 ellipse_path fill
1 setlinewidth
filled
0 0 0 nodecolor
169.7826 141.4318 1.8 1.8 ellipse_path stroke
grestore
% 1--53
gsave
1 setlinewidth
0 0 0 edgecolor
newpath 125.758 130.2314 moveto
133.3248 132.1565 160.3994 139.0446 167.8645 140.9438 curveto
stroke
grestore
% 60
gsave
0 0 0 nodecolor
103.4189 145.2066 1.8 1.8 ellipse_path fill
1 setlinewidth
filled
0 0 0 nodecolor
103.4189 145.2066 1.8 1.8 ellipse_path stroke
grestore
% 1--60
gsave
1 setlinewidth
0 0 0 edgecolor
newpath 122.1836 130.9431 moveto
118.4334 133.7937 109.0899 140.896 105.1815 143.8668 curveto
stroke
grestore
% 71
gsave
0 0 0 nodecolor
158.1788 114.5138 1.8 1.8 ellipse_path fill
1 setlinewidth
filled
0 0 0 nodecolor
158.1788 114.5138 1.8 1.8 ellipse_path stroke
grestore
% 1--71
gsave
1 setlinewidth
0 0 0 edgecolor
newpath 125.6308 128.9105 moveto
131.6591 126.2441 150.6861 117.828 156.4848 115.2631 curveto
stroke
grestore
% 2--3
gsave
1 setlinewidth
0 0 0 edgecolor
newpath 98.8035 104.266 moveto
96.6991 106.5282 92.65 110.881 90.5389 113.1505 curveto
stroke
grestore
% 2--4
gsave
1 setlinewidth
0 0 0 edgecolor
newpath 100.9345 104.498 moveto
103.1014 109.1191 109.1414 122.0002 111.3303 126.6682 curveto
stroke
grestore
% 6
gsave
0 0 0 nodecolor
58.875 72.7234 1.8 1.8 ellipse_path fill
1 setlinewidth
filled
0 0 0 nodecolor
58.875 72.7234 1.8 1.8 ellipse_path stroke
grestore
% 2--6
gsave
1 setlinewidth
0 0 0 edgecolor
newpath 98.3745 101.5274 moveto
91.5855 96.5767 67.2937 78.8625 60.5959 73.9783 curveto
stroke
grestore
% 2--9
gsave
1 setlinewidth
0 0 0 edgecolor
newpath 99.949 100.7914 moveto
99.4726 95.9333 98.2714 83.6845 97.8031 78.9088 curveto
stroke
grestore
% 12
gsave
0 0 0 nodecolor
88.5452 100.1845 1.8 1.8 ellipse_path fill
1 setlinewidth
filled
0 0 0 nodecolor
88.5452 100.1845 1.8 1.8 ellipse_path stroke
grestore
% 2--12
gsave
1 setlinewidth
0 0 0 edgecolor
newpath 98.335 102.4088 moveto
96.1935 101.9222 92.6466 101.1163 90.4612 100.6198 curveto
stroke
grestore
% 2--13
gsave
1 setlinewidth
0 0 0 edgecolor
newpath 99.8761 104.7795 moveto
98.6353 113.7179 93.5173 150.5889 92.2571 159.667 curveto
stroke
grestore
% 17
gsave
0 0 0 nodecolor
76.9791 111.7931 1.8 1.8 ellipse_path fill
1 setlinewidth
filled
0 0 0 nodecolor
76.9791 111.7931 1.8 1.8 ellipse_path stroke
grestore
% 2--17
gsave
1 setlinewidth
0 0 0 edgecolor
newpath 98.33 103.5247 moveto
93.9775 105.2103 83.0038 109.46 78.7252 111.1169 curveto
stroke
grestore
% 34
gsave
0 0 0 nodecolor
158.1771 136.0232 1.8 1.8 ellipse_path fill
1 setlinewidth
filled
0 0 0 nodecolor
158.1771 136.0232 1.8 1.8 ellipse_path stroke
grestore
% 2--34
gsave
1 setlinewidth
0 0 0 edgecolor
newpath 102.0787 103.9254 moveto
110.889 108.9664 147.2316 129.7606 156.1796 134.8803 curveto
stroke
grestore
% 64
gsave
0 0 0 nodecolor
46.5702 82.2976 1.8 1.8 ellipse_path fill
1 setlinewidth
filled
0 0 0 nodecolor
46.5702 82.2976 1.8 1.8 ellipse_path stroke
grestore
% 2--64
gsave
1 setlinewidth
0 0 0 edgecolor
newpath 98.3654 102.1378 moveto
90.2308 99.0219 56.676 86.1687 48.4144 83.0041 curveto
stroke
grestore
% 3--4
gsave
1 setlinewidth
0 0 0 edgecolor
newpath 90.9844 115.6887 moveto
95.2115 118.2262 105.7433 124.5482 110.1487 127.1927 curveto
stroke
grestore
% 10
gsave
0 0 0 nodecolor
74.0418 83.5902 1.8 1.8 ellipse_path fill
1 setlinewidth
filled
0 0 0 nodecolor
74.0418 83.5902 1.8 1.8 ellipse_path stroke
grestore
% 3--10
gsave
1 setlinewidth
0 0 0 edgecolor
newpath 88.3693 112.94 moveto
85.7648 107.6047 77.6484 90.9782 74.9353 85.4204 curveto
stroke
grestore
% 14
gsave
0 0 0 nodecolor
78.8558 133.1412 1.8 1.8 ellipse_path fill
1 setlinewidth
filled
0 0 0 nodecolor
78.8558 133.1412 1.8 1.8 ellipse_path stroke
grestore
% 3--14
gsave
1 setlinewidth
0 0 0 edgecolor
newpath 88.2303 116.318 moveto
86.3128 119.7591 81.9984 127.5016 79.961 131.1577 curveto
stroke
grestore
% 20
gsave
0 0 0 nodecolor
85.9956 70.0539 1.8 1.8 ellipse_path fill
1 setlinewidth
filled
0 0 0 nodecolor
85.9956 70.0539 1.8 1.8 ellipse_path stroke
grestore
% 3--20
gsave
1 setlinewidth
0 0 0 edgecolor
newpath 89.0464 112.6932 moveto
88.5221 105.3646 86.6458 79.1418 86.1285 71.9116 curveto
stroke
grestore
% 24
gsave
0 0 0 nodecolor
134.9673 116.8631 1.8 1.8 ellipse_path fill
1 setlinewidth
filled
0 0 0 nodecolor
134.9673 116.8631 1.8 1.8 ellipse_path stroke
grestore
% 3--24
gsave
1 setlinewidth
0 0 0 edgecolor
newpath 91.1507 114.7045 moveto
98.6817 115.0755 125.6284 116.403 133.0583 116.7691 curveto
stroke
grestore
% 27
gsave
0 0 0 nodecolor
53.7673 117.5163 1.8 1.8 ellipse_path fill
1 setlinewidth
filled
0 0 0 nodecolor
53.7673 117.5163 1.8 1.8 ellipse_path stroke
grestore
% 3--27
gsave
1 setlinewidth
0 0 0 edgecolor
newpath 87.2793 114.764 moveto
81.1874 115.2643 62.203 116.8235 55.857 117.3446 curveto
stroke
grestore
% 3--32
gsave
1 setlinewidth
0 0 0 edgecolor
newpath 90.5733 113.0697 moveto
96.9159 106.0519 123.079 77.1034 129.5206 69.9759 curveto
stroke
grestore
% 3--33
gsave
1 setlinewidth
0 0 0 edgecolor
newpath 87.3154 115.236 moveto
82.8433 116.7405 71.5676 120.5338 67.1714 122.0127 curveto
stroke
grestore
% 42
gsave
0 0 0 nodecolor
37.344 138.6286 1.8 1.8 ellipse_path fill
1 setlinewidth
filled
0 0 0 nodecolor
37.344 138.6286 1.8 1.8 ellipse_path stroke
grestore
% 3--42
gsave
1 setlinewidth
0 0 0 edgecolor
newpath 87.4586 115.4068 moveto
79.5881 119.0538 47.122 134.0977 39.1284 137.8017 curveto
stroke
grestore
% 3--47
gsave
1 setlinewidth
0 0 0 edgecolor
newpath 90.3108 116.2556 moveto
94.6264 122.5644 110.0682 145.1381 114.3259 151.3621 curveto
stroke
grestore
% 50
gsave
0 0 0 nodecolor
133.0845 155.9745 1.8 1.8 ellipse_path fill
1 setlinewidth
filled
0 0 0 nodecolor
133.0845 155.9745 1.8 1.8 ellipse_path stroke
grestore
% 3--50
gsave
1 setlinewidth
0 0 0 edgecolor
newpath 90.6441 115.984 moveto
97.3094 122.2645 124.8039 148.1719 131.5734 154.5506 curveto
stroke
grestore
% 3--69
gsave
1 setlinewidth
0 0 0 edgecolor
newpath 91.0248 113.9099 moveto
99.4276 110.7261 134.0891 97.593 142.6231 94.3594 curveto
stroke
grestore
% 74
gsave
0 0 0 nodecolor
50.3632 129.1695 1.8 1.8 ellipse_path fill
1 setlinewidth
filled
0 0 0 nodecolor
50.3632 129.1695 1.8 1.8 ellipse_path stroke
grestore
% 3--74
gsave
1 setlinewidth
0 0 0 edgecolor
newpath 87.0963 115.3905 moveto
80.2928 117.9426 58.8194 125.9975 52.2751 128.4523 curveto
stroke
grestore
% 84
gsave
0 0 0 nodecolor
68.4558 152.4974 1.8 1.8 ellipse_path fill
1 setlinewidth
filled
0 0 0 nodecolor
68.4558 152.4974 1.8 1.8 ellipse_path stroke
grestore
% 3--84
gsave
1 setlinewidth
0 0 0 edgecolor
newpath 88.2928 116.2357 moveto
84.8833 122.4682 72.6838 144.7688 69.3201 150.9175 curveto
stroke
grestore
% 4--8
gsave
1 setlinewidth
0 0 0 edgecolor
newpath 110.3101 128.0574 moveto
108.154 127.6701 104.5829 127.0287 102.3825 126.6334 curveto
stroke
grestore
% 4--11
gsave
1 setlinewidth
0 0 0 edgecolor
newpath 113.1717 126.8822 moveto
115.2566 123.8582 119.9477 117.0543 122.1629 113.8413 curveto
stroke
grestore
% 4--24
gsave
1 setlinewidth
0 0 0 edgecolor
newpath 113.927 127.4812 moveto
118.132 125.3591 128.6087 120.072 132.991 117.8605 curveto
stroke
grestore
% 30
gsave
0 0 0 nodecolor
119.7679 164.5816 1.8 1.8 ellipse_path fill
1 setlinewidth
filled
0 0 0 nodecolor
119.7679 164.5816 1.8 1.8 ellipse_path stroke
grestore
% 4--30
gsave
1 setlinewidth
0 0 0 edgecolor
newpath 112.5458 130.3313 moveto
113.8834 136.675 118.1054 156.697 119.3921 162.799 curveto
stroke
grestore
% 4--33
gsave
1 setlinewidth
0 0 0 edgecolor
newpath 110.1263 128.1374 moveto
102.435 127.1885 74.9148 123.793 67.3269 122.8568 curveto
stroke
grestore
% 4--34
gsave
1 setlinewidth
0 0 0 edgecolor
newpath 114.1138 128.7135 moveto
121.6872 129.9698 148.7857 134.4653 156.2574 135.7048 curveto
stroke
grestore
% 38
gsave
0 0 0 nodecolor
56.7564 140.9549 1.8 1.8 ellipse_path fill
1 setlinewidth
filled
0 0 0 nodecolor
56.7564 140.9549 1.8 1.8 ellipse_path stroke
grestore
% 4--38
gsave
1 setlinewidth
0 0 0 edgecolor
newpath 110.2929 128.8035 moveto
101.8849 130.7119 67.202 138.584 58.6627 140.5222 curveto
stroke
grestore
% 52
gsave
0 0 0 nodecolor
142.5641 77.0485 1.8 1.8 ellipse_path fill
1 setlinewidth
filled
0 0 0 nodecolor
142.5641 77.0485 1.8 1.8 ellipse_path stroke
grestore
% 4--52
gsave
1 setlinewidth
0 0 0 edgecolor
newpath 113.1478 126.6772 moveto
117.7677 118.883 136.8246 86.7317 141.5166 78.8157 curveto
stroke
grestore
% 59
gsave
0 0 0 nodecolor
156.1339 83.7422 1.8 1.8 ellipse_path fill
1 setlinewidth
filled
0 0 0 nodecolor
156.1339 83.7422 1.8 1.8 ellipse_path stroke
grestore
% 4--59
gsave
1 setlinewidth
0 0 0 edgecolor
newpath 113.5993 126.8999 moveto
120.2795 120.1219 147.8349 92.1628 154.6194 85.2789 curveto
stroke
grestore
% 81
gsave
0 0 0 nodecolor
91.752 146.8375 1.8 1.8 ellipse_path fill
1 setlinewidth
filled
0 0 0 nodecolor
91.752 146.8375 1.8 1.8 ellipse_path stroke
grestore
% 4--81
gsave
1 setlinewidth
0 0 0 edgecolor
newpath 110.798 129.596 moveto
107.1135 132.9314 96.843 142.2289 93.1211 145.5981 curveto
stroke
grestore
% 5--13
gsave
1 setlinewidth
0 0 0 edgecolor
newpath 112.549 175.9666 moveto
108.4374 173.1141 98.1933 166.007 93.9083 163.0342 curveto
stroke
grestore
% 5--30
gsave
1 setlinewidth
0 0 0 edgecolor
newpath 115.1551 175.2132 moveto
116.2122 172.7768 117.9961 168.6653 119.0078 166.3336 curveto
stroke
grestore
% 43
gsave
0 0 0 nodecolor
131.7446 203.265 1.8 1.8 ellipse_path fill
1 setlinewidth
filled
0 0 0 nodecolor
131.7446 203.265 1.8 1.8 ellipse_path stroke
grestore
% 5--43
gsave
1 setlinewidth
0 0 0 edgecolor
newpath 115.4454 178.8934 moveto
118.5985 183.6081 127.3879 196.7505 130.573 201.5131 curveto
stroke
grestore
% 5--50
gsave
1 setlinewidth
0 0 0 edgecolor
newpath 115.5333 175.7905 moveto
118.9286 171.957 128.3931 161.2713 131.8229 157.3989 curveto
stroke
grestore
% 56
gsave
0 0 0 nodecolor
159.1861 159.2375 1.8 1.8 ellipse_path fill
1 setlinewidth
filled
0 0 0 nodecolor
159.1861 159.2375 1.8 1.8 ellipse_path stroke
grestore
% 5--56
gsave
1 setlinewidth
0 0 0 edgecolor
newpath 116.2295 176.4109 moveto
123.6127 173.4592 150.0306 162.8978 157.3146 159.9857 curveto
stroke
grestore
% 5--62
gsave
1 setlinewidth
0 0 0 edgecolor
newpath 112.8308 175.7882 moveto
107.2031 170.4528 87.0664 151.3619 81.5143 146.098 curveto
stroke
grestore
% 86
gsave
0 0 0 nodecolor
103.7858 195.491 1.8 1.8 ellipse_path fill
1 setlinewidth
filled
0 0 0 nodecolor
103.7858 195.491 1.8 1.8 ellipse_path stroke
grestore
% 5--86
gsave
1 setlinewidth
0 0 0 edgecolor
newpath 113.3305 178.8716 moveto
111.3782 182.271 106.9855 189.9197 104.9111 193.5316 curveto
stroke
grestore
% 6--8
gsave
1 setlinewidth
0 0 0 edgecolor
newpath 60.2584 74.5056 moveto
66.6838 82.7831 93.5472 117.3899 99.3468 124.8611 curveto
stroke
grestore
% 6--9
gsave
1 setlinewidth
0 0 0 edgecolor
newpath 60.9576 72.9512 moveto
67.7465 73.6936 89.1739 76.0369 95.7042 76.7511 curveto
stroke
grestore
% 6--33
gsave
1 setlinewidth
0 0 0 edgecolor
newpath 59.1544 74.8672 moveto
60.2239 83.0741 64.0509 112.4393 65.1061 120.536 curveto
stroke
grestore
% 75
gsave
0 0 0 nodecolor
93.6384 46.9467 1.8 1.8 ellipse_path fill
1 setlinewidth
filled
0 0 0 nodecolor
93.6384 46.9467 1.8 1.8 ellipse_path stroke
grestore
% 6--75
gsave
1 setlinewidth
0 0 0 edgecolor
newpath 60.3687 71.6158 moveto
66.0869 67.3758 86.5475 52.2045 92.189 48.0214 curveto
stroke
grestore
% 7--10
gsave
1 setlinewidth
0 0 0 edgecolor
newpath 66.1409 100.4505 moveto
67.757 97.0018 71.3932 89.2422 73.1103 85.578 curveto
stroke
grestore
% 7--12
gsave
1 setlinewidth
0 0 0 edgecolor
newpath 67.1587 102.0092 moveto
71.4329 101.6445 82.0819 100.7359 86.5364 100.3559 curveto
stroke
grestore
% 7--14
gsave
1 setlinewidth
0 0 0 edgecolor
newpath 66.0644 103.83 moveto
68.3897 109.1583 75.6359 125.7629 78.0581 131.3134 curveto
stroke
grestore
% 7--20
gsave
1 setlinewidth
0 0 0 edgecolor
newpath 66.4483 100.4382 moveto
70.0687 94.8106 81.4956 77.0486 84.9782 71.6354 curveto
stroke
grestore
% 21
gsave
0 0 0 nodecolor
21.7242 86.4329 1.8 1.8 ellipse_path fill
1 setlinewidth
filled
0 0 0 nodecolor
21.7242 86.4329 1.8 1.8 ellipse_path stroke
grestore
% 7--21
gsave
1 setlinewidth
0 0 0 edgecolor
newpath 63.4636 101.4886 moveto
56.2896 98.9009 30.6203 89.6418 23.5427 87.0889 curveto
stroke
grestore
% 28
gsave
0 0 0 nodecolor
76.9449 95.1913 1.8 1.8 ellipse_path fill
1 setlinewidth
filled
0 0 0 nodecolor
76.9449 95.1913 1.8 1.8 ellipse_path stroke
grestore
% 7--28
gsave
1 setlinewidth
0 0 0 edgecolor
newpath 67.1513 101.075 moveto
69.3956 99.7267 73.183 97.4513 75.331 96.1609 curveto
stroke
grestore
% 46
gsave
0 0 0 nodecolor
111.7534 113.1016 1.8 1.8 ellipse_path fill
1 setlinewidth
filled
0 0 0 nodecolor
111.7534 113.1016 1.8 1.8 ellipse_path stroke
grestore
% 7--46
gsave
1 setlinewidth
0 0 0 edgecolor
newpath 67.332 102.6346 moveto
74.967 104.4336 102.2857 110.8707 109.8181 112.6456 curveto
stroke
grestore
% 7--62
gsave
1 setlinewidth
0 0 0 edgecolor
newpath 65.9714 103.9943 moveto
68.3977 110.9984 77.0791 136.0601 79.4727 142.9701 curveto
stroke
grestore
% 7--74
gsave
1 setlinewidth
0 0 0 edgecolor
newpath 64.3551 103.9365 moveto
61.6483 108.8179 54.1032 122.4247 51.369 127.3557 curveto
stroke
grestore
% 7--75
gsave
1 setlinewidth
0 0 0 edgecolor
newpath 66.2792 100.3274 moveto
70.576 91.9439 88.3003 57.3619 92.6643 48.8474 curveto
stroke
grestore
% 7--99
gsave
1 setlinewidth
0 0 0 edgecolor
newpath 67.0028 103.468 moveto
74.6011 109.4158 105.9444 133.9505 113.6615 139.9912 curveto
stroke
grestore
% 8--10
gsave
1 setlinewidth
0 0 0 edgecolor
newpath 99.3186 124.4523 moveto
94.9742 117.4291 79.4292 92.2993 75.1431 85.3705 curveto
stroke
grestore
% 8--11
gsave
1 setlinewidth
0 0 0 edgecolor
newpath 102.2513 125.1736 moveto
106.4709 122.5604 116.9839 116.0498 121.3814 113.3265 curveto
stroke
grestore
% 8--12
gsave
1 setlinewidth
0 0 0 edgecolor
newpath 99.6722 124.5743 moveto
97.5196 119.856 91.5194 106.7039 89.345 101.9377 curveto
stroke
grestore
% 8--14
gsave
1 setlinewidth
0 0 0 edgecolor
newpath 98.4604 126.9195 moveto
94.2833 128.2451 84.6672 131.2969 80.6601 132.5686 curveto
stroke
grestore
% 16
gsave
0 0 0 nodecolor
140.1478 105.25 1.8 1.8 ellipse_path fill
1 setlinewidth
filled
0 0 0 nodecolor
140.1478 105.25 1.8 1.8 ellipse_path stroke
grestore
% 8--16
gsave
1 setlinewidth
0 0 0 edgecolor
newpath 102.1591 125.383 moveto
108.6884 121.9226 132.0511 109.541 138.4927 106.1271 curveto
stroke
grestore
% 8--17
gsave
1 setlinewidth
0 0 0 edgecolor
newpath 98.9133 125.3359 moveto
94.6701 122.7161 82.8421 115.4131 78.5557 112.7666 curveto
stroke
grestore
% 8--27
gsave
1 setlinewidth
0 0 0 edgecolor
newpath 98.4475 125.9101 moveto
90.7681 124.4674 63.2902 119.3053 55.7139 117.882 curveto
stroke
grestore
% 8--28
gsave
1 setlinewidth
0 0 0 edgecolor
newpath 99.1896 124.6151 moveto
95.0696 119.1654 82.0658 101.9649 78.1027 96.7227 curveto
stroke
grestore
% 41
gsave
0 0 0 nodecolor
156.7961 147.6267 1.8 1.8 ellipse_path fill
1 setlinewidth
filled
0 0 0 nodecolor
156.7961 147.6267 1.8 1.8 ellipse_path stroke
grestore
% 8--41
gsave
1 setlinewidth
0 0 0 edgecolor
newpath 102.3281 126.9969 moveto
110.8824 130.2369 146.1688 143.6016 154.8567 146.8921 curveto
stroke
grestore
% 8--46
gsave
1 setlinewidth
0 0 0 edgecolor
newpath 101.8391 124.6702 moveto
104.0079 122.1395 108.1808 117.2704 110.3565 114.7316 curveto
stroke
grestore
% 8--64
gsave
1 setlinewidth
0 0 0 edgecolor
newpath 98.6607 124.8233 moveto
90.3337 118.0253 55.5203 89.6043 48.0045 83.4686 curveto
stroke
grestore
% 87
gsave
0 0 0 nodecolor
72.8581 176.8668 1.8 1.8 ellipse_path fill
1 setlinewidth
filled
0 0 0 nodecolor
72.8581 176.8668 1.8 1.8 ellipse_path stroke
grestore
% 8--87
gsave
1 setlinewidth
0 0 0 edgecolor
newpath 99.5354 127.9698 moveto
95.3457 135.6491 78.0632 167.3264 73.808 175.1257 curveto
stroke
grestore
% 8--99
gsave
1 setlinewidth
0 0 0 edgecolor
newpath 101.8314 127.6761 moveto
104.6036 130.4709 110.8409 136.7593 113.7863 139.7288 curveto
stroke
grestore
% 9--11
gsave
1 setlinewidth
0 0 0 edgecolor
newpath 98.7185 78.4696 moveto
102.9546 84.2495 118.1117 104.9309 122.2908 110.6332 curveto
stroke
grestore
% 9--17
gsave
1 setlinewidth
0 0 0 edgecolor
newpath 96.5026 78.8325 moveto
92.8866 84.9373 81.4735 104.2054 77.9952 110.0776 curveto
stroke
grestore
% 25
gsave
0 0 0 nodecolor
135.2375 45.496 1.8 1.8 ellipse_path fill
1 setlinewidth
filled
0 0 0 nodecolor
135.2375 45.496 1.8 1.8 ellipse_path stroke
grestore
% 9--25
gsave
1 setlinewidth
0 0 0 edgecolor
newpath 99.2287 75.6078 moveto
105.4177 70.4323 127.5627 51.9139 133.6686 46.8079 curveto
stroke
grestore
% 29
gsave
0 0 0 nodecolor
121.6716 56.7738 1.8 1.8 ellipse_path fill
1 setlinewidth
filled
0 0 0 nodecolor
121.6716 56.7738 1.8 1.8 ellipse_path stroke
grestore
% 9--29
gsave
1 setlinewidth
0 0 0 edgecolor
newpath 99.1906 75.6353 moveto
103.5396 71.9865 115.6624 61.8155 120.0556 58.1296 curveto
stroke
grestore
% 9--33
gsave
1 setlinewidth
0 0 0 edgecolor
newpath 96.5395 78.4788 moveto
91.6454 85.4107 71.4574 114.0045 66.4868 121.0447 curveto
stroke
grestore
% 40
gsave
0 0 0 nodecolor
45.4928 58.1316 1.8 1.8 ellipse_path fill
1 setlinewidth
filled
0 0 0 nodecolor
45.4928 58.1316 1.8 1.8 ellipse_path stroke
grestore
% 9--40
gsave
1 setlinewidth
0 0 0 edgecolor
newpath 95.8779 76.3333 moveto
87.9648 73.4747 55.3235 61.683 47.2868 58.7797 curveto
stroke
grestore
% 9--79
gsave
1 setlinewidth
0 0 0 edgecolor
newpath 97.4017 75.1711 moveto
96.6113 68.4485 93.8202 44.7093 92.9673 37.4549 curveto
stroke
grestore
% 80
gsave
0 0 0 nodecolor
69.8404 60.1657 1.8 1.8 ellipse_path fill
1 setlinewidth
filled
0 0 0 nodecolor
69.8404 60.1657 1.8 1.8 ellipse_path stroke
grestore
% 9--80
gsave
1 setlinewidth
0 0 0 edgecolor
newpath 95.7898 75.8578 moveto
90.6733 72.7638 76.2351 64.0327 71.4232 61.1228 curveto
stroke
grestore
% 83
gsave
0 0 0 nodecolor
109.236 18.548 1.8 1.8 ellipse_path fill
1 setlinewidth
filled
0 0 0 nodecolor
109.236 18.548 1.8 1.8 ellipse_path stroke
grestore
% 9--83
gsave
1 setlinewidth
0 0 0 edgecolor
newpath 97.9987 75.0163 moveto
99.7635 66.1479 107.0434 29.5657 108.8358 20.5587 curveto
stroke
grestore
% 10--15
gsave
1 setlinewidth
0 0 0 edgecolor
newpath 75.9887 83.419 moveto
83.4418 82.7638 110.1097 80.4191 117.4627 79.7726 curveto
stroke
grestore
% 45
gsave
0 0 0 nodecolor
42.3838 94.3193 1.8 1.8 ellipse_path fill
1 setlinewidth
filled
0 0 0 nodecolor
42.3838 94.3193 1.8 1.8 ellipse_path stroke
grestore
% 10--45
gsave
1 setlinewidth
0 0 0 edgecolor
newpath 71.9647 84.2942 moveto
66.1321 86.2709 49.6735 91.8488 44.1881 93.7078 curveto
stroke
grestore
% 55
gsave
0 0 0 nodecolor
109.1971 91.2092 1.8 1.8 ellipse_path fill
1 setlinewidth
filled
0 0 0 nodecolor
109.1971 91.2092 1.8 1.8 ellipse_path stroke
grestore
% 10--55
gsave
1 setlinewidth
0 0 0 edgecolor
newpath 75.9319 83.9998 moveto
81.979 85.3104 100.8236 89.3944 107.1228 90.7596 curveto
stroke
grestore
% 57
gsave
0 0 0 nodecolor
109.2433 67.518 1.8 1.8 ellipse_path fill
1 setlinewidth
filled
0 0 0 nodecolor
109.2433 67.518 1.8 1.8 ellipse_path stroke
grestore
% 10--57
gsave
1 setlinewidth
0 0 0 edgecolor
newpath 75.9344 82.7261 moveto
82.1037 79.9094 101.5754 71.019 107.5097 68.3095 curveto
stroke
grestore
% 78
gsave
0 0 0 nodecolor
97.6164 58.5556 1.8 1.8 ellipse_path fill
1 setlinewidth
filled
0 0 0 nodecolor
97.6164 58.5556 1.8 1.8 ellipse_path stroke
grestore
% 10--78
gsave
1 setlinewidth
0 0 0 edgecolor
newpath 75.3093 82.2443 moveto
79.3644 77.9381 92.0012 64.5186 96.2254 60.0328 curveto
stroke
grestore
% 94
gsave
0 0 0 nodecolor
42.1555 105.9336 1.8 1.8 ellipse_path fill
1 setlinewidth
filled
0 0 0 nodecolor
42.1555 105.9336 1.8 1.8 ellipse_path stroke
grestore
% 10--94
gsave
1 setlinewidth
0 0 0 edgecolor
newpath 72.3275 84.7915 moveto
66.7392 88.7073 49.1013 101.0665 43.7259 104.8332 curveto
stroke
grestore
% 11--15
gsave
1 setlinewidth
0 0 0 edgecolor
newpath 123.1013 109.9664 moveto
122.362 103.9803 120.2759 87.0881 119.5806 81.4582 curveto
stroke
grestore
% 26
gsave
0 0 0 nodecolor
181.66 118.1934 1.8 1.8 ellipse_path fill
1 setlinewidth
filled
0 0 0 nodecolor
181.66 118.1934 1.8 1.8 ellipse_path stroke
grestore
% 11--26
gsave
1 setlinewidth
0 0 0 edgecolor
newpath 125.3042 112.3011 moveto
134.1549 113.2265 170.6643 117.0437 179.6533 117.9836 curveto
stroke
grestore
% 11--30
gsave
1 setlinewidth
0 0 0 edgecolor
newpath 123.21 114.3534 moveto
122.6184 122.9864 120.5016 153.8762 119.9179 162.3933 curveto
stroke
grestore
% 11--44
gsave
1 setlinewidth
0 0 0 edgecolor
newpath 124.286 114.0533 moveto
127.8131 121.5371 140.4337 148.3153 143.9135 155.6986 curveto
stroke
grestore
% 11--47
gsave
1 setlinewidth
0 0 0 edgecolor
newpath 122.9374 114.2953 moveto
121.5451 121.4567 117.1504 144.0601 115.8111 150.9489 curveto
stroke
grestore
% 11--55
gsave
1 setlinewidth
0 0 0 edgecolor
newpath 122.2529 110.4592 moveto
119.6436 106.612 113.1427 97.0267 110.4234 93.0173 curveto
stroke
grestore
% 11--57
gsave
1 setlinewidth
0 0 0 edgecolor
newpath 122.7578 110.1827 moveto
120.435 102.8497 112.1237 76.6113 109.8321 69.3768 curveto
stroke
grestore
% 11--60
gsave
1 setlinewidth
0 0 0 edgecolor
newpath 122.2922 113.8783 moveto
118.7966 119.6808 107.7637 137.9946 104.4012 143.576 curveto
stroke
grestore
% 88
gsave
0 0 0 nodecolor
130.9631 83.445 1.8 1.8 ellipse_path fill
1 setlinewidth
filled
0 0 0 nodecolor
130.9631 83.445 1.8 1.8 ellipse_path stroke
grestore
% 11--88
gsave
1 setlinewidth
0 0 0 edgecolor
newpath 123.8632 110.2183 moveto
125.2367 105.0389 129.0653 90.6014 130.4528 85.3695 curveto
stroke
grestore
% 12--15
gsave
1 setlinewidth
0 0 0 edgecolor
newpath 90.2015 99.0781 moveto
95.6006 95.4717 112.6413 84.089 117.8347 80.6199 curveto
stroke
grestore
% 12--24
gsave
1 setlinewidth
0 0 0 edgecolor
newpath 90.5399 100.9011 moveto
98.1759 103.6446 125.4983 113.4611 133.0317 116.1677 curveto
stroke
grestore
% 12--38
gsave
1 setlinewidth
0 0 0 edgecolor
newpath 87.1793 101.9363 moveto
81.9504 108.6426 63.2406 132.6386 58.0818 139.2549 curveto
stroke
grestore
% 12--45
gsave
1 setlinewidth
0 0 0 edgecolor
newpath 86.5617 99.9325 moveto
78.9686 98.9677 51.7997 95.5156 44.3086 94.5638 curveto
stroke
grestore
% 12--57
gsave
1 setlinewidth
0 0 0 edgecolor
newpath 89.658 98.4282 moveto
93.2855 92.7032 104.7346 74.6337 108.2239 69.1268 curveto
stroke
grestore
% 12--81
gsave
1 setlinewidth
0 0 0 edgecolor
newpath 88.683 102.1891 moveto
89.2105 109.863 91.0979 137.3214 91.6183 144.8923 curveto
stroke
grestore
% 12--88
gsave
1 setlinewidth
0 0 0 edgecolor
newpath 90.3679 99.4652 moveto
97.3452 96.7117 122.3109 86.8594 129.1945 84.1429 curveto
stroke
grestore
% 12--99
gsave
1 setlinewidth
0 0 0 edgecolor
newpath 89.6985 101.9529 moveto
94.1132 108.7225 109.9096 132.945 114.2651 139.6237 curveto
stroke
grestore
% 13--14
gsave
1 setlinewidth
0 0 0 edgecolor
newpath 91.115 159.8201 moveto
88.7434 154.659 82.1327 140.2724 79.737 135.0589 curveto
stroke
grestore
% 18
gsave
0 0 0 nodecolor
42.8838 164.4823 1.8 1.8 ellipse_path fill
1 setlinewidth
filled
0 0 0 nodecolor
42.8838 164.4823 1.8 1.8 ellipse_path stroke
grestore
% 13--18
gsave
1 setlinewidth
0 0 0 edgecolor
newpath 89.8664 161.8134 moveto
81.7913 162.2721 52.8974 163.9134 44.9307 164.366 curveto
stroke
grestore
% 23
gsave
0 0 0 nodecolor
80.2105 201.2474 1.8 1.8 ellipse_path fill
1 setlinewidth
filled
0 0 0 nodecolor
80.2105 201.2474 1.8 1.8 ellipse_path stroke
grestore
% 13--23
gsave
1 setlinewidth
0 0 0 edgecolor
newpath 91.3433 163.8201 moveto
89.2813 170.7522 82.7733 192.6314 80.7899 199.2994 curveto
stroke
grestore
% 13--33
gsave
1 setlinewidth
0 0 0 edgecolor
newpath 90.8329 160.0144 moveto
86.4577 153.5866 70.8027 130.5871 66.4863 124.2456 curveto
stroke
grestore
% 13--38
gsave
1 setlinewidth
0 0 0 edgecolor
newpath 90.0823 160.5785 moveto
83.9099 156.944 64.4282 145.4724 58.4909 141.9762 curveto
stroke
grestore
% 13--46
gsave
1 setlinewidth
0 0 0 edgecolor
newpath 92.8257 159.6056 moveto
96.0789 151.6127 107.7192 123.0133 110.9288 115.1277 curveto
stroke
grestore
% 51
gsave
0 0 0 nodecolor
65.3209 195.8251 1.8 1.8 ellipse_path fill
1 setlinewidth
filled
0 0 0 nodecolor
65.3209 195.8251 1.8 1.8 ellipse_path stroke
grestore
% 13--51
gsave
1 setlinewidth
0 0 0 edgecolor
newpath 90.8305 163.1601 moveto
86.4461 168.7744 70.7579 188.863 66.4323 194.4019 curveto
stroke
grestore
% 13--62
gsave
1 setlinewidth
0 0 0 edgecolor
newpath 90.8788 160.1295 moveto
88.6715 156.9828 83.7052 149.9027 81.36 146.5593 curveto
stroke
grestore
% 90
gsave
0 0 0 nodecolor
67.4672 164.1862 1.8 1.8 ellipse_path fill
1 setlinewidth
filled
0 0 0 nodecolor
67.4672 164.1862 1.8 1.8 ellipse_path stroke
grestore
% 13--90
gsave
1 setlinewidth
0 0 0 edgecolor
newpath 90.0527 161.8891 moveto
85.4486 162.3574 73.8403 163.538 69.3144 163.9984 curveto
stroke
grestore
% 95
gsave
0 0 0 nodecolor
131.4481 172.2831 1.8 1.8 ellipse_path fill
1 setlinewidth
filled
0 0 0 nodecolor
131.4481 172.2831 1.8 1.8 ellipse_path stroke
grestore
% 13--95
gsave
1 setlinewidth
0 0 0 edgecolor
newpath 94.098 162.2629 moveto
101.0158 164.1187 122.8498 169.9764 129.5041 171.7616 curveto
stroke
grestore
% 13--99
gsave
1 setlinewidth
0 0 0 edgecolor
newpath 93.5117 160.3581 moveto
97.743 156.6789 109.5377 146.4233 113.8119 142.7067 curveto
stroke
grestore
% 14--15
gsave
1 setlinewidth
0 0 0 edgecolor
newpath 80.2032 131.36 moveto
86.3515 123.232 111.7135 89.7042 117.958 81.4492 curveto
stroke
grestore
% 14--46
gsave
1 setlinewidth
0 0 0 edgecolor
newpath 80.6245 132.0637 moveto
86.39 128.5517 104.5873 117.4669 110.1332 114.0886 curveto
stroke
grestore
% 15--16
gsave
1 setlinewidth
0 0 0 edgecolor
newpath 120.7164 81.289 moveto
124.5477 86.0134 135.3593 99.3452 138.9626 103.7885 curveto
stroke
grestore
% 15--17
gsave
1 setlinewidth
0 0 0 edgecolor
newpath 117.5312 80.9895 moveto
110.5613 86.2839 85.6221 105.2278 78.7458 110.4511 curveto
stroke
grestore
% 15--20
gsave
1 setlinewidth
0 0 0 edgecolor
newpath 117.5586 79.0929 moveto
111.8209 77.4497 93.9406 72.3292 87.9638 70.6176 curveto
stroke
grestore
% 15--24
gsave
1 setlinewidth
0 0 0 edgecolor
newpath 120.1915 81.6095 moveto
122.9282 88.139 131.5658 108.7475 134.1982 115.0283 curveto
stroke
grestore
% 15--25
gsave
1 setlinewidth
0 0 0 edgecolor
newpath 120.206 77.7725 moveto
122.99 71.7945 131.7771 52.9263 134.4551 47.1759 curveto
stroke
grestore
% 15--29
gsave
1 setlinewidth
0 0 0 edgecolor
newpath 119.534 77.8148 moveto
119.9612 73.6097 121.0256 63.1327 121.4708 58.7502 curveto
stroke
grestore
% 31
gsave
0 0 0 nodecolor
151.4401 65.3879 1.8 1.8 ellipse_path fill
1 setlinewidth
filled
0 0 0 nodecolor
151.4401 65.3879 1.8 1.8 ellipse_path stroke
grestore
% 15--31
gsave
1 setlinewidth
0 0 0 edgecolor
newpath 121.0771 78.842 moveto
126.5966 76.3963 143.7971 68.7746 149.5467 66.2269 curveto
stroke
grestore
% 15--32
gsave
1 setlinewidth
0 0 0 edgecolor
newpath 120.7751 78.2305 moveto
123.0028 76.0767 127.289 71.9327 129.5238 69.772 curveto
stroke
grestore
% 36
gsave
0 0 0 nodecolor
81.7383 55.3342 1.8 1.8 ellipse_path fill
1 setlinewidth
filled
0 0 0 nodecolor
81.7383 55.3342 1.8 1.8 ellipse_path stroke
grestore
% 15--36
gsave
1 setlinewidth
0 0 0 edgecolor
newpath 117.7357 78.5635 moveto
111.5487 74.571 89.4106 60.2852 83.3066 56.3463 curveto
stroke
grestore
% 15--52
gsave
1 setlinewidth
0 0 0 edgecolor
newpath 121.1734 79.4057 moveto
125.4484 78.9346 136.0995 77.7609 140.5548 77.2699 curveto
stroke
grestore
% 58
gsave
0 0 0 nodecolor
140.3916 136.9039 1.8 1.8 ellipse_path fill
1 setlinewidth
filled
0 0 0 nodecolor
140.3916 136.9039 1.8 1.8 ellipse_path stroke
grestore
% 15--58
gsave
1 setlinewidth
0 0 0 edgecolor
newpath 120.052 81.5128 moveto
123.2463 90.2121 136.4231 126.0964 139.6674 134.9316 curveto
stroke
grestore
% 15--59
gsave
1 setlinewidth
0 0 0 edgecolor
newpath 121.3295 79.8288 moveto
127.7757 80.5536 148.1217 82.8413 154.3224 83.5385 curveto
stroke
grestore
% 67
gsave
0 0 0 nodecolor
58.2409 90.5472 1.8 1.8 ellipse_path fill
1 setlinewidth
filled
0 0 0 nodecolor
58.2409 90.5472 1.8 1.8 ellipse_path stroke
grestore
% 15--67
gsave
1 setlinewidth
0 0 0 edgecolor
newpath 117.3187 79.9705 moveto
108.0404 81.6316 69.7677 88.4836 60.3445 90.1706 curveto
stroke
grestore
% 15--75
gsave
1 setlinewidth
0 0 0 edgecolor
newpath 117.9695 77.8505 moveto
113.463 72.1267 99.2396 54.0609 94.9048 48.5551 curveto
stroke
grestore
% 15--80
gsave
1 setlinewidth
0 0 0 edgecolor
newpath 117.2245 78.7711 moveto
109.0803 75.5733 79.9396 64.1312 71.9048 60.9763 curveto
stroke
grestore
% 97
gsave
0 0 0 nodecolor
163.0501 71.406 1.8 1.8 ellipse_path fill
1 setlinewidth
filled
0 0 0 nodecolor
163.0501 71.406 1.8 1.8 ellipse_path stroke
grestore
% 15--97
gsave
1 setlinewidth
0 0 0 edgecolor
newpath 121.2296 79.2541 moveto
128.4175 77.9052 154.1367 73.0787 161.228 71.7479 curveto
stroke
grestore
% 16--24
gsave
1 setlinewidth
0 0 0 edgecolor
newpath 139.3383 107.0645 moveto
138.3822 109.208 136.7985 112.758 135.8227 114.9454 curveto
stroke
grestore
% 39
gsave
0 0 0 nodecolor
182.1838 83.8133 1.8 1.8 ellipse_path fill
1 setlinewidth
filled
0 0 0 nodecolor
182.1838 83.8133 1.8 1.8 ellipse_path stroke
grestore
% 16--39
gsave
1 setlinewidth
0 0 0 edgecolor
newpath 141.954 104.3289 moveto
148.8685 100.8027 173.6094 88.1858 180.4311 84.7071 curveto
stroke
grestore
% 16--50
gsave
1 setlinewidth
0 0 0 edgecolor
newpath 139.8443 107.4295 moveto
138.6824 115.7732 134.5253 145.6279 133.379 153.8595 curveto
stroke
grestore
% 16--57
gsave
1 setlinewidth
0 0 0 edgecolor
newpath 138.8198 103.6287 moveto
133.7364 97.4221 115.5471 75.2144 110.5319 69.0913 curveto
stroke
grestore
% 16--71
gsave
1 setlinewidth
0 0 0 edgecolor
newpath 141.8118 106.1049 moveto
145.1596 107.8249 152.6922 111.6949 156.2492 113.5224 curveto
stroke
grestore
% 16--81
gsave
1 setlinewidth
0 0 0 edgecolor
newpath 138.5376 106.6337 moveto
131.1898 112.9477 100.8804 138.9932 93.4179 145.406 curveto
stroke
grestore
% 17--30
gsave
1 setlinewidth
0 0 0 edgecolor
newpath 78.4027 113.5495 moveto
85.0152 121.7073 112.6606 155.8133 118.629 163.1764 curveto
stroke
grestore
% 17--33
gsave
1 setlinewidth
0 0 0 edgecolor
newpath 75.5564 113.1203 moveto
73.3297 115.1975 69.0453 119.1944 66.8115 121.2783 curveto
stroke
grestore
% 17--45
gsave
1 setlinewidth
0 0 0 edgecolor
newpath 75.1191 110.8536 moveto
69.0561 107.7913 49.9197 98.1256 44.0876 95.1798 curveto
stroke
grestore
% 17--84
gsave
1 setlinewidth
0 0 0 edgecolor
newpath 76.5208 113.9816 moveto
75.0271 121.1152 70.3124 143.6308 68.8756 150.4927 curveto
stroke
grestore
% 18--94
gsave
1 setlinewidth
0 0 0 edgecolor
newpath 42.8595 162.5342 moveto
42.749 153.645 42.2929 116.9771 42.1806 107.949 curveto
stroke
grestore
% 19--40
gsave
1 setlinewidth
0 0 0 edgecolor
newpath 37.4224 68.8541 moveto
39.1878 66.5085 42.5846 61.9955 44.3557 59.6424 curveto
stroke
grestore
% 35
gsave
0 0 0 nodecolor
1.8 94.6062 1.8 1.8 ellipse_path fill
1 setlinewidth
filled
0 0 0 nodecolor
1.8 94.6062 1.8 1.8 ellipse_path stroke
grestore
% 21--35
gsave
1 setlinewidth
0 0 0 edgecolor
newpath 19.8855 87.1872 moveto
16.1862 88.7047 7.8627 92.1191 3.9322 93.7315 curveto
stroke
grestore
% 22
gsave
0 0 0 nodecolor
161.1211 227.4693 1.8 1.8 ellipse_path fill
1 setlinewidth
filled
0 0 0 nodecolor
161.1211 227.4693 1.8 1.8 ellipse_path stroke
grestore
% 22--43
gsave
1 setlinewidth
0 0 0 edgecolor
newpath 159.5417 226.168 moveto
154.3933 221.926 138.1437 208.5374 133.1914 204.457 curveto
stroke
grestore
% 24--26
gsave
1 setlinewidth
0 0 0 edgecolor
newpath 136.9736 116.9203 moveto
144.6541 117.1391 172.1358 117.9221 179.7131 118.1379 curveto
stroke
grestore
% 24--32
gsave
1 setlinewidth
0 0 0 edgecolor
newpath 134.795 114.7801 moveto
134.1356 106.8059 131.7763 78.2732 131.1258 70.4061 curveto
stroke
grestore
% 24--47
gsave
1 setlinewidth
0 0 0 edgecolor
newpath 133.9163 118.8039 moveto
130.4905 125.1303 119.6778 145.0981 116.3825 151.1835 curveto
stroke
grestore
% 24--53
gsave
1 setlinewidth
0 0 0 edgecolor
newpath 136.4632 117.9188 moveto
142.0859 121.8866 161.9408 135.898 168.0082 140.1796 curveto
stroke
grestore
% 24--55
gsave
1 setlinewidth
0 0 0 edgecolor
newpath 133.5818 115.4838 moveto
129.149 111.0711 115.3352 97.3196 110.7177 92.7229 curveto
stroke
grestore
% 24--56
gsave
1 setlinewidth
0 0 0 edgecolor
newpath 136.0079 118.6839 moveto
139.9917 125.654 154.246 150.5941 158.1763 157.4707 curveto
stroke
grestore
% 24--58
gsave
1 setlinewidth
0 0 0 edgecolor
newpath 135.4679 118.7126 moveto
136.475 122.4335 138.741 130.8057 139.8111 134.7592 curveto
stroke
grestore
% 24--69
gsave
1 setlinewidth
0 0 0 edgecolor
newpath 135.7175 115.0407 moveto
137.5136 110.6776 142.0421 99.677 143.8076 95.3881 curveto
stroke
grestore
% 24--71
gsave
1 setlinewidth
0 0 0 edgecolor
newpath 136.7886 116.6788 moveto
141.0636 116.2461 151.7145 115.1681 156.1697 114.7171 curveto
stroke
grestore
% 24--88
gsave
1 setlinewidth
0 0 0 edgecolor
newpath 134.752 115.0664 moveto
134.0632 109.3182 131.9169 91.4047 131.1994 85.4168 curveto
stroke
grestore
% 25--31
gsave
1 setlinewidth
0 0 0 edgecolor
newpath 136.5088 47.0569 moveto
139.4929 50.7204 146.9277 59.848 150.0376 63.6661 curveto
stroke
grestore
% 70
gsave
0 0 0 nodecolor
140.9841 8.0638 1.8 1.8 ellipse_path fill
1 setlinewidth
filled
0 0 0 nodecolor
140.9841 8.0638 1.8 1.8 ellipse_path stroke
grestore
% 25--70
gsave
1 setlinewidth
0 0 0 edgecolor
newpath 135.5464 43.4835 moveto
136.5536 36.9233 139.7323 16.2176 140.7011 9.9073 curveto
stroke
grestore
% 77
gsave
0 0 0 nodecolor
152.9334 14.8825 1.8 1.8 ellipse_path fill
1 setlinewidth
filled
0 0 0 nodecolor
152.9334 14.8825 1.8 1.8 ellipse_path stroke
grestore
% 25--77
gsave
1 setlinewidth
0 0 0 edgecolor
newpath 136.1889 43.8501 moveto
139.2327 38.5842 148.7185 22.1742 151.8892 16.6888 curveto
stroke
grestore
% 25--88
gsave
1 setlinewidth
0 0 0 edgecolor
newpath 135.0077 47.5363 moveto
134.2586 54.1871 131.8942 75.1785 131.1736 81.576 curveto
stroke
grestore
% 25--97
gsave
1 setlinewidth
0 0 0 edgecolor
newpath 136.7328 46.889 moveto
141.6071 51.4299 156.9916 65.762 161.6803 70.1299 curveto
stroke
grestore
% 26--41
gsave
1 setlinewidth
0 0 0 edgecolor
newpath 180.3232 119.7759 moveto
175.9657 124.9342 162.2122 141.2153 158.0207 146.1771 curveto
stroke
grestore
% 66
gsave
0 0 0 nodecolor
194.9029 94.5785 1.8 1.8 ellipse_path fill
1 setlinewidth
filled
0 0 0 nodecolor
194.9029 94.5785 1.8 1.8 ellipse_path stroke
grestore
% 26--66
gsave
1 setlinewidth
0 0 0 edgecolor
newpath 182.6991 116.3404 moveto
185.1869 111.9042 191.4593 100.7192 193.9048 96.3583 curveto
stroke
grestore
% 27--60
gsave
1 setlinewidth
0 0 0 edgecolor
newpath 55.4193 118.4376 moveto
62.9577 122.6417 94.0536 139.9836 101.7098 144.2534 curveto
stroke
grestore
% 27--67
gsave
1 setlinewidth
0 0 0 edgecolor
newpath 54.1183 115.4 moveto
54.9587 110.3338 57.0776 97.5601 57.9038 92.5798 curveto
stroke
grestore
% 76
gsave
0 0 0 nodecolor
16.8582 133.0292 1.8 1.8 ellipse_path fill
1 setlinewidth
filled
0 0 0 nodecolor
16.8582 133.0292 1.8 1.8 ellipse_path stroke
grestore
% 27--76
gsave
1 setlinewidth
0 0 0 edgecolor
newpath 51.7829 118.3503 moveto
45.3144 121.069 24.8981 129.65 18.6759 132.2652 curveto
stroke
grestore
% 27--80
gsave
1 setlinewidth
0 0 0 edgecolor
newpath 54.3021 115.6081 moveto
56.7424 106.9008 66.8087 70.9832 69.2871 62.1399 curveto
stroke
grestore
% 96
gsave
0 0 0 nodecolor
23.9349 104.5563 1.8 1.8 ellipse_path fill
1 setlinewidth
filled
0 0 0 nodecolor
23.9349 104.5563 1.8 1.8 ellipse_path stroke
grestore
% 27--96
gsave
1 setlinewidth
0 0 0 edgecolor
newpath 51.8099 116.6659 moveto
46.3137 114.2782 30.8041 107.5405 25.6351 105.2949 curveto
stroke
grestore
% 28--38
gsave
1 setlinewidth
0 0 0 edgecolor
newpath 76.0774 97.1577 moveto
72.7566 104.6853 60.8744 131.6202 57.5982 139.0467 curveto
stroke
grestore
% 48
gsave
0 0 0 nodecolor
118.8969 41.2766 1.8 1.8 ellipse_path fill
1 setlinewidth
filled
0 0 0 nodecolor
118.8969 41.2766 1.8 1.8 ellipse_path stroke
grestore
% 28--48
gsave
1 setlinewidth
0 0 0 edgecolor
newpath 78.3407 93.3975 moveto
84.8239 85.0657 111.9286 50.2319 117.7802 42.7117 curveto
stroke
grestore
% 28--57
gsave
1 setlinewidth
0 0 0 edgecolor
newpath 78.3327 94.0022 moveto
83.5489 89.533 101.9685 73.7511 107.5972 68.9284 curveto
stroke
grestore
% 28--60
gsave
1 setlinewidth
0 0 0 edgecolor
newpath 77.8258 96.8554 moveto
81.8452 104.449 98.4254 135.7727 102.5076 143.485 curveto
stroke
grestore
% 28--78
gsave
1 setlinewidth
0 0 0 edgecolor
newpath 77.8331 93.6171 moveto
81.1716 87.7005 92.9604 66.8074 96.5629 60.4228 curveto
stroke
grestore
% 29--47
gsave
1 setlinewidth
0 0 0 edgecolor
newpath 121.541 58.7828 moveto
120.7274 71.3007 116.3612 138.4777 115.5497 150.9634 curveto
stroke
grestore
% 29--71
gsave
1 setlinewidth
0 0 0 edgecolor
newpath 122.8862 58.6949 moveto
128.528 67.6179 152.1149 104.923 157.2071 112.9768 curveto
stroke
grestore
% 72
gsave
0 0 0 nodecolor
66.0442 28.6796 1.8 1.8 ellipse_path fill
1 setlinewidth
filled
0 0 0 nodecolor
66.0442 28.6796 1.8 1.8 ellipse_path stroke
grestore
% 29--72
gsave
1 setlinewidth
0 0 0 edgecolor
newpath 119.8208 55.8391 moveto
111.3751 51.5736 76.5366 33.9787 67.959 29.6466 curveto
stroke
grestore
% 30--43
gsave
1 setlinewidth
0 0 0 edgecolor
newpath 120.4119 166.6614 moveto
122.5108 173.4409 129.1358 194.8386 131.1548 201.3599 curveto
stroke
grestore
% 30--44
gsave
1 setlinewidth
0 0 0 edgecolor
newpath 121.7328 164.0334 moveto
126.4366 162.7211 138.2964 159.4123 142.9204 158.1222 curveto
stroke
grestore
% 30--47
gsave
1 setlinewidth
0 0 0 edgecolor
newpath 119.0886 162.7659 moveto
118.286 160.6212 116.9568 157.0689 116.1378 154.8802 curveto
stroke
grestore
% 31--39
gsave
1 setlinewidth
0 0 0 edgecolor
newpath 153.093 66.3785 moveto
158.3812 69.5479 174.861 79.4246 180.3698 82.7261 curveto
stroke
grestore
% 31--46
gsave
1 setlinewidth
0 0 0 edgecolor
newpath 150.1196 66.9754 moveto
144.0942 74.2196 119.2391 104.1019 113.1195 111.4592 curveto
stroke
grestore
% 98
gsave
0 0 0 nodecolor
183.3824 60.6974 1.8 1.8 ellipse_path fill
1 setlinewidth
filled
0 0 0 nodecolor
183.3824 60.6974 1.8 1.8 ellipse_path stroke
grestore
% 31--98
gsave
1 setlinewidth
0 0 0 edgecolor
newpath 153.5359 65.0801 moveto
159.4208 64.216 176.0273 61.7775 181.5619 60.9647 curveto
stroke
grestore
% 32--52
gsave
1 setlinewidth
0 0 0 edgecolor
newpath 132.772 69.7385 moveto
135.016 71.4137 138.8028 74.2406 140.9504 75.8439 curveto
stroke
grestore
% 82
gsave
0 0 0 nodecolor
140.7071 30.212 1.8 1.8 ellipse_path fill
1 setlinewidth
filled
0 0 0 nodecolor
140.7071 30.212 1.8 1.8 ellipse_path stroke
grestore
% 32--82
gsave
1 setlinewidth
0 0 0 edgecolor
newpath 131.4827 66.3325 moveto
133.1912 59.6425 138.5836 38.5272 140.227 32.092 curveto
stroke
grestore
% 89
gsave
0 0 0 nodecolor
146.5757 125.2962 1.8 1.8 ellipse_path fill
1 setlinewidth
filled
0 0 0 nodecolor
146.5757 125.2962 1.8 1.8 ellipse_path stroke
grestore
% 32--89
gsave
1 setlinewidth
0 0 0 edgecolor
newpath 131.4782 70.2783 moveto
133.8493 78.919 143.63 114.5615 146.0381 123.3372 curveto
stroke
grestore
% 92
gsave
0 0 0 nodecolor
97.3464 177.5942 1.8 1.8 ellipse_path fill
1 setlinewidth
filled
0 0 0 nodecolor
97.3464 177.5942 1.8 1.8 ellipse_path stroke
grestore
% 33--92
gsave
1 setlinewidth
0 0 0 edgecolor
newpath 66.4409 124.4455 moveto
71.2946 132.7926 91.3163 167.2243 96.2459 175.7018 curveto
stroke
grestore
% 35--45
gsave
1 setlinewidth
0 0 0 edgecolor
newpath 3.982 94.5908 moveto
11.0945 94.5405 33.5435 94.3818 40.3851 94.3334 curveto
stroke
grestore
% 36--40
gsave
1 setlinewidth
0 0 0 edgecolor
newpath 79.7896 55.4846 moveto
73.555 55.9658 54.126 57.4653 47.6315 57.9666 curveto
stroke
grestore
% 36--48
gsave
1 setlinewidth
0 0 0 edgecolor
newpath 83.7361 54.5784 moveto
90.2484 52.1148 110.8026 44.3388 117.0669 41.9689 curveto
stroke
grestore
% 36--55
gsave
1 setlinewidth
0 0 0 edgecolor
newpath 82.9182 56.8757 moveto
87.4349 62.7768 103.5962 83.8915 108.0522 89.7133 curveto
stroke
grestore
% 61
gsave
0 0 0 nodecolor
72.1951 11.9545 1.8 1.8 ellipse_path fill
1 setlinewidth
filled
0 0 0 nodecolor
72.1951 11.9545 1.8 1.8 ellipse_path stroke
grestore
% 36--61
gsave
1 setlinewidth
0 0 0 edgecolor
newpath 81.3282 53.4703 moveto
79.7585 46.3347 74.1417 20.803 72.593 13.7632 curveto
stroke
grestore
% 36--88
gsave
1 setlinewidth
0 0 0 edgecolor
newpath 83.3761 56.2695 moveto
90.8497 60.5375 121.6783 78.1427 129.2687 82.4773 curveto
stroke
grestore
% 36--94
gsave
1 setlinewidth
0 0 0 edgecolor
newpath 80.4213 57.0178 moveto
74.4116 64.7001 49.6216 96.3895 43.518 104.1918 curveto
stroke
grestore
% 37
gsave
0 0 0 nodecolor
183.8 197.8 1.8 1.8 ellipse_path fill
1 setlinewidth
filled
0 0 0 nodecolor
183.8 197.8 1.8 1.8 ellipse_path stroke
grestore
% 93
gsave
0 0 0 nodecolor
23.076 166.7004 1.8 1.8 ellipse_path fill
1 setlinewidth
filled
0 0 0 nodecolor
23.076 166.7004 1.8 1.8 ellipse_path stroke
grestore
% 38--93
gsave
1 setlinewidth
0 0 0 edgecolor
newpath 55.3092 142.0611 moveto
49.8698 146.219 30.6621 160.9015 24.7925 165.3883 curveto
stroke
grestore
% 38--96
gsave
1 setlinewidth
0 0 0 edgecolor
newpath 55.3461 139.3908 moveto
49.9473 133.4037 30.6297 111.9807 25.3034 106.0739 curveto
stroke
grestore
% 39--59
gsave
1 setlinewidth
0 0 0 edgecolor
newpath 180.1397 83.8077 moveto
175.2461 83.7943 162.9078 83.7607 158.0972 83.7475 curveto
stroke
grestore
% 39--97
gsave
1 setlinewidth
0 0 0 edgecolor
newpath 180.418 82.6683 moveto
176.7175 80.2686 168.1985 74.7445 164.6485 72.4425 curveto
stroke
grestore
% 40--45
gsave
1 setlinewidth
0 0 0 edgecolor
newpath 45.3256 60.0772 moveto
44.7909 66.3019 43.1244 85.6998 42.5673 92.184 curveto
stroke
grestore
% 40--96
gsave
1 setlinewidth
0 0 0 edgecolor
newpath 44.5665 60.1264 moveto
41.0204 67.7628 28.3322 95.0867 24.8337 102.6206 curveto
stroke
grestore
% 42--45
gsave
1 setlinewidth
0 0 0 edgecolor
newpath 37.5606 136.7246 moveto
38.3896 129.4362 41.3558 103.3573 42.1737 96.1668 curveto
stroke
grestore
% 54
gsave
0 0 0 nodecolor
126.8467 238.7783 1.8 1.8 ellipse_path fill
1 setlinewidth
filled
0 0 0 nodecolor
126.8467 238.7783 1.8 1.8 ellipse_path stroke
grestore
% 43--54
gsave
1 setlinewidth
0 0 0 edgecolor
newpath 131.4813 205.1743 moveto
130.6388 211.283 128.0133 230.3195 127.1357 236.6829 curveto
stroke
grestore
% 44--99
gsave
1 setlinewidth
0 0 0 edgecolor
newpath 143.2257 156.7217 moveto
138.1645 153.9255 122.3925 145.2116 117.1203 142.2989 curveto
stroke
grestore
% 45--64
gsave
1 setlinewidth
0 0 0 edgecolor
newpath 43.038 92.4409 moveto
43.8106 90.2221 45.0904 86.5471 45.8789 84.2828 curveto
stroke
grestore
% 45--67
gsave
1 setlinewidth
0 0 0 edgecolor
newpath 44.3282 93.8567 moveto
47.3716 93.1328 53.2275 91.7398 56.2806 91.0135 curveto
stroke
grestore
% 45--74
gsave
1 setlinewidth
0 0 0 edgecolor
newpath 42.8128 96.193 moveto
44.1854 102.1876 48.4626 120.8686 49.8924 127.1131 curveto
stroke
grestore
% 46--52
gsave
1 setlinewidth
0 0 0 edgecolor
newpath 113.0773 111.5525 moveto
118.1453 105.6221 136.2794 84.4025 141.2794 78.5518 curveto
stroke
grestore
% 46--59
gsave
1 setlinewidth
0 0 0 edgecolor
newpath 113.6604 111.8401 moveto
120.9605 107.0108 147.0813 89.7308 154.2834 84.9663 curveto
stroke
grestore
% 46--60
gsave
1 setlinewidth
0 0 0 edgecolor
newpath 111.2066 115.2081 moveto
109.6711 121.123 105.338 137.814 103.8939 143.3769 curveto
stroke
grestore
% 46--84
gsave
1 setlinewidth
0 0 0 edgecolor
newpath 110.3128 114.4124 moveto
103.7391 120.3937 76.6226 145.0665 69.9462 151.1413 curveto
stroke
grestore
% 47--62
gsave
1 setlinewidth
0 0 0 edgecolor
newpath 113.5202 152.5196 moveto
107.4427 151.1064 88.5034 146.7025 82.1725 145.2304 curveto
stroke
grestore
% 73
gsave
0 0 0 nodecolor
146.8135 169.8305 1.8 1.8 ellipse_path fill
1 setlinewidth
filled
0 0 0 nodecolor
146.8135 169.8305 1.8 1.8 ellipse_path stroke
grestore
% 47--73
gsave
1 setlinewidth
0 0 0 edgecolor
newpath 117.1077 153.8683 moveto
122.5077 156.77 139.3359 165.8125 144.9611 168.8351 curveto
stroke
grestore
% 47--86
gsave
1 setlinewidth
0 0 0 edgecolor
newpath 114.9199 154.7888 moveto
113.0063 161.7845 106.1589 186.8159 104.2709 193.7177 curveto
stroke
grestore
% 47--89
gsave
1 setlinewidth
0 0 0 edgecolor
newpath 117.0949 151.4739 moveto
122.5551 146.6255 139.789 131.3225 145.0413 126.6587 curveto
stroke
grestore
% 47--99
gsave
1 setlinewidth
0 0 0 edgecolor
newpath 115.4143 151.1454 moveto
115.4077 149.0004 115.3968 145.4478 115.3901 143.2588 curveto
stroke
grestore
% 48--52
gsave
1 setlinewidth
0 0 0 edgecolor
newpath 119.9138 42.8137 moveto
123.7361 48.5908 137.2333 68.9913 141.3579 75.2254 curveto
stroke
grestore
% 48--59
gsave
1 setlinewidth
0 0 0 edgecolor
newpath 120.1358 42.6895 moveto
125.7894 49.1369 149.1103 75.7323 154.8521 82.2804 curveto
stroke
grestore
% 48--75
gsave
1 setlinewidth
0 0 0 edgecolor
newpath 116.9149 41.7215 moveto
112.17 42.7867 100.2065 45.4723 95.5421 46.5193 curveto
stroke
grestore
% 48--82
gsave
1 setlinewidth
0 0 0 edgecolor
newpath 120.6083 40.4084 moveto
124.6251 38.3706 134.633 33.2935 138.8193 31.1697 curveto
stroke
grestore
% 49--52
gsave
1 setlinewidth
0 0 0 edgecolor
newpath 168.6155 111.0646 moveto
164.1379 105.2181 148.1165 84.2985 143.6991 78.5305 curveto
stroke
grestore
% 49--59
gsave
1 setlinewidth
0 0 0 edgecolor
newpath 168.8895 110.6989 moveto
166.3744 105.3838 159.2773 90.3851 156.9119 85.3864 curveto
stroke
grestore
% 49--99
gsave
1 setlinewidth
0 0 0 edgecolor
newpath 167.9752 113.5483 moveto
159.7157 117.913 125.6453 135.9172 117.2568 140.3501 curveto
stroke
grestore
% 50--56
gsave
1 setlinewidth
0 0 0 edgecolor
newpath 135.1327 156.2306 moveto
140.036 156.8435 152.3988 158.389 157.2189 158.9916 curveto
stroke
grestore
% 50--71
gsave
1 setlinewidth
0 0 0 edgecolor
newpath 134.1628 154.193 moveto
138.2906 147.3731 153.0602 122.9708 157.1325 116.2425 curveto
stroke
grestore
% 52--55
gsave
1 setlinewidth
0 0 0 edgecolor
newpath 140.7701 77.8099 moveto
135.0307 80.2456 117.1447 87.8363 111.1659 90.3736 curveto
stroke
grestore
% 65
gsave
0 0 0 nodecolor
156.8513 45.182 1.8 1.8 ellipse_path fill
1 setlinewidth
filled
0 0 0 nodecolor
156.8513 45.182 1.8 1.8 ellipse_path stroke
grestore
% 52--65
gsave
1 setlinewidth
0 0 0 edgecolor
newpath 143.3322 75.3352 moveto
145.7898 69.8539 153.4483 52.7722 156.0083 47.0623 curveto
stroke
grestore
% 53--89
gsave
1 setlinewidth
0 0 0 edgecolor
newpath 168.2599 140.3731 moveto
164.065 137.4564 152.3718 129.3262 148.1344 126.38 curveto
stroke
grestore
% 55--59
gsave
1 setlinewidth
0 0 0 edgecolor
newpath 111.2139 90.8883 moveto
118.9346 89.6601 146.5599 85.2653 154.1769 84.0535 curveto
stroke
grestore
% 55--67
gsave
1 setlinewidth
0 0 0 edgecolor
newpath 107.0076 91.1807 moveto
98.6258 91.0718 68.6348 90.6823 60.3656 90.5748 curveto
stroke
grestore
% 55--74
gsave
1 setlinewidth
0 0 0 edgecolor
newpath 107.4998 92.3043 moveto
98.9084 97.8476 60.2989 122.7588 51.9559 128.1419 curveto
stroke
grestore
% 55--81
gsave
1 setlinewidth
0 0 0 edgecolor
newpath 108.6167 93.06 moveto
105.9681 101.5058 95.0425 136.3449 92.3525 144.9226 curveto
stroke
grestore
% 55--89
gsave
1 setlinewidth
0 0 0 edgecolor
newpath 110.8032 92.6738 moveto
116.9516 98.2808 138.9513 118.3432 145.0172 123.8749 curveto
stroke
grestore
% 57--64
gsave
1 setlinewidth
0 0 0 edgecolor
newpath 107.4352 67.9444 moveto
98.4438 70.0647 58.5875 79.4637 48.764 81.7803 curveto
stroke
grestore
% 58--60
gsave
1 setlinewidth
0 0 0 edgecolor
newpath 138.4038 137.3503 moveto
131.9241 138.8054 111.4727 143.398 105.2398 144.7977 curveto
stroke
grestore
% 58--73
gsave
1 setlinewidth
0 0 0 edgecolor
newpath 140.7369 138.6742 moveto
141.8415 144.3379 145.2839 161.9878 146.4346 167.8877 curveto
stroke
grestore
% 58--89
gsave
1 setlinewidth
0 0 0 edgecolor
newpath 141.3579 135.0902 moveto
142.5536 132.8458 144.5714 129.0582 145.7158 126.9102 curveto
stroke
grestore
% 58--92
gsave
1 setlinewidth
0 0 0 edgecolor
newpath 138.9594 138.2578 moveto
132.424 144.4356 105.4656 169.9192 98.8281 176.1936 curveto
stroke
grestore
% 58--97
gsave
1 setlinewidth
0 0 0 edgecolor
newpath 141.0453 135.0143 moveto
144.354 125.4498 159.2235 82.4671 162.4367 73.1791 curveto
stroke
grestore
% 59--66
gsave
1 setlinewidth
0 0 0 edgecolor
newpath 158.2183 84.3248 moveto
165.0128 86.2239 186.4579 92.218 192.9936 94.0449 curveto
stroke
grestore
% 59--88
gsave
1 setlinewidth
0 0 0 edgecolor
newpath 154.1588 83.7188 moveto
149.4303 83.663 137.5084 83.5222 132.8602 83.4674 curveto
stroke
grestore
% 59--98
gsave
1 setlinewidth
0 0 0 edgecolor
newpath 157.5989 82.5032 moveto
162.2859 78.5393 176.8921 66.1864 181.7746 62.0572 curveto
stroke
grestore
% 60--99
gsave
1 setlinewidth
0 0 0 edgecolor
newpath 105.2885 144.6024 moveto
107.4969 143.8887 111.1546 142.7066 113.4084 141.9782 curveto
stroke
grestore
% 63
gsave
0 0 0 nodecolor
44.3331 1.8 1.8 1.8 ellipse_path fill
1 setlinewidth
filled
0 0 0 nodecolor
44.3331 1.8 1.8 1.8 ellipse_path stroke
grestore
% 61--63
gsave
1 setlinewidth
0 0 0 edgecolor
newpath 70.3669 11.2882 moveto
65.3306 9.4527 51.2919 4.3362 46.2044 2.482 curveto
stroke
grestore
% 62--78
gsave
1 setlinewidth
0 0 0 edgecolor
newpath 80.4539 142.9454 moveto
82.735 131.7286 94.977 71.5339 97.2523 60.3459 curveto
stroke
grestore
% 63--72
gsave
1 setlinewidth
0 0 0 edgecolor
newpath 45.5004 3.2452 moveto
49.2349 7.8687 60.8729 22.2772 64.7631 27.0935 curveto
stroke
grestore
% 65--78
gsave
1 setlinewidth
0 0 0 edgecolor
newpath 154.8805 45.6269 moveto
145.8871 47.6574 108.7893 56.0331 99.6554 58.0953 curveto
stroke
grestore
% 65--82
gsave
1 setlinewidth
0 0 0 edgecolor
newpath 155.3614 43.8005 moveto
152.2391 40.9052 145.0511 34.24 142.0558 31.4626 curveto
stroke
grestore
% 67--90
gsave
1 setlinewidth
0 0 0 edgecolor
newpath 58.469 92.3675 moveto
59.7344 102.467 65.8833 151.5443 67.2132 162.1591 curveto
stroke
grestore
% 67--94
gsave
1 setlinewidth
0 0 0 edgecolor
newpath 56.7565 91.9672 moveto
53.6455 94.943 46.4837 101.7935 43.4993 104.6482 curveto
stroke
grestore
% 68
gsave
0 0 0 nodecolor
158.4238 180.6808 1.8 1.8 ellipse_path fill
1 setlinewidth
filled
0 0 0 nodecolor
158.4238 180.6808 1.8 1.8 ellipse_path stroke
grestore
% 68--99
gsave
1 setlinewidth
0 0 0 edgecolor
newpath 156.9918 179.3718 moveto
150.4573 173.3988 123.5023 148.7602 116.8657 142.6939 curveto
stroke
grestore
% 69--89
gsave
1 setlinewidth
0 0 0 edgecolor
newpath 144.6626 95.7148 moveto
145.0398 101.5475 146.1042 118.0064 146.459 123.4919 curveto
stroke
grestore
% 71--99
gsave
1 setlinewidth
0 0 0 edgecolor
newpath 156.34 115.6664 moveto
149.3007 120.079 124.1133 135.8678 117.1685 140.2211 curveto
stroke
grestore
% 72--80
gsave
1 setlinewidth
0 0 0 edgecolor
newpath 66.2932 30.7455 moveto
66.9926 36.5463 68.9663 52.9157 69.624 58.3713 curveto
stroke
grestore
% 74--76
gsave
1 setlinewidth
0 0 0 edgecolor
newpath 48.5618 129.377 moveto
42.7986 130.0409 24.8387 132.1098 18.8352 132.8014 curveto
stroke
grestore
% 74--90
gsave
1 setlinewidth
0 0 0 edgecolor
newpath 51.2828 131.0522 moveto
54.2804 137.189 63.7414 156.5585 66.6248 162.4617 curveto
stroke
grestore
% 77--83
gsave
1 setlinewidth
0 0 0 edgecolor
newpath 151.0558 15.04 moveto
143.868 15.6429 118.1492 17.8003 111.0579 18.3952 curveto
stroke
grestore
% 81--94
gsave
1 setlinewidth
0 0 0 edgecolor
newpath 90.1018 145.4766 moveto
82.5718 139.2663 51.5104 113.6489 43.8627 107.3416 curveto
stroke
grestore
% 85
gsave
0 0 0 nodecolor
43.8 197.8 1.8 1.8 ellipse_path fill
1 setlinewidth
filled
0 0 0 nodecolor
43.8 197.8 1.8 1.8 ellipse_path stroke
grestore
% 86--87
gsave
1 setlinewidth
0 0 0 edgecolor
newpath 102.123 194.4897 moveto
96.8032 191.2861 80.2247 181.3028 74.683 177.9657 curveto
stroke
grestore
% 88--95
gsave
1 setlinewidth
0 0 0 edgecolor
newpath 130.9733 85.3005 moveto
131.0364 96.8619 131.375 158.9061 131.438 170.4378 curveto
stroke
grestore
% 89--90
gsave
1 setlinewidth
0 0 0 edgecolor
newpath 144.9234 126.1085 moveto
134.6282 131.1696 79.3791 158.3303 69.1104 163.3784 curveto
stroke
grestore
endpage
showpage
grestore
%%PageTrailer
%%EndPage: 1
%%Trailer
end
restore
%%EOF
