%!PS-Adobe-3.0 EPSF-3.0
%%Creator: graphviz version 2.43.0 (0)
%%Title: G
%%Pages: 1
%%BoundingBox: 36 36 256 252
%%EndComments
save
%%BeginProlog
/DotDict 200 dict def
DotDict begin

/setupLatin1 {
mark
/EncodingVector 256 array def
 EncodingVector 0

ISOLatin1Encoding 0 255 getinterval putinterval
EncodingVector 45 /hyphen put

% Set up ISO Latin 1 character encoding
/starnetISO {
        dup dup findfont dup length dict begin
        { 1 index /FID ne { def }{ pop pop } ifelse
        } forall
        /Encoding EncodingVector def
        currentdict end definefont
} def
/Times-Roman starnetISO def
/Times-Italic starnetISO def
/Times-Bold starnetISO def
/Times-BoldItalic starnetISO def
/Helvetica starnetISO def
/Helvetica-Oblique starnetISO def
/Helvetica-Bold starnetISO def
/Helvetica-BoldOblique starnetISO def
/Courier starnetISO def
/Courier-Oblique starnetISO def
/Courier-Bold starnetISO def
/Courier-BoldOblique starnetISO def
cleartomark
} bind def

%%BeginResource: procset graphviz 0 0
/coord-font-family /Times-Roman def
/default-font-family /Times-Roman def
/coordfont coord-font-family findfont 8 scalefont def

/InvScaleFactor 1.0 def
/set_scale {
       dup 1 exch div /InvScaleFactor exch def
       scale
} bind def

% styles
/solid { [] 0 setdash } bind def
/dashed { [9 InvScaleFactor mul dup ] 0 setdash } bind def
/dotted { [1 InvScaleFactor mul 6 InvScaleFactor mul] 0 setdash } bind def
/invis {/fill {newpath} def /stroke {newpath} def /show {pop newpath} def} bind def
/bold { 2 setlinewidth } bind def
/filled { } bind def
/unfilled { } bind def
/rounded { } bind def
/diagonals { } bind def
/tapered { } bind def

% hooks for setting color 
/nodecolor { sethsbcolor } bind def
/edgecolor { sethsbcolor } bind def
/graphcolor { sethsbcolor } bind def
/nopcolor {pop pop pop} bind def

/beginpage {	% i j npages
	/npages exch def
	/j exch def
	/i exch def
	/str 10 string def
	npages 1 gt {
		gsave
			coordfont setfont
			0 0 moveto
			(\() show i str cvs show (,) show j str cvs show (\)) show
		grestore
	} if
} bind def

/set_font {
	findfont exch
	scalefont setfont
} def

% draw text fitted to its expected width
/alignedtext {			% width text
	/text exch def
	/width exch def
	gsave
		width 0 gt {
			[] 0 setdash
			text stringwidth pop width exch sub text length div 0 text ashow
		} if
	grestore
} def

/boxprim {				% xcorner ycorner xsize ysize
		4 2 roll
		moveto
		2 copy
		exch 0 rlineto
		0 exch rlineto
		pop neg 0 rlineto
		closepath
} bind def

/ellipse_path {
	/ry exch def
	/rx exch def
	/y exch def
	/x exch def
	matrix currentmatrix
	newpath
	x y translate
	rx ry scale
	0 0 1 0 360 arc
	setmatrix
} bind def

/endpage { showpage } bind def
/showpage { } def

/layercolorseq
	[	% layer color sequence - darkest to lightest
		[0 0 0]
		[.2 .8 .8]
		[.4 .8 .8]
		[.6 .8 .8]
		[.8 .8 .8]
	]
def

/layerlen layercolorseq length def

/setlayer {/maxlayer exch def /curlayer exch def
	layercolorseq curlayer 1 sub layerlen mod get
	aload pop sethsbcolor
	/nodecolor {nopcolor} def
	/edgecolor {nopcolor} def
	/graphcolor {nopcolor} def
} bind def

/onlayer { curlayer ne {invis} if } def

/onlayers {
	/myupper exch def
	/mylower exch def
	curlayer mylower lt
	curlayer myupper gt
	or
	{invis} if
} def

/curlayer 0 def

%%EndResource
%%EndProlog
%%BeginSetup
14 default-font-family set_font
% /arrowlength 10 def
% /arrowwidth 5 def

% make sure pdfmark is harmless for PS-interpreters other than Distiller
/pdfmark where {pop} {userdict /pdfmark /cleartomark load put} ifelse
% make '<<' and '>>' safe on PS Level 1 devices
/languagelevel where {pop languagelevel}{1} ifelse
2 lt {
    userdict (<<) cvn ([) cvn load put
    userdict (>>) cvn ([) cvn load put
} if

%%EndSetup
setupLatin1
%%Page: 1 1
%%PageBoundingBox: 36 36 256 252
%%PageOrientation: Portrait
0 0 1 beginpage
gsave
36 36 220 216 boxprim clip newpath
1 1 set_scale 0 rotate 40 40 translate
% 0
gsave
0 0 0 nodecolor
98.7897 86.3705 1.8 1.8 ellipse_path fill
1 setlinewidth
filled
0 0 0 nodecolor
98.7897 86.3705 1.8 1.8 ellipse_path stroke
grestore
% 1
gsave
0 0 0 nodecolor
144.2373 103.656 1.8 1.8 ellipse_path fill
1 setlinewidth
filled
0 0 0 nodecolor
144.2373 103.656 1.8 1.8 ellipse_path stroke
grestore
% 0--1
gsave
1 setlinewidth
0 0 0 edgecolor
newpath 100.7425 87.1133 moveto
108.2182 89.9565 134.9671 100.1301 142.3423 102.9352 curveto
stroke
grestore
% 2
gsave
0 0 0 nodecolor
127.7629 96.6852 1.8 1.8 ellipse_path fill
1 setlinewidth
filled
0 0 0 nodecolor
127.7629 96.6852 1.8 1.8 ellipse_path stroke
grestore
% 0--2
gsave
1 setlinewidth
0 0 0 edgecolor
newpath 100.6907 87.0473 moveto
105.9279 88.9118 120.5265 94.109 125.8169 95.9924 curveto
stroke
grestore
% 3
gsave
0 0 0 nodecolor
98.489 66.7904 1.8 1.8 ellipse_path fill
1 setlinewidth
filled
0 0 0 nodecolor
98.489 66.7904 1.8 1.8 ellipse_path stroke
grestore
% 0--3
gsave
1 setlinewidth
0 0 0 edgecolor
newpath 98.762 84.5636 moveto
98.7061 80.9281 98.5805 72.7485 98.5211 68.8858 curveto
stroke
grestore
% 4
gsave
0 0 0 nodecolor
87.1832 96.1204 1.8 1.8 ellipse_path fill
1 setlinewidth
filled
0 0 0 nodecolor
87.1832 96.1204 1.8 1.8 ellipse_path stroke
grestore
% 0--4
gsave
1 setlinewidth
0 0 0 edgecolor
newpath 97.3665 87.566 moveto
95.1389 89.4373 90.8528 93.0378 88.6181 94.9151 curveto
stroke
grestore
% 18
gsave
0 0 0 nodecolor
53.0175 86.6978 1.8 1.8 ellipse_path fill
1 setlinewidth
filled
0 0 0 nodecolor
53.0175 86.6978 1.8 1.8 ellipse_path stroke
grestore
% 0--18
gsave
1 setlinewidth
0 0 0 edgecolor
newpath 96.8229 86.3846 moveto
89.2939 86.4384 62.354 86.6311 54.926 86.6842 curveto
stroke
grestore
% 21
gsave
0 0 0 nodecolor
102.8469 101.1283 1.8 1.8 ellipse_path fill
1 setlinewidth
filled
0 0 0 nodecolor
102.8469 101.1283 1.8 1.8 ellipse_path stroke
grestore
% 0--21
gsave
1 setlinewidth
0 0 0 edgecolor
newpath 99.2872 88.1801 moveto
100.0659 91.0125 101.5642 96.4624 102.3454 99.3039 curveto
stroke
grestore
% 33
gsave
0 0 0 nodecolor
124.4364 70.8723 1.8 1.8 ellipse_path fill
1 setlinewidth
filled
0 0 0 nodecolor
124.4364 70.8723 1.8 1.8 ellipse_path stroke
grestore
% 0--33
gsave
1 setlinewidth
0 0 0 edgecolor
newpath 100.4725 85.3536 moveto
105.1084 82.5522 118.0309 74.7432 122.7139 71.9133 curveto
stroke
grestore
% 50
gsave
0 0 0 nodecolor
86.0908 110.5554 1.8 1.8 ellipse_path fill
1 setlinewidth
filled
0 0 0 nodecolor
86.0908 110.5554 1.8 1.8 ellipse_path stroke
grestore
% 0--50
gsave
1 setlinewidth
0 0 0 edgecolor
newpath 97.7933 88.2683 moveto
95.4077 92.8115 89.3929 104.2665 87.0479 108.7326 curveto
stroke
grestore
% 54
gsave
0 0 0 nodecolor
114.5945 103.5608 1.8 1.8 ellipse_path fill
1 setlinewidth
filled
0 0 0 nodecolor
114.5945 103.5608 1.8 1.8 ellipse_path stroke
grestore
% 0--54
gsave
1 setlinewidth
0 0 0 edgecolor
newpath 100.2483 87.9569 moveto
103.305 91.2816 110.3418 98.9354 113.2742 102.1248 curveto
stroke
grestore
% 65
gsave
0 0 0 nodecolor
136.0419 65.0005 1.8 1.8 ellipse_path fill
1 setlinewidth
filled
0 0 0 nodecolor
136.0419 65.0005 1.8 1.8 ellipse_path stroke
grestore
% 0--65
gsave
1 setlinewidth
0 0 0 edgecolor
newpath 100.3904 85.4523 moveto
106.4066 82.001 127.6513 69.8139 134.1434 66.0897 curveto
stroke
grestore
% 66
gsave
0 0 0 nodecolor
50.2453 98.308 1.8 1.8 ellipse_path fill
1 setlinewidth
filled
0 0 0 nodecolor
50.2453 98.308 1.8 1.8 ellipse_path stroke
grestore
% 0--66
gsave
1 setlinewidth
0 0 0 edgecolor
newpath 96.7038 86.8835 moveto
88.7188 88.847 60.1472 95.873 52.2694 97.8102 curveto
stroke
grestore
% 76
gsave
0 0 0 nodecolor
132.6259 113.3785 1.8 1.8 ellipse_path fill
1 setlinewidth
filled
0 0 0 nodecolor
132.6259 113.3785 1.8 1.8 ellipse_path stroke
grestore
% 0--76
gsave
1 setlinewidth
0 0 0 edgecolor
newpath 100.2436 87.531 moveto
105.8093 91.9735 125.7241 107.8695 131.2151 112.2523 curveto
stroke
grestore
% 87
gsave
0 0 0 nodecolor
116.1589 90.6667 1.8 1.8 ellipse_path fill
1 setlinewidth
filled
0 0 0 nodecolor
116.1589 90.6667 1.8 1.8 ellipse_path stroke
grestore
% 0--87
gsave
1 setlinewidth
0 0 0 edgecolor
newpath 100.6485 86.8303 moveto
104.0091 87.6615 111.0534 89.4039 114.3655 90.2231 curveto
stroke
grestore
% 1--2
gsave
1 setlinewidth
0 0 0 edgecolor
newpath 142.2172 102.8012 moveto
139.0553 101.4633 132.9715 98.8891 129.7995 97.5469 curveto
stroke
grestore
% 1--3
gsave
1 setlinewidth
0 0 0 edgecolor
newpath 142.7152 102.4294 moveto
135.7694 96.8322 107.118 73.744 100.0637 68.0594 curveto
stroke
grestore
% 1--4
gsave
1 setlinewidth
0 0 0 edgecolor
newpath 142.339 103.4053 moveto
133.6767 102.2612 97.9448 97.5417 89.1472 96.3798 curveto
stroke
grestore
% 5
gsave
0 0 0 nodecolor
110.0943 74.7618 1.8 1.8 ellipse_path fill
1 setlinewidth
filled
0 0 0 nodecolor
110.0943 74.7618 1.8 1.8 ellipse_path stroke
grestore
% 1--5
gsave
1 setlinewidth
0 0 0 edgecolor
newpath 142.7702 102.4144 moveto
137.154 97.6616 117.0586 80.6555 111.5179 75.9666 curveto
stroke
grestore
% 10
gsave
0 0 0 nodecolor
183.559 110.7638 1.8 1.8 ellipse_path fill
1 setlinewidth
filled
0 0 0 nodecolor
183.559 110.7638 1.8 1.8 ellipse_path stroke
grestore
% 1--10
gsave
1 setlinewidth
0 0 0 edgecolor
newpath 146.3514 104.0381 moveto
153.2428 105.2838 174.9936 109.2155 181.6225 110.4138 curveto
stroke
grestore
% 15
gsave
0 0 0 nodecolor
117.947 121.9999 1.8 1.8 ellipse_path fill
1 setlinewidth
filled
0 0 0 nodecolor
117.947 121.9999 1.8 1.8 ellipse_path stroke
grestore
% 1--15
gsave
1 setlinewidth
0 0 0 edgecolor
newpath 142.5123 104.8596 moveto
137.6687 108.2392 124.0007 117.776 119.4453 120.9544 curveto
stroke
grestore
% 16
gsave
0 0 0 nodecolor
106.3362 116.9197 1.8 1.8 ellipse_path fill
1 setlinewidth
filled
0 0 0 nodecolor
106.3362 116.9197 1.8 1.8 ellipse_path stroke
grestore
% 1--16
gsave
1 setlinewidth
0 0 0 edgecolor
newpath 142.1996 104.3691 moveto
135.5572 106.6936 114.5922 114.0305 108.2028 116.2665 curveto
stroke
grestore
% 19
gsave
0 0 0 nodecolor
130.6341 82.4836 1.8 1.8 ellipse_path fill
1 setlinewidth
filled
0 0 0 nodecolor
130.6341 82.4836 1.8 1.8 ellipse_path stroke
grestore
% 1--19
gsave
1 setlinewidth
0 0 0 edgecolor
newpath 143.1699 101.9946 moveto
140.6646 98.0952 134.4226 88.38 131.8116 84.3162 curveto
stroke
grestore
% 20
gsave
0 0 0 nodecolor
120.5219 133.6014 1.8 1.8 ellipse_path fill
1 setlinewidth
filled
0 0 0 nodecolor
120.5219 133.6014 1.8 1.8 ellipse_path stroke
grestore
% 1--20
gsave
1 setlinewidth
0 0 0 edgecolor
newpath 142.9623 105.266 moveto
138.806 110.5141 125.6878 127.0784 121.6899 132.1266 curveto
stroke
grestore
% 1--21
gsave
1 setlinewidth
0 0 0 edgecolor
newpath 142.012 103.5201 moveto
134.7581 103.0771 111.863 101.6789 104.8854 101.2527 curveto
stroke
grestore
% 22
gsave
0 0 0 nodecolor
195.1735 118.9772 1.8 1.8 ellipse_path fill
1 setlinewidth
filled
0 0 0 nodecolor
195.1735 118.9772 1.8 1.8 ellipse_path stroke
grestore
% 1--22
gsave
1 setlinewidth
0 0 0 edgecolor
newpath 146.426 104.3143 moveto
154.8045 106.8345 184.7837 115.8521 193.0497 118.3384 curveto
stroke
grestore
% 25
gsave
0 0 0 nodecolor
179.4263 79.7654 1.8 1.8 ellipse_path fill
1 setlinewidth
filled
0 0 0 nodecolor
179.4263 79.7654 1.8 1.8 ellipse_path stroke
grestore
% 1--25
gsave
1 setlinewidth
0 0 0 edgecolor
newpath 145.7493 102.6294 moveto
151.4323 98.7711 171.5004 85.1465 177.6329 80.983 curveto
stroke
grestore
% 27
gsave
0 0 0 nodecolor
118.0966 147.0666 1.8 1.8 ellipse_path fill
1 setlinewidth
filled
0 0 0 nodecolor
118.0966 147.0666 1.8 1.8 ellipse_path stroke
grestore
% 1--27
gsave
1 setlinewidth
0 0 0 edgecolor
newpath 143.1141 105.5213 moveto
138.8142 112.6619 123.4287 138.2119 119.1866 145.2566 curveto
stroke
grestore
% 28
gsave
0 0 0 nodecolor
170.8387 145.5753 1.8 1.8 ellipse_path fill
1 setlinewidth
filled
0 0 0 nodecolor
170.8387 145.5753 1.8 1.8 ellipse_path stroke
grestore
% 1--28
gsave
1 setlinewidth
0 0 0 edgecolor
newpath 145.3803 105.4572 moveto
149.756 112.3525 165.4126 137.0247 169.7295 143.8274 curveto
stroke
grestore
% 29
gsave
0 0 0 nodecolor
159.2335 154.599 1.8 1.8 ellipse_path fill
1 setlinewidth
filled
0 0 0 nodecolor
159.2335 154.599 1.8 1.8 ellipse_path stroke
grestore
% 1--29
gsave
1 setlinewidth
0 0 0 edgecolor
newpath 144.8817 105.8449 moveto
147.3484 114.2245 156.1746 144.2078 158.6082 152.4749 curveto
stroke
grestore
% 31
gsave
0 0 0 nodecolor
175.3458 133.9746 1.8 1.8 ellipse_path fill
1 setlinewidth
filled
0 0 0 nodecolor
175.3458 133.9746 1.8 1.8 ellipse_path stroke
grestore
% 1--31
gsave
1 setlinewidth
0 0 0 edgecolor
newpath 145.574 104.9587 moveto
150.691 109.9458 169.0004 127.7903 174.0487 132.7105 curveto
stroke
grestore
% 1--33
gsave
1 setlinewidth
0 0 0 edgecolor
newpath 143.1727 101.8934 moveto
139.7025 96.1479 128.7497 78.0136 125.4116 72.4869 curveto
stroke
grestore
% 43
gsave
0 0 0 nodecolor
182.9177 99.1546 1.8 1.8 ellipse_path fill
1 setlinewidth
filled
0 0 0 nodecolor
182.9177 99.1546 1.8 1.8 ellipse_path stroke
grestore
% 1--43
gsave
1 setlinewidth
0 0 0 edgecolor
newpath 146.3169 103.414 moveto
153.0959 102.6251 174.492 100.1351 181.0127 99.3763 curveto
stroke
grestore
% 46
gsave
0 0 0 nodecolor
150.1923 77.817 1.8 1.8 ellipse_path fill
1 setlinewidth
filled
0 0 0 nodecolor
150.1923 77.817 1.8 1.8 ellipse_path stroke
grestore
% 1--46
gsave
1 setlinewidth
0 0 0 edgecolor
newpath 144.7046 101.6284 moveto
145.8233 96.7744 148.6438 84.536 149.7435 79.7644 curveto
stroke
grestore
% 49
gsave
0 0 0 nodecolor
136.9748 142.8238 1.8 1.8 ellipse_path fill
1 setlinewidth
filled
0 0 0 nodecolor
136.9748 142.8238 1.8 1.8 ellipse_path stroke
grestore
% 1--49
gsave
1 setlinewidth
0 0 0 edgecolor
newpath 143.8469 105.7618 moveto
142.5741 112.6262 138.5568 134.2919 137.3325 140.8948 curveto
stroke
grestore
% 1--50
gsave
1 setlinewidth
0 0 0 edgecolor
newpath 142.3027 103.8855 moveto
133.4745 104.933 97.0584 109.254 88.0923 110.3179 curveto
stroke
grestore
% 1--54
gsave
1 setlinewidth
0 0 0 edgecolor
newpath 142.2924 103.6497 moveto
136.9341 103.6325 121.9981 103.5846 116.5855 103.5672 curveto
stroke
grestore
% 55
gsave
0 0 0 nodecolor
147.6241 160.5248 1.8 1.8 ellipse_path fill
1 setlinewidth
filled
0 0 0 nodecolor
147.6241 160.5248 1.8 1.8 ellipse_path stroke
grestore
% 1--55
gsave
1 setlinewidth
0 0 0 edgecolor
newpath 144.35 105.5481 moveto
144.8642 114.1823 146.9853 149.7982 147.5075 158.5672 curveto
stroke
grestore
% 56
gsave
0 0 0 nodecolor
106.4856 140.6574 1.8 1.8 ellipse_path fill
1 setlinewidth
filled
0 0 0 nodecolor
106.4856 140.6574 1.8 1.8 ellipse_path stroke
grestore
% 1--56
gsave
1 setlinewidth
0 0 0 edgecolor
newpath 142.6152 105.2459 moveto
136.4054 111.3322 114.186 133.11 108.0597 139.1146 curveto
stroke
grestore
% 60
gsave
0 0 0 nodecolor
178.5838 122.3647 1.8 1.8 ellipse_path fill
1 setlinewidth
filled
0 0 0 nodecolor
178.5838 122.3647 1.8 1.8 ellipse_path stroke
grestore
% 1--60
gsave
1 setlinewidth
0 0 0 edgecolor
newpath 146.0839 104.6618 moveto
152.1034 107.9406 171.1021 118.2894 176.8923 121.4433 curveto
stroke
grestore
% 64
gsave
0 0 0 nodecolor
153.7946 66.208 1.8 1.8 ellipse_path fill
1 setlinewidth
filled
0 0 0 nodecolor
153.7946 66.208 1.8 1.8 ellipse_path stroke
grestore
% 1--64
gsave
1 setlinewidth
0 0 0 edgecolor
newpath 144.7512 101.6426 moveto
146.4261 95.0796 151.7128 74.3653 153.3239 68.0523 curveto
stroke
grestore
% 1--65
gsave
1 setlinewidth
0 0 0 edgecolor
newpath 143.7967 101.5777 moveto
142.3604 94.8031 137.8271 73.4208 136.4455 66.9043 curveto
stroke
grestore
% 71
gsave
0 0 0 nodecolor
139.9225 172.1261 1.8 1.8 ellipse_path fill
1 setlinewidth
filled
0 0 0 nodecolor
139.9225 172.1261 1.8 1.8 ellipse_path stroke
grestore
% 1--71
gsave
1 setlinewidth
0 0 0 edgecolor
newpath 144.1128 105.6313 moveto
143.4828 115.6298 140.6512 160.563 140.0393 170.2725 curveto
stroke
grestore
% 73
gsave
0 0 0 nodecolor
195.6084 93.5652 1.8 1.8 ellipse_path fill
1 setlinewidth
filled
0 0 0 nodecolor
195.6084 93.5652 1.8 1.8 ellipse_path stroke
grestore
% 1--73
gsave
1 setlinewidth
0 0 0 edgecolor
newpath 146.4447 103.2224 moveto
154.8947 101.5626 185.1299 95.6235 193.4664 93.9859 curveto
stroke
grestore
% 79
gsave
0 0 0 nodecolor
192.568 80.3429 1.8 1.8 ellipse_path fill
1 setlinewidth
filled
0 0 0 nodecolor
192.568 80.3429 1.8 1.8 ellipse_path stroke
grestore
% 1--79
gsave
1 setlinewidth
0 0 0 edgecolor
newpath 146.314 102.6542 moveto
154.2639 98.8195 182.7097 85.0983 190.5528 81.315 curveto
stroke
grestore
% 81
gsave
0 0 0 nodecolor
93.9968 125.7258 1.8 1.8 ellipse_path fill
1 setlinewidth
filled
0 0 0 nodecolor
93.9968 125.7258 1.8 1.8 ellipse_path stroke
grestore
% 1--81
gsave
1 setlinewidth
0 0 0 edgecolor
newpath 142.5657 104.3903 moveto
134.9379 107.7411 103.4732 121.563 95.7262 124.9661 curveto
stroke
grestore
% 84
gsave
0 0 0 nodecolor
153.6302 54.5998 1.8 1.8 ellipse_path fill
1 setlinewidth
filled
0 0 0 nodecolor
153.6302 54.5998 1.8 1.8 ellipse_path stroke
grestore
% 1--84
gsave
1 setlinewidth
0 0 0 edgecolor
newpath 144.6409 101.5481 moveto
146.1859 93.4789 151.7143 64.6061 153.2386 56.6452 curveto
stroke
grestore
% 90
gsave
0 0 0 nodecolor
186.1004 65.9949 1.8 1.8 ellipse_path fill
1 setlinewidth
filled
0 0 0 nodecolor
186.1004 65.9949 1.8 1.8 ellipse_path stroke
grestore
% 1--90
gsave
1 setlinewidth
0 0 0 edgecolor
newpath 145.6302 102.4029 moveto
151.9861 96.685 178.2042 73.0985 184.6594 67.2912 curveto
stroke
grestore
% 2--3
gsave
1 setlinewidth
0 0 0 edgecolor
newpath 126.189 95.0779 moveto
121.0586 89.8387 104.8657 73.3024 99.9307 68.2627 curveto
stroke
grestore
% 2--4
gsave
1 setlinewidth
0 0 0 edgecolor
newpath 125.5811 96.6548 moveto
118.4693 96.5558 96.0227 96.2434 89.1817 96.1482 curveto
stroke
grestore
% 2--15
gsave
1 setlinewidth
0 0 0 edgecolor
newpath 126.9926 98.6716 moveto
125.1487 103.4271 120.4995 115.4172 118.6868 120.092 curveto
stroke
grestore
% 2--19
gsave
1 setlinewidth
0 0 0 edgecolor
newpath 128.2115 94.4662 moveto
128.7667 91.7202 129.7035 87.0863 130.2349 84.4582 curveto
stroke
grestore
% 2--20
gsave
1 setlinewidth
0 0 0 edgecolor
newpath 127.3735 98.67 moveto
126.1045 105.1397 122.0992 125.56 120.8785 131.7833 curveto
stroke
grestore
% 2--21
gsave
1 setlinewidth
0 0 0 edgecolor
newpath 125.8077 97.0338 moveto
121.1271 97.8685 109.3259 99.9729 104.7248 100.7934 curveto
stroke
grestore
% 2--25
gsave
1 setlinewidth
0 0 0 edgecolor
newpath 129.4818 96.1222 moveto
137.3256 93.5534 169.6815 82.9568 177.6479 80.3478 curveto
stroke
grestore
% 2--27
gsave
1 setlinewidth
0 0 0 edgecolor
newpath 127.3475 98.85 moveto
125.7575 107.1372 120.0683 136.79 118.4997 144.966 curveto
stroke
grestore
% 2--33
gsave
1 setlinewidth
0 0 0 edgecolor
newpath 127.5018 94.6597 moveto
126.8769 89.8106 125.3014 77.5846 124.6871 72.8178 curveto
stroke
grestore
% 45
gsave
0 0 0 nodecolor
120.9713 45.1882 1.8 1.8 ellipse_path fill
1 setlinewidth
filled
0 0 0 nodecolor
120.9713 45.1882 1.8 1.8 ellipse_path stroke
grestore
% 2--45
gsave
1 setlinewidth
0 0 0 edgecolor
newpath 127.471 94.4724 moveto
126.3539 86.0017 122.3567 55.6924 121.2545 47.3354 curveto
stroke
grestore
% 48
gsave
0 0 0 nodecolor
150.1445 38.5806 1.8 1.8 ellipse_path fill
1 setlinewidth
filled
0 0 0 nodecolor
150.1445 38.5806 1.8 1.8 ellipse_path stroke
grestore
% 2--48
gsave
1 setlinewidth
0 0 0 edgecolor
newpath 128.5075 94.7519 moveto
131.9056 85.9302 145.9228 49.5403 149.374 40.5807 curveto
stroke
grestore
% 2--54
gsave
1 setlinewidth
0 0 0 edgecolor
newpath 126.1482 97.5283 moveto
123.6208 98.8479 118.7579 101.387 116.2224 102.7109 curveto
stroke
grestore
% 2--56
gsave
1 setlinewidth
0 0 0 edgecolor
newpath 126.8486 98.5746 moveto
123.3487 105.8076 110.8256 131.6881 107.3727 138.8239 curveto
stroke
grestore
% 2--81
gsave
1 setlinewidth
0 0 0 edgecolor
newpath 126.312 97.933 moveto
120.7578 102.7099 100.8843 119.8022 95.4047 124.5149 curveto
stroke
grestore
% 97
gsave
0 0 0 nodecolor
82.3909 124.2362 1.8 1.8 ellipse_path fill
1 setlinewidth
filled
0 0 0 nodecolor
82.3909 124.2362 1.8 1.8 ellipse_path stroke
grestore
% 2--97
gsave
1 setlinewidth
0 0 0 edgecolor
newpath 125.8133 97.869 moveto
118.3501 102.4009 91.6458 118.6164 84.2828 123.0874 curveto
stroke
grestore
% 3--4
gsave
1 setlinewidth
0 0 0 edgecolor
newpath 97.7472 68.7148 moveto
95.7035 74.0165 90.007 88.7949 87.9426 94.1504 curveto
stroke
grestore
% 3--5
gsave
1 setlinewidth
0 0 0 edgecolor
newpath 100.3023 68.0359 moveto
102.5463 69.5773 106.333 72.1783 108.4806 73.6534 curveto
stroke
grestore
% 6
gsave
0 0 0 nodecolor
65.7314 52.2517 1.8 1.8 ellipse_path fill
1 setlinewidth
filled
0 0 0 nodecolor
65.7314 52.2517 1.8 1.8 ellipse_path stroke
grestore
% 3--6
gsave
1 setlinewidth
0 0 0 edgecolor
newpath 96.7278 66.0087 moveto
91.0931 63.5079 73.5338 55.7147 67.6642 53.1096 curveto
stroke
grestore
% 7
gsave
0 0 0 nodecolor
62.4663 121.2341 1.8 1.8 ellipse_path fill
1 setlinewidth
filled
0 0 0 nodecolor
62.4663 121.2341 1.8 1.8 ellipse_path stroke
grestore
% 3--7
gsave
1 setlinewidth
0 0 0 edgecolor
newpath 97.2904 68.6018 moveto
91.8212 76.8678 69.2609 110.9649 63.7063 119.3601 curveto
stroke
grestore
% 11
gsave
0 0 0 nodecolor
54.1259 46.4376 1.8 1.8 ellipse_path fill
1 setlinewidth
filled
0 0 0 nodecolor
54.1259 46.4376 1.8 1.8 ellipse_path stroke
grestore
% 3--11
gsave
1 setlinewidth
0 0 0 edgecolor
newpath 96.5827 65.9159 moveto
89.2855 62.568 63.1749 50.5891 55.9756 47.2862 curveto
stroke
grestore
% 12
gsave
0 0 0 nodecolor
77.5198 59.7963 1.8 1.8 ellipse_path fill
1 setlinewidth
filled
0 0 0 nodecolor
77.5198 59.7963 1.8 1.8 ellipse_path stroke
grestore
% 3--12
gsave
1 setlinewidth
0 0 0 edgecolor
newpath 96.5538 66.145 moveto
92.4983 64.7923 83.1621 61.6782 79.2715 60.3806 curveto
stroke
grestore
% 3--16
gsave
1 setlinewidth
0 0 0 edgecolor
newpath 98.8261 68.9444 moveto
100.1169 77.1902 104.7355 106.6945 106.009 114.8296 curveto
stroke
grestore
% 17
gsave
0 0 0 nodecolor
68.7789 83.2066 1.8 1.8 ellipse_path fill
1 setlinewidth
filled
0 0 0 nodecolor
68.7789 83.2066 1.8 1.8 ellipse_path stroke
grestore
% 3--17
gsave
1 setlinewidth
0 0 0 edgecolor
newpath 96.8916 67.673 moveto
91.7812 70.4968 75.8555 79.2965 70.532 82.2379 curveto
stroke
grestore
% 3--19
gsave
1 setlinewidth
0 0 0 edgecolor
newpath 100.2172 67.6341 moveto
105.7465 70.3335 122.9775 78.7457 128.7374 81.5576 curveto
stroke
grestore
% 3--21
gsave
1 setlinewidth
0 0 0 edgecolor
newpath 98.7233 68.6366 moveto
99.4729 74.543 101.8089 92.9494 102.5898 99.1021 curveto
stroke
grestore
% 24
gsave
0 0 0 nodecolor
58.8838 63.866 1.8 1.8 ellipse_path fill
1 setlinewidth
filled
0 0 0 nodecolor
58.8838 63.866 1.8 1.8 ellipse_path stroke
grestore
% 3--24
gsave
1 setlinewidth
0 0 0 edgecolor
newpath 96.3596 66.6332 moveto
89.4186 66.1207 67.511 64.503 60.8343 64.01 curveto
stroke
grestore
% 30
gsave
0 0 0 nodecolor
96.0977 39.6476 1.8 1.8 ellipse_path fill
1 setlinewidth
filled
0 0 0 nodecolor
96.0977 39.6476 1.8 1.8 ellipse_path stroke
grestore
% 3--30
gsave
1 setlinewidth
0 0 0 edgecolor
newpath 98.3013 64.6606 moveto
97.8521 59.5616 96.7195 46.7057 96.2779 41.6933 curveto
stroke
grestore
% 3--33
gsave
1 setlinewidth
0 0 0 edgecolor
newpath 100.525 67.1107 moveto
105.3994 67.8775 117.6892 69.8109 122.4808 70.5647 curveto
stroke
grestore
% 34
gsave
0 0 0 nodecolor
101.0163 17.4109 1.8 1.8 ellipse_path fill
1 setlinewidth
filled
0 0 0 nodecolor
101.0163 17.4109 1.8 1.8 ellipse_path stroke
grestore
% 3--34
gsave
1 setlinewidth
0 0 0 edgecolor
newpath 98.5976 64.6686 moveto
99.0133 56.5462 100.5008 27.4832 100.9109 19.4698 curveto
stroke
grestore
% 3--45
gsave
1 setlinewidth
0 0 0 edgecolor
newpath 99.9641 65.373 moveto
104.028 61.4682 115.3561 50.5836 119.4613 46.6391 curveto
stroke
grestore
% 3--46
gsave
1 setlinewidth
0 0 0 edgecolor
newpath 100.7106 67.2642 moveto
109.2153 69.078 139.646 75.5678 148.0365 77.3573 curveto
stroke
grestore
% 3--54
gsave
1 setlinewidth
0 0 0 edgecolor
newpath 99.3549 68.7673 moveto
102.1774 75.2116 111.0862 95.5511 113.8013 101.7499 curveto
stroke
grestore
% 62
gsave
0 0 0 nodecolor
80.5774 34.8332 1.8 1.8 ellipse_path fill
1 setlinewidth
filled
0 0 0 nodecolor
80.5774 34.8332 1.8 1.8 ellipse_path stroke
grestore
% 3--62
gsave
1 setlinewidth
0 0 0 edgecolor
newpath 97.526 65.0722 moveto
94.3869 59.4716 84.4791 41.7944 81.4595 36.407 curveto
stroke
grestore
% 3--64
gsave
1 setlinewidth
0 0 0 edgecolor
newpath 100.3291 66.771 moveto
108.7259 66.6826 143.3628 66.3179 151.8909 66.2281 curveto
stroke
grestore
% 3--65
gsave
1 setlinewidth
0 0 0 edgecolor
newpath 100.508 66.6942 moveto
107.0893 66.3805 127.8618 65.3904 134.1925 65.0887 curveto
stroke
grestore
% 3--76
gsave
1 setlinewidth
0 0 0 edgecolor
newpath 99.6248 68.3405 moveto
104.8076 75.4137 126.187 104.591 131.4509 111.7748 curveto
stroke
grestore
% 3--84
gsave
1 setlinewidth
0 0 0 edgecolor
newpath 100.3236 66.3848 moveto
108.6955 64.5339 143.2294 56.8992 151.7321 55.0194 curveto
stroke
grestore
% 3--87
gsave
1 setlinewidth
0 0 0 edgecolor
newpath 99.6483 68.357 moveto
102.8423 72.6729 111.7456 84.7033 114.972 89.063 curveto
stroke
grestore
% 89
gsave
0 0 0 nodecolor
47.2609 72.686 1.8 1.8 ellipse_path fill
1 setlinewidth
filled
0 0 0 nodecolor
47.2609 72.686 1.8 1.8 ellipse_path stroke
grestore
% 3--89
gsave
1 setlinewidth
0 0 0 edgecolor
newpath 96.2878 67.0437 moveto
87.8613 68.0135 57.7103 71.4834 49.3969 72.4401 curveto
stroke
grestore
% 92
gsave
0 0 0 nodecolor
64.9685 34.0095 1.8 1.8 ellipse_path fill
1 setlinewidth
filled
0 0 0 nodecolor
64.9685 34.0095 1.8 1.8 ellipse_path stroke
grestore
% 3--92
gsave
1 setlinewidth
0 0 0 edgecolor
newpath 97.0486 65.3819 moveto
91.5349 59.9897 71.8059 40.6961 66.3662 35.3764 curveto
stroke
grestore
% 94
gsave
0 0 0 nodecolor
128.657 20.7511 1.8 1.8 ellipse_path fill
1 setlinewidth
filled
0 0 0 nodecolor
128.657 20.7511 1.8 1.8 ellipse_path stroke
grestore
% 3--94
gsave
1 setlinewidth
0 0 0 edgecolor
newpath 99.4927 65.2586 moveto
104.073 58.2686 122.9667 29.435 127.6185 22.3359 curveto
stroke
grestore
% 96
gsave
0 0 0 nodecolor
114.7234 15.7707 1.8 1.8 ellipse_path fill
1 setlinewidth
filled
0 0 0 nodecolor
114.7234 15.7707 1.8 1.8 ellipse_path stroke
grestore
% 3--96
gsave
1 setlinewidth
0 0 0 edgecolor
newpath 99.1865 64.5982 moveto
101.8569 56.2059 111.4119 26.1775 114.0465 17.898 curveto
stroke
grestore
% 4--5
gsave
1 setlinewidth
0 0 0 edgecolor
newpath 88.6865 94.719 moveto
92.8279 90.8582 104.372 80.0963 108.5554 76.1964 curveto
stroke
grestore
% 4--6
gsave
1 setlinewidth
0 0 0 edgecolor
newpath 86.2615 94.2354 moveto
82.7329 87.0194 70.107 61.1999 66.6258 54.0809 curveto
stroke
grestore
% 4--7
gsave
1 setlinewidth
0 0 0 edgecolor
newpath 85.8543 97.4706 moveto
81.6028 101.7904 68.3536 115.2523 63.9247 119.7523 curveto
stroke
grestore
% 9
gsave
0 0 0 nodecolor
117.0657 58.3682 1.8 1.8 ellipse_path fill
1 setlinewidth
filled
0 0 0 nodecolor
117.0657 58.3682 1.8 1.8 ellipse_path stroke
grestore
% 4--9
gsave
1 setlinewidth
0 0 0 edgecolor
newpath 88.4672 94.4982 moveto
93.3826 88.2884 110.9704 66.0688 115.8197 59.9423 curveto
stroke
grestore
% 4--12
gsave
1 setlinewidth
0 0 0 edgecolor
newpath 86.6637 94.1674 moveto
84.9701 87.8014 79.6248 67.7088 77.9957 61.5852 curveto
stroke
grestore
% 4--16
gsave
1 setlinewidth
0 0 0 edgecolor
newpath 88.4399 97.4851 moveto
91.902 101.2447 101.5525 111.7249 105.0498 115.5227 curveto
stroke
grestore
% 4--17
gsave
1 setlinewidth
0 0 0 edgecolor
newpath 85.4848 94.9286 moveto
81.9253 92.431 73.731 86.6814 70.3164 84.2854 curveto
stroke
grestore
% 4--18
gsave
1 setlinewidth
0 0 0 edgecolor
newpath 85.3463 95.6138 moveto
79.4695 93.993 61.1554 88.9422 55.0335 87.2538 curveto
stroke
grestore
% 4--19
gsave
1 setlinewidth
0 0 0 edgecolor
newpath 89.0503 95.5344 moveto
96.1975 93.2913 121.7711 85.2652 128.8224 83.0522 curveto
stroke
grestore
% 4--20
gsave
1 setlinewidth
0 0 0 edgecolor
newpath 88.6158 97.7309 moveto
94.0996 103.8961 113.7216 125.9562 119.1318 132.0386 curveto
stroke
grestore
% 4--30
gsave
1 setlinewidth
0 0 0 edgecolor
newpath 87.4798 94.2414 moveto
88.8333 85.6674 94.4163 50.2995 95.7909 41.5915 curveto
stroke
grestore
% 38
gsave
0 0 0 nodecolor
46.8842 127.8817 1.8 1.8 ellipse_path fill
1 setlinewidth
filled
0 0 0 nodecolor
46.8842 127.8817 1.8 1.8 ellipse_path stroke
grestore
% 4--38
gsave
1 setlinewidth
0 0 0 edgecolor
newpath 85.4516 97.4851 moveto
78.8229 102.7095 55.1043 121.4031 48.5645 126.5574 curveto
stroke
grestore
% 41
gsave
0 0 0 nodecolor
35.6494 71.095 1.8 1.8 ellipse_path fill
1 setlinewidth
filled
0 0 0 nodecolor
35.6494 71.095 1.8 1.8 ellipse_path stroke
grestore
% 4--41
gsave
1 setlinewidth
0 0 0 edgecolor
newpath 85.4686 95.2877 moveto
77.6444 91.4882 45.3697 75.8153 37.4233 71.9564 curveto
stroke
grestore
% 4--56
gsave
1 setlinewidth
0 0 0 edgecolor
newpath 88.0126 98.0341 moveto
91.1877 105.3599 102.5484 131.5729 105.6808 138.8004 curveto
stroke
grestore
% 57
gsave
0 0 0 nodecolor
63.6039 148.6047 1.8 1.8 ellipse_path fill
1 setlinewidth
filled
0 0 0 nodecolor
63.6039 148.6047 1.8 1.8 ellipse_path stroke
grestore
% 4--57
gsave
1 setlinewidth
0 0 0 edgecolor
newpath 86.3987 97.8666 moveto
82.8188 105.8351 68.0514 138.705 64.4156 146.798 curveto
stroke
grestore
% 4--62
gsave
1 setlinewidth
0 0 0 edgecolor
newpath 86.9634 94.0812 moveto
85.9605 84.7762 81.8234 46.3932 80.8048 36.9428 curveto
stroke
grestore
% 4--76
gsave
1 setlinewidth
0 0 0 edgecolor
newpath 89.1358 96.8619 moveto
96.6107 99.7007 123.3567 109.8582 130.7312 112.6589 curveto
stroke
grestore
% 4--81
gsave
1 setlinewidth
0 0 0 edgecolor
newpath 87.6303 98.0629 moveto
88.8619 103.4143 92.295 118.3315 93.5392 123.7373 curveto
stroke
grestore
% 4--87
gsave
1 setlinewidth
0 0 0 edgecolor
newpath 89.0844 95.7625 moveto
94.322 94.7767 108.9219 92.0288 114.2127 91.033 curveto
stroke
grestore
% 5--15
gsave
1 setlinewidth
0 0 0 edgecolor
newpath 110.4317 76.7916 moveto
111.7234 84.5617 116.3452 112.3644 117.6196 120.0303 curveto
stroke
grestore
% 5--18
gsave
1 setlinewidth
0 0 0 edgecolor
newpath 108.1952 75.1589 moveto
99.5295 76.9711 63.7834 84.4464 54.9822 86.287 curveto
stroke
grestore
% 5--33
gsave
1 setlinewidth
0 0 0 edgecolor
newpath 111.8529 74.2849 moveto
114.6055 73.5384 119.9019 72.1021 122.6634 71.3532 curveto
stroke
grestore
% 5--48
gsave
1 setlinewidth
0 0 0 edgecolor
newpath 111.8152 73.2071 moveto
118.403 67.2557 141.9751 45.9607 148.4745 40.0892 curveto
stroke
grestore
% 5--50
gsave
1 setlinewidth
0 0 0 edgecolor
newpath 109.0629 76.2998 moveto
105.1863 82.0804 91.4973 102.4933 87.3141 108.7312 curveto
stroke
grestore
% 58
gsave
0 0 0 nodecolor
91.9961 5.8 1.8 1.8 ellipse_path fill
1 setlinewidth
filled
0 0 0 nodecolor
91.9961 5.8 1.8 1.8 ellipse_path stroke
grestore
% 5--58
gsave
1 setlinewidth
0 0 0 edgecolor
newpath 109.5721 72.7723 moveto
106.9293 62.702 95.0525 17.4461 92.486 7.6669 curveto
stroke
grestore
% 5--65
gsave
1 setlinewidth
0 0 0 edgecolor
newpath 111.7968 74.1213 moveto
116.487 72.3569 129.5612 67.4385 134.2991 65.6562 curveto
stroke
grestore
% 5--66
gsave
1 setlinewidth
0 0 0 edgecolor
newpath 108.3676 75.4411 moveto
99.7814 78.8192 61.7211 93.7931 52.3402 97.4838 curveto
stroke
grestore
% 68
gsave
0 0 0 nodecolor
140.2584 10.4524 1.8 1.8 ellipse_path fill
1 setlinewidth
filled
0 0 0 nodecolor
140.2584 10.4524 1.8 1.8 ellipse_path stroke
grestore
% 5--68
gsave
1 setlinewidth
0 0 0 edgecolor
newpath 110.9645 72.9065 moveto
115.3693 63.5156 135.1643 21.3128 139.4418 12.1933 curveto
stroke
grestore
% 5--76
gsave
1 setlinewidth
0 0 0 edgecolor
newpath 111.0624 76.4211 moveto
114.7686 82.7731 128.03 105.5016 131.6865 111.7683 curveto
stroke
grestore
% 6--18
gsave
1 setlinewidth
0 0 0 edgecolor
newpath 65.0478 54.1037 moveto
62.8196 60.1406 55.787 79.1944 53.6437 85.0014 curveto
stroke
grestore
% 7--15
gsave
1 setlinewidth
0 0 0 edgecolor
newpath 64.3122 121.2596 moveto
72.7356 121.3759 107.4822 121.8555 116.0372 121.9735 curveto
stroke
grestore
% 7--18
gsave
1 setlinewidth
0 0 0 edgecolor
newpath 61.9583 119.3773 moveto
60.333 113.4367 55.2681 94.9239 53.575 88.7357 curveto
stroke
grestore
% 7--21
gsave
1 setlinewidth
0 0 0 edgecolor
newpath 64.2014 120.3702 moveto
70.8436 117.063 94.6102 105.2294 101.1632 101.9666 curveto
stroke
grestore
% 7--27
gsave
1 setlinewidth
0 0 0 edgecolor
newpath 64.3172 122.0936 moveto
72.7633 126.0157 107.6036 142.1941 116.1817 146.1774 curveto
stroke
grestore
% 39
gsave
0 0 0 nodecolor
31.1433 161.4045 1.8 1.8 ellipse_path fill
1 setlinewidth
filled
0 0 0 nodecolor
31.1433 161.4045 1.8 1.8 ellipse_path stroke
grestore
% 7--39
gsave
1 setlinewidth
0 0 0 edgecolor
newpath 61.1204 122.9602 moveto
55.9681 129.5678 37.5324 153.2107 32.4493 159.7296 curveto
stroke
grestore
% 7--50
gsave
1 setlinewidth
0 0 0 edgecolor
newpath 64.3201 120.3962 moveto
68.7581 118.3901 79.9476 113.3322 84.3103 111.3602 curveto
stroke
grestore
% 7--66
gsave
1 setlinewidth
0 0 0 edgecolor
newpath 61.5073 119.4352 moveto
59.2566 115.2128 53.6488 104.6929 51.3031 100.2924 curveto
stroke
grestore
% 88
gsave
0 0 0 nodecolor
18.8722 146.0407 1.8 1.8 ellipse_path fill
1 setlinewidth
filled
0 0 0 nodecolor
18.8722 146.0407 1.8 1.8 ellipse_path stroke
grestore
% 7--88
gsave
1 setlinewidth
0 0 0 edgecolor
newpath 60.5931 122.3 moveto
53.4223 126.3805 27.7643 140.9808 20.6898 145.0064 curveto
stroke
grestore
% 93
gsave
0 0 0 nodecolor
10.619 128.2636 1.8 1.8 ellipse_path fill
1 setlinewidth
filled
0 0 0 nodecolor
10.619 128.2636 1.8 1.8 ellipse_path stroke
grestore
% 7--93
gsave
1 setlinewidth
0 0 0 edgecolor
newpath 60.2385 121.5362 moveto
51.7101 122.6925 21.1946 126.8298 12.7808 127.9705 curveto
stroke
grestore
% 95
gsave
0 0 0 nodecolor
46.5217 173.5895 1.8 1.8 ellipse_path fill
1 setlinewidth
filled
0 0 0 nodecolor
46.5217 173.5895 1.8 1.8 ellipse_path stroke
grestore
% 7--95
gsave
1 setlinewidth
0 0 0 edgecolor
newpath 61.9358 122.9761 moveto
59.515 130.925 49.5291 163.7142 47.0705 171.7873 curveto
stroke
grestore
% 8
gsave
0 0 0 nodecolor
97.8 161.8 1.8 1.8 ellipse_path fill
1 setlinewidth
filled
0 0 0 nodecolor
97.8 161.8 1.8 1.8 ellipse_path stroke
grestore
% 9--15
gsave
1 setlinewidth
0 0 0 edgecolor
newpath 117.0911 60.204 moveto
117.2175 69.3329 117.778 109.7987 117.9161 119.7725 curveto
stroke
grestore
% 9--27
gsave
1 setlinewidth
0 0 0 edgecolor
newpath 117.0872 60.2208 moveto
117.2214 71.7641 117.9414 133.7107 118.0752 145.2243 curveto
stroke
grestore
% 9--48
gsave
1 setlinewidth
0 0 0 edgecolor
newpath 118.8441 57.3044 moveto
124.6414 53.8365 142.9389 42.891 148.5154 39.5551 curveto
stroke
grestore
% 10--76
gsave
1 setlinewidth
0 0 0 edgecolor
newpath 181.3705 110.8762 moveto
172.9925 111.3063 143.0151 112.8451 134.7496 113.2694 curveto
stroke
grestore
% 11--18
gsave
1 setlinewidth
0 0 0 edgecolor
newpath 54.0663 48.6021 moveto
53.872 55.658 53.259 77.9279 53.0721 84.715 curveto
stroke
grestore
% 11--66
gsave
1 setlinewidth
0 0 0 edgecolor
newpath 53.9591 48.6664 moveto
53.3208 57.1985 51.0368 87.7276 50.4071 96.1452 curveto
stroke
grestore
% 12--33
gsave
1 setlinewidth
0 0 0 edgecolor
newpath 79.5357 60.2722 moveto
87.253 62.0941 114.8665 68.6131 122.4802 70.4105 curveto
stroke
grestore
% 12--50
gsave
1 setlinewidth
0 0 0 edgecolor
newpath 77.8881 61.9773 moveto
79.2979 70.3267 84.3425 100.2017 85.7334 108.4389 curveto
stroke
grestore
% 13
gsave
0 0 0 nodecolor
173.8 41.8 1.8 1.8 ellipse_path fill
1 setlinewidth
filled
0 0 0 nodecolor
173.8 41.8 1.8 1.8 ellipse_path stroke
grestore
% 14
gsave
0 0 0 nodecolor
181.8 165.8 1.8 1.8 ellipse_path fill
1 setlinewidth
filled
0 0 0 nodecolor
181.8 165.8 1.8 1.8 ellipse_path stroke
grestore
% 16--50
gsave
1 setlinewidth
0 0 0 edgecolor
newpath 104.4678 116.3324 moveto
100.7089 115.1507 92.2513 112.492 88.2574 111.2365 curveto
stroke
grestore
% 17--18
gsave
1 setlinewidth
0 0 0 edgecolor
newpath 66.8462 83.6347 moveto
63.8212 84.3047 58.0007 85.594 54.966 86.2662 curveto
stroke
grestore
% 17--21
gsave
1 setlinewidth
0 0 0 edgecolor
newpath 70.6105 84.1701 moveto
76.5811 87.311 95.4259 97.2244 101.1691 100.2456 curveto
stroke
grestore
% 17--50
gsave
1 setlinewidth
0 0 0 edgecolor
newpath 69.9148 85.001 moveto
73.1042 90.0396 82.1045 104.258 85.1041 108.9967 curveto
stroke
grestore
% 17--54
gsave
1 setlinewidth
0 0 0 edgecolor
newpath 70.7475 84.0812 moveto
78.2837 87.4293 105.2492 99.409 112.6842 102.7122 curveto
stroke
grestore
% 17--66
gsave
1 setlinewidth
0 0 0 edgecolor
newpath 67.0685 84.6002 moveto
63.484 87.5209 55.2322 94.2446 51.7936 97.0464 curveto
stroke
grestore
% 18--24
gsave
1 setlinewidth
0 0 0 edgecolor
newpath 53.4778 84.9063 moveto
54.5583 80.7013 57.2501 70.2246 58.376 65.8423 curveto
stroke
grestore
% 18--50
gsave
1 setlinewidth
0 0 0 edgecolor
newpath 54.7957 87.9805 moveto
60.592 92.1617 78.8864 105.3585 84.4619 109.3804 curveto
stroke
grestore
% 63
gsave
0 0 0 nodecolor
9.3709 61.4553 1.8 1.8 ellipse_path fill
1 setlinewidth
filled
0 0 0 nodecolor
9.3709 61.4553 1.8 1.8 ellipse_path stroke
grestore
% 18--63
gsave
1 setlinewidth
0 0 0 edgecolor
newpath 51.1421 85.6132 moveto
43.9626 81.4611 18.2738 66.6042 11.1907 62.5078 curveto
stroke
grestore
% 74
gsave
0 0 0 nodecolor
2.2353 98.4563 1.8 1.8 ellipse_path fill
1 setlinewidth
filled
0 0 0 nodecolor
2.2353 98.4563 1.8 1.8 ellipse_path stroke
grestore
% 18--74
gsave
1 setlinewidth
0 0 0 edgecolor
newpath 50.8355 87.2031 moveto
42.4823 89.1372 12.5937 96.0579 4.3527 97.966 curveto
stroke
grestore
% 18--81
gsave
1 setlinewidth
0 0 0 edgecolor
newpath 54.381 87.9964 moveto
60.6027 93.9218 86.2673 118.3643 92.5862 124.3824 curveto
stroke
grestore
% 83
gsave
0 0 0 nodecolor
1.8 77.5161 1.8 1.8 ellipse_path fill
1 setlinewidth
filled
0 0 0 nodecolor
1.8 77.5161 1.8 1.8 ellipse_path stroke
grestore
% 18--83
gsave
1 setlinewidth
0 0 0 edgecolor
newpath 50.8168 86.3033 moveto
42.392 84.793 12.2472 79.389 3.9355 77.899 curveto
stroke
grestore
% 18--92
gsave
1 setlinewidth
0 0 0 edgecolor
newpath 53.531 84.4339 moveto
55.4969 75.7672 62.5308 44.7567 64.4702 36.2064 curveto
stroke
grestore
% 18--97
gsave
1 setlinewidth
0 0 0 edgecolor
newpath 54.2797 88.3108 moveto
59.1113 94.4855 76.3995 116.5792 81.1662 122.671 curveto
stroke
grestore
% 19--50
gsave
1 setlinewidth
0 0 0 edgecolor
newpath 128.7201 83.6898 moveto
121.3932 88.3073 95.1766 104.8294 87.948 109.3849 curveto
stroke
grestore
% 19--87
gsave
1 setlinewidth
0 0 0 edgecolor
newpath 128.8592 83.487 moveto
126.081 85.0575 120.7354 88.0795 117.9483 89.6551 curveto
stroke
grestore
% 20--50
gsave
1 setlinewidth
0 0 0 edgecolor
newpath 118.6707 132.3624 moveto
112.6365 128.3234 93.5909 115.5755 87.7865 111.6904 curveto
stroke
grestore
% 20--76
gsave
1 setlinewidth
0 0 0 edgecolor
newpath 121.4717 132.0146 moveto
123.7009 128.29 129.255 119.0105 131.5782 115.1289 curveto
stroke
grestore
% 20--87
gsave
1 setlinewidth
0 0 0 edgecolor
newpath 120.3344 131.7566 moveto
119.6298 124.8226 117.1416 100.3372 116.3812 92.8548 curveto
stroke
grestore
% 21--24
gsave
1 setlinewidth
0 0 0 edgecolor
newpath 101.3842 99.8885 moveto
94.7095 94.2311 67.1762 70.8944 60.3971 65.1486 curveto
stroke
grestore
% 21--45
gsave
1 setlinewidth
0 0 0 edgecolor
newpath 103.4499 99.267 moveto
106.2017 90.7739 117.5527 55.7396 120.3475 47.1138 curveto
stroke
grestore
% 21--46
gsave
1 setlinewidth
0 0 0 edgecolor
newpath 104.8813 100.1266 moveto
112.6691 96.2921 140.535 82.572 148.2182 78.789 curveto
stroke
grestore
% 21--49
gsave
1 setlinewidth
0 0 0 edgecolor
newpath 104.3133 102.9199 moveto
109.927 109.7784 130.0135 134.3189 135.5518 141.0853 curveto
stroke
grestore
% 21--76
gsave
1 setlinewidth
0 0 0 edgecolor
newpath 104.8008 101.932 moveto
110.2872 104.1889 125.769 110.5577 130.9288 112.6803 curveto
stroke
grestore
% 21--81
gsave
1 setlinewidth
0 0 0 edgecolor
newpath 102.1525 103.0584 moveto
100.4899 107.6792 96.2981 119.3296 94.6638 123.872 curveto
stroke
grestore
% 21--97
gsave
1 setlinewidth
0 0 0 edgecolor
newpath 101.5047 102.6444 moveto
97.8071 106.8214 87.5 118.4647 83.7649 122.6841 curveto
stroke
grestore
% 23
gsave
0 0 0 nodecolor
161.8 181.8 1.8 1.8 ellipse_path fill
1 setlinewidth
filled
0 0 0 nodecolor
161.8 181.8 1.8 1.8 ellipse_path stroke
grestore
% 24--66
gsave
1 setlinewidth
0 0 0 edgecolor
newpath 58.4194 65.7177 moveto
56.9335 71.6421 52.3029 90.1043 50.755 96.2757 curveto
stroke
grestore
% 26
gsave
0 0 0 nodecolor
97.8 181.8 1.8 1.8 ellipse_path fill
1 setlinewidth
filled
0 0 0 nodecolor
97.8 181.8 1.8 1.8 ellipse_path stroke
grestore
% 28--76
gsave
1 setlinewidth
0 0 0 edgecolor
newpath 169.1967 144.1918 moveto
162.9111 138.8958 140.4204 119.9459 134.2192 114.7209 curveto
stroke
grestore
% 29--76
gsave
1 setlinewidth
0 0 0 edgecolor
newpath 158.0902 152.8278 moveto
153.7135 146.0475 138.0533 121.7865 133.7354 115.0972 curveto
stroke
grestore
% 30--33
gsave
1 setlinewidth
0 0 0 edgecolor
newpath 97.3154 40.9893 moveto
101.8921 46.0321 118.0535 63.8393 122.9922 69.281 curveto
stroke
grestore
% 30--65
gsave
1 setlinewidth
0 0 0 edgecolor
newpath 97.8141 40.737 moveto
104.3845 44.9073 127.8942 59.8291 134.3764 63.9434 curveto
stroke
grestore
% 31--76
gsave
1 setlinewidth
0 0 0 edgecolor
newpath 173.5102 133.0896 moveto
166.4832 129.7018 141.3398 117.5796 134.4072 114.2372 curveto
stroke
grestore
% 32
gsave
0 0 0 nodecolor
33.8 49.8 1.8 1.8 ellipse_path fill
1 setlinewidth
filled
0 0 0 nodecolor
33.8 49.8 1.8 1.8 ellipse_path stroke
grestore
% 33--45
gsave
1 setlinewidth
0 0 0 edgecolor
newpath 124.1645 68.857 moveto
123.5136 64.032 121.8724 51.8669 121.2325 47.1239 curveto
stroke
grestore
% 33--76
gsave
1 setlinewidth
0 0 0 edgecolor
newpath 124.7883 72.6988 moveto
126.1354 79.6906 130.9555 104.7082 132.2845 111.6061 curveto
stroke
grestore
% 33--87
gsave
1 setlinewidth
0 0 0 edgecolor
newpath 123.6725 72.6991 moveto
122.1356 76.3743 118.6776 84.6434 117.0447 88.5483 curveto
stroke
grestore
% 33--97
gsave
1 setlinewidth
0 0 0 edgecolor
newpath 123.0375 72.6479 moveto
116.5399 80.8945 89.3748 115.3723 83.5101 122.8157 curveto
stroke
grestore
% 35
gsave
0 0 0 nodecolor
33.8 29.8 1.8 1.8 ellipse_path fill
1 setlinewidth
filled
0 0 0 nodecolor
33.8 29.8 1.8 1.8 ellipse_path stroke
grestore
% 36
gsave
0 0 0 nodecolor
189.8 185.8 1.8 1.8 ellipse_path fill
1 setlinewidth
filled
0 0 0 nodecolor
189.8 185.8 1.8 1.8 ellipse_path stroke
grestore
% 37
gsave
0 0 0 nodecolor
169.8 21.8 1.8 1.8 ellipse_path fill
1 setlinewidth
filled
0 0 0 nodecolor
169.8 21.8 1.8 1.8 ellipse_path stroke
grestore
% 38--50
gsave
1 setlinewidth
0 0 0 edgecolor
newpath 48.5689 127.1372 moveto
54.9007 124.339 77.2599 114.4579 84.0926 111.4384 curveto
stroke
grestore
% 40
gsave
0 0 0 nodecolor
189.8 21.8 1.8 1.8 ellipse_path fill
1 setlinewidth
filled
0 0 0 nodecolor
189.8 21.8 1.8 1.8 ellipse_path stroke
grestore
% 42
gsave
0 0 0 nodecolor
193.8 41.8 1.8 1.8 ellipse_path fill
1 setlinewidth
filled
0 0 0 nodecolor
193.8 41.8 1.8 1.8 ellipse_path stroke
grestore
% 43--76
gsave
1 setlinewidth
0 0 0 edgecolor
newpath 180.7567 99.7658 moveto
172.4842 102.1055 142.8843 110.4771 134.7229 112.7854 curveto
stroke
grestore
% 44
gsave
0 0 0 nodecolor
25.8 189.8 1.8 1.8 ellipse_path fill
1 setlinewidth
filled
0 0 0 nodecolor
25.8 189.8 1.8 1.8 ellipse_path stroke
grestore
% 45--54
gsave
1 setlinewidth
0 0 0 edgecolor
newpath 120.7592 47.1303 moveto
119.791 55.9928 115.7973 92.5506 114.814 101.5515 curveto
stroke
grestore
% 45--65
gsave
1 setlinewidth
0 0 0 edgecolor
newpath 122.1539 46.7428 moveto
124.9295 50.3917 131.8448 59.4828 134.7374 63.2856 curveto
stroke
grestore
% 46--87
gsave
1 setlinewidth
0 0 0 edgecolor
newpath 148.3625 78.5079 moveto
142.5084 80.7181 124.2652 87.606 118.167 89.9085 curveto
stroke
grestore
% 47
gsave
0 0 0 nodecolor
197.8 141.8 1.8 1.8 ellipse_path fill
1 setlinewidth
filled
0 0 0 nodecolor
197.8 141.8 1.8 1.8 ellipse_path stroke
grestore
% 49--54
gsave
1 setlinewidth
0 0 0 edgecolor
newpath 136.0132 141.1367 moveto
132.3318 134.6784 119.1596 111.5696 115.5277 105.1979 curveto
stroke
grestore
% 49--76
gsave
1 setlinewidth
0 0 0 edgecolor
newpath 136.6895 140.8918 moveto
135.9034 135.5693 133.7121 120.7328 132.918 115.3562 curveto
stroke
grestore
% 49--87
gsave
1 setlinewidth
0 0 0 edgecolor
newpath 136.2822 141.0885 moveto
133.1218 133.1697 120.0852 100.5046 116.8754 92.462 curveto
stroke
grestore
% 50--66
gsave
1 setlinewidth
0 0 0 edgecolor
newpath 84.1636 109.8969 moveto
77.8814 107.7505 58.0535 100.9758 52.0106 98.9112 curveto
stroke
grestore
% 75
gsave
0 0 0 nodecolor
78.3359 176.2729 1.8 1.8 ellipse_path fill
1 setlinewidth
filled
0 0 0 nodecolor
78.3359 176.2729 1.8 1.8 ellipse_path stroke
grestore
% 50--75
gsave
1 setlinewidth
0 0 0 edgecolor
newpath 85.867 112.4513 moveto
84.7545 121.8795 79.8229 163.6718 78.6074 173.9725 curveto
stroke
grestore
% 50--87
gsave
1 setlinewidth
0 0 0 edgecolor
newpath 87.7074 109.4861 moveto
92.8794 106.065 108.997 95.4039 114.3847 91.8402 curveto
stroke
grestore
% 50--97
gsave
1 setlinewidth
0 0 0 edgecolor
newpath 85.5127 112.693 moveto
84.7973 115.3383 83.59 119.8023 82.9054 122.3339 curveto
stroke
grestore
% 51
gsave
0 0 0 nodecolor
141.8 193.8 1.8 1.8 ellipse_path fill
1 setlinewidth
filled
0 0 0 nodecolor
141.8 193.8 1.8 1.8 ellipse_path stroke
grestore
% 52
gsave
0 0 0 nodecolor
57.8 193.8 1.8 1.8 ellipse_path fill
1 setlinewidth
filled
0 0 0 nodecolor
57.8 193.8 1.8 1.8 ellipse_path stroke
grestore
% 53
gsave
0 0 0 nodecolor
201.8 161.8 1.8 1.8 ellipse_path fill
1 setlinewidth
filled
0 0 0 nodecolor
201.8 161.8 1.8 1.8 ellipse_path stroke
grestore
% 54--87
gsave
1 setlinewidth
0 0 0 edgecolor
newpath 114.8389 101.5461 moveto
115.1414 99.0529 115.6519 94.8456 115.9413 92.4596 curveto
stroke
grestore
% 54--97
gsave
1 setlinewidth
0 0 0 edgecolor
newpath 112.8631 104.6724 moveto
107.2192 108.2959 89.4058 119.7325 83.9769 123.2179 curveto
stroke
grestore
% 55--76
gsave
1 setlinewidth
0 0 0 edgecolor
newpath 146.9797 158.499 moveto
144.5126 150.7439 135.6852 122.9952 133.2513 115.3442 curveto
stroke
grestore
% 59
gsave
0 0 0 nodecolor
77.8 197.8 1.8 1.8 ellipse_path fill
1 setlinewidth
filled
0 0 0 nodecolor
77.8 197.8 1.8 1.8 ellipse_path stroke
grestore
% 60--76
gsave
1 setlinewidth
0 0 0 edgecolor
newpath 176.6091 121.9786 moveto
169.0495 120.5004 142.0003 115.2114 134.5422 113.7531 curveto
stroke
grestore
% 61
gsave
0 0 0 nodecolor
53.8 13.8 1.8 1.8 ellipse_path fill
1 setlinewidth
filled
0 0 0 nodecolor
53.8 13.8 1.8 1.8 ellipse_path stroke
grestore
% 63--66
gsave
1 setlinewidth
0 0 0 edgecolor
newpath 10.7308 62.6815 moveto
16.9366 68.2767 42.5355 91.3568 48.8383 97.0394 curveto
stroke
grestore
% 64--87
gsave
1 setlinewidth
0 0 0 edgecolor
newpath 152.1775 67.259 moveto
145.9868 71.2822 123.8357 85.6777 117.7281 89.6469 curveto
stroke
grestore
% 65--76
gsave
1 setlinewidth
0 0 0 edgecolor
newpath 135.8951 67.0793 moveto
135.3333 75.0369 133.3227 103.5105 132.7684 111.3613 curveto
stroke
grestore
% 65--87
gsave
1 setlinewidth
0 0 0 edgecolor
newpath 134.7373 66.6846 moveto
131.0742 71.4132 120.7372 84.7567 117.292 89.2039 curveto
stroke
grestore
% 66--97
gsave
1 setlinewidth
0 0 0 edgecolor
newpath 51.9736 99.702 moveto
57.6073 104.246 75.3887 118.5882 80.8078 122.9592 curveto
stroke
grestore
% 67
gsave
0 0 0 nodecolor
169.8 201.8 1.8 1.8 ellipse_path fill
1 setlinewidth
filled
0 0 0 nodecolor
169.8 201.8 1.8 1.8 ellipse_path stroke
grestore
% 69
gsave
0 0 0 nodecolor
97.8 201.8 1.8 1.8 ellipse_path fill
1 setlinewidth
filled
0 0 0 nodecolor
97.8 201.8 1.8 1.8 ellipse_path stroke
grestore
% 70
gsave
0 0 0 nodecolor
13.8 41.8 1.8 1.8 ellipse_path fill
1 setlinewidth
filled
0 0 0 nodecolor
13.8 41.8 1.8 1.8 ellipse_path stroke
grestore
% 72
gsave
0 0 0 nodecolor
13.8 21.8 1.8 1.8 ellipse_path fill
1 setlinewidth
filled
0 0 0 nodecolor
13.8 21.8 1.8 1.8 ellipse_path stroke
grestore
% 91
gsave
0 0 0 nodecolor
120.3028 183.1174 1.8 1.8 ellipse_path fill
1 setlinewidth
filled
0 0 0 nodecolor
120.3028 183.1174 1.8 1.8 ellipse_path stroke
grestore
% 76--91
gsave
1 setlinewidth
0 0 0 edgecolor
newpath 132.2704 115.3904 moveto
130.4709 125.5742 122.3839 171.3401 120.6364 181.2295 curveto
stroke
grestore
% 76--97
gsave
1 setlinewidth
0 0 0 edgecolor
newpath 130.4674 113.845 moveto
122.2043 115.631 92.6377 122.0214 84.4855 123.7834 curveto
stroke
grestore
% 77
gsave
0 0 0 nodecolor
33.8 9.8 1.8 1.8 ellipse_path fill
1 setlinewidth
filled
0 0 0 nodecolor
33.8 9.8 1.8 1.8 ellipse_path stroke
grestore
% 78
gsave
0 0 0 nodecolor
209.8 5.8 1.8 1.8 ellipse_path fill
1 setlinewidth
filled
0 0 0 nodecolor
209.8 5.8 1.8 1.8 ellipse_path stroke
grestore
% 80
gsave
0 0 0 nodecolor
209.8 181.8 1.8 1.8 ellipse_path fill
1 setlinewidth
filled
0 0 0 nodecolor
209.8 181.8 1.8 1.8 ellipse_path stroke
grestore
% 82
gsave
0 0 0 nodecolor
209.8 201.8 1.8 1.8 ellipse_path fill
1 setlinewidth
filled
0 0 0 nodecolor
209.8 201.8 1.8 1.8 ellipse_path stroke
grestore
% 85
gsave
0 0 0 nodecolor
189.8 205.8 1.8 1.8 ellipse_path fill
1 setlinewidth
filled
0 0 0 nodecolor
189.8 205.8 1.8 1.8 ellipse_path stroke
grestore
% 86
gsave
0 0 0 nodecolor
121.8 205.8 1.8 1.8 ellipse_path fill
1 setlinewidth
filled
0 0 0 nodecolor
121.8 205.8 1.8 1.8 ellipse_path stroke
grestore
% 98
gsave
0 0 0 nodecolor
9.8 169.8 1.8 1.8 ellipse_path fill
1 setlinewidth
filled
0 0 0 nodecolor
9.8 169.8 1.8 1.8 ellipse_path stroke
grestore
% 99
gsave
0 0 0 nodecolor
161.8 1.8 1.8 1.8 ellipse_path fill
1 setlinewidth
filled
0 0 0 nodecolor
161.8 1.8 1.8 1.8 ellipse_path stroke
grestore
endpage
showpage
grestore
%%PageTrailer
%%EndPage: 1
%%Trailer
end
restore
%%EOF
