%!PS-Adobe-3.0 EPSF-3.0
%%Creator: graphviz version 2.43.0 (0)
%%Title: G
%%Pages: 1
%%BoundingBox: 36 36 286 230
%%EndComments
save
%%BeginProlog
/DotDict 200 dict def
DotDict begin

/setupLatin1 {
mark
/EncodingVector 256 array def
 EncodingVector 0

ISOLatin1Encoding 0 255 getinterval putinterval
EncodingVector 45 /hyphen put

% Set up ISO Latin 1 character encoding
/starnetISO {
        dup dup findfont dup length dict begin
        { 1 index /FID ne { def }{ pop pop } ifelse
        } forall
        /Encoding EncodingVector def
        currentdict end definefont
} def
/Times-Roman starnetISO def
/Times-Italic starnetISO def
/Times-Bold starnetISO def
/Times-BoldItalic starnetISO def
/Helvetica starnetISO def
/Helvetica-Oblique starnetISO def
/Helvetica-Bold starnetISO def
/Helvetica-BoldOblique starnetISO def
/Courier starnetISO def
/Courier-Oblique starnetISO def
/Courier-Bold starnetISO def
/Courier-BoldOblique starnetISO def
cleartomark
} bind def

%%BeginResource: procset graphviz 0 0
/coord-font-family /Times-Roman def
/default-font-family /Times-Roman def
/coordfont coord-font-family findfont 8 scalefont def

/InvScaleFactor 1.0 def
/set_scale {
       dup 1 exch div /InvScaleFactor exch def
       scale
} bind def

% styles
/solid { [] 0 setdash } bind def
/dashed { [9 InvScaleFactor mul dup ] 0 setdash } bind def
/dotted { [1 InvScaleFactor mul 6 InvScaleFactor mul] 0 setdash } bind def
/invis {/fill {newpath} def /stroke {newpath} def /show {pop newpath} def} bind def
/bold { 2 setlinewidth } bind def
/filled { } bind def
/unfilled { } bind def
/rounded { } bind def
/diagonals { } bind def
/tapered { } bind def

% hooks for setting color 
/nodecolor { sethsbcolor } bind def
/edgecolor { sethsbcolor } bind def
/graphcolor { sethsbcolor } bind def
/nopcolor {pop pop pop} bind def

/beginpage {	% i j npages
	/npages exch def
	/j exch def
	/i exch def
	/str 10 string def
	npages 1 gt {
		gsave
			coordfont setfont
			0 0 moveto
			(\() show i str cvs show (,) show j str cvs show (\)) show
		grestore
	} if
} bind def

/set_font {
	findfont exch
	scalefont setfont
} def

% draw text fitted to its expected width
/alignedtext {			% width text
	/text exch def
	/width exch def
	gsave
		width 0 gt {
			[] 0 setdash
			text stringwidth pop width exch sub text length div 0 text ashow
		} if
	grestore
} def

/boxprim {				% xcorner ycorner xsize ysize
		4 2 roll
		moveto
		2 copy
		exch 0 rlineto
		0 exch rlineto
		pop neg 0 rlineto
		closepath
} bind def

/ellipse_path {
	/ry exch def
	/rx exch def
	/y exch def
	/x exch def
	matrix currentmatrix
	newpath
	x y translate
	rx ry scale
	0 0 1 0 360 arc
	setmatrix
} bind def

/endpage { showpage } bind def
/showpage { } def

/layercolorseq
	[	% layer color sequence - darkest to lightest
		[0 0 0]
		[.2 .8 .8]
		[.4 .8 .8]
		[.6 .8 .8]
		[.8 .8 .8]
	]
def

/layerlen layercolorseq length def

/setlayer {/maxlayer exch def /curlayer exch def
	layercolorseq curlayer 1 sub layerlen mod get
	aload pop sethsbcolor
	/nodecolor {nopcolor} def
	/edgecolor {nopcolor} def
	/graphcolor {nopcolor} def
} bind def

/onlayer { curlayer ne {invis} if } def

/onlayers {
	/myupper exch def
	/mylower exch def
	curlayer mylower lt
	curlayer myupper gt
	or
	{invis} if
} def

/curlayer 0 def

%%EndResource
%%EndProlog
%%BeginSetup
14 default-font-family set_font
% /arrowlength 10 def
% /arrowwidth 5 def

% make sure pdfmark is harmless for PS-interpreters other than Distiller
/pdfmark where {pop} {userdict /pdfmark /cleartomark load put} ifelse
% make '<<' and '>>' safe on PS Level 1 devices
/languagelevel where {pop languagelevel}{1} ifelse
2 lt {
    userdict (<<) cvn ([) cvn load put
    userdict (>>) cvn ([) cvn load put
} if

%%EndSetup
setupLatin1
%%Page: 1 1
%%PageBoundingBox: 36 36 286 230
%%PageOrientation: Portrait
0 0 1 beginpage
gsave
36 36 250 194 boxprim clip newpath
1 1 set_scale 0 rotate 40 40 translate
% 0
gsave
0 0 0 nodecolor
119.2672 39.1844 1.8 1.8 ellipse_path fill
1 setlinewidth
filled
0 0 0 nodecolor
119.2672 39.1844 1.8 1.8 ellipse_path stroke
grestore
% 10
gsave
0 0 0 nodecolor
132.7065 45.2958 1.8 1.8 ellipse_path fill
1 setlinewidth
filled
0 0 0 nodecolor
132.7065 45.2958 1.8 1.8 ellipse_path stroke
grestore
% 0--10
gsave
1 setlinewidth
0 0 0 edgecolor
newpath 120.9151 39.9338 moveto
123.4945 41.1067 128.4575 43.3636 131.0451 44.5403 curveto
stroke
grestore
% 20
gsave
0 0 0 nodecolor
117.508 63.6294 1.8 1.8 ellipse_path fill
1 setlinewidth
filled
0 0 0 nodecolor
117.508 63.6294 1.8 1.8 ellipse_path stroke
grestore
% 0--20
gsave
1 setlinewidth
0 0 0 edgecolor
newpath 119.1292 41.1026 moveto
118.7987 45.6947 117.9654 57.2729 117.6406 61.7871 curveto
stroke
grestore
% 26
gsave
0 0 0 nodecolor
76.6013 59.3838 1.8 1.8 ellipse_path fill
1 setlinewidth
filled
0 0 0 nodecolor
76.6013 59.3838 1.8 1.8 ellipse_path stroke
grestore
% 0--26
gsave
1 setlinewidth
0 0 0 edgecolor
newpath 117.4339 40.0524 moveto
110.4158 43.375 85.3042 55.2636 78.3803 58.5415 curveto
stroke
grestore
% 44
gsave
0 0 0 nodecolor
142.9203 72.9999 1.8 1.8 ellipse_path fill
1 setlinewidth
filled
0 0 0 nodecolor
142.9203 72.9999 1.8 1.8 ellipse_path stroke
grestore
% 0--44
gsave
1 setlinewidth
0 0 0 edgecolor
newpath 120.5389 41.0025 moveto
124.6843 46.9288 137.768 65.6339 141.7554 71.3345 curveto
stroke
grestore
% 56
gsave
0 0 0 nodecolor
140.0118 25.0384 1.8 1.8 ellipse_path fill
1 setlinewidth
filled
0 0 0 nodecolor
140.0118 25.0384 1.8 1.8 ellipse_path stroke
grestore
% 0--56
gsave
1 setlinewidth
0 0 0 edgecolor
newpath 120.895 38.0744 moveto
124.7156 35.4691 134.2345 28.9781 138.2162 26.2629 curveto
stroke
grestore
% 58
gsave
0 0 0 nodecolor
179.1264 49.3407 1.8 1.8 ellipse_path fill
1 setlinewidth
filled
0 0 0 nodecolor
179.1264 49.3407 1.8 1.8 ellipse_path stroke
grestore
% 0--58
gsave
1 setlinewidth
0 0 0 edgecolor
newpath 121.2589 39.5224 moveto
130.347 41.0643 167.8358 47.425 177.066 48.9911 curveto
stroke
grestore
% 1
gsave
0 0 0 nodecolor
125.1546 86.8993 1.8 1.8 ellipse_path fill
1 setlinewidth
filled
0 0 0 nodecolor
125.1546 86.8993 1.8 1.8 ellipse_path stroke
grestore
% 29
gsave
0 0 0 nodecolor
120.059 130.2755 1.8 1.8 ellipse_path fill
1 setlinewidth
filled
0 0 0 nodecolor
120.059 130.2755 1.8 1.8 ellipse_path stroke
grestore
% 1--29
gsave
1 setlinewidth
0 0 0 edgecolor
newpath 124.9356 88.7631 moveto
124.0974 95.8981 121.0983 121.4278 120.2714 128.4669 curveto
stroke
grestore
% 51
gsave
0 0 0 nodecolor
102.815 118.4958 1.8 1.8 ellipse_path fill
1 setlinewidth
filled
0 0 0 nodecolor
102.815 118.4958 1.8 1.8 ellipse_path stroke
grestore
% 1--51
gsave
1 setlinewidth
0 0 0 edgecolor
newpath 123.9535 88.5981 moveto
120.0384 94.1355 107.6813 111.6132 103.9152 116.9397 curveto
stroke
grestore
% 53
gsave
0 0 0 nodecolor
166.5642 107.0739 1.8 1.8 ellipse_path fill
1 setlinewidth
filled
0 0 0 nodecolor
166.5642 107.0739 1.8 1.8 ellipse_path stroke
grestore
% 1--53
gsave
1 setlinewidth
0 0 0 edgecolor
newpath 126.9339 87.7662 moveto
133.7453 91.0847 158.1176 102.9588 164.8376 106.2327 curveto
stroke
grestore
% 1--56
gsave
1 setlinewidth
0 0 0 edgecolor
newpath 125.5832 85.1147 moveto
127.7147 76.2398 137.163 36.9001 139.4918 27.2038 curveto
stroke
grestore
% 71
gsave
0 0 0 nodecolor
168.4747 134.2239 1.8 1.8 ellipse_path fill
1 setlinewidth
filled
0 0 0 nodecolor
168.4747 134.2239 1.8 1.8 ellipse_path stroke
grestore
% 1--71
gsave
1 setlinewidth
0 0 0 edgecolor
newpath 126.5959 88.4739 moveto
133.173 95.659 160.3036 125.2976 166.9835 132.5949 curveto
stroke
grestore
% 97
gsave
0 0 0 nodecolor
94.6024 74.4379 1.8 1.8 ellipse_path fill
1 setlinewidth
filled
0 0 0 nodecolor
94.6024 74.4379 1.8 1.8 ellipse_path stroke
grestore
% 1--97
gsave
1 setlinewidth
0 0 0 edgecolor
newpath 123.15 86.0817 moveto
117.5212 83.7858 101.6374 77.3073 96.3436 75.1481 curveto
stroke
grestore
% 98
gsave
0 0 0 nodecolor
87.1389 86.1039 1.8 1.8 ellipse_path fill
1 setlinewidth
filled
0 0 0 nodecolor
87.1389 86.1039 1.8 1.8 ellipse_path stroke
grestore
% 1--98
gsave
1 setlinewidth
0 0 0 edgecolor
newpath 123.1107 86.8566 moveto
116.4482 86.7171 95.4199 86.2771 89.0111 86.143 curveto
stroke
grestore
% 2
gsave
0 0 0 nodecolor
1.8 73.5948 1.8 1.8 ellipse_path fill
1 setlinewidth
filled
0 0 0 nodecolor
1.8 73.5948 1.8 1.8 ellipse_path stroke
grestore
% 63
gsave
0 0 0 nodecolor
41.6586 77.6303 1.8 1.8 ellipse_path fill
1 setlinewidth
filled
0 0 0 nodecolor
41.6586 77.6303 1.8 1.8 ellipse_path stroke
grestore
% 2--63
gsave
1 setlinewidth
0 0 0 edgecolor
newpath 3.943 73.8118 moveto
10.9284 74.519 32.9762 76.7513 39.6956 77.4316 curveto
stroke
grestore
% 3
gsave
0 0 0 nodecolor
167.5211 60.6614 1.8 1.8 ellipse_path fill
1 setlinewidth
filled
0 0 0 nodecolor
167.5211 60.6614 1.8 1.8 ellipse_path stroke
grestore
% 30
gsave
0 0 0 nodecolor
158.017 32.8043 1.8 1.8 ellipse_path fill
1 setlinewidth
filled
0 0 0 nodecolor
158.017 32.8043 1.8 1.8 ellipse_path stroke
grestore
% 3--30
gsave
1 setlinewidth
0 0 0 edgecolor
newpath 166.8975 58.8336 moveto
165.1796 53.7982 160.3908 39.7619 158.6554 34.6754 curveto
stroke
grestore
% 31
gsave
0 0 0 nodecolor
159.1746 118.6797 1.8 1.8 ellipse_path fill
1 setlinewidth
filled
0 0 0 nodecolor
159.1746 118.6797 1.8 1.8 ellipse_path stroke
grestore
% 3--31
gsave
1 setlinewidth
0 0 0 edgecolor
newpath 167.2434 62.5918 moveto
165.9762 71.4004 160.7489 107.7363 159.4619 116.6826 curveto
stroke
grestore
% 40
gsave
0 0 0 nodecolor
154.7247 74.3259 1.8 1.8 ellipse_path fill
1 setlinewidth
filled
0 0 0 nodecolor
154.7247 74.3259 1.8 1.8 ellipse_path stroke
grestore
% 3--40
gsave
1 setlinewidth
0 0 0 edgecolor
newpath 165.952 62.3369 moveto
163.3893 65.0735 158.3553 70.449 155.9985 72.9657 curveto
stroke
grestore
% 52
gsave
0 0 0 nodecolor
144.9334 12.9835 1.8 1.8 ellipse_path fill
1 setlinewidth
filled
0 0 0 nodecolor
144.9334 12.9835 1.8 1.8 ellipse_path stroke
grestore
% 3--52
gsave
1 setlinewidth
0 0 0 edgecolor
newpath 166.5505 58.6127 moveto
162.8351 50.7702 149.5407 22.7087 145.8752 14.9714 curveto
stroke
grestore
% 69
gsave
0 0 0 nodecolor
128.8177 75.2541 1.8 1.8 ellipse_path fill
1 setlinewidth
filled
0 0 0 nodecolor
128.8177 75.2541 1.8 1.8 ellipse_path stroke
grestore
% 3--69
gsave
1 setlinewidth
0 0 0 edgecolor
newpath 165.4402 61.4459 moveto
158.6573 64.0034 137.2485 72.0754 130.7238 74.5355 curveto
stroke
grestore
% 73
gsave
0 0 0 nodecolor
196.0259 34.9459 1.8 1.8 ellipse_path fill
1 setlinewidth
filled
0 0 0 nodecolor
196.0259 34.9459 1.8 1.8 ellipse_path stroke
grestore
% 3--73
gsave
1 setlinewidth
0 0 0 edgecolor
newpath 169.0536 59.2788 moveto
174.0493 54.772 189.8167 40.5475 194.6221 36.2124 curveto
stroke
grestore
% 76
gsave
0 0 0 nodecolor
152.439 87.486 1.8 1.8 ellipse_path fill
1 setlinewidth
filled
0 0 0 nodecolor
152.439 87.486 1.8 1.8 ellipse_path stroke
grestore
% 3--76
gsave
1 setlinewidth
0 0 0 edgecolor
newpath 166.5315 62.4214 moveto
163.8053 67.2702 156.2059 80.7862 153.452 85.6843 curveto
stroke
grestore
% 80
gsave
0 0 0 nodecolor
144.3094 48.2491 1.8 1.8 ellipse_path fill
1 setlinewidth
filled
0 0 0 nodecolor
144.3094 48.2491 1.8 1.8 ellipse_path stroke
grestore
% 3--80
gsave
1 setlinewidth
0 0 0 edgecolor
newpath 165.6997 59.6874 moveto
161.3393 57.3557 150.3452 51.4767 146.0588 49.1846 curveto
stroke
grestore
% 87
gsave
0 0 0 nodecolor
203.7986 106.1137 1.8 1.8 ellipse_path fill
1 setlinewidth
filled
0 0 0 nodecolor
203.7986 106.1137 1.8 1.8 ellipse_path stroke
grestore
% 3--87
gsave
1 setlinewidth
0 0 0 edgecolor
newpath 168.7281 62.1737 moveto
174.236 69.0745 196.9559 97.5405 202.5498 104.5491 curveto
stroke
grestore
% 95
gsave
0 0 0 nodecolor
194.6062 94.5031 1.8 1.8 ellipse_path fill
1 setlinewidth
filled
0 0 0 nodecolor
194.6062 94.5031 1.8 1.8 ellipse_path stroke
grestore
% 3--95
gsave
1 setlinewidth
0 0 0 edgecolor
newpath 168.6849 62.1155 moveto
173.1401 67.6821 189.0815 87.6002 193.4769 93.092 curveto
stroke
grestore
% 4
gsave
0 0 0 nodecolor
75.3709 97.8898 1.8 1.8 ellipse_path fill
1 setlinewidth
filled
0 0 0 nodecolor
75.3709 97.8898 1.8 1.8 ellipse_path stroke
grestore
% 5
gsave
0 0 0 nodecolor
109.4991 51.2222 1.8 1.8 ellipse_path fill
1 setlinewidth
filled
0 0 0 nodecolor
109.4991 51.2222 1.8 1.8 ellipse_path stroke
grestore
% 4--5
gsave
1 setlinewidth
0 0 0 edgecolor
newpath 76.5064 96.3371 moveto
81.6879 89.2517 103.0618 60.0247 108.3244 52.8286 curveto
stroke
grestore
% 48
gsave
0 0 0 nodecolor
120.0009 141.8854 1.8 1.8 ellipse_path fill
1 setlinewidth
filled
0 0 0 nodecolor
120.0009 141.8854 1.8 1.8 ellipse_path stroke
grestore
% 4--48
gsave
1 setlinewidth
0 0 0 edgecolor
newpath 76.8558 99.3536 moveto
83.6318 106.0333 111.5827 133.5869 118.4646 140.371 curveto
stroke
grestore
% 60
gsave
0 0 0 nodecolor
105.5327 62.8315 1.8 1.8 ellipse_path fill
1 setlinewidth
filled
0 0 0 nodecolor
105.5327 62.8315 1.8 1.8 ellipse_path stroke
grestore
% 4--60
gsave
1 setlinewidth
0 0 0 edgecolor
newpath 76.6669 96.3834 moveto
81.6282 90.6166 99.3804 69.9826 104.2751 64.2933 curveto
stroke
grestore
% 77
gsave
0 0 0 nodecolor
63.7423 91.5205 1.8 1.8 ellipse_path fill
1 setlinewidth
filled
0 0 0 nodecolor
63.7423 91.5205 1.8 1.8 ellipse_path stroke
grestore
% 4--77
gsave
1 setlinewidth
0 0 0 edgecolor
newpath 73.5539 96.8946 moveto
71.3054 95.663 67.5111 93.5848 65.3592 92.4061 curveto
stroke
grestore
% 81
gsave
0 0 0 nodecolor
48.9115 99.2348 1.8 1.8 ellipse_path fill
1 setlinewidth
filled
0 0 0 nodecolor
48.9115 99.2348 1.8 1.8 ellipse_path stroke
grestore
% 4--81
gsave
1 setlinewidth
0 0 0 edgecolor
newpath 73.2946 97.9953 moveto
68.3241 98.248 55.7919 98.885 50.9057 99.1334 curveto
stroke
grestore
% 94
gsave
0 0 0 nodecolor
83.7315 117.5584 1.8 1.8 ellipse_path fill
1 setlinewidth
filled
0 0 0 nodecolor
83.7315 117.5584 1.8 1.8 ellipse_path stroke
grestore
% 4--94
gsave
1 setlinewidth
0 0 0 edgecolor
newpath 76.1424 99.7049 moveto
77.6947 103.3567 81.1874 111.5734 82.8367 115.4535 curveto
stroke
grestore
% 5--26
gsave
1 setlinewidth
0 0 0 edgecolor
newpath 107.7304 51.661 moveto
102.0716 53.0649 84.4372 57.4398 78.5425 58.9022 curveto
stroke
grestore
% 5--29
gsave
1 setlinewidth
0 0 0 edgecolor
newpath 109.7602 53.1764 moveto
111.2211 64.1135 118.37 117.6316 119.807 128.3897 curveto
stroke
grestore
% 5--76
gsave
1 setlinewidth
0 0 0 edgecolor
newpath 110.9278 52.4288 moveto
117.4472 57.9346 144.3396 80.6459 150.9609 86.2377 curveto
stroke
grestore
% 5--80
gsave
1 setlinewidth
0 0 0 edgecolor
newpath 111.3707 51.0624 moveto
117.3584 50.551 136.018 48.9573 142.2554 48.4246 curveto
stroke
grestore
% 82
gsave
0 0 0 nodecolor
105.9272 4.3493 1.8 1.8 ellipse_path fill
1 setlinewidth
filled
0 0 0 nodecolor
105.9272 4.3493 1.8 1.8 ellipse_path stroke
grestore
% 5--82
gsave
1 setlinewidth
0 0 0 edgecolor
newpath 109.3456 49.2081 moveto
108.7581 41.498 106.6558 13.9103 106.0762 6.3037 curveto
stroke
grestore
% 6
gsave
0 0 0 nodecolor
133.6987 60.2377 1.8 1.8 ellipse_path fill
1 setlinewidth
filled
0 0 0 nodecolor
133.6987 60.2377 1.8 1.8 ellipse_path stroke
grestore
% 23
gsave
0 0 0 nodecolor
132.7984 110.1153 1.8 1.8 ellipse_path fill
1 setlinewidth
filled
0 0 0 nodecolor
132.7984 110.1153 1.8 1.8 ellipse_path stroke
grestore
% 6--23
gsave
1 setlinewidth
0 0 0 edgecolor
newpath 133.6601 62.3809 moveto
133.512 70.5852 132.982 99.9414 132.8359 108.0356 curveto
stroke
grestore
% 6--30
gsave
1 setlinewidth
0 0 0 edgecolor
newpath 135.0062 58.7627 moveto
139.2681 53.9549 152.7198 38.7801 156.8194 34.1554 curveto
stroke
grestore
% 35
gsave
0 0 0 nodecolor
123.0591 98.5078 1.8 1.8 ellipse_path fill
1 setlinewidth
filled
0 0 0 nodecolor
123.0591 98.5078 1.8 1.8 ellipse_path stroke
grestore
% 6--35
gsave
1 setlinewidth
0 0 0 edgecolor
newpath 133.1267 62.2952 moveto
131.2621 69.0023 125.3767 90.1714 123.5831 96.623 curveto
stroke
grestore
% 55
gsave
0 0 0 nodecolor
178.3889 72.2659 1.8 1.8 ellipse_path fill
1 setlinewidth
filled
0 0 0 nodecolor
178.3889 72.2659 1.8 1.8 ellipse_path stroke
grestore
% 6--55
gsave
1 setlinewidth
0 0 0 edgecolor
newpath 135.619 60.7545 moveto
142.9701 62.733 169.2732 69.8124 176.5255 71.7644 curveto
stroke
grestore
% 62
gsave
0 0 0 nodecolor
99.8891 39.6124 1.8 1.8 ellipse_path fill
1 setlinewidth
filled
0 0 0 nodecolor
99.8891 39.6124 1.8 1.8 ellipse_path stroke
grestore
% 6--62
gsave
1 setlinewidth
0 0 0 edgecolor
newpath 131.881 59.1288 moveto
125.9557 55.5141 107.2539 44.1052 101.5542 40.6281 curveto
stroke
grestore
% 7
gsave
0 0 0 nodecolor
129.8151 154.2994 1.8 1.8 ellipse_path fill
1 setlinewidth
filled
0 0 0 nodecolor
129.8151 154.2994 1.8 1.8 ellipse_path stroke
grestore
% 15
gsave
0 0 0 nodecolor
108.3854 148.144 1.8 1.8 ellipse_path fill
1 setlinewidth
filled
0 0 0 nodecolor
108.3854 148.144 1.8 1.8 ellipse_path stroke
grestore
% 7--15
gsave
1 setlinewidth
0 0 0 edgecolor
newpath 127.8375 153.7314 moveto
123.6928 152.5409 114.1516 149.8003 110.1756 148.6583 curveto
stroke
grestore
% 38
gsave
0 0 0 nodecolor
92.0867 105.7598 1.8 1.8 ellipse_path fill
1 setlinewidth
filled
0 0 0 nodecolor
92.0867 105.7598 1.8 1.8 ellipse_path stroke
grestore
% 7--38
gsave
1 setlinewidth
0 0 0 edgecolor
newpath 128.5598 152.6844 moveto
122.8317 145.3148 99.2031 114.9153 93.3854 107.4306 curveto
stroke
grestore
% 41
gsave
0 0 0 nodecolor
165.5445 179.1716 1.8 1.8 ellipse_path fill
1 setlinewidth
filled
0 0 0 nodecolor
165.5445 179.1716 1.8 1.8 ellipse_path stroke
grestore
% 7--41
gsave
1 setlinewidth
0 0 0 edgecolor
newpath 131.3504 155.3681 moveto
137.2275 159.4593 158.2565 174.0982 164.0547 178.1345 curveto
stroke
grestore
% 47
gsave
0 0 0 nodecolor
134.8146 132.5092 1.8 1.8 ellipse_path fill
1 setlinewidth
filled
0 0 0 nodecolor
134.8146 132.5092 1.8 1.8 ellipse_path stroke
grestore
% 7--47
gsave
1 setlinewidth
0 0 0 edgecolor
newpath 130.2765 152.2885 moveto
131.2434 148.0742 133.4694 138.3724 134.3969 134.3296 curveto
stroke
grestore
% 49
gsave
0 0 0 nodecolor
144.4083 116.0264 1.8 1.8 ellipse_path fill
1 setlinewidth
filled
0 0 0 nodecolor
144.4083 116.0264 1.8 1.8 ellipse_path stroke
grestore
% 7--49
gsave
1 setlinewidth
0 0 0 edgecolor
newpath 130.5997 152.2417 moveto
133.1572 145.5341 141.2295 124.3634 143.6896 117.9113 curveto
stroke
grestore
% 8
gsave
0 0 0 nodecolor
111.4484 95.2872 1.8 1.8 ellipse_path fill
1 setlinewidth
filled
0 0 0 nodecolor
111.4484 95.2872 1.8 1.8 ellipse_path stroke
grestore
% 8--44
gsave
1 setlinewidth
0 0 0 edgecolor
newpath 113.1405 94.0889 moveto
118.6561 90.183 136.0648 77.8547 141.3704 74.0975 curveto
stroke
grestore
% 50
gsave
0 0 0 nodecolor
179.4519 111.0078 1.8 1.8 ellipse_path fill
1 setlinewidth
filled
0 0 0 nodecolor
179.4519 111.0078 1.8 1.8 ellipse_path stroke
grestore
% 8--50
gsave
1 setlinewidth
0 0 0 edgecolor
newpath 113.4103 95.7407 moveto
123.3406 98.0364 167.9676 108.3529 177.611 110.5822 curveto
stroke
grestore
% 8--76
gsave
1 setlinewidth
0 0 0 edgecolor
newpath 113.6522 94.8678 moveto
120.8361 93.5006 143.51 89.1853 150.4202 87.8702 curveto
stroke
grestore
% 8--77
gsave
1 setlinewidth
0 0 0 edgecolor
newpath 109.3985 95.1254 moveto
101.5514 94.5058 73.4732 92.2888 65.7314 91.6775 curveto
stroke
grestore
% 8--94
gsave
1 setlinewidth
0 0 0 edgecolor
newpath 109.9582 96.4846 moveto
105.1906 100.3155 90.3333 112.2537 85.3669 116.2442 curveto
stroke
grestore
% 8--97
gsave
1 setlinewidth
0 0 0 edgecolor
newpath 110.1265 93.6512 moveto
107.024 89.8113 99.294 80.2444 96.0605 76.2426 curveto
stroke
grestore
% 9
gsave
0 0 0 nodecolor
135.3628 98.5114 1.8 1.8 ellipse_path fill
1 setlinewidth
filled
0 0 0 nodecolor
135.3628 98.5114 1.8 1.8 ellipse_path stroke
grestore
% 9--23
gsave
1 setlinewidth
0 0 0 edgecolor
newpath 134.9621 100.3245 moveto
134.4888 102.4662 133.7049 106.0135 133.2219 108.1991 curveto
stroke
grestore
% 9--29
gsave
1 setlinewidth
0 0 0 edgecolor
newpath 134.54 100.2191 moveto
131.9076 105.6829 123.7041 122.7097 120.962 128.4012 curveto
stroke
grestore
% 9--31
gsave
1 setlinewidth
0 0 0 edgecolor
newpath 136.9252 99.8347 moveto
141.2294 103.4803 153.2274 113.6424 157.5753 117.3251 curveto
stroke
grestore
% 57
gsave
0 0 0 nodecolor
110.0345 106.8901 1.8 1.8 ellipse_path fill
1 setlinewidth
filled
0 0 0 nodecolor
110.0345 106.8901 1.8 1.8 ellipse_path stroke
grestore
% 9--57
gsave
1 setlinewidth
0 0 0 edgecolor
newpath 133.3754 99.1688 moveto
128.6173 100.7428 116.6207 104.7114 111.9434 106.2587 curveto
stroke
grestore
% 9--80
gsave
1 setlinewidth
0 0 0 edgecolor
newpath 135.7472 96.3517 moveto
137.2189 88.084 142.4845 58.5015 143.9363 50.3448 curveto
stroke
grestore
% 25
gsave
0 0 0 nodecolor
183.0026 83.8671 1.8 1.8 ellipse_path fill
1 setlinewidth
filled
0 0 0 nodecolor
183.0026 83.8671 1.8 1.8 ellipse_path stroke
grestore
% 10--25
gsave
1 setlinewidth
0 0 0 edgecolor
newpath 134.3799 46.5791 moveto
142.0162 52.4352 173.5157 76.5917 181.2713 82.5394 curveto
stroke
grestore
% 33
gsave
0 0 0 nodecolor
147.0315 100.6878 1.8 1.8 ellipse_path fill
1 setlinewidth
filled
0 0 0 nodecolor
147.0315 100.6878 1.8 1.8 ellipse_path stroke
grestore
% 10--33
gsave
1 setlinewidth
0 0 0 edgecolor
newpath 133.1831 47.1387 moveto
135.358 55.5487 144.3295 90.2398 146.5384 98.7811 curveto
stroke
grestore
% 79
gsave
0 0 0 nodecolor
146.3045 36.6406 1.8 1.8 ellipse_path fill
1 setlinewidth
filled
0 0 0 nodecolor
146.3045 36.6406 1.8 1.8 ellipse_path stroke
grestore
% 10--79
gsave
1 setlinewidth
0 0 0 edgecolor
newpath 134.3739 44.2345 moveto
136.9837 42.5733 142.0053 39.3771 144.6234 37.7106 curveto
stroke
grestore
% 93
gsave
0 0 0 nodecolor
88.2398 47.2781 1.8 1.8 ellipse_path fill
1 setlinewidth
filled
0 0 0 nodecolor
88.2398 47.2781 1.8 1.8 ellipse_path stroke
grestore
% 10--93
gsave
1 setlinewidth
0 0 0 edgecolor
newpath 130.7958 45.3809 moveto
123.4815 45.707 97.31 46.8737 90.0939 47.1954 curveto
stroke
grestore
% 11
gsave
0 0 0 nodecolor
82.9955 71.1911 1.8 1.8 ellipse_path fill
1 setlinewidth
filled
0 0 0 nodecolor
82.9955 71.1911 1.8 1.8 ellipse_path stroke
grestore
% 16
gsave
0 0 0 nodecolor
121.1044 51.9813 1.8 1.8 ellipse_path fill
1 setlinewidth
filled
0 0 0 nodecolor
121.1044 51.9813 1.8 1.8 ellipse_path stroke
grestore
% 11--16
gsave
1 setlinewidth
0 0 0 edgecolor
newpath 84.633 70.3657 moveto
90.7875 67.2633 112.5208 56.3081 119.1622 52.9603 curveto
stroke
grestore
% 11--20
gsave
1 setlinewidth
0 0 0 edgecolor
newpath 84.851 70.7846 moveto
90.7875 69.4839 109.2875 65.4305 115.4715 64.0756 curveto
stroke
grestore
% 42
gsave
0 0 0 nodecolor
114.6794 118.6663 1.8 1.8 ellipse_path fill
1 setlinewidth
filled
0 0 0 nodecolor
114.6794 118.6663 1.8 1.8 ellipse_path stroke
grestore
% 11--42
gsave
1 setlinewidth
0 0 0 edgecolor
newpath 84.0497 72.7707 moveto
88.8601 79.9787 108.7031 109.7115 113.5887 117.0321 curveto
stroke
grestore
% 11--57
gsave
1 setlinewidth
0 0 0 edgecolor
newpath 84.1573 72.7251 moveto
88.605 78.5972 104.5191 99.6084 108.9071 105.4017 curveto
stroke
grestore
% 11--62
gsave
1 setlinewidth
0 0 0 edgecolor
newpath 83.9038 69.4933 moveto
86.8096 64.0615 95.8653 47.134 98.8923 41.4757 curveto
stroke
grestore
% 11--63
gsave
1 setlinewidth
0 0 0 edgecolor
newpath 80.773 71.5373 moveto
73.5285 72.6658 50.663 76.2277 43.6944 77.3132 curveto
stroke
grestore
% 12
gsave
0 0 0 nodecolor
190.3961 60.9612 1.8 1.8 ellipse_path fill
1 setlinewidth
filled
0 0 0 nodecolor
190.3961 60.9612 1.8 1.8 ellipse_path stroke
grestore
% 12--40
gsave
1 setlinewidth
0 0 0 edgecolor
newpath 188.4783 61.6797 moveto
182.2267 64.022 162.495 71.4147 156.4815 73.6677 curveto
stroke
grestore
% 67
gsave
0 0 0 nodecolor
160.1346 21.1695 1.8 1.8 ellipse_path fill
1 setlinewidth
filled
0 0 0 nodecolor
160.1346 21.1695 1.8 1.8 ellipse_path stroke
grestore
% 12--67
gsave
1 setlinewidth
0 0 0 edgecolor
newpath 189.0958 59.2514 moveto
184.1181 52.7061 166.3072 29.2861 161.3963 22.8286 curveto
stroke
grestore
% 68
gsave
0 0 0 nodecolor
166.6343 73.7015 1.8 1.8 ellipse_path fill
1 setlinewidth
filled
0 0 0 nodecolor
166.6343 73.7015 1.8 1.8 ellipse_path stroke
grestore
% 12--68
gsave
1 setlinewidth
0 0 0 edgecolor
newpath 188.5316 61.9609 moveto
184.0678 64.3542 172.8131 70.3886 168.4251 72.7413 curveto
stroke
grestore
% 12--76
gsave
1 setlinewidth
0 0 0 edgecolor
newpath 188.7651 62.1009 moveto
182.5216 66.464 160.1813 82.0755 154.0216 86.38 curveto
stroke
grestore
% 83
gsave
0 0 0 nodecolor
215.4046 96.2714 1.8 1.8 ellipse_path fill
1 setlinewidth
filled
0 0 0 nodecolor
215.4046 96.2714 1.8 1.8 ellipse_path stroke
grestore
% 12--83
gsave
1 setlinewidth
0 0 0 edgecolor
newpath 191.4707 62.4784 moveto
195.5843 68.2866 210.3035 89.0689 214.3619 94.7991 curveto
stroke
grestore
% 12--95
gsave
1 setlinewidth
0 0 0 edgecolor
newpath 190.6225 62.7646 moveto
191.3466 68.5341 193.6034 86.5138 194.3578 92.5239 curveto
stroke
grestore
% 13
gsave
0 0 0 nodecolor
177.2161 95.4705 1.8 1.8 ellipse_path fill
1 setlinewidth
filled
0 0 0 nodecolor
177.2161 95.4705 1.8 1.8 ellipse_path stroke
grestore
% 14
gsave
0 0 0 nodecolor
195.5026 117.7184 1.8 1.8 ellipse_path fill
1 setlinewidth
filled
0 0 0 nodecolor
195.5026 117.7184 1.8 1.8 ellipse_path stroke
grestore
% 13--14
gsave
1 setlinewidth
0 0 0 edgecolor
newpath 178.416 96.9303 moveto
181.7214 100.9518 190.9354 112.1618 194.2744 116.2241 curveto
stroke
grestore
% 13--30
gsave
1 setlinewidth
0 0 0 edgecolor
newpath 176.6622 93.6626 moveto
173.9078 84.6722 161.6984 44.8204 158.6891 34.9979 curveto
stroke
grestore
% 13--35
gsave
1 setlinewidth
0 0 0 edgecolor
newpath 175.4142 95.5716 moveto
167.1918 96.0327 133.2742 97.9349 124.9233 98.4032 curveto
stroke
grestore
% 13--49
gsave
1 setlinewidth
0 0 0 edgecolor
newpath 175.4522 96.5757 moveto
169.7025 100.1782 151.5548 111.5487 146.0241 115.014 curveto
stroke
grestore
% 70
gsave
0 0 0 nodecolor
207.1368 125.8375 1.8 1.8 ellipse_path fill
1 setlinewidth
filled
0 0 0 nodecolor
207.1368 125.8375 1.8 1.8 ellipse_path stroke
grestore
% 13--70
gsave
1 setlinewidth
0 0 0 edgecolor
newpath 178.5018 96.7754 moveto
183.3339 101.6796 200.3975 118.9977 205.6119 124.2898 curveto
stroke
grestore
% 14--25
gsave
1 setlinewidth
0 0 0 edgecolor
newpath 194.8305 115.8984 moveto
192.6804 110.0757 185.9799 91.93 183.7401 85.8645 curveto
stroke
grestore
% 14--31
gsave
1 setlinewidth
0 0 0 edgecolor
newpath 193.5494 117.7701 moveto
187.3007 117.9355 167.8275 118.4507 161.3182 118.623 curveto
stroke
grestore
% 65
gsave
0 0 0 nodecolor
146.4167 128.5254 1.8 1.8 ellipse_path fill
1 setlinewidth
filled
0 0 0 nodecolor
146.4167 128.5254 1.8 1.8 ellipse_path stroke
grestore
% 14--65
gsave
1 setlinewidth
0 0 0 edgecolor
newpath 193.3934 118.1828 moveto
185.3193 119.9604 156.429 126.321 148.4633 128.0748 curveto
stroke
grestore
% 78
gsave
0 0 0 nodecolor
194.6131 78.5278 1.8 1.8 ellipse_path fill
1 setlinewidth
filled
0 0 0 nodecolor
194.6131 78.5278 1.8 1.8 ellipse_path stroke
grestore
% 14--78
gsave
1 setlinewidth
0 0 0 edgecolor
newpath 195.4548 115.6114 moveto
195.2989 108.743 194.8069 87.0647 194.6569 80.4579 curveto
stroke
grestore
% 15--29
gsave
1 setlinewidth
0 0 0 edgecolor
newpath 109.4627 146.495 moveto
111.6301 143.1774 116.5068 135.7127 118.8097 132.1877 curveto
stroke
grestore
% 15--35
gsave
1 setlinewidth
0 0 0 edgecolor
newpath 109.0159 146.0112 moveto
111.4296 137.8466 120.066 108.6324 122.4473 100.5774 curveto
stroke
grestore
% 15--47
gsave
1 setlinewidth
0 0 0 edgecolor
newpath 110.1195 147.1182 moveto
114.8968 144.2921 128.2136 136.4142 133.0395 133.5594 curveto
stroke
grestore
% 74
gsave
0 0 0 nodecolor
134.8319 165.9578 1.8 1.8 ellipse_path fill
1 setlinewidth
filled
0 0 0 nodecolor
134.8319 165.9578 1.8 1.8 ellipse_path stroke
grestore
% 15--74
gsave
1 setlinewidth
0 0 0 edgecolor
newpath 110.1206 149.3129 moveto
114.993 152.5948 128.7423 161.856 133.3246 164.9425 curveto
stroke
grestore
% 92
gsave
0 0 0 nodecolor
81.7686 132.7013 1.8 1.8 ellipse_path fill
1 setlinewidth
filled
0 0 0 nodecolor
81.7686 132.7013 1.8 1.8 ellipse_path stroke
grestore
% 15--92
gsave
1 setlinewidth
0 0 0 edgecolor
newpath 106.639 147.1308 moveto
101.8278 144.3394 88.4164 136.5583 83.5563 133.7385 curveto
stroke
grestore
% 15--94
gsave
1 setlinewidth
0 0 0 edgecolor
newpath 107.0599 146.4996 moveto
102.7392 141.1393 89.1018 124.2208 84.9456 119.0647 curveto
stroke
grestore
% 16--20
gsave
1 setlinewidth
0 0 0 edgecolor
newpath 120.5425 53.8013 moveto
119.8787 55.9512 118.7793 59.512 118.1018 61.706 curveto
stroke
grestore
% 16--35
gsave
1 setlinewidth
0 0 0 edgecolor
newpath 121.1884 53.9805 moveto
121.51 61.6336 122.6604 89.0175 122.9776 96.5678 curveto
stroke
grestore
% 37
gsave
0 0 0 nodecolor
184.4198 37.7377 1.8 1.8 ellipse_path fill
1 setlinewidth
filled
0 0 0 nodecolor
184.4198 37.7377 1.8 1.8 ellipse_path stroke
grestore
% 16--37
gsave
1 setlinewidth
0 0 0 edgecolor
newpath 122.9311 51.5704 moveto
132.0146 49.5269 172.2793 40.4689 182.2035 38.2363 curveto
stroke
grestore
% 90
gsave
0 0 0 nodecolor
155.9192 58.7982 1.8 1.8 ellipse_path fill
1 setlinewidth
filled
0 0 0 nodecolor
155.9192 58.7982 1.8 1.8 ellipse_path stroke
grestore
% 16--90
gsave
1 setlinewidth
0 0 0 edgecolor
newpath 122.9762 52.3478 moveto
128.9647 53.5204 147.6268 57.1745 153.865 58.396 curveto
stroke
grestore
% 16--98
gsave
1 setlinewidth
0 0 0 edgecolor
newpath 119.645 53.4475 moveto
114.058 59.0603 94.0671 79.1437 88.5551 84.6811 curveto
stroke
grestore
% 17
gsave
0 0 0 nodecolor
196.0045 145.8673 1.8 1.8 ellipse_path fill
1 setlinewidth
filled
0 0 0 nodecolor
196.0045 145.8673 1.8 1.8 ellipse_path stroke
grestore
% 17--25
gsave
1 setlinewidth
0 0 0 edgecolor
newpath 195.6294 144.0786 moveto
193.7641 135.1837 185.4956 95.7554 183.4577 86.0373 curveto
stroke
grestore
% 17--41
gsave
1 setlinewidth
0 0 0 edgecolor
newpath 194.6957 147.2983 moveto
189.6853 152.7765 171.7576 172.3783 166.8145 177.7829 curveto
stroke
grestore
% 43
gsave
0 0 0 nodecolor
224.2815 176.1287 1.8 1.8 ellipse_path fill
1 setlinewidth
filled
0 0 0 nodecolor
224.2815 176.1287 1.8 1.8 ellipse_path stroke
grestore
% 17--43
gsave
1 setlinewidth
0 0 0 edgecolor
newpath 197.5248 147.4942 moveto
202.4805 152.7977 218.122 169.5369 222.8889 174.6384 curveto
stroke
grestore
% 85
gsave
0 0 0 nodecolor
170.7976 122.6175 1.8 1.8 ellipse_path fill
1 setlinewidth
filled
0 0 0 nodecolor
170.7976 122.6175 1.8 1.8 ellipse_path stroke
grestore
% 17--85
gsave
1 setlinewidth
0 0 0 edgecolor
newpath 194.6493 144.6173 moveto
190.3134 140.6181 176.8015 128.1553 172.2849 123.9894 curveto
stroke
grestore
% 88
gsave
0 0 0 nodecolor
161.3922 157.5013 1.8 1.8 ellipse_path fill
1 setlinewidth
filled
0 0 0 nodecolor
161.3922 157.5013 1.8 1.8 ellipse_path stroke
grestore
% 17--88
gsave
1 setlinewidth
0 0 0 edgecolor
newpath 194.1436 146.4928 moveto
188.1899 148.4939 169.6364 154.7302 163.4345 156.8148 curveto
stroke
grestore
% 17--95
gsave
1 setlinewidth
0 0 0 edgecolor
newpath 195.9444 143.6602 moveto
195.7144 135.2113 194.8914 104.9802 194.6645 96.6447 curveto
stroke
grestore
% 18
gsave
0 0 0 nodecolor
117.9216 159.7607 1.8 1.8 ellipse_path fill
1 setlinewidth
filled
0 0 0 nodecolor
117.9216 159.7607 1.8 1.8 ellipse_path stroke
grestore
% 18--29
gsave
1 setlinewidth
0 0 0 edgecolor
newpath 118.0619 157.8261 moveto
118.4482 152.4964 119.5251 137.6397 119.9154 132.2559 curveto
stroke
grestore
% 54
gsave
0 0 0 nodecolor
99.8362 86.0421 1.8 1.8 ellipse_path fill
1 setlinewidth
filled
0 0 0 nodecolor
99.8362 86.0421 1.8 1.8 ellipse_path stroke
grestore
% 18--54
gsave
1 setlinewidth
0 0 0 edgecolor
newpath 117.4746 157.9384 moveto
114.9724 147.7393 102.7288 97.8328 100.2676 87.8007 curveto
stroke
grestore
% 18--74
gsave
1 setlinewidth
0 0 0 edgecolor
newpath 119.7313 160.4239 moveto
123.0031 161.6229 129.8613 164.1362 133.0859 165.3179 curveto
stroke
grestore
% 96
gsave
0 0 0 nodecolor
149.6998 163.3564 1.8 1.8 ellipse_path fill
1 setlinewidth
filled
0 0 0 nodecolor
149.6998 163.3564 1.8 1.8 ellipse_path stroke
grestore
% 18--96
gsave
1 setlinewidth
0 0 0 edgecolor
newpath 120.0067 159.9966 moveto
125.8613 160.6591 142.3825 162.5285 147.8887 163.1515 curveto
stroke
grestore
% 19
gsave
0 0 0 nodecolor
207.6759 41.4617 1.8 1.8 ellipse_path fill
1 setlinewidth
filled
0 0 0 nodecolor
207.6759 41.4617 1.8 1.8 ellipse_path stroke
grestore
% 19--37
gsave
1 setlinewidth
0 0 0 edgecolor
newpath 205.851 41.1694 moveto
201.5679 40.4836 190.8966 38.7748 186.4328 38.06 curveto
stroke
grestore
% 19--67
gsave
1 setlinewidth
0 0 0 edgecolor
newpath 205.6331 40.5897 moveto
197.813 37.2519 169.8319 25.3086 162.1168 22.0156 curveto
stroke
grestore
% 75
gsave
0 0 0 nodecolor
240.5955 41.5174 1.8 1.8 ellipse_path fill
1 setlinewidth
filled
0 0 0 nodecolor
240.5955 41.5174 1.8 1.8 ellipse_path stroke
grestore
% 19--75
gsave
1 setlinewidth
0 0 0 edgecolor
newpath 209.8358 41.4653 moveto
215.9008 41.4756 233.0154 41.5045 238.7193 41.5142 curveto
stroke
grestore
% 19--95
gsave
1 setlinewidth
0 0 0 edgecolor
newpath 207.241 43.2264 moveto
205.2567 51.2795 197.0714 84.4984 195.0561 92.6773 curveto
stroke
grestore
% 20--23
gsave
1 setlinewidth
0 0 0 edgecolor
newpath 118.165 65.6269 moveto
120.6801 73.2733 129.6795 100.6332 132.1609 108.177 curveto
stroke
grestore
% 20--25
gsave
1 setlinewidth
0 0 0 edgecolor
newpath 119.3975 64.2133 moveto
128.9615 67.1685 171.942 80.4494 181.2295 83.3192 curveto
stroke
grestore
% 20--40
gsave
1 setlinewidth
0 0 0 edgecolor
newpath 119.5089 64.2045 moveto
126.0313 66.0791 146.6178 71.9959 152.8918 73.7991 curveto
stroke
grestore
% 20--44
gsave
1 setlinewidth
0 0 0 edgecolor
newpath 119.502 64.3647 moveto
124.2759 66.125 136.3123 70.5632 141.0051 72.2936 curveto
stroke
grestore
% 20--62
gsave
1 setlinewidth
0 0 0 edgecolor
newpath 116.3519 62.0536 moveto
113.1672 57.7123 104.2896 45.6109 101.0725 41.2255 curveto
stroke
grestore
% 20--97
gsave
1 setlinewidth
0 0 0 edgecolor
newpath 115.7106 64.4775 moveto
111.492 66.4682 100.9815 71.4277 96.5851 73.5023 curveto
stroke
grestore
% 21
gsave
0 0 0 nodecolor
159.0805 1.8 1.8 1.8 ellipse_path fill
1 setlinewidth
filled
0 0 0 nodecolor
159.0805 1.8 1.8 1.8 ellipse_path stroke
grestore
% 21--30
gsave
1 setlinewidth
0 0 0 edgecolor
newpath 159.0107 3.8343 moveto
158.8185 9.4386 158.2826 25.0607 158.0884 30.7219 curveto
stroke
grestore
% 21--67
gsave
1 setlinewidth
0 0 0 edgecolor
newpath 159.1933 3.8729 moveto
159.3972 7.6205 159.8247 15.476 160.0257 19.1696 curveto
stroke
grestore
% 21--79
gsave
1 setlinewidth
0 0 0 edgecolor
newpath 158.3936 3.6732 moveto
156.1545 9.7792 149.0875 29.0513 146.9337 34.9247 curveto
stroke
grestore
% 22
gsave
0 0 0 nodecolor
207.4507 6.4984 1.8 1.8 ellipse_path fill
1 setlinewidth
filled
0 0 0 nodecolor
207.4507 6.4984 1.8 1.8 ellipse_path stroke
grestore
% 66
gsave
0 0 0 nodecolor
177.6147 26.1361 1.8 1.8 ellipse_path fill
1 setlinewidth
filled
0 0 0 nodecolor
177.6147 26.1361 1.8 1.8 ellipse_path stroke
grestore
% 22--66
gsave
1 setlinewidth
0 0 0 edgecolor
newpath 205.8466 7.5542 moveto
200.7145 10.9321 184.7212 21.4586 179.3751 24.9773 curveto
stroke
grestore
% 22--73
gsave
1 setlinewidth
0 0 0 edgecolor
newpath 206.7011 8.3649 moveto
204.6359 13.5071 198.8794 27.8408 196.7933 33.0352 curveto
stroke
grestore
% 23--29
gsave
1 setlinewidth
0 0 0 edgecolor
newpath 131.7988 111.6972 moveto
129.4525 115.4102 123.6069 124.6609 121.1617 128.5304 curveto
stroke
grestore
% 23--40
gsave
1 setlinewidth
0 0 0 edgecolor
newpath 133.7405 108.5774 moveto
137.2816 102.7975 149.7861 82.387 153.6073 76.1499 curveto
stroke
grestore
% 23--47
gsave
1 setlinewidth
0 0 0 edgecolor
newpath 132.9845 112.1819 moveto
133.3744 116.513 134.2721 126.4836 134.6462 130.6384 curveto
stroke
grestore
% 23--54
gsave
1 setlinewidth
0 0 0 edgecolor
newpath 131.0262 108.821 moveto
125.2494 104.602 107.0163 91.286 101.4595 87.2277 curveto
stroke
grestore
% 23--88
gsave
1 setlinewidth
0 0 0 edgecolor
newpath 133.7498 111.6919 moveto
138.091 118.8863 155.9988 148.5633 160.408 155.8701 curveto
stroke
grestore
% 24
gsave
0 0 0 nodecolor
156.8674 140.1324 1.8 1.8 ellipse_path fill
1 setlinewidth
filled
0 0 0 nodecolor
156.8674 140.1324 1.8 1.8 ellipse_path stroke
grestore
% 32
gsave
0 0 0 nodecolor
150.8443 183.9349 1.8 1.8 ellipse_path fill
1 setlinewidth
filled
0 0 0 nodecolor
150.8443 183.9349 1.8 1.8 ellipse_path stroke
grestore
% 24--32
gsave
1 setlinewidth
0 0 0 edgecolor
newpath 156.6086 142.0146 moveto
155.6179 149.2196 152.0729 175.0002 151.0955 182.1086 curveto
stroke
grestore
% 24--49
gsave
1 setlinewidth
0 0 0 edgecolor
newpath 155.8897 138.2409 moveto
153.5492 133.7124 147.6481 122.2948 145.3473 117.8432 curveto
stroke
grestore
% 24--53
gsave
1 setlinewidth
0 0 0 edgecolor
newpath 157.3887 138.3551 moveto
159.0567 132.6687 164.2545 114.948 165.992 109.0246 curveto
stroke
grestore
% 24--76
gsave
1 setlinewidth
0 0 0 edgecolor
newpath 156.6771 137.8703 moveto
155.9487 129.2105 153.3423 98.2246 152.6236 89.6811 curveto
stroke
grestore
% 24--95
gsave
1 setlinewidth
0 0 0 edgecolor
newpath 158.123 138.6143 moveto
163.8528 131.6865 187.4879 103.1097 193.3071 96.0737 curveto
stroke
grestore
% 24--96
gsave
1 setlinewidth
0 0 0 edgecolor
newpath 156.305 141.9548 moveto
154.9585 146.3175 151.5636 157.3174 150.24 161.6061 curveto
stroke
grestore
% 34
gsave
0 0 0 nodecolor
206.2203 67.3671 1.8 1.8 ellipse_path fill
1 setlinewidth
filled
0 0 0 nodecolor
206.2203 67.3671 1.8 1.8 ellipse_path stroke
grestore
% 25--34
gsave
1 setlinewidth
0 0 0 edgecolor
newpath 184.5259 82.7845 moveto
188.7228 79.8019 200.4214 71.4882 204.6609 68.4753 curveto
stroke
grestore
% 61
gsave
0 0 0 nodecolor
232.0013 76.8254 1.8 1.8 ellipse_path fill
1 setlinewidth
filled
0 0 0 nodecolor
232.0013 76.8254 1.8 1.8 ellipse_path stroke
grestore
% 25--61
gsave
1 setlinewidth
0 0 0 edgecolor
newpath 185.108 83.5645 moveto
193.1678 82.4062 222.0067 78.2617 229.9583 77.119 curveto
stroke
grestore
% 25--69
gsave
1 setlinewidth
0 0 0 edgecolor
newpath 181.1997 83.5805 moveto
172.9731 82.2728 139.0381 76.8787 130.6829 75.5506 curveto
stroke
grestore
% 26--94
gsave
1 setlinewidth
0 0 0 edgecolor
newpath 76.8385 61.3193 moveto
77.9211 70.1517 82.3866 106.5854 83.486 115.5559 curveto
stroke
grestore
% 26--97
gsave
1 setlinewidth
0 0 0 edgecolor
newpath 78.2625 60.773 moveto
81.744 63.6846 89.7587 70.3872 93.0986 73.1802 curveto
stroke
grestore
% 27
gsave
0 0 0 nodecolor
149.7783 151.7402 1.8 1.8 ellipse_path fill
1 setlinewidth
filled
0 0 0 nodecolor
149.7783 151.7402 1.8 1.8 ellipse_path stroke
grestore
% 27--29
gsave
1 setlinewidth
0 0 0 edgecolor
newpath 148.1804 150.5862 moveto
142.972 146.8244 126.5327 134.9511 121.5226 131.3326 curveto
stroke
grestore
% 27--50
gsave
1 setlinewidth
0 0 0 edgecolor
newpath 151.0533 149.99 moveto
155.9343 143.2899 173.3992 119.3162 178.2146 112.7061 curveto
stroke
grestore
% 99
gsave
0 0 0 nodecolor
183.7723 128.4674 1.8 1.8 ellipse_path fill
1 setlinewidth
filled
0 0 0 nodecolor
183.7723 128.4674 1.8 1.8 ellipse_path stroke
grestore
% 27--99
gsave
1 setlinewidth
0 0 0 edgecolor
newpath 151.606 150.489 moveto
157.5636 146.4103 176.3674 133.5369 182.0982 129.6136 curveto
stroke
grestore
% 28
gsave
0 0 0 nodecolor
172.9971 151.6816 1.8 1.8 ellipse_path fill
1 setlinewidth
filled
0 0 0 nodecolor
172.9971 151.6816 1.8 1.8 ellipse_path stroke
grestore
% 28--33
gsave
1 setlinewidth
0 0 0 edgecolor
newpath 172.1332 149.985 moveto
168.1909 142.2428 151.9292 110.3063 147.9253 102.4432 curveto
stroke
grestore
% 28--71
gsave
1 setlinewidth
0 0 0 edgecolor
newpath 172.5131 149.8134 moveto
171.6381 146.4357 169.804 139.3555 168.9416 136.0265 curveto
stroke
grestore
% 91
gsave
0 0 0 nodecolor
184.3912 140.0752 1.8 1.8 ellipse_path fill
1 setlinewidth
filled
0 0 0 nodecolor
184.3912 140.0752 1.8 1.8 ellipse_path stroke
grestore
% 28--91
gsave
1 setlinewidth
0 0 0 edgecolor
newpath 174.3942 150.2585 moveto
176.5811 148.0309 180.7888 143.7448 182.9826 141.51 curveto
stroke
grestore
% 30--66
gsave
1 setlinewidth
0 0 0 edgecolor
newpath 159.8256 32.1889 moveto
163.4643 30.9509 171.6513 28.1652 175.5174 26.8497 curveto
stroke
grestore
% 72
gsave
0 0 0 nodecolor
109.6243 27.5804 1.8 1.8 ellipse_path fill
1 setlinewidth
filled
0 0 0 nodecolor
109.6243 27.5804 1.8 1.8 ellipse_path stroke
grestore
% 30--72
gsave
1 setlinewidth
0 0 0 edgecolor
newpath 155.9376 32.5799 moveto
147.9775 31.7206 119.4953 28.6459 111.6421 27.7982 curveto
stroke
grestore
% 30--80
gsave
1 setlinewidth
0 0 0 edgecolor
newpath 156.752 34.2297 moveto
154.2069 37.0973 148.4805 43.5494 145.7763 46.5963 curveto
stroke
grestore
% 31--49
gsave
1 setlinewidth
0 0 0 edgecolor
newpath 157.364 118.3543 moveto
154.5299 117.8451 149.0769 116.8653 146.2338 116.3544 curveto
stroke
grestore
% 31--50
gsave
1 setlinewidth
0 0 0 edgecolor
newpath 161.0459 117.9717 moveto
164.9676 116.4879 173.9958 113.0721 177.758 111.6487 curveto
stroke
grestore
% 31--74
gsave
1 setlinewidth
0 0 0 edgecolor
newpath 158.1286 120.7112 moveto
154.1245 128.4879 139.7972 156.3142 135.8469 163.9865 curveto
stroke
grestore
% 31--88
gsave
1 setlinewidth
0 0 0 edgecolor
newpath 159.2938 120.7669 moveto
159.6825 127.5706 160.9092 149.0448 161.283 155.5893 curveto
stroke
grestore
% 31--90
gsave
1 setlinewidth
0 0 0 edgecolor
newpath 159.0663 116.6873 moveto
158.572 107.5958 156.5333 70.0931 156.0313 60.8595 curveto
stroke
grestore
% 32--74
gsave
1 setlinewidth
0 0 0 edgecolor
newpath 149.3666 182.2759 moveto
146.2697 178.799 139.1404 170.795 136.1696 167.4596 curveto
stroke
grestore
% 33--55
gsave
1 setlinewidth
0 0 0 edgecolor
newpath 148.3789 99.4666 moveto
153.4431 94.8765 171.326 78.6676 176.7908 73.7144 curveto
stroke
grestore
% 33--58
gsave
1 setlinewidth
0 0 0 edgecolor
newpath 148.0994 98.9794 moveto
152.9722 91.1836 173.0727 59.0258 178.0217 51.1081 curveto
stroke
grestore
% 33--60
gsave
1 setlinewidth
0 0 0 edgecolor
newpath 145.6508 99.4283 moveto
139.3502 93.6807 113.3602 69.972 106.9612 64.1346 curveto
stroke
grestore
% 33--91
gsave
1 setlinewidth
0 0 0 edgecolor
newpath 148.2746 101.9983 moveto
153.9467 107.9783 177.3444 132.6459 183.1052 138.7194 curveto
stroke
grestore
% 33--94
gsave
1 setlinewidth
0 0 0 edgecolor
newpath 145.2054 101.1745 moveto
136.124 103.5949 95.8691 114.3235 85.9472 116.9678 curveto
stroke
grestore
% 33--97
gsave
1 setlinewidth
0 0 0 edgecolor
newpath 145.2871 99.8145 moveto
137.327 95.829 104.4916 79.3891 96.4071 75.3414 curveto
stroke
grestore
% 34--50
gsave
1 setlinewidth
0 0 0 edgecolor
newpath 205.0701 69.2423 moveto
200.667 76.4207 184.912 102.1061 180.568 109.1881 curveto
stroke
grestore
% 34--66
gsave
1 setlinewidth
0 0 0 edgecolor
newpath 204.9911 65.5955 moveto
200.2858 58.8134 183.4495 34.5462 178.8074 27.8552 curveto
stroke
grestore
% 35--57
gsave
1 setlinewidth
0 0 0 edgecolor
newpath 121.462 99.5356 moveto
118.9622 101.1444 114.1524 104.2399 111.6446 105.8539 curveto
stroke
grestore
% 35--68
gsave
1 setlinewidth
0 0 0 edgecolor
newpath 124.9315 97.4419 moveto
132.0991 93.3615 157.7459 78.7614 164.8174 74.7358 curveto
stroke
grestore
% 35--98
gsave
1 setlinewidth
0 0 0 edgecolor
newpath 121.1279 97.8409 moveto
114.8327 95.6671 94.9634 88.8058 88.9079 86.7147 curveto
stroke
grestore
% 36
gsave
0 0 0 nodecolor
41.0823 45.6193 1.8 1.8 ellipse_path fill
1 setlinewidth
filled
0 0 0 nodecolor
41.0823 45.6193 1.8 1.8 ellipse_path stroke
grestore
% 36--63
gsave
1 setlinewidth
0 0 0 edgecolor
newpath 41.1201 47.7196 moveto
41.2263 53.6172 41.5259 70.2594 41.6257 75.8059 curveto
stroke
grestore
% 36--93
gsave
1 setlinewidth
0 0 0 edgecolor
newpath 43.1086 45.6905 moveto
50.8655 45.9634 78.6208 46.9397 86.2735 47.2089 curveto
stroke
grestore
% 45
gsave
0 0 0 nodecolor
218.0219 67.2316 1.8 1.8 ellipse_path fill
1 setlinewidth
filled
0 0 0 nodecolor
218.0219 67.2316 1.8 1.8 ellipse_path stroke
grestore
% 37--45
gsave
1 setlinewidth
0 0 0 edgecolor
newpath 185.8637 39.005 moveto
191.3908 43.8565 211.1678 61.2155 216.6208 66.0018 curveto
stroke
grestore
% 37--58
gsave
1 setlinewidth
0 0 0 edgecolor
newpath 183.5927 39.5507 moveto
182.6157 41.6922 180.9976 45.2392 180.0005 47.4247 curveto
stroke
grestore
% 38--44
gsave
1 setlinewidth
0 0 0 edgecolor
newpath 93.7781 104.6698 moveto
101.4959 99.696 133.3321 79.179 141.1705 74.1275 curveto
stroke
grestore
% 38--57
gsave
1 setlinewidth
0 0 0 edgecolor
newpath 94.0075 105.8807 moveto
97.48 106.0994 104.7589 106.5579 108.1813 106.7734 curveto
stroke
grestore
% 38--63
gsave
1 setlinewidth
0 0 0 edgecolor
newpath 90.4089 104.8238 moveto
82.7526 100.5531 51.1704 82.9361 43.3944 78.5986 curveto
stroke
grestore
% 38--94
gsave
1 setlinewidth
0 0 0 edgecolor
newpath 90.7812 107.6033 moveto
89.1657 109.8847 86.4394 113.7345 84.8932 115.9178 curveto
stroke
grestore
% 39
gsave
0 0 0 nodecolor
113.6253 15.9616 1.8 1.8 ellipse_path fill
1 setlinewidth
filled
0 0 0 nodecolor
113.6253 15.9616 1.8 1.8 ellipse_path stroke
grestore
% 39--52
gsave
1 setlinewidth
0 0 0 edgecolor
newpath 115.6795 15.7662 moveto
121.3387 15.2278 137.1138 13.7273 142.8305 13.1835 curveto
stroke
grestore
% 39--54
gsave
1 setlinewidth
0 0 0 edgecolor
newpath 113.2275 17.9834 moveto
111.2139 28.217 102.1649 74.2071 100.2095 84.145 curveto
stroke
grestore
% 39--67
gsave
1 setlinewidth
0 0 0 edgecolor
newpath 115.6237 16.1853 moveto
123.274 17.042 150.6478 20.1072 158.1953 20.9523 curveto
stroke
grestore
% 39--72
gsave
1 setlinewidth
0 0 0 edgecolor
newpath 113.0001 17.777 moveto
112.2617 19.9215 111.0386 23.4733 110.285 25.6618 curveto
stroke
grestore
% 40--65
gsave
1 setlinewidth
0 0 0 edgecolor
newpath 154.4483 76.1292 moveto
153.1869 84.3581 147.9837 118.3023 146.7026 126.6597 curveto
stroke
grestore
% 40--79
gsave
1 setlinewidth
0 0 0 edgecolor
newpath 154.272 72.2998 moveto
152.7963 65.6952 148.1386 44.8496 146.7192 38.4966 curveto
stroke
grestore
% 42--48
gsave
1 setlinewidth
0 0 0 edgecolor
newpath 115.0969 120.4883 moveto
116.077 124.7646 118.5188 135.4189 119.5403 139.8756 curveto
stroke
grestore
% 42--49
gsave
1 setlinewidth
0 0 0 edgecolor
newpath 116.63 118.4931 moveto
122.0037 118.0159 136.9832 116.6857 142.4116 116.2037 curveto
stroke
grestore
% 42--60
gsave
1 setlinewidth
0 0 0 edgecolor
newpath 114.375 116.8086 moveto
112.9863 108.3314 107.258 73.3631 105.8476 64.7535 curveto
stroke
grestore
% 42--65
gsave
1 setlinewidth
0 0 0 edgecolor
newpath 116.7617 119.3132 moveto
122.6089 121.1296 139.1088 126.2552 144.6079 127.9635 curveto
stroke
grestore
% 42--92
gsave
1 setlinewidth
0 0 0 edgecolor
newpath 112.9099 119.4209 moveto
107.2489 121.8351 89.6075 129.3583 83.7105 131.8732 curveto
stroke
grestore
% 42--99
gsave
1 setlinewidth
0 0 0 edgecolor
newpath 116.6727 118.9491 moveto
126.7621 120.3803 172.1041 126.8122 181.9019 128.2021 curveto
stroke
grestore
% 44--58
gsave
1 setlinewidth
0 0 0 edgecolor
newpath 144.4761 71.9833 moveto
150.4316 68.0916 171.7412 54.1666 177.6168 50.3271 curveto
stroke
grestore
% 44--68
gsave
1 setlinewidth
0 0 0 edgecolor
newpath 144.7811 73.0549 moveto
149.1486 73.1841 160.03 73.5061 164.5816 73.6408 curveto
stroke
grestore
% 44--78
gsave
1 setlinewidth
0 0 0 edgecolor
newpath 145.1415 73.2374 moveto
153.6444 74.1467 184.069 77.4003 192.4578 78.2973 curveto
stroke
grestore
% 44--90
gsave
1 setlinewidth
0 0 0 edgecolor
newpath 144.5142 71.2585 moveto
147.1176 68.4143 152.2312 62.8275 154.6253 60.2118 curveto
stroke
grestore
% 44--95
gsave
1 setlinewidth
0 0 0 edgecolor
newpath 144.64 73.7153 moveto
152.4873 76.9801 184.8572 90.4471 192.827 93.7629 curveto
stroke
grestore
% 45--61
gsave
1 setlinewidth
0 0 0 edgecolor
newpath 219.736 68.408 moveto
222.4191 70.2493 227.5815 73.7921 230.2732 75.6394 curveto
stroke
grestore
% 45--73
gsave
1 setlinewidth
0 0 0 edgecolor
newpath 216.8393 65.4957 moveto
212.9844 59.8375 200.8173 41.9787 197.1092 36.536 curveto
stroke
grestore
% 45--75
gsave
1 setlinewidth
0 0 0 edgecolor
newpath 219.2355 65.8491 moveto
223.1184 61.426 235.2187 47.6422 239.2635 43.0347 curveto
stroke
grestore
% 45--85
gsave
1 setlinewidth
0 0 0 edgecolor
newpath 216.4506 69.0744 moveto
209.1527 77.6335 178.6416 113.4178 172.0546 121.1432 curveto
stroke
grestore
% 46
gsave
0 0 0 nodecolor
216.483 110.5332 1.8 1.8 ellipse_path fill
1 setlinewidth
filled
0 0 0 nodecolor
216.483 110.5332 1.8 1.8 ellipse_path stroke
grestore
% 46--55
gsave
1 setlinewidth
0 0 0 edgecolor
newpath 214.8461 108.8889 moveto
208.5801 102.5943 186.1592 80.0715 179.9773 73.8615 curveto
stroke
grestore
% 46--99
gsave
1 setlinewidth
0 0 0 edgecolor
newpath 214.7243 111.4974 moveto
208.9916 114.6405 190.8977 124.5608 185.3833 127.5841 curveto
stroke
grestore
% 47--53
gsave
1 setlinewidth
0 0 0 edgecolor
newpath 136.5216 131.1417 moveto
142.0859 126.684 159.6482 112.6145 165.0006 108.3266 curveto
stroke
grestore
% 47--69
gsave
1 setlinewidth
0 0 0 edgecolor
newpath 134.6151 130.6043 moveto
133.7046 121.9114 129.9488 86.0536 129.0241 77.225 curveto
stroke
grestore
% 47--85
gsave
1 setlinewidth
0 0 0 edgecolor
newpath 136.7492 131.9774 moveto
143.0554 130.2438 162.9594 124.7722 169.0254 123.1047 curveto
stroke
grestore
% 48--65
gsave
1 setlinewidth
0 0 0 edgecolor
newpath 121.7341 141.0088 moveto
126.509 138.5939 139.819 131.8622 144.6424 129.4227 curveto
stroke
grestore
% 48--85
gsave
1 setlinewidth
0 0 0 edgecolor
newpath 121.691 141.2443 moveto
129.4032 138.319 161.2163 126.2518 169.049 123.2808 curveto
stroke
grestore
% 49--51
gsave
1 setlinewidth
0 0 0 edgecolor
newpath 142.1721 116.1591 moveto
134.8826 116.5919 111.8753 117.9579 104.8635 118.3742 curveto
stroke
grestore
% 49--71
gsave
1 setlinewidth
0 0 0 edgecolor
newpath 145.9874 117.2204 moveto
150.3376 120.5098 162.4638 129.6789 166.8582 133.0017 curveto
stroke
grestore
% 49--79
gsave
1 setlinewidth
0 0 0 edgecolor
newpath 144.4552 114.064 moveto
144.7175 103.0808 146.0012 49.3377 146.2592 38.5344 curveto
stroke
grestore
% 59
gsave
0 0 0 nodecolor
215.2439 82.0896 1.8 1.8 ellipse_path fill
1 setlinewidth
filled
0 0 0 nodecolor
215.2439 82.0896 1.8 1.8 ellipse_path stroke
grestore
% 50--59
gsave
1 setlinewidth
0 0 0 edgecolor
newpath 180.9898 109.7652 moveto
186.8773 105.0084 207.9432 87.9883 213.7516 83.2954 curveto
stroke
grestore
% 50--71
gsave
1 setlinewidth
0 0 0 edgecolor
newpath 178.5905 112.8295 moveto
176.5284 117.1908 171.3291 128.187 169.302 132.4742 curveto
stroke
grestore
% 51--98
gsave
1 setlinewidth
0 0 0 edgecolor
newpath 101.9722 116.7543 moveto
99.2758 111.1825 90.8728 93.8192 88.0639 88.0152 curveto
stroke
grestore
% 52--66
gsave
1 setlinewidth
0 0 0 edgecolor
newpath 146.6904 13.6906 moveto
152.312 15.953 169.8304 23.0033 175.6863 25.36 curveto
stroke
grestore
% 52--79
gsave
1 setlinewidth
0 0 0 edgecolor
newpath 145.0409 14.8398 moveto
145.2935 19.1968 145.9226 30.0521 146.1858 34.5929 curveto
stroke
grestore
% 52--82
gsave
1 setlinewidth
0 0 0 edgecolor
newpath 142.8362 12.5193 moveto
136.0002 11.0061 114.4239 6.2301 107.8483 4.7745 curveto
stroke
grestore
% 53--58
gsave
1 setlinewidth
0 0 0 edgecolor
newpath 166.9822 105.153 moveto
168.8894 96.3876 176.7569 60.2303 178.694 51.328 curveto
stroke
grestore
% 53--65
gsave
1 setlinewidth
0 0 0 edgecolor
newpath 165.2423 108.4814 moveto
161.6004 112.359 151.4487 123.1676 147.7699 127.0846 curveto
stroke
grestore
% 53--83
gsave
1 setlinewidth
0 0 0 edgecolor
newpath 168.6628 106.6097 moveto
176.6966 104.8328 205.4423 98.4748 213.3682 96.7218 curveto
stroke
grestore
% 89
gsave
0 0 0 nodecolor
162.0056 45.6851 1.8 1.8 ellipse_path fill
1 setlinewidth
filled
0 0 0 nodecolor
162.0056 45.6851 1.8 1.8 ellipse_path stroke
grestore
% 53--89
gsave
1 setlinewidth
0 0 0 edgecolor
newpath 166.4125 105.0314 moveto
165.7204 95.711 162.8654 57.2643 162.1625 47.7982 curveto
stroke
grestore
% 54--60
gsave
1 setlinewidth
0 0 0 edgecolor
newpath 100.2832 84.2208 moveto
101.3533 79.8606 104.0514 68.867 105.1034 64.5808 curveto
stroke
grestore
% 54--97
gsave
1 setlinewidth
0 0 0 edgecolor
newpath 99.0184 84.229 moveto
98.0524 82.0872 96.4524 78.5398 95.4666 76.3541 curveto
stroke
grestore
% 55--80
gsave
1 setlinewidth
0 0 0 edgecolor
newpath 176.5566 70.9747 moveto
170.584 66.7656 151.7329 53.4807 145.9878 49.4319 curveto
stroke
grestore
% 55--89
gsave
1 setlinewidth
0 0 0 edgecolor
newpath 177.3139 70.5219 moveto
174.3525 65.7171 166.0975 52.3239 163.106 47.4704 curveto
stroke
grestore
% 56--66
gsave
1 setlinewidth
0 0 0 edgecolor
newpath 142.0335 25.0974 moveto
148.6236 25.2898 169.4236 25.897 175.7628 26.082 curveto
stroke
grestore
% 57--60
gsave
1 setlinewidth
0 0 0 edgecolor
newpath 109.841 104.997 moveto
109.1005 97.7498 106.451 71.8184 105.7204 64.6685 curveto
stroke
grestore
% 57--76
gsave
1 setlinewidth
0 0 0 edgecolor
newpath 111.8565 106.0564 moveto
118.8316 102.8646 143.7895 91.444 150.6709 88.295 curveto
stroke
grestore
% 57--85
gsave
1 setlinewidth
0 0 0 edgecolor
newpath 111.7875 107.3439 moveto
120.5049 109.6002 159.1464 119.6018 168.6706 122.067 curveto
stroke
grestore
% 57--94
gsave
1 setlinewidth
0 0 0 edgecolor
newpath 108.3087 107.5901 moveto
103.5541 109.5185 90.3009 114.8939 85.4981 116.8418 curveto
stroke
grestore
% 58--59
gsave
1 setlinewidth
0 0 0 edgecolor
newpath 180.6784 50.7478 moveto
186.6193 56.1347 207.8768 75.4096 213.738 80.7241 curveto
stroke
grestore
% 58--73
gsave
1 setlinewidth
0 0 0 edgecolor
newpath 180.686 48.0122 moveto
183.9545 45.2282 191.4787 38.8192 194.6141 36.1485 curveto
stroke
grestore
% 64
gsave
0 0 0 nodecolor
64.9317 56.3499 1.8 1.8 ellipse_path fill
1 setlinewidth
filled
0 0 0 nodecolor
64.9317 56.3499 1.8 1.8 ellipse_path stroke
grestore
% 60--64
gsave
1 setlinewidth
0 0 0 edgecolor
newpath 103.3498 62.483 moveto
96.2343 61.3471 73.7758 57.7618 66.9312 56.6691 curveto
stroke
grestore
% 60--72
gsave
1 setlinewidth
0 0 0 edgecolor
newpath 105.7527 60.9362 moveto
106.4565 54.8727 108.6498 35.9768 109.3829 29.6604 curveto
stroke
grestore
% 60--89
gsave
1 setlinewidth
0 0 0 edgecolor
newpath 107.4117 62.261 moveto
115.9857 59.6577 151.3536 48.9192 160.0616 46.2753 curveto
stroke
grestore
% 60--93
gsave
1 setlinewidth
0 0 0 edgecolor
newpath 103.9368 61.3961 moveto
100.5923 58.388 92.8929 51.4631 89.6844 48.5774 curveto
stroke
grestore
% 64--97
gsave
1 setlinewidth
0 0 0 edgecolor
newpath 66.5269 57.3224 moveto
71.6306 60.4337 87.5352 70.1295 92.8516 73.3706 curveto
stroke
grestore
% 66--78
gsave
1 setlinewidth
0 0 0 edgecolor
newpath 178.1802 27.8792 moveto
180.761 35.8337 191.4069 68.6457 194.028 76.7244 curveto
stroke
grestore
% 66--90
gsave
1 setlinewidth
0 0 0 edgecolor
newpath 176.4482 27.8921 moveto
172.646 33.6164 160.6451 51.6834 156.9877 57.1896 curveto
stroke
grestore
% 67--72
gsave
1 setlinewidth
0 0 0 edgecolor
newpath 157.9642 21.4449 moveto
149.6558 22.4995 119.9272 26.2727 111.7304 27.3131 curveto
stroke
grestore
% 67--80
gsave
1 setlinewidth
0 0 0 edgecolor
newpath 159.0962 22.9463 moveto
156.2357 27.8412 148.2619 41.4857 145.3723 46.4303 curveto
stroke
grestore
% 68--90
gsave
1 setlinewidth
0 0 0 edgecolor
newpath 165.3204 71.8741 moveto
163.1745 68.8894 158.9593 63.0265 156.9858 60.2817 curveto
stroke
grestore
% 68--95
gsave
1 setlinewidth
0 0 0 edgecolor
newpath 168.1382 74.8199 moveto
172.9496 78.398 187.9436 89.5484 192.9557 93.2757 curveto
stroke
grestore
% 69--93
gsave
1 setlinewidth
0 0 0 edgecolor
newpath 127.0741 74.0521 moveto
120.3995 69.4503 96.5167 52.9845 89.9317 48.4445 curveto
stroke
grestore
% 69--97
gsave
1 setlinewidth
0 0 0 edgecolor
newpath 126.9781 75.2103 moveto
121.0928 75.0699 102.752 74.6323 96.6213 74.486 curveto
stroke
grestore
% 70--83
gsave
1 setlinewidth
0 0 0 edgecolor
newpath 207.6792 123.8976 moveto
209.1737 118.5532 213.3396 103.6558 214.8493 98.2572 curveto
stroke
grestore
% 70--85
gsave
1 setlinewidth
0 0 0 edgecolor
newpath 205.183 125.6644 moveto
198.9323 125.1105 179.4531 123.3845 172.9418 122.8075 curveto
stroke
grestore
% 71--87
gsave
1 setlinewidth
0 0 0 edgecolor
newpath 169.9925 133.0161 moveto
175.8029 128.3922 196.5933 111.8475 202.3257 107.2858 curveto
stroke
grestore
% 71--91
gsave
1 setlinewidth
0 0 0 edgecolor
newpath 170.4264 134.9414 moveto
173.4812 136.0644 179.359 138.2252 182.4236 139.3519 curveto
stroke
grestore
% 71--96
gsave
1 setlinewidth
0 0 0 edgecolor
newpath 167.4653 135.7902 moveto
164.2358 140.8013 154.1717 156.4174 150.8076 161.6374 curveto
stroke
grestore
% 72--98
gsave
1 setlinewidth
0 0 0 edgecolor
newpath 108.9756 29.2688 moveto
105.7498 37.6649 91.4504 74.8822 87.926 84.0553 curveto
stroke
grestore
% 73--89
gsave
1 setlinewidth
0 0 0 edgecolor
newpath 194.1968 35.5233 moveto
188.345 37.3706 170.1088 43.1271 164.0129 45.0514 curveto
stroke
grestore
% 76--95
gsave
1 setlinewidth
0 0 0 edgecolor
newpath 154.2509 87.7875 moveto
161.0608 88.9207 185.1085 92.9225 192.4571 94.1454 curveto
stroke
grestore
% 77--97
gsave
1 setlinewidth
0 0 0 edgecolor
newpath 65.4015 90.6021 moveto
70.7097 87.6637 87.2519 78.5067 92.7815 75.4458 curveto
stroke
grestore
% 78--99
gsave
1 setlinewidth
0 0 0 edgecolor
newpath 194.1473 80.6737 moveto
192.3641 88.8882 185.9836 118.2809 184.2243 126.3851 curveto
stroke
grestore
% 79--80
gsave
1 setlinewidth
0 0 0 edgecolor
newpath 145.9927 38.4544 moveto
145.6245 40.597 145.0146 44.1457 144.6388 46.3322 curveto
stroke
grestore
% 81--98
gsave
1 setlinewidth
0 0 0 edgecolor
newpath 50.9668 98.5288 moveto
57.6664 96.2276 78.8119 88.9642 85.2563 86.7506 curveto
stroke
grestore
% 84
gsave
0 0 0 nodecolor
45.8847 137.3905 1.8 1.8 ellipse_path fill
1 setlinewidth
filled
0 0 0 nodecolor
45.8847 137.3905 1.8 1.8 ellipse_path stroke
grestore
% 84--94
gsave
1 setlinewidth
0 0 0 edgecolor
newpath 47.5109 136.5383 moveto
53.6231 133.3355 75.2069 122.0253 81.8026 118.5691 curveto
stroke
grestore
% 85--96
gsave
1 setlinewidth
0 0 0 edgecolor
newpath 169.891 124.368 moveto
166.4206 131.0691 154.0032 155.0466 150.5794 161.6578 curveto
stroke
grestore
% 86
gsave
0 0 0 nodecolor
69.8 171.8 1.8 1.8 ellipse_path fill
1 setlinewidth
filled
0 0 0 nodecolor
69.8 171.8 1.8 1.8 ellipse_path stroke
grestore
% 92--98
gsave
1 setlinewidth
0 0 0 edgecolor
newpath 81.9994 130.6991 moveto
82.8827 123.0343 86.0435 95.6087 86.915 88.0468 curveto
stroke
grestore
endpage
showpage
grestore
%%PageTrailer
%%EndPage: 1
%%Trailer
end
restore
%%EOF
