%!PS-Adobe-3.0 EPSF-3.0
%%Creator: graphviz version 2.43.0 (0)
%%Title: G
%%Pages: 1
%%BoundingBox: 36 36 289 239
%%EndComments
save
%%BeginProlog
/DotDict 200 dict def
DotDict begin

/setupLatin1 {
mark
/EncodingVector 256 array def
 EncodingVector 0

ISOLatin1Encoding 0 255 getinterval putinterval
EncodingVector 45 /hyphen put

% Set up ISO Latin 1 character encoding
/starnetISO {
        dup dup findfont dup length dict begin
        { 1 index /FID ne { def }{ pop pop } ifelse
        } forall
        /Encoding EncodingVector def
        currentdict end definefont
} def
/Times-Roman starnetISO def
/Times-Italic starnetISO def
/Times-Bold starnetISO def
/Times-BoldItalic starnetISO def
/Helvetica starnetISO def
/Helvetica-Oblique starnetISO def
/Helvetica-Bold starnetISO def
/Helvetica-BoldOblique starnetISO def
/Courier starnetISO def
/Courier-Oblique starnetISO def
/Courier-Bold starnetISO def
/Courier-BoldOblique starnetISO def
cleartomark
} bind def

%%BeginResource: procset graphviz 0 0
/coord-font-family /Times-Roman def
/default-font-family /Times-Roman def
/coordfont coord-font-family findfont 8 scalefont def

/InvScaleFactor 1.0 def
/set_scale {
       dup 1 exch div /InvScaleFactor exch def
       scale
} bind def

% styles
/solid { [] 0 setdash } bind def
/dashed { [9 InvScaleFactor mul dup ] 0 setdash } bind def
/dotted { [1 InvScaleFactor mul 6 InvScaleFactor mul] 0 setdash } bind def
/invis {/fill {newpath} def /stroke {newpath} def /show {pop newpath} def} bind def
/bold { 2 setlinewidth } bind def
/filled { } bind def
/unfilled { } bind def
/rounded { } bind def
/diagonals { } bind def
/tapered { } bind def

% hooks for setting color 
/nodecolor { sethsbcolor } bind def
/edgecolor { sethsbcolor } bind def
/graphcolor { sethsbcolor } bind def
/nopcolor {pop pop pop} bind def

/beginpage {	% i j npages
	/npages exch def
	/j exch def
	/i exch def
	/str 10 string def
	npages 1 gt {
		gsave
			coordfont setfont
			0 0 moveto
			(\() show i str cvs show (,) show j str cvs show (\)) show
		grestore
	} if
} bind def

/set_font {
	findfont exch
	scalefont setfont
} def

% draw text fitted to its expected width
/alignedtext {			% width text
	/text exch def
	/width exch def
	gsave
		width 0 gt {
			[] 0 setdash
			text stringwidth pop width exch sub text length div 0 text ashow
		} if
	grestore
} def

/boxprim {				% xcorner ycorner xsize ysize
		4 2 roll
		moveto
		2 copy
		exch 0 rlineto
		0 exch rlineto
		pop neg 0 rlineto
		closepath
} bind def

/ellipse_path {
	/ry exch def
	/rx exch def
	/y exch def
	/x exch def
	matrix currentmatrix
	newpath
	x y translate
	rx ry scale
	0 0 1 0 360 arc
	setmatrix
} bind def

/endpage { showpage } bind def
/showpage { } def

/layercolorseq
	[	% layer color sequence - darkest to lightest
		[0 0 0]
		[.2 .8 .8]
		[.4 .8 .8]
		[.6 .8 .8]
		[.8 .8 .8]
	]
def

/layerlen layercolorseq length def

/setlayer {/maxlayer exch def /curlayer exch def
	layercolorseq curlayer 1 sub layerlen mod get
	aload pop sethsbcolor
	/nodecolor {nopcolor} def
	/edgecolor {nopcolor} def
	/graphcolor {nopcolor} def
} bind def

/onlayer { curlayer ne {invis} if } def

/onlayers {
	/myupper exch def
	/mylower exch def
	curlayer mylower lt
	curlayer myupper gt
	or
	{invis} if
} def

/curlayer 0 def

%%EndResource
%%EndProlog
%%BeginSetup
14 default-font-family set_font
% /arrowlength 10 def
% /arrowwidth 5 def

% make sure pdfmark is harmless for PS-interpreters other than Distiller
/pdfmark where {pop} {userdict /pdfmark /cleartomark load put} ifelse
% make '<<' and '>>' safe on PS Level 1 devices
/languagelevel where {pop languagelevel}{1} ifelse
2 lt {
    userdict (<<) cvn ([) cvn load put
    userdict (>>) cvn ([) cvn load put
} if

%%EndSetup
setupLatin1
%%Page: 1 1
%%PageBoundingBox: 36 36 289 239
%%PageOrientation: Portrait
0 0 1 beginpage
gsave
36 36 253 203 boxprim clip newpath
1 1 set_scale 0 rotate 40 40 translate
% 0
gsave
1 setlinewidth
0 0 0 nodecolor
86.8614 131.0174 16.0303 16.0303 ellipse_path stroke
0 0 0 nodecolor
14 /Times-Roman set_font
83.3614 127.3174 moveto 7 (a) alignedtext
grestore
% 2
gsave
1 setlinewidth
0 0 0 nodecolor
84.6658 16.1582 16.0303 16.0303 ellipse_path stroke
0 0 0 nodecolor
14 /Times-Roman set_font
81.1658 12.4582 moveto 7 (c) alignedtext
grestore
% 0--2
gsave
1 setlinewidth
0 0 0 edgecolor
newpath 86.5468 114.5609 moveto
86.1294 92.7262 85.3969 54.4035 84.9798 32.5842 curveto
stroke
grestore
% 3
gsave
1 setlinewidth
0 0 0 nodecolor
138.7482 111.5111 16.0303 16.0303 ellipse_path stroke
0 0 0 nodecolor
14 /Times-Roman set_font
135.2482 107.8111 moveto 7 (d) alignedtext
grestore
% 0--3
gsave
1 setlinewidth
0 0 0 edgecolor
newpath 102.1485 125.2704 moveto
108.8446 122.7531 116.687 119.8048 123.3911 117.2845 curveto
stroke
grestore
% 5
gsave
1 setlinewidth
0 0 0 nodecolor
15.0229 136.4764 14.7 16.0303 ellipse_path stroke
0 0 0 nodecolor
14 /Times-Roman set_font
12.5229 132.7764 moveto 5 (f) alignedtext
grestore
% 0--5
gsave
1 setlinewidth
0 0 0 edgecolor
newpath 70.5601 132.2561 moveto
58.4721 133.1747 42.1081 134.4182 30.2772 135.3172 curveto
stroke
grestore
% 8
gsave
1 setlinewidth
0 0 0 nodecolor
161.5079 172.2548 14.2857 16.0303 ellipse_path stroke
0 0 0 nodecolor
14 /Times-Roman set_font
159.5079 168.5548 moveto 4 (i) alignedtext
grestore
% 0--8
gsave
1 setlinewidth
0 0 0 edgecolor
newpath 101.254 138.9684 moveto
114.9806 146.5514 135.4632 157.8668 148.6545 165.1541 curveto
stroke
grestore
% 1
gsave
1 setlinewidth
0 0 0 nodecolor
228.7537 145.0935 16.0303 16.0303 ellipse_path stroke
0 0 0 nodecolor
14 /Times-Roman set_font
225.2537 141.3935 moveto 7 (b) alignedtext
grestore
% 1--3
gsave
1 setlinewidth
0 0 0 edgecolor
newpath 213.4855 139.3967 moveto
196.9346 133.2213 170.6715 123.4222 154.0913 117.2359 curveto
stroke
grestore
% 1--8
gsave
1 setlinewidth
0 0 0 edgecolor
newpath 213.4946 151.2568 moveto
201.8694 155.9524 186.0193 162.3544 174.8865 166.851 curveto
stroke
grestore
% 9
gsave
1 setlinewidth
0 0 0 nodecolor
197.7073 79.3694 14.2857 16.0303 ellipse_path stroke
0 0 0 nodecolor
14 /Times-Roman set_font
195.7073 75.6694 moveto 4 (j) alignedtext
grestore
% 1--9
gsave
1 setlinewidth
0 0 0 edgecolor
newpath 221.7088 130.1797 moveto
216.5563 119.272 209.6062 104.5588 204.511 93.7725 curveto
stroke
grestore
% 7
gsave
1 setlinewidth
0 0 0 nodecolor
128.4667 70.9802 16.0303 16.0303 ellipse_path stroke
0 0 0 nodecolor
14 /Times-Roman set_font
124.9667 67.2802 moveto 7 (h) alignedtext
grestore
% 2--7
gsave
1 setlinewidth
0 0 0 edgecolor
newpath 94.8247 28.8733 moveto
101.7998 37.6034 111.0308 49.1571 118.0587 57.9534 curveto
stroke
grestore
% 6
gsave
1 setlinewidth
0 0 0 nodecolor
44.019 83.4935 16.0303 16.0303 ellipse_path stroke
0 0 0 nodecolor
14 /Times-Roman set_font
40.519 79.7935 moveto 7 (g) alignedtext
grestore
% 3--6
gsave
1 setlinewidth
0 0 0 edgecolor
newpath 123.1056 106.8846 moveto
105.5538 101.6934 77.2461 93.3209 59.6849 88.1269 curveto
stroke
grestore
% 3--7
gsave
1 setlinewidth
0 0 0 edgecolor
newpath 134.6847 95.4922 moveto
133.9662 92.66 133.2184 89.7118 132.5007 86.8828 curveto
stroke
grestore
% 3--8
gsave
1 setlinewidth
0 0 0 edgecolor
newpath 144.4915 126.8393 moveto
147.968 136.1179 152.3835 147.9025 155.8454 157.1419 curveto
stroke
grestore
% 3--9
gsave
1 setlinewidth
0 0 0 edgecolor
newpath 153.3224 103.566 moveto
163.0069 98.2864 175.604 91.4191 184.9027 86.3498 curveto
stroke
grestore
% 4
gsave
1 setlinewidth
0 0 0 nodecolor
104.494 179.1283 16.0303 16.0303 ellipse_path stroke
0 0 0 nodecolor
14 /Times-Roman set_font
100.994 175.4283 moveto 7 (e) alignedtext
grestore
% 4--7
gsave
1 setlinewidth
0 0 0 edgecolor
newpath 108.0313 163.1707 moveto
112.5637 142.7235 120.3755 107.482 124.9149 87.0033 curveto
stroke
grestore
% 4--8
gsave
1 setlinewidth
0 0 0 edgecolor
newpath 120.6794 177.177 moveto
129.1073 176.161 139.3145 174.9304 147.4146 173.9539 curveto
stroke
grestore
% 5--6
gsave
1 setlinewidth
0 0 0 edgecolor
newpath 22.7933 122.2779 moveto
26.8865 114.7987 31.899 105.6397 36.0249 98.1006 curveto
stroke
grestore
% 6--7
gsave
1 setlinewidth
0 0 0 edgecolor
newpath 60.3014 81.0808 moveto
75.2551 78.8649 97.2964 75.5989 112.2343 73.3855 curveto
stroke
grestore
% 7--9
gsave
1 setlinewidth
0 0 0 edgecolor
newpath 144.8758 72.9683 moveto
156.5531 74.3831 172.0948 76.2662 183.2949 77.6232 curveto
stroke
grestore
% 8--9
gsave
1 setlinewidth
0 0 0 edgecolor
newpath 167.324 157.3312 moveto
174.0792 139.9977 185.1567 111.5736 191.9057 94.256 curveto
stroke
grestore
endpage
showpage
grestore
%%PageTrailer
%%EndPage: 1
%%Trailer
end
restore
%%EOF
