%!PS-Adobe-3.0 EPSF-3.0
%%Creator: graphviz version 2.43.0 (0)
%%Title: G
%%Pages: 1
%%BoundingBox: 36 36 290 239
%%EndComments
save
%%BeginProlog
/DotDict 200 dict def
DotDict begin

/setupLatin1 {
mark
/EncodingVector 256 array def
 EncodingVector 0

ISOLatin1Encoding 0 255 getinterval putinterval
EncodingVector 45 /hyphen put

% Set up ISO Latin 1 character encoding
/starnetISO {
        dup dup findfont dup length dict begin
        { 1 index /FID ne { def }{ pop pop } ifelse
        } forall
        /Encoding EncodingVector def
        currentdict end definefont
} def
/Times-Roman starnetISO def
/Times-Italic starnetISO def
/Times-Bold starnetISO def
/Times-BoldItalic starnetISO def
/Helvetica starnetISO def
/Helvetica-Oblique starnetISO def
/Helvetica-Bold starnetISO def
/Helvetica-BoldOblique starnetISO def
/Courier starnetISO def
/Courier-Oblique starnetISO def
/Courier-Bold starnetISO def
/Courier-BoldOblique starnetISO def
cleartomark
} bind def

%%BeginResource: procset graphviz 0 0
/coord-font-family /Times-Roman def
/default-font-family /Times-Roman def
/coordfont coord-font-family findfont 8 scalefont def

/InvScaleFactor 1.0 def
/set_scale {
       dup 1 exch div /InvScaleFactor exch def
       scale
} bind def

% styles
/solid { [] 0 setdash } bind def
/dashed { [9 InvScaleFactor mul dup ] 0 setdash } bind def
/dotted { [1 InvScaleFactor mul 6 InvScaleFactor mul] 0 setdash } bind def
/invis {/fill {newpath} def /stroke {newpath} def /show {pop newpath} def} bind def
/bold { 2 setlinewidth } bind def
/filled { } bind def
/unfilled { } bind def
/rounded { } bind def
/diagonals { } bind def
/tapered { } bind def

% hooks for setting color 
/nodecolor { sethsbcolor } bind def
/edgecolor { sethsbcolor } bind def
/graphcolor { sethsbcolor } bind def
/nopcolor {pop pop pop} bind def

/beginpage {	% i j npages
	/npages exch def
	/j exch def
	/i exch def
	/str 10 string def
	npages 1 gt {
		gsave
			coordfont setfont
			0 0 moveto
			(\() show i str cvs show (,) show j str cvs show (\)) show
		grestore
	} if
} bind def

/set_font {
	findfont exch
	scalefont setfont
} def

% draw text fitted to its expected width
/alignedtext {			% width text
	/text exch def
	/width exch def
	gsave
		width 0 gt {
			[] 0 setdash
			text stringwidth pop width exch sub text length div 0 text ashow
		} if
	grestore
} def

/boxprim {				% xcorner ycorner xsize ysize
		4 2 roll
		moveto
		2 copy
		exch 0 rlineto
		0 exch rlineto
		pop neg 0 rlineto
		closepath
} bind def

/ellipse_path {
	/ry exch def
	/rx exch def
	/y exch def
	/x exch def
	matrix currentmatrix
	newpath
	x y translate
	rx ry scale
	0 0 1 0 360 arc
	setmatrix
} bind def

/endpage { showpage } bind def
/showpage { } def

/layercolorseq
	[	% layer color sequence - darkest to lightest
		[0 0 0]
		[.2 .8 .8]
		[.4 .8 .8]
		[.6 .8 .8]
		[.8 .8 .8]
	]
def

/layerlen layercolorseq length def

/setlayer {/maxlayer exch def /curlayer exch def
	layercolorseq curlayer 1 sub layerlen mod get
	aload pop sethsbcolor
	/nodecolor {nopcolor} def
	/edgecolor {nopcolor} def
	/graphcolor {nopcolor} def
} bind def

/onlayer { curlayer ne {invis} if } def

/onlayers {
	/myupper exch def
	/mylower exch def
	curlayer mylower lt
	curlayer myupper gt
	or
	{invis} if
} def

/curlayer 0 def

%%EndResource
%%EndProlog
%%BeginSetup
14 default-font-family set_font
% /arrowlength 10 def
% /arrowwidth 5 def

% make sure pdfmark is harmless for PS-interpreters other than Distiller
/pdfmark where {pop} {userdict /pdfmark /cleartomark load put} ifelse
% make '<<' and '>>' safe on PS Level 1 devices
/languagelevel where {pop languagelevel}{1} ifelse
2 lt {
    userdict (<<) cvn ([) cvn load put
    userdict (>>) cvn ([) cvn load put
} if

%%EndSetup
setupLatin1
%%Page: 1 1
%%PageBoundingBox: 36 36 290 239
%%PageOrientation: Portrait
0 0 1 beginpage
gsave
36 36 254 203 boxprim clip newpath
1 1 set_scale 0 rotate 40 40 translate
% 0
gsave
1 setlinewidth
0 0 0 nodecolor
87.8614 131.0174 16.0303 16.0303 ellipse_path stroke
0 0 0 nodecolor
14 /Times-Roman set_font
84.3614 127.3174 moveto 7 (a) alignedtext
grestore
% 2
gsave
1 setlinewidth
0 0 0 nodecolor
85.6658 16.1582 16.0303 16.0303 ellipse_path stroke
0 0 0 nodecolor
14 /Times-Roman set_font
82.1658 12.4582 moveto 7 (b) alignedtext
grestore
% 0--2
gsave
1 setlinewidth
0 0 0 edgecolor
newpath 87.5468 114.5609 moveto
87.1294 92.7262 86.3969 54.4035 85.9798 32.5842 curveto
stroke
grestore
% 3
gsave
1 setlinewidth
0 0 0 nodecolor
139.7482 111.5111 16.0303 16.0303 ellipse_path stroke
0 0 0 nodecolor
14 /Times-Roman set_font
136.2482 107.8111 moveto 7 (c) alignedtext
grestore
% 0--3
gsave
1 setlinewidth
0 0 0 edgecolor
newpath 103.1485 125.2704 moveto
109.8446 122.7531 117.687 119.8048 124.3911 117.2845 curveto
stroke
grestore
% 5
gsave
1 setlinewidth
0 0 0 nodecolor
16.0229 136.4764 16.0303 16.0303 ellipse_path stroke
0 0 0 nodecolor
14 /Times-Roman set_font
12.5229 132.7764 moveto 7 (e) alignedtext
grestore
% 0--5
gsave
1 setlinewidth
0 0 0 edgecolor
newpath 71.5601 132.2561 moveto
59.8033 133.1495 44.0016 134.3503 32.2596 135.2426 curveto
stroke
grestore
% 8
gsave
1 setlinewidth
0 0 0 nodecolor
162.5079 172.2548 16.0303 16.0303 ellipse_path stroke
0 0 0 nodecolor
14 /Times-Roman set_font
159.0079 168.5548 moveto 7 (d) alignedtext
grestore
% 0--8
gsave
1 setlinewidth
0 0 0 edgecolor
newpath 102.254 138.9684 moveto
115.4722 146.2706 134.9553 157.0337 148.1595 164.3282 curveto
stroke
grestore
% 1
gsave
1 setlinewidth
0 0 0 nodecolor
229.7537 145.0935 16.0303 16.0303 ellipse_path stroke
0 0 0 nodecolor
14 /Times-Roman set_font
226.2537 141.3935 moveto 7 (h) alignedtext
grestore
% 1--3
gsave
1 setlinewidth
0 0 0 edgecolor
newpath 214.4855 139.3967 moveto
197.9346 133.2213 171.6715 123.4222 155.0913 117.2359 curveto
stroke
grestore
% 1--8
gsave
1 setlinewidth
0 0 0 edgecolor
newpath 214.4946 151.2568 moveto
203.4894 155.7019 188.698 161.6764 177.7067 166.1159 curveto
stroke
grestore
% 9
gsave
1 setlinewidth
0 0 0 nodecolor
198.7073 79.3694 16.0303 16.0303 ellipse_path stroke
0 0 0 nodecolor
14 /Times-Roman set_font
195.2073 75.6694 moveto 7 (g) alignedtext
grestore
% 1--9
gsave
1 setlinewidth
0 0 0 edgecolor
newpath 222.7088 130.1797 moveto
217.6279 119.4235 210.7989 104.9668 205.7243 94.2242 curveto
stroke
grestore
% 7
gsave
1 setlinewidth
0 0 0 nodecolor
129.4667 70.9802 16.0303 16.0303 ellipse_path stroke
0 0 0 nodecolor
14 /Times-Roman set_font
126.9667 67.2802 moveto 5 (f) alignedtext
grestore
% 2--7
gsave
1 setlinewidth
0 0 0 edgecolor
newpath 95.8247 28.8733 moveto
102.7998 37.6034 112.0308 49.1571 119.0587 57.9534 curveto
stroke
grestore
% 6
gsave
1 setlinewidth
0 0 0 nodecolor
45.019 83.4935 16.0303 16.0303 ellipse_path stroke
0 0 0 nodecolor
14 /Times-Roman set_font
43.019 79.7935 moveto 4 (i) alignedtext
grestore
% 3--6
gsave
1 setlinewidth
0 0 0 edgecolor
newpath 124.1056 106.8846 moveto
106.5538 101.6934 78.2461 93.3209 60.6849 88.1269 curveto
stroke
grestore
% 3--7
gsave
1 setlinewidth
0 0 0 edgecolor
newpath 135.6847 95.4922 moveto
134.9662 92.66 134.2184 89.7118 133.5007 86.8828 curveto
stroke
grestore
% 3--8
gsave
1 setlinewidth
0 0 0 edgecolor
newpath 145.4915 126.8393 moveto
148.9153 135.9773 153.2499 147.546 156.6874 156.7202 curveto
stroke
grestore
% 3--9
gsave
1 setlinewidth
0 0 0 edgecolor
newpath 154.3224 103.566 moveto
163.4613 98.5839 175.1938 92.1878 184.3008 87.2231 curveto
stroke
grestore
% 4
gsave
1 setlinewidth
0 0 0 nodecolor
105.494 179.1283 16.0303 16.0303 ellipse_path stroke
0 0 0 nodecolor
14 /Times-Roman set_font
103.494 175.4283 moveto 4 (j) alignedtext
grestore
% 4--7
gsave
1 setlinewidth
0 0 0 edgecolor
newpath 109.0313 163.1707 moveto
113.5637 142.7235 121.3755 107.482 125.9149 87.0033 curveto
stroke
grestore
% 4--8
gsave
1 setlinewidth
0 0 0 edgecolor
newpath 121.6794 177.177 moveto
129.3172 176.2562 138.4163 175.1593 146.0841 174.2348 curveto
stroke
grestore
% 5--6
gsave
1 setlinewidth
0 0 0 edgecolor
newpath 23.9462 121.9986 moveto
28.0376 114.5226 33.0153 105.4272 37.1053 97.9538 curveto
stroke
grestore
% 6--7
gsave
1 setlinewidth
0 0 0 edgecolor
newpath 61.3014 81.0808 moveto
76.2551 78.8649 98.2964 75.5989 113.2343 73.3855 curveto
stroke
grestore
% 7--9
gsave
1 setlinewidth
0 0 0 edgecolor
newpath 145.8758 72.9683 moveto
156.9133 74.3056 171.4032 76.0612 182.416 77.3955 curveto
stroke
grestore
% 8--9
gsave
1 setlinewidth
0 0 0 edgecolor
newpath 168.4855 156.9167 moveto
175.1927 139.7065 186.01 111.9498 192.7208 94.7303 curveto
stroke
grestore
endpage
showpage
grestore
%%PageTrailer
%%EndPage: 1
%%Trailer
end
restore
%%EOF
