%!PS-Adobe-2.0 EPSF-2.0
%%Title: inDeg.PA_100000_3_UNDIR_degrees.eps
%%Creator: gnuplot 5.2 patchlevel 8
%%CreationDate: Fri Sep 18 22:35:41 2020
%%DocumentFonts: (atend)
%%BoundingBox: 50 50 410 302
%%EndComments
%%BeginProlog
/gnudict 256 dict def
gnudict begin
%
% The following true/false flags may be edited by hand if desired.
% The unit line width and grayscale image gamma correction may also be changed.
%
/Color true def
/Blacktext false def
/Solid false def
/Dashlength 1 def
/Landscape false def
/Level1 false def
/Level3 false def
/Rounded false def
/ClipToBoundingBox false def
/SuppressPDFMark false def
/TransparentPatterns false def
/gnulinewidth 5.000 def
/userlinewidth gnulinewidth def
/Gamma 1.0 def
/BackgroundColor {-1.000 -1.000 -1.000} def
%
/vshift -66 def
/dl1 {
  10.0 Dashlength userlinewidth gnulinewidth div mul mul mul
  Rounded { currentlinewidth 0.75 mul sub dup 0 le { pop 0.01 } if } if
} def
/dl2 {
  10.0 Dashlength userlinewidth gnulinewidth div mul mul mul
  Rounded { currentlinewidth 0.75 mul add } if
} def
/hpt_ 31.5 def
/vpt_ 31.5 def
/hpt hpt_ def
/vpt vpt_ def
/doclip {
  ClipToBoundingBox {
    newpath 50 50 moveto 410 50 lineto 410 302 lineto 50 302 lineto closepath
    clip
  } if
} def
%
% Gnuplot Prolog Version 5.2 (Dec 2017)
%
%/SuppressPDFMark true def
%
/M {moveto} bind def
/L {lineto} bind def
/R {rmoveto} bind def
/V {rlineto} bind def
/N {newpath moveto} bind def
/Z {closepath} bind def
/C {setrgbcolor} bind def
/f {rlineto fill} bind def
/g {setgray} bind def
/Gshow {show} def   % May be redefined later in the file to support UTF-8
/vpt2 vpt 2 mul def
/hpt2 hpt 2 mul def
/Lshow {currentpoint stroke M 0 vshift R 
	Blacktext {gsave 0 setgray textshow grestore} {textshow} ifelse} def
/Rshow {currentpoint stroke M dup stringwidth pop neg vshift R
	Blacktext {gsave 0 setgray textshow grestore} {textshow} ifelse} def
/Cshow {currentpoint stroke M dup stringwidth pop -2 div vshift R 
	Blacktext {gsave 0 setgray textshow grestore} {textshow} ifelse} def
/UP {dup vpt_ mul /vpt exch def hpt_ mul /hpt exch def
  /hpt2 hpt 2 mul def /vpt2 vpt 2 mul def} def
/DL {Color {setrgbcolor Solid {pop []} if 0 setdash}
 {pop pop pop 0 setgray Solid {pop []} if 0 setdash} ifelse} def
/BL {stroke userlinewidth 2 mul setlinewidth
	Rounded {1 setlinejoin 1 setlinecap} if} def
/AL {stroke userlinewidth 2 div setlinewidth
	Rounded {1 setlinejoin 1 setlinecap} if} def
/UL {dup gnulinewidth mul /userlinewidth exch def
	dup 1 lt {pop 1} if 10 mul /udl exch def} def
/PL {stroke userlinewidth setlinewidth
	Rounded {1 setlinejoin 1 setlinecap} if} def
3.8 setmiterlimit
% Classic Line colors (version 5.0)
/LCw {1 1 1} def
/LCb {0 0 0} def
/LCa {0 0 0} def
/LC0 {1 0 0} def
/LC1 {0 1 0} def
/LC2 {0 0 1} def
/LC3 {1 0 1} def
/LC4 {0 1 1} def
/LC5 {1 1 0} def
/LC6 {0 0 0} def
/LC7 {1 0.3 0} def
/LC8 {0.5 0.5 0.5} def
% Default dash patterns (version 5.0)
/LTB {BL [] LCb DL} def
/LTw {PL [] 1 setgray} def
/LTb {PL [] LCb DL} def
/LTa {AL [1 udl mul 2 udl mul] 0 setdash LCa setrgbcolor} def
/LT0 {PL [] LC0 DL} def
/LT1 {PL [2 dl1 3 dl2] LC1 DL} def
/LT2 {PL [1 dl1 1.5 dl2] LC2 DL} def
/LT3 {PL [6 dl1 2 dl2 1 dl1 2 dl2] LC3 DL} def
/LT4 {PL [1 dl1 2 dl2 6 dl1 2 dl2 1 dl1 2 dl2] LC4 DL} def
/LT5 {PL [4 dl1 2 dl2] LC5 DL} def
/LT6 {PL [1.5 dl1 1.5 dl2 1.5 dl1 1.5 dl2 1.5 dl1 6 dl2] LC6 DL} def
/LT7 {PL [3 dl1 3 dl2 1 dl1 3 dl2] LC7 DL} def
/LT8 {PL [2 dl1 2 dl2 2 dl1 6 dl2] LC8 DL} def
/SL {[] 0 setdash} def
/Pnt {stroke [] 0 setdash gsave 1 setlinecap M 0 0 V stroke grestore} def
/Dia {stroke [] 0 setdash 2 copy vpt add M
  hpt neg vpt neg V hpt vpt neg V
  hpt vpt V hpt neg vpt V closepath stroke
  Pnt} def
/Pls {stroke [] 0 setdash vpt sub M 0 vpt2 V
  currentpoint stroke M
  hpt neg vpt neg R hpt2 0 V stroke
 } def
/Box {stroke [] 0 setdash 2 copy exch hpt sub exch vpt add M
  0 vpt2 neg V hpt2 0 V 0 vpt2 V
  hpt2 neg 0 V closepath stroke
  Pnt} def
/Crs {stroke [] 0 setdash exch hpt sub exch vpt add M
  hpt2 vpt2 neg V currentpoint stroke M
  hpt2 neg 0 R hpt2 vpt2 V stroke} def
/TriU {stroke [] 0 setdash 2 copy vpt 1.12 mul add M
  hpt neg vpt -1.62 mul V
  hpt 2 mul 0 V
  hpt neg vpt 1.62 mul V closepath stroke
  Pnt} def
/Star {2 copy Pls Crs} def
/BoxF {stroke [] 0 setdash exch hpt sub exch vpt add M
  0 vpt2 neg V hpt2 0 V 0 vpt2 V
  hpt2 neg 0 V closepath fill} def
/TriUF {stroke [] 0 setdash vpt 1.12 mul add M
  hpt neg vpt -1.62 mul V
  hpt 2 mul 0 V
  hpt neg vpt 1.62 mul V closepath fill} def
/TriD {stroke [] 0 setdash 2 copy vpt 1.12 mul sub M
  hpt neg vpt 1.62 mul V
  hpt 2 mul 0 V
  hpt neg vpt -1.62 mul V closepath stroke
  Pnt} def
/TriDF {stroke [] 0 setdash vpt 1.12 mul sub M
  hpt neg vpt 1.62 mul V
  hpt 2 mul 0 V
  hpt neg vpt -1.62 mul V closepath fill} def
/DiaF {stroke [] 0 setdash vpt add M
  hpt neg vpt neg V hpt vpt neg V
  hpt vpt V hpt neg vpt V closepath fill} def
/Pent {stroke [] 0 setdash 2 copy gsave
  translate 0 hpt M 4 {72 rotate 0 hpt L} repeat
  closepath stroke grestore Pnt} def
/PentF {stroke [] 0 setdash gsave
  translate 0 hpt M 4 {72 rotate 0 hpt L} repeat
  closepath fill grestore} def
/Circle {stroke [] 0 setdash 2 copy
  hpt 0 360 arc stroke Pnt} def
/CircleF {stroke [] 0 setdash hpt 0 360 arc fill} def
/C0 {BL [] 0 setdash 2 copy moveto vpt 90 450 arc} bind def
/C1 {BL [] 0 setdash 2 copy moveto
	2 copy vpt 0 90 arc closepath fill
	vpt 0 360 arc closepath} bind def
/C2 {BL [] 0 setdash 2 copy moveto
	2 copy vpt 90 180 arc closepath fill
	vpt 0 360 arc closepath} bind def
/C3 {BL [] 0 setdash 2 copy moveto
	2 copy vpt 0 180 arc closepath fill
	vpt 0 360 arc closepath} bind def
/C4 {BL [] 0 setdash 2 copy moveto
	2 copy vpt 180 270 arc closepath fill
	vpt 0 360 arc closepath} bind def
/C5 {BL [] 0 setdash 2 copy moveto
	2 copy vpt 0 90 arc
	2 copy moveto
	2 copy vpt 180 270 arc closepath fill
	vpt 0 360 arc} bind def
/C6 {BL [] 0 setdash 2 copy moveto
	2 copy vpt 90 270 arc closepath fill
	vpt 0 360 arc closepath} bind def
/C7 {BL [] 0 setdash 2 copy moveto
	2 copy vpt 0 270 arc closepath fill
	vpt 0 360 arc closepath} bind def
/C8 {BL [] 0 setdash 2 copy moveto
	2 copy vpt 270 360 arc closepath fill
	vpt 0 360 arc closepath} bind def
/C9 {BL [] 0 setdash 2 copy moveto
	2 copy vpt 270 450 arc closepath fill
	vpt 0 360 arc closepath} bind def
/C10 {BL [] 0 setdash 2 copy 2 copy moveto vpt 270 360 arc closepath fill
	2 copy moveto
	2 copy vpt 90 180 arc closepath fill
	vpt 0 360 arc closepath} bind def
/C11 {BL [] 0 setdash 2 copy moveto
	2 copy vpt 0 180 arc closepath fill
	2 copy moveto
	2 copy vpt 270 360 arc closepath fill
	vpt 0 360 arc closepath} bind def
/C12 {BL [] 0 setdash 2 copy moveto
	2 copy vpt 180 360 arc closepath fill
	vpt 0 360 arc closepath} bind def
/C13 {BL [] 0 setdash 2 copy moveto
	2 copy vpt 0 90 arc closepath fill
	2 copy moveto
	2 copy vpt 180 360 arc closepath fill
	vpt 0 360 arc closepath} bind def
/C14 {BL [] 0 setdash 2 copy moveto
	2 copy vpt 90 360 arc closepath fill
	vpt 0 360 arc} bind def
/C15 {BL [] 0 setdash 2 copy vpt 0 360 arc closepath fill
	vpt 0 360 arc closepath} bind def
/Rec {newpath 4 2 roll moveto 1 index 0 rlineto 0 exch rlineto
	neg 0 rlineto closepath} bind def
/Square {dup Rec} bind def
/Bsquare {vpt sub exch vpt sub exch vpt2 Square} bind def
/S0 {BL [] 0 setdash 2 copy moveto 0 vpt rlineto BL Bsquare} bind def
/S1 {BL [] 0 setdash 2 copy vpt Square fill Bsquare} bind def
/S2 {BL [] 0 setdash 2 copy exch vpt sub exch vpt Square fill Bsquare} bind def
/S3 {BL [] 0 setdash 2 copy exch vpt sub exch vpt2 vpt Rec fill Bsquare} bind def
/S4 {BL [] 0 setdash 2 copy exch vpt sub exch vpt sub vpt Square fill Bsquare} bind def
/S5 {BL [] 0 setdash 2 copy 2 copy vpt Square fill
	exch vpt sub exch vpt sub vpt Square fill Bsquare} bind def
/S6 {BL [] 0 setdash 2 copy exch vpt sub exch vpt sub vpt vpt2 Rec fill Bsquare} bind def
/S7 {BL [] 0 setdash 2 copy exch vpt sub exch vpt sub vpt vpt2 Rec fill
	2 copy vpt Square fill Bsquare} bind def
/S8 {BL [] 0 setdash 2 copy vpt sub vpt Square fill Bsquare} bind def
/S9 {BL [] 0 setdash 2 copy vpt sub vpt vpt2 Rec fill Bsquare} bind def
/S10 {BL [] 0 setdash 2 copy vpt sub vpt Square fill 2 copy exch vpt sub exch vpt Square fill
	Bsquare} bind def
/S11 {BL [] 0 setdash 2 copy vpt sub vpt Square fill 2 copy exch vpt sub exch vpt2 vpt Rec fill
	Bsquare} bind def
/S12 {BL [] 0 setdash 2 copy exch vpt sub exch vpt sub vpt2 vpt Rec fill Bsquare} bind def
/S13 {BL [] 0 setdash 2 copy exch vpt sub exch vpt sub vpt2 vpt Rec fill
	2 copy vpt Square fill Bsquare} bind def
/S14 {BL [] 0 setdash 2 copy exch vpt sub exch vpt sub vpt2 vpt Rec fill
	2 copy exch vpt sub exch vpt Square fill Bsquare} bind def
/S15 {BL [] 0 setdash 2 copy Bsquare fill Bsquare} bind def
/D0 {gsave translate 45 rotate 0 0 S0 stroke grestore} bind def
/D1 {gsave translate 45 rotate 0 0 S1 stroke grestore} bind def
/D2 {gsave translate 45 rotate 0 0 S2 stroke grestore} bind def
/D3 {gsave translate 45 rotate 0 0 S3 stroke grestore} bind def
/D4 {gsave translate 45 rotate 0 0 S4 stroke grestore} bind def
/D5 {gsave translate 45 rotate 0 0 S5 stroke grestore} bind def
/D6 {gsave translate 45 rotate 0 0 S6 stroke grestore} bind def
/D7 {gsave translate 45 rotate 0 0 S7 stroke grestore} bind def
/D8 {gsave translate 45 rotate 0 0 S8 stroke grestore} bind def
/D9 {gsave translate 45 rotate 0 0 S9 stroke grestore} bind def
/D10 {gsave translate 45 rotate 0 0 S10 stroke grestore} bind def
/D11 {gsave translate 45 rotate 0 0 S11 stroke grestore} bind def
/D12 {gsave translate 45 rotate 0 0 S12 stroke grestore} bind def
/D13 {gsave translate 45 rotate 0 0 S13 stroke grestore} bind def
/D14 {gsave translate 45 rotate 0 0 S14 stroke grestore} bind def
/D15 {gsave translate 45 rotate 0 0 S15 stroke grestore} bind def
/DiaE {stroke [] 0 setdash vpt add M
  hpt neg vpt neg V hpt vpt neg V
  hpt vpt V hpt neg vpt V closepath stroke} def
/BoxE {stroke [] 0 setdash exch hpt sub exch vpt add M
  0 vpt2 neg V hpt2 0 V 0 vpt2 V
  hpt2 neg 0 V closepath stroke} def
/TriUE {stroke [] 0 setdash vpt 1.12 mul add M
  hpt neg vpt -1.62 mul V
  hpt 2 mul 0 V
  hpt neg vpt 1.62 mul V closepath stroke} def
/TriDE {stroke [] 0 setdash vpt 1.12 mul sub M
  hpt neg vpt 1.62 mul V
  hpt 2 mul 0 V
  hpt neg vpt -1.62 mul V closepath stroke} def
/PentE {stroke [] 0 setdash gsave
  translate 0 hpt M 4 {72 rotate 0 hpt L} repeat
  closepath stroke grestore} def
/CircE {stroke [] 0 setdash 
  hpt 0 360 arc stroke} def
/Opaque {gsave closepath 1 setgray fill grestore 0 setgray closepath} def
/DiaW {stroke [] 0 setdash vpt add M
  hpt neg vpt neg V hpt vpt neg V
  hpt vpt V hpt neg vpt V Opaque stroke} def
/BoxW {stroke [] 0 setdash exch hpt sub exch vpt add M
  0 vpt2 neg V hpt2 0 V 0 vpt2 V
  hpt2 neg 0 V Opaque stroke} def
/TriUW {stroke [] 0 setdash vpt 1.12 mul add M
  hpt neg vpt -1.62 mul V
  hpt 2 mul 0 V
  hpt neg vpt 1.62 mul V Opaque stroke} def
/TriDW {stroke [] 0 setdash vpt 1.12 mul sub M
  hpt neg vpt 1.62 mul V
  hpt 2 mul 0 V
  hpt neg vpt -1.62 mul V Opaque stroke} def
/PentW {stroke [] 0 setdash gsave
  translate 0 hpt M 4 {72 rotate 0 hpt L} repeat
  Opaque stroke grestore} def
/CircW {stroke [] 0 setdash 
  hpt 0 360 arc Opaque stroke} def
/BoxFill {gsave Rec 1 setgray fill grestore} def
/Density {
  /Fillden exch def
  currentrgbcolor
  /ColB exch def /ColG exch def /ColR exch def
  /ColR ColR Fillden mul Fillden sub 1 add def
  /ColG ColG Fillden mul Fillden sub 1 add def
  /ColB ColB Fillden mul Fillden sub 1 add def
  ColR ColG ColB setrgbcolor} def
/BoxColFill {gsave Rec PolyFill} def
/PolyFill {gsave Density fill grestore grestore} def
/h {rlineto rlineto rlineto closepath gsave fill grestore stroke} bind def
%
% PostScript Level 1 Pattern Fill routine for rectangles
% Usage: x y w h s a XX PatternFill
%	x,y = lower left corner of box to be filled
%	w,h = width and height of box
%	  a = angle in degrees between lines and x-axis
%	 XX = 0/1 for no/yes cross-hatch
%
/PatternFill {gsave /PFa [ 9 2 roll ] def
  PFa 0 get PFa 2 get 2 div add PFa 1 get PFa 3 get 2 div add translate
  PFa 2 get -2 div PFa 3 get -2 div PFa 2 get PFa 3 get Rec
  TransparentPatterns {} {gsave 1 setgray fill grestore} ifelse
  clip
  currentlinewidth 0.5 mul setlinewidth
  /PFs PFa 2 get dup mul PFa 3 get dup mul add sqrt def
  0 0 M PFa 5 get rotate PFs -2 div dup translate
  0 1 PFs PFa 4 get div 1 add floor cvi
	{PFa 4 get mul 0 M 0 PFs V} for
  0 PFa 6 get ne {
	0 1 PFs PFa 4 get div 1 add floor cvi
	{PFa 4 get mul 0 2 1 roll M PFs 0 V} for
 } if
  stroke grestore} def
%
/languagelevel where
 {pop languagelevel} {1} ifelse
dup 2 lt
	{/InterpretLevel1 true def
	 /InterpretLevel3 false def}
	{/InterpretLevel1 Level1 def
	 2 gt
	    {/InterpretLevel3 Level3 def}
	    {/InterpretLevel3 false def}
	 ifelse }
 ifelse
%
% PostScript level 2 pattern fill definitions
%
/Level2PatternFill {
/Tile8x8 {/PaintType 2 /PatternType 1 /TilingType 1 /BBox [0 0 8 8] /XStep 8 /YStep 8}
	bind def
/KeepColor {currentrgbcolor [/Pattern /DeviceRGB] setcolorspace} bind def
<< Tile8x8
 /PaintProc {0.5 setlinewidth pop 0 0 M 8 8 L 0 8 M 8 0 L stroke} 
>> matrix makepattern
/Pat1 exch def
<< Tile8x8
 /PaintProc {0.5 setlinewidth pop 0 0 M 8 8 L 0 8 M 8 0 L stroke
	0 4 M 4 8 L 8 4 L 4 0 L 0 4 L stroke}
>> matrix makepattern
/Pat2 exch def
<< Tile8x8
 /PaintProc {0.5 setlinewidth pop 0 0 M 0 8 L
	8 8 L 8 0 L 0 0 L fill}
>> matrix makepattern
/Pat3 exch def
<< Tile8x8
 /PaintProc {0.5 setlinewidth pop -4 8 M 8 -4 L
	0 12 M 12 0 L stroke}
>> matrix makepattern
/Pat4 exch def
<< Tile8x8
 /PaintProc {0.5 setlinewidth pop -4 0 M 8 12 L
	0 -4 M 12 8 L stroke}
>> matrix makepattern
/Pat5 exch def
<< Tile8x8
 /PaintProc {0.5 setlinewidth pop -2 8 M 4 -4 L
	0 12 M 8 -4 L 4 12 M 10 0 L stroke}
>> matrix makepattern
/Pat6 exch def
<< Tile8x8
 /PaintProc {0.5 setlinewidth pop -2 0 M 4 12 L
	0 -4 M 8 12 L 4 -4 M 10 8 L stroke}
>> matrix makepattern
/Pat7 exch def
<< Tile8x8
 /PaintProc {0.5 setlinewidth pop 8 -2 M -4 4 L
	12 0 M -4 8 L 12 4 M 0 10 L stroke}
>> matrix makepattern
/Pat8 exch def
<< Tile8x8
 /PaintProc {0.5 setlinewidth pop 0 -2 M 12 4 L
	-4 0 M 12 8 L -4 4 M 8 10 L stroke}
>> matrix makepattern
/Pat9 exch def
/Pattern1 {PatternBgnd KeepColor Pat1 setpattern} bind def
/Pattern2 {PatternBgnd KeepColor Pat2 setpattern} bind def
/Pattern3 {PatternBgnd KeepColor Pat3 setpattern} bind def
/Pattern4 {PatternBgnd KeepColor Landscape {Pat5} {Pat4} ifelse setpattern} bind def
/Pattern5 {PatternBgnd KeepColor Landscape {Pat4} {Pat5} ifelse setpattern} bind def
/Pattern6 {PatternBgnd KeepColor Landscape {Pat9} {Pat6} ifelse setpattern} bind def
/Pattern7 {PatternBgnd KeepColor Landscape {Pat8} {Pat7} ifelse setpattern} bind def
} def
%
%
%End of PostScript Level 2 code
%
/PatternBgnd {
  TransparentPatterns {} {gsave 1 setgray fill grestore} ifelse
} def
%
% Substitute for Level 2 pattern fill codes with
% grayscale if Level 2 support is not selected.
%
/Level1PatternFill {
/Pattern1 {0.250 Density} bind def
/Pattern2 {0.500 Density} bind def
/Pattern3 {0.750 Density} bind def
/Pattern4 {0.125 Density} bind def
/Pattern5 {0.375 Density} bind def
/Pattern6 {0.625 Density} bind def
/Pattern7 {0.875 Density} bind def
} def
%
% Now test for support of Level 2 code
%
Level1 {Level1PatternFill} {Level2PatternFill} ifelse
%
/Symbol-Oblique /Symbol findfont [1 0 .167 1 0 0] makefont
dup length dict begin {1 index /FID eq {pop pop} {def} ifelse} forall
currentdict end definefont pop
%
/Metrics {ExtendTextBox Gswidth} def
/Lwidth {currentpoint stroke M 0 vshift R Metrics} def
/Rwidth {currentpoint stroke M dup stringwidth pop neg vshift R Metrics} def
/Cwidth {currentpoint stroke M dup stringwidth pop -2 div vshift R Metrics} def
/GLwidth {currentpoint stroke M 0 vshift R {ExtendTextBox} forall} def
/GRwidth {currentpoint stroke M dup Gwidth vshift R {ExtendTextBox} forall} def
/GCwidth {currentpoint stroke M dup Gwidth 2 div vshift R {ExtendTextBox} forall} def
/GLwidth2 {0 Gwidth AddGlyphWidth} def
/GRwidth2 {Gwidth -1 mul 0 AddGlyphWidth} def
/GCwidth2 {Gwidth 2 div dup -1 mul AddGlyphWidth} def
/AddGlyphWidth { dup TBx2 gt {userdict /TBx2 3 -1 roll put} {pop} ifelse
                 dup TBx1 lt {userdict /TBx1 3 -1 roll put} {pop} ifelse } def
/MFshow {
   { dup 5 get 3 ge
     { 5 get 3 eq {gsave} {grestore} ifelse }
     {dup dup 0 get findfont exch 1 get scalefont setfont
     [ currentpoint ] exch dup 2 get 0 exch R dup 5 get 2 ne {dup dup 6
     get exch 4 get {textshow} {Metrics pop 0 R} ifelse }if dup 5 get 0 eq
     {dup 3 get {2 get neg 0 exch R pop} {pop aload pop M} ifelse} {dup 5
     get 1 eq {dup 2 get exch dup 3 get exch 6 get Gswidth pop -2 div
     dup 0 R} {dup 6 get Gswidth pop -2 div 0 R 6 get
     textshow 2 index {aload pop M neg 3 -1 roll neg R pop pop} {pop pop pop
     pop aload pop M} ifelse }ifelse }ifelse }
     ifelse }
   forall} def
/Gswidth {dup type /stringtype eq {stringwidth} {pop (n) stringwidth} ifelse} def
/MFwidth {0 exch { dup 5 get 3 ge { 5 get 3 eq { 0 } { pop } ifelse }
 {dup 3 get{dup dup 0 get findfont exch 1 get scalefont setfont
     6 get Gswidth pop add} {pop} ifelse} ifelse} forall} def
/MLshow { currentpoint stroke M
  0 exch R
  Blacktext {gsave 0 setgray MFshow grestore} {MFshow} ifelse } bind def
/MRshow { currentpoint stroke M
  exch dup MFwidth neg 3 -1 roll R
  Blacktext {gsave 0 setgray MFshow grestore} {MFshow} ifelse } bind def
/MCshow { currentpoint stroke M
  exch dup MFwidth -2 div 3 -1 roll R
  Blacktext {gsave 0 setgray MFshow grestore} {MFshow} ifelse } bind def
/XYsave    { [( ) 1 2 true false 3 ()] } bind def
/XYrestore { [( ) 1 2 true false 4 ()] } bind def
Level1 SuppressPDFMark or 
{} {
/SDict 10 dict def
systemdict /pdfmark known not {
  userdict /pdfmark systemdict /cleartomark get put
} if
SDict begin [
  /Title (inDeg.PA_100000_3_UNDIR_degrees.eps)
  /Subject (gnuplot plot)
  /Creator (gnuplot 5.2 patchlevel 8)
%  /Producer (gnuplot)
%  /Keywords ()
  /CreationDate (Fri Sep 18 22:35:41 2020)
  /DOCINFO pdfmark
end
} ifelse
%
% Support for boxed text - Ethan A Merritt Sep 2016
%
/InitTextBox { userdict /TBy2 3 -1 roll put userdict /TBx2 3 -1 roll put
           userdict /TBy1 3 -1 roll put userdict /TBx1 3 -1 roll put
	   /Boxing true def } def
/ExtendTextBox { dup type /stringtype eq
    { Boxing { gsave dup false charpath pathbbox
      dup TBy2 gt {userdict /TBy2 3 -1 roll put} {pop} ifelse
      dup TBx2 gt {userdict /TBx2 3 -1 roll put} {pop} ifelse
      dup TBy1 lt {userdict /TBy1 3 -1 roll put} {pop} ifelse
      dup TBx1 lt {userdict /TBx1 3 -1 roll put} {pop} ifelse
      grestore } if }
    {} ifelse} def
/PopTextBox { newpath TBx1 TBxmargin sub TBy1 TBymargin sub M
               TBx1 TBxmargin sub TBy2 TBymargin add L
	       TBx2 TBxmargin add TBy2 TBymargin add L
	       TBx2 TBxmargin add TBy1 TBymargin sub L closepath } def
/DrawTextBox { PopTextBox stroke /Boxing false def} def
/FillTextBox { gsave PopTextBox fill grestore /Boxing false def} def
0 0 0 0 InitTextBox
/TBxmargin 20 def
/TBymargin 20 def
/Boxing false def
/textshow { ExtendTextBox Gshow } def
%
end
%%EndProlog
%%Page: 1 1
gnudict begin
gsave
doclip
50 50 translate
0.050 0.050 scale
0 setgray
newpath
(Helvetica) findfont 200 scalefont setfont
BackgroundColor 0 lt 3 1 roll 0 lt exch 0 lt or or not {BackgroundColor C 1.000 0 0 7200.00 5040.00 BoxColFill} if
1.000 UL
LTb
LCb setrgbcolor
0.500 UL
LTa
LCa setrgbcolor
740 640 M
6099 0 V
stroke
1.000 UL
LTb
LCb setrgbcolor
740 640 M
126 0 V
5973 0 R
-126 0 V
stroke
620 640 M
[ [(Helvetica) 200.0 0.0 true true 0 (10)]
[(Helvetica) 160.0 100.0 true true 0 (0)]
] -86.7 MRshow
/Helvetica findfont 200 scalefont setfont
/vshift -66 def
1.000 UL
LTb
LCb setrgbcolor
740 893 M
63 0 V
6036 0 R
-63 0 V
740 1041 M
63 0 V
6036 0 R
-63 0 V
740 1146 M
63 0 V
6036 0 R
-63 0 V
740 1227 M
63 0 V
6036 0 R
-63 0 V
740 1293 M
63 0 V
6036 0 R
-63 0 V
740 1350 M
63 0 V
6036 0 R
-63 0 V
740 1398 M
63 0 V
6036 0 R
-63 0 V
740 1441 M
63 0 V
6036 0 R
-63 0 V
stroke
0.500 UL
LTa
LCa setrgbcolor
740 1480 M
6099 0 V
stroke
1.000 UL
LTb
LCb setrgbcolor
740 1480 M
126 0 V
5973 0 R
-126 0 V
stroke
620 1480 M
[ [(Helvetica) 200.0 0.0 true true 0 (10)]
[(Helvetica) 160.0 100.0 true true 0 (1)]
] -86.7 MRshow
/Helvetica findfont 200 scalefont setfont
1.000 UL
LTb
LCb setrgbcolor
740 1733 M
63 0 V
6036 0 R
-63 0 V
740 1880 M
63 0 V
6036 0 R
-63 0 V
740 1985 M
63 0 V
6036 0 R
-63 0 V
740 2067 M
63 0 V
6036 0 R
-63 0 V
740 2133 M
63 0 V
6036 0 R
-63 0 V
740 2190 M
63 0 V
6036 0 R
-63 0 V
740 2238 M
63 0 V
6036 0 R
-63 0 V
740 2281 M
63 0 V
6036 0 R
-63 0 V
stroke
0.500 UL
LTa
LCa setrgbcolor
740 2320 M
6099 0 V
stroke
1.000 UL
LTb
LCb setrgbcolor
740 2320 M
126 0 V
5973 0 R
-126 0 V
stroke
620 2320 M
[ [(Helvetica) 200.0 0.0 true true 0 (10)]
[(Helvetica) 160.0 100.0 true true 0 (2)]
] -86.7 MRshow
/Helvetica findfont 200 scalefont setfont
1.000 UL
LTb
LCb setrgbcolor
740 2572 M
63 0 V
6036 0 R
-63 0 V
740 2720 M
63 0 V
6036 0 R
-63 0 V
740 2825 M
63 0 V
6036 0 R
-63 0 V
740 2907 M
63 0 V
6036 0 R
-63 0 V
740 2973 M
63 0 V
6036 0 R
-63 0 V
740 3029 M
63 0 V
6036 0 R
-63 0 V
740 3078 M
63 0 V
6036 0 R
-63 0 V
740 3121 M
63 0 V
6036 0 R
-63 0 V
stroke
0.500 UL
LTa
LCa setrgbcolor
740 3159 M
6099 0 V
stroke
1.000 UL
LTb
LCb setrgbcolor
740 3159 M
126 0 V
5973 0 R
-126 0 V
stroke
620 3159 M
[ [(Helvetica) 200.0 0.0 true true 0 (10)]
[(Helvetica) 160.0 100.0 true true 0 (3)]
] -86.7 MRshow
/Helvetica findfont 200 scalefont setfont
1.000 UL
LTb
LCb setrgbcolor
740 3412 M
63 0 V
6036 0 R
-63 0 V
740 3560 M
63 0 V
6036 0 R
-63 0 V
740 3665 M
63 0 V
6036 0 R
-63 0 V
740 3746 M
63 0 V
6036 0 R
-63 0 V
740 3813 M
63 0 V
6036 0 R
-63 0 V
740 3869 M
63 0 V
6036 0 R
-63 0 V
740 3918 M
63 0 V
6036 0 R
-63 0 V
740 3961 M
63 0 V
6036 0 R
-63 0 V
stroke
0.500 UL
LTa
LCa setrgbcolor
740 3999 M
6099 0 V
stroke
1.000 UL
LTb
LCb setrgbcolor
740 3999 M
126 0 V
5973 0 R
-126 0 V
stroke
620 3999 M
[ [(Helvetica) 200.0 0.0 true true 0 (10)]
[(Helvetica) 160.0 100.0 true true 0 (4)]
] -86.7 MRshow
/Helvetica findfont 200 scalefont setfont
1.000 UL
LTb
LCb setrgbcolor
740 4252 M
63 0 V
6036 0 R
-63 0 V
740 4400 M
63 0 V
6036 0 R
-63 0 V
740 4505 M
63 0 V
6036 0 R
-63 0 V
740 4586 M
63 0 V
6036 0 R
-63 0 V
740 4653 M
63 0 V
6036 0 R
-63 0 V
740 4709 M
63 0 V
6036 0 R
-63 0 V
740 4758 M
63 0 V
6036 0 R
-63 0 V
740 4801 M
63 0 V
6036 0 R
-63 0 V
stroke
0.500 UL
LTa
LCa setrgbcolor
740 4839 M
6099 0 V
stroke
1.000 UL
LTb
LCb setrgbcolor
740 4839 M
126 0 V
5973 0 R
-126 0 V
stroke
620 4839 M
[ [(Helvetica) 200.0 0.0 true true 0 (10)]
[(Helvetica) 160.0 100.0 true true 0 (5)]
] -86.7 MRshow
/Helvetica findfont 200 scalefont setfont
1.000 UL
LTb
LCb setrgbcolor
740 640 M
0 63 V
0 4136 R
0 -63 V
1002 640 M
0 63 V
0 4136 R
0 -63 V
1205 640 M
0 63 V
0 4136 R
0 -63 V
1371 640 M
0 63 V
0 4136 R
0 -63 V
1512 640 M
0 63 V
0 4136 R
0 -63 V
1633 640 M
0 63 V
0 4136 R
0 -63 V
1740 640 M
0 63 V
0 4136 R
0 -63 V
stroke
0.500 UL
LTa
LCa setrgbcolor
1836 640 M
0 4199 V
stroke
1.000 UL
LTb
LCb setrgbcolor
1836 640 M
0 126 V
0 4073 R
0 -126 V
stroke
1836 440 M
[ [(Helvetica) 200.0 0.0 true true 0 (10)]
[(Helvetica) 160.0 100.0 true true 0 (1)]
] -86.7 MCshow
/Helvetica findfont 200 scalefont setfont
1.000 UL
LTb
LCb setrgbcolor
2468 640 M
0 63 V
0 4136 R
0 -63 V
2837 640 M
0 63 V
0 4136 R
0 -63 V
3099 640 M
0 63 V
0 4136 R
0 -63 V
3302 640 M
0 63 V
0 4136 R
0 -63 V
3468 640 M
0 63 V
0 4136 R
0 -63 V
3608 640 M
0 63 V
0 4136 R
0 -63 V
3730 640 M
0 63 V
0 4136 R
0 -63 V
3837 640 M
0 63 V
0 4136 R
0 -63 V
stroke
0.500 UL
LTa
LCa setrgbcolor
3933 640 M
0 3936 V
0 200 R
0 63 V
stroke
1.000 UL
LTb
LCb setrgbcolor
3933 640 M
0 126 V
0 4073 R
0 -126 V
stroke
3933 440 M
[ [(Helvetica) 200.0 0.0 true true 0 (10)]
[(Helvetica) 160.0 100.0 true true 0 (2)]
] -86.7 MCshow
/Helvetica findfont 200 scalefont setfont
1.000 UL
LTb
LCb setrgbcolor
4564 640 M
0 63 V
0 4136 R
0 -63 V
4934 640 M
0 63 V
0 4136 R
0 -63 V
5196 640 M
0 63 V
0 4136 R
0 -63 V
5399 640 M
0 63 V
0 4136 R
0 -63 V
5565 640 M
0 63 V
0 4136 R
0 -63 V
5705 640 M
0 63 V
0 4136 R
0 -63 V
5827 640 M
0 63 V
0 4136 R
0 -63 V
5934 640 M
0 63 V
0 4136 R
0 -63 V
stroke
0.500 UL
LTa
LCa setrgbcolor
6030 640 M
0 3936 V
0 200 R
0 63 V
stroke
1.000 UL
LTb
LCb setrgbcolor
6030 640 M
0 126 V
0 4073 R
0 -126 V
stroke
6030 440 M
[ [(Helvetica) 200.0 0.0 true true 0 (10)]
[(Helvetica) 160.0 100.0 true true 0 (3)]
] -86.7 MCshow
/Helvetica findfont 200 scalefont setfont
1.000 UL
LTb
LCb setrgbcolor
6661 640 M
0 63 V
0 4136 R
0 -63 V
stroke
LTB
LCb setrgbcolor
740 4839 N
740 640 L
6099 0 V
0 4199 V
-6099 0 V
Z stroke
1.000 UP
1.000 UL
LTb
LCb setrgbcolor
LCb setrgbcolor
190 2739 M
currentpoint gsave translate -270 rotate 0 0 moveto
[ [(Helvetica) 200.0 0.0 true true 0 (Count)]
] -66.7 MCshow
grestore
/Helvetica findfont 200 scalefont setfont
LTb
LCb setrgbcolor
3789 140 M
[ [(Helvetica) 200.0 0.0 true true 0 (In-degree)]
] -66.7 MCshow
/Helvetica findfont 200 scalefont setfont
LTb
% Begin plot #1
1.000 UP
1.000 UL
LTb
0.58 0.00 0.83 C
740 4505 M
262 -252 V
203 -208 V
166 -177 V
141 -132 V
121 -134 V
107 -117 V
96 -111 V
87 -89 V
79 -84 V
73 -101 V
68 -66 V
63 -69 V
58 -43 V
56 -93 V
52 -28 V
49 -110 V
47 -1 V
44 -80 V
42 -1 V
41 -81 V
39 -51 V
37 -53 V
36 -29 V
34 6 V
33 -85 V
32 -111 V
31 64 V
30 -95 V
29 -53 V
28 47 V
27 -140 V
26 46 V
26 -15 V
25 -112 V
24 -43 V
24 81 V
23 -130 V
22 49 V
22 22 V
22 -112 V
21 66 V
20 -113 V
20 0 V
20 -53 V
19 85 V
19 -196 V
18 111 V
18 -20 V
18 -148 V
17 29 V
17 28 V
17 70 V
16 -127 V
16 82 V
16 139 V
16 -139 V
15 -187 V
15 39 V
15 35 V
14 88 V
15 -310 V
14 -66 V
14 214 V
14 -400 V
13 439 V
13 35 V
13 -165 V
13 -57 V
13 -147 V
13 295 V
12 -91 V
12 -204 V
12 -506 V
12 875 V
12 -222 V
12 -66 V
11 -587 V
11 506 V
12 81 V
11 -587 V
10 401 V
11 186 V
11 -334 V
10 400 V
11 -400 V
10 148 V
10 186 V
20 -186 V
10 186 V
10 -186 V
10 -401 V
9 0 V
9 253 V
10 0 V
9 0 V
9 -253 V
9 587 V
9 -587 V
9 253 V
9 253 V
9 -506 V
8 401 V
9 -401 V
8 0 V
9 253 V
8 148 V
8 0 V
8 -148 V
9 148 V
8 -148 V
8 0 V
7 -253 V
8 253 V
8 0 V
15 148 V
8 -401 V
7 0 V
8 401 V
7 -148 V
15 0 V
7 0 V
7 -253 V
28 253 V
7 0 V
7 -253 V
7 401 V
13 -401 V
13 0 V
7 0 V
6 0 V
7 401 V
6 -401 V
31 0 V
12 0 V
13 0 V
6 0 V
5 253 V
12 -253 V
23 0 V
39 0 V
11 0 V
16 253 V
5 -253 V
16 401 V
5 -148 V
45 -253 V
5 253 V
5 -253 V
5 253 V
28 -253 V
5 0 V
18 0 V
32 0 V
13 0 V
26 0 V
33 0 V
59 0 V
66 0 V
35 0 V
6 0 V
4 0 V
99 0 V
24 0 V
20 0 V
158 253 V
8 -253 V
201 0 V
16 0 V
15 0 V
317 0 V
35 0 V
576 0 V
532 0 V
740 4505 Circle
1002 4253 Circle
1205 4045 Circle
1371 3868 Circle
1512 3736 Circle
1633 3602 Circle
1740 3485 Circle
1836 3374 Circle
1923 3285 Circle
2002 3201 Circle
2075 3100 Circle
2143 3034 Circle
2206 2965 Circle
2264 2922 Circle
2320 2829 Circle
2372 2801 Circle
2421 2691 Circle
2468 2690 Circle
2512 2610 Circle
2554 2609 Circle
2595 2528 Circle
2634 2477 Circle
2671 2424 Circle
2707 2395 Circle
2741 2401 Circle
2774 2316 Circle
2806 2205 Circle
2837 2269 Circle
2867 2174 Circle
2896 2121 Circle
2924 2168 Circle
2951 2028 Circle
2977 2074 Circle
3003 2059 Circle
3028 1947 Circle
3052 1904 Circle
3076 1985 Circle
3099 1855 Circle
3121 1904 Circle
3143 1926 Circle
3165 1814 Circle
3186 1880 Circle
3206 1767 Circle
3226 1767 Circle
3246 1714 Circle
3265 1799 Circle
3284 1603 Circle
3302 1714 Circle
3320 1694 Circle
3338 1546 Circle
3355 1575 Circle
3372 1603 Circle
3389 1673 Circle
3405 1546 Circle
3421 1628 Circle
3437 1767 Circle
3453 1628 Circle
3468 1441 Circle
3483 1480 Circle
3498 1515 Circle
3512 1603 Circle
3527 1293 Circle
3541 1227 Circle
3555 1441 Circle
3569 1041 Circle
3582 1480 Circle
3595 1515 Circle
3608 1350 Circle
3621 1293 Circle
3634 1146 Circle
3647 1441 Circle
3659 1350 Circle
3671 1146 Circle
3683 640 Circle
3695 1515 Circle
3707 1293 Circle
3719 1227 Circle
3730 640 Circle
3741 1146 Circle
3753 1227 Circle
3764 640 Circle
3774 1041 Circle
3785 1227 Circle
3796 893 Circle
3806 1293 Circle
3817 893 Circle
3827 1041 Circle
3837 1227 Circle
3857 1041 Circle
3867 1227 Circle
3877 1041 Circle
3887 640 Circle
3896 640 Circle
3905 893 Circle
3915 893 Circle
3924 893 Circle
3933 640 Circle
3942 1227 Circle
3951 640 Circle
3960 893 Circle
3969 1146 Circle
3978 640 Circle
3986 1041 Circle
3995 640 Circle
4003 640 Circle
4012 893 Circle
4020 1041 Circle
4028 1041 Circle
4036 893 Circle
4045 1041 Circle
4053 893 Circle
4061 893 Circle
4068 640 Circle
4076 893 Circle
4084 893 Circle
4099 1041 Circle
4107 640 Circle
4114 640 Circle
4122 1041 Circle
4129 893 Circle
4144 893 Circle
4151 893 Circle
4158 640 Circle
4186 893 Circle
4193 893 Circle
4200 640 Circle
4207 1041 Circle
4220 640 Circle
4233 640 Circle
4240 640 Circle
4246 640 Circle
4253 1041 Circle
4259 640 Circle
4290 640 Circle
4302 640 Circle
4315 640 Circle
4321 640 Circle
4326 893 Circle
4338 640 Circle
4361 640 Circle
4400 640 Circle
4411 640 Circle
4427 893 Circle
4432 640 Circle
4448 1041 Circle
4453 893 Circle
4498 640 Circle
4503 893 Circle
4508 640 Circle
4513 893 Circle
4541 640 Circle
4546 640 Circle
4564 640 Circle
4596 640 Circle
4609 640 Circle
4635 640 Circle
4668 640 Circle
4727 640 Circle
4793 640 Circle
4828 640 Circle
4834 640 Circle
4838 640 Circle
4937 640 Circle
4961 640 Circle
4981 640 Circle
5139 893 Circle
5147 640 Circle
5348 640 Circle
5364 640 Circle
5379 640 Circle
5696 640 Circle
5731 640 Circle
6307 640 Circle
6839 640 Circle
% End plot #1
% Begin plot #2
3.000 UL
LTb
0.00 0.62 0.45 C
LCb setrgbcolor
5936 4676 M
[ [(Helvetica) 200.0 0.0 true true 0 (1e+06 * x)]
[(Helvetica) 160.0 100.0 true true 0 (-2.824)]
[(Helvetica) 200.0 0.0 true true 0 (  R)]
[(Helvetica) 160.0 100.0 true true 0 (2)]
[(Helvetica) 200.0 0.0 true true 0 (:0.97)]
] -86.7 MRshow
/Helvetica findfont 200 scalefont setfont
3.000 UL
LTb
0.00 0.62 0.45 C
6056 4676 M
543 0 V
740 4585 M
62 -69 V
61 -70 V
62 -70 V
61 -69 V
62 -70 V
62 -70 V
61 -69 V
62 -70 V
61 -70 V
62 -69 V
62 -70 V
61 -70 V
62 -69 V
61 -70 V
62 -70 V
62 -69 V
61 -70 V
62 -70 V
62 -69 V
61 -70 V
62 -70 V
61 -69 V
62 -70 V
62 -70 V
61 -69 V
62 -70 V
61 -70 V
62 -70 V
62 -69 V
61 -70 V
62 -70 V
61 -69 V
62 -70 V
62 -70 V
61 -69 V
62 -70 V
61 -70 V
62 -69 V
62 -70 V
61 -70 V
62 -69 V
61 -70 V
62 -70 V
62 -69 V
61 -70 V
62 -70 V
61 -69 V
62 -70 V
62 -70 V
61 -69 V
62 -70 V
62 -70 V
61 -69 V
62 -70 V
61 -70 V
62 -70 V
38 -43 V
% End plot #2
stroke
2.000 UL
LTb
LCb setrgbcolor
1.000 UL
LTB
LCb setrgbcolor
740 4839 N
740 640 L
6099 0 V
0 4199 V
-6099 0 V
Z stroke
1.000 UP
1.000 UL
LTb
LCb setrgbcolor
stroke
grestore
end
showpage
%%Trailer
%%DocumentFonts: Helvetica
