%!PS-Adobe-2.0 EPSF-2.0
%%Title: inDeg.ER_20000_9999500_degrees.eps
%%Creator: gnuplot 5.2 patchlevel 8
%%CreationDate: Fri Sep 18 22:19:14 2020
%%DocumentFonts: (atend)
%%BoundingBox: 50 50 410 302
%%EndComments
%%BeginProlog
/gnudict 256 dict def
gnudict begin
%
% The following true/false flags may be edited by hand if desired.
% The unit line width and grayscale image gamma correction may also be changed.
%
/Color true def
/Blacktext false def
/Solid false def
/Dashlength 1 def
/Landscape false def
/Level1 false def
/Level3 false def
/Rounded false def
/ClipToBoundingBox false def
/SuppressPDFMark false def
/TransparentPatterns false def
/gnulinewidth 5.000 def
/userlinewidth gnulinewidth def
/Gamma 1.0 def
/BackgroundColor {-1.000 -1.000 -1.000} def
%
/vshift -66 def
/dl1 {
  10.0 Dashlength userlinewidth gnulinewidth div mul mul mul
  Rounded { currentlinewidth 0.75 mul sub dup 0 le { pop 0.01 } if } if
} def
/dl2 {
  10.0 Dashlength userlinewidth gnulinewidth div mul mul mul
  Rounded { currentlinewidth 0.75 mul add } if
} def
/hpt_ 31.5 def
/vpt_ 31.5 def
/hpt hpt_ def
/vpt vpt_ def
/doclip {
  ClipToBoundingBox {
    newpath 50 50 moveto 410 50 lineto 410 302 lineto 50 302 lineto closepath
    clip
  } if
} def
%
% Gnuplot Prolog Version 5.2 (Dec 2017)
%
%/SuppressPDFMark true def
%
/M {moveto} bind def
/L {lineto} bind def
/R {rmoveto} bind def
/V {rlineto} bind def
/N {newpath moveto} bind def
/Z {closepath} bind def
/C {setrgbcolor} bind def
/f {rlineto fill} bind def
/g {setgray} bind def
/Gshow {show} def   % May be redefined later in the file to support UTF-8
/vpt2 vpt 2 mul def
/hpt2 hpt 2 mul def
/Lshow {currentpoint stroke M 0 vshift R 
	Blacktext {gsave 0 setgray textshow grestore} {textshow} ifelse} def
/Rshow {currentpoint stroke M dup stringwidth pop neg vshift R
	Blacktext {gsave 0 setgray textshow grestore} {textshow} ifelse} def
/Cshow {currentpoint stroke M dup stringwidth pop -2 div vshift R 
	Blacktext {gsave 0 setgray textshow grestore} {textshow} ifelse} def
/UP {dup vpt_ mul /vpt exch def hpt_ mul /hpt exch def
  /hpt2 hpt 2 mul def /vpt2 vpt 2 mul def} def
/DL {Color {setrgbcolor Solid {pop []} if 0 setdash}
 {pop pop pop 0 setgray Solid {pop []} if 0 setdash} ifelse} def
/BL {stroke userlinewidth 2 mul setlinewidth
	Rounded {1 setlinejoin 1 setlinecap} if} def
/AL {stroke userlinewidth 2 div setlinewidth
	Rounded {1 setlinejoin 1 setlinecap} if} def
/UL {dup gnulinewidth mul /userlinewidth exch def
	dup 1 lt {pop 1} if 10 mul /udl exch def} def
/PL {stroke userlinewidth setlinewidth
	Rounded {1 setlinejoin 1 setlinecap} if} def
3.8 setmiterlimit
% Classic Line colors (version 5.0)
/LCw {1 1 1} def
/LCb {0 0 0} def
/LCa {0 0 0} def
/LC0 {1 0 0} def
/LC1 {0 1 0} def
/LC2 {0 0 1} def
/LC3 {1 0 1} def
/LC4 {0 1 1} def
/LC5 {1 1 0} def
/LC6 {0 0 0} def
/LC7 {1 0.3 0} def
/LC8 {0.5 0.5 0.5} def
% Default dash patterns (version 5.0)
/LTB {BL [] LCb DL} def
/LTw {PL [] 1 setgray} def
/LTb {PL [] LCb DL} def
/LTa {AL [1 udl mul 2 udl mul] 0 setdash LCa setrgbcolor} def
/LT0 {PL [] LC0 DL} def
/LT1 {PL [2 dl1 3 dl2] LC1 DL} def
/LT2 {PL [1 dl1 1.5 dl2] LC2 DL} def
/LT3 {PL [6 dl1 2 dl2 1 dl1 2 dl2] LC3 DL} def
/LT4 {PL [1 dl1 2 dl2 6 dl1 2 dl2 1 dl1 2 dl2] LC4 DL} def
/LT5 {PL [4 dl1 2 dl2] LC5 DL} def
/LT6 {PL [1.5 dl1 1.5 dl2 1.5 dl1 1.5 dl2 1.5 dl1 6 dl2] LC6 DL} def
/LT7 {PL [3 dl1 3 dl2 1 dl1 3 dl2] LC7 DL} def
/LT8 {PL [2 dl1 2 dl2 2 dl1 6 dl2] LC8 DL} def
/SL {[] 0 setdash} def
/Pnt {stroke [] 0 setdash gsave 1 setlinecap M 0 0 V stroke grestore} def
/Dia {stroke [] 0 setdash 2 copy vpt add M
  hpt neg vpt neg V hpt vpt neg V
  hpt vpt V hpt neg vpt V closepath stroke
  Pnt} def
/Pls {stroke [] 0 setdash vpt sub M 0 vpt2 V
  currentpoint stroke M
  hpt neg vpt neg R hpt2 0 V stroke
 } def
/Box {stroke [] 0 setdash 2 copy exch hpt sub exch vpt add M
  0 vpt2 neg V hpt2 0 V 0 vpt2 V
  hpt2 neg 0 V closepath stroke
  Pnt} def
/Crs {stroke [] 0 setdash exch hpt sub exch vpt add M
  hpt2 vpt2 neg V currentpoint stroke M
  hpt2 neg 0 R hpt2 vpt2 V stroke} def
/TriU {stroke [] 0 setdash 2 copy vpt 1.12 mul add M
  hpt neg vpt -1.62 mul V
  hpt 2 mul 0 V
  hpt neg vpt 1.62 mul V closepath stroke
  Pnt} def
/Star {2 copy Pls Crs} def
/BoxF {stroke [] 0 setdash exch hpt sub exch vpt add M
  0 vpt2 neg V hpt2 0 V 0 vpt2 V
  hpt2 neg 0 V closepath fill} def
/TriUF {stroke [] 0 setdash vpt 1.12 mul add M
  hpt neg vpt -1.62 mul V
  hpt 2 mul 0 V
  hpt neg vpt 1.62 mul V closepath fill} def
/TriD {stroke [] 0 setdash 2 copy vpt 1.12 mul sub M
  hpt neg vpt 1.62 mul V
  hpt 2 mul 0 V
  hpt neg vpt -1.62 mul V closepath stroke
  Pnt} def
/TriDF {stroke [] 0 setdash vpt 1.12 mul sub M
  hpt neg vpt 1.62 mul V
  hpt 2 mul 0 V
  hpt neg vpt -1.62 mul V closepath fill} def
/DiaF {stroke [] 0 setdash vpt add M
  hpt neg vpt neg V hpt vpt neg V
  hpt vpt V hpt neg vpt V closepath fill} def
/Pent {stroke [] 0 setdash 2 copy gsave
  translate 0 hpt M 4 {72 rotate 0 hpt L} repeat
  closepath stroke grestore Pnt} def
/PentF {stroke [] 0 setdash gsave
  translate 0 hpt M 4 {72 rotate 0 hpt L} repeat
  closepath fill grestore} def
/Circle {stroke [] 0 setdash 2 copy
  hpt 0 360 arc stroke Pnt} def
/CircleF {stroke [] 0 setdash hpt 0 360 arc fill} def
/C0 {BL [] 0 setdash 2 copy moveto vpt 90 450 arc} bind def
/C1 {BL [] 0 setdash 2 copy moveto
	2 copy vpt 0 90 arc closepath fill
	vpt 0 360 arc closepath} bind def
/C2 {BL [] 0 setdash 2 copy moveto
	2 copy vpt 90 180 arc closepath fill
	vpt 0 360 arc closepath} bind def
/C3 {BL [] 0 setdash 2 copy moveto
	2 copy vpt 0 180 arc closepath fill
	vpt 0 360 arc closepath} bind def
/C4 {BL [] 0 setdash 2 copy moveto
	2 copy vpt 180 270 arc closepath fill
	vpt 0 360 arc closepath} bind def
/C5 {BL [] 0 setdash 2 copy moveto
	2 copy vpt 0 90 arc
	2 copy moveto
	2 copy vpt 180 270 arc closepath fill
	vpt 0 360 arc} bind def
/C6 {BL [] 0 setdash 2 copy moveto
	2 copy vpt 90 270 arc closepath fill
	vpt 0 360 arc closepath} bind def
/C7 {BL [] 0 setdash 2 copy moveto
	2 copy vpt 0 270 arc closepath fill
	vpt 0 360 arc closepath} bind def
/C8 {BL [] 0 setdash 2 copy moveto
	2 copy vpt 270 360 arc closepath fill
	vpt 0 360 arc closepath} bind def
/C9 {BL [] 0 setdash 2 copy moveto
	2 copy vpt 270 450 arc closepath fill
	vpt 0 360 arc closepath} bind def
/C10 {BL [] 0 setdash 2 copy 2 copy moveto vpt 270 360 arc closepath fill
	2 copy moveto
	2 copy vpt 90 180 arc closepath fill
	vpt 0 360 arc closepath} bind def
/C11 {BL [] 0 setdash 2 copy moveto
	2 copy vpt 0 180 arc closepath fill
	2 copy moveto
	2 copy vpt 270 360 arc closepath fill
	vpt 0 360 arc closepath} bind def
/C12 {BL [] 0 setdash 2 copy moveto
	2 copy vpt 180 360 arc closepath fill
	vpt 0 360 arc closepath} bind def
/C13 {BL [] 0 setdash 2 copy moveto
	2 copy vpt 0 90 arc closepath fill
	2 copy moveto
	2 copy vpt 180 360 arc closepath fill
	vpt 0 360 arc closepath} bind def
/C14 {BL [] 0 setdash 2 copy moveto
	2 copy vpt 90 360 arc closepath fill
	vpt 0 360 arc} bind def
/C15 {BL [] 0 setdash 2 copy vpt 0 360 arc closepath fill
	vpt 0 360 arc closepath} bind def
/Rec {newpath 4 2 roll moveto 1 index 0 rlineto 0 exch rlineto
	neg 0 rlineto closepath} bind def
/Square {dup Rec} bind def
/Bsquare {vpt sub exch vpt sub exch vpt2 Square} bind def
/S0 {BL [] 0 setdash 2 copy moveto 0 vpt rlineto BL Bsquare} bind def
/S1 {BL [] 0 setdash 2 copy vpt Square fill Bsquare} bind def
/S2 {BL [] 0 setdash 2 copy exch vpt sub exch vpt Square fill Bsquare} bind def
/S3 {BL [] 0 setdash 2 copy exch vpt sub exch vpt2 vpt Rec fill Bsquare} bind def
/S4 {BL [] 0 setdash 2 copy exch vpt sub exch vpt sub vpt Square fill Bsquare} bind def
/S5 {BL [] 0 setdash 2 copy 2 copy vpt Square fill
	exch vpt sub exch vpt sub vpt Square fill Bsquare} bind def
/S6 {BL [] 0 setdash 2 copy exch vpt sub exch vpt sub vpt vpt2 Rec fill Bsquare} bind def
/S7 {BL [] 0 setdash 2 copy exch vpt sub exch vpt sub vpt vpt2 Rec fill
	2 copy vpt Square fill Bsquare} bind def
/S8 {BL [] 0 setdash 2 copy vpt sub vpt Square fill Bsquare} bind def
/S9 {BL [] 0 setdash 2 copy vpt sub vpt vpt2 Rec fill Bsquare} bind def
/S10 {BL [] 0 setdash 2 copy vpt sub vpt Square fill 2 copy exch vpt sub exch vpt Square fill
	Bsquare} bind def
/S11 {BL [] 0 setdash 2 copy vpt sub vpt Square fill 2 copy exch vpt sub exch vpt2 vpt Rec fill
	Bsquare} bind def
/S12 {BL [] 0 setdash 2 copy exch vpt sub exch vpt sub vpt2 vpt Rec fill Bsquare} bind def
/S13 {BL [] 0 setdash 2 copy exch vpt sub exch vpt sub vpt2 vpt Rec fill
	2 copy vpt Square fill Bsquare} bind def
/S14 {BL [] 0 setdash 2 copy exch vpt sub exch vpt sub vpt2 vpt Rec fill
	2 copy exch vpt sub exch vpt Square fill Bsquare} bind def
/S15 {BL [] 0 setdash 2 copy Bsquare fill Bsquare} bind def
/D0 {gsave translate 45 rotate 0 0 S0 stroke grestore} bind def
/D1 {gsave translate 45 rotate 0 0 S1 stroke grestore} bind def
/D2 {gsave translate 45 rotate 0 0 S2 stroke grestore} bind def
/D3 {gsave translate 45 rotate 0 0 S3 stroke grestore} bind def
/D4 {gsave translate 45 rotate 0 0 S4 stroke grestore} bind def
/D5 {gsave translate 45 rotate 0 0 S5 stroke grestore} bind def
/D6 {gsave translate 45 rotate 0 0 S6 stroke grestore} bind def
/D7 {gsave translate 45 rotate 0 0 S7 stroke grestore} bind def
/D8 {gsave translate 45 rotate 0 0 S8 stroke grestore} bind def
/D9 {gsave translate 45 rotate 0 0 S9 stroke grestore} bind def
/D10 {gsave translate 45 rotate 0 0 S10 stroke grestore} bind def
/D11 {gsave translate 45 rotate 0 0 S11 stroke grestore} bind def
/D12 {gsave translate 45 rotate 0 0 S12 stroke grestore} bind def
/D13 {gsave translate 45 rotate 0 0 S13 stroke grestore} bind def
/D14 {gsave translate 45 rotate 0 0 S14 stroke grestore} bind def
/D15 {gsave translate 45 rotate 0 0 S15 stroke grestore} bind def
/DiaE {stroke [] 0 setdash vpt add M
  hpt neg vpt neg V hpt vpt neg V
  hpt vpt V hpt neg vpt V closepath stroke} def
/BoxE {stroke [] 0 setdash exch hpt sub exch vpt add M
  0 vpt2 neg V hpt2 0 V 0 vpt2 V
  hpt2 neg 0 V closepath stroke} def
/TriUE {stroke [] 0 setdash vpt 1.12 mul add M
  hpt neg vpt -1.62 mul V
  hpt 2 mul 0 V
  hpt neg vpt 1.62 mul V closepath stroke} def
/TriDE {stroke [] 0 setdash vpt 1.12 mul sub M
  hpt neg vpt 1.62 mul V
  hpt 2 mul 0 V
  hpt neg vpt -1.62 mul V closepath stroke} def
/PentE {stroke [] 0 setdash gsave
  translate 0 hpt M 4 {72 rotate 0 hpt L} repeat
  closepath stroke grestore} def
/CircE {stroke [] 0 setdash 
  hpt 0 360 arc stroke} def
/Opaque {gsave closepath 1 setgray fill grestore 0 setgray closepath} def
/DiaW {stroke [] 0 setdash vpt add M
  hpt neg vpt neg V hpt vpt neg V
  hpt vpt V hpt neg vpt V Opaque stroke} def
/BoxW {stroke [] 0 setdash exch hpt sub exch vpt add M
  0 vpt2 neg V hpt2 0 V 0 vpt2 V
  hpt2 neg 0 V Opaque stroke} def
/TriUW {stroke [] 0 setdash vpt 1.12 mul add M
  hpt neg vpt -1.62 mul V
  hpt 2 mul 0 V
  hpt neg vpt 1.62 mul V Opaque stroke} def
/TriDW {stroke [] 0 setdash vpt 1.12 mul sub M
  hpt neg vpt 1.62 mul V
  hpt 2 mul 0 V
  hpt neg vpt -1.62 mul V Opaque stroke} def
/PentW {stroke [] 0 setdash gsave
  translate 0 hpt M 4 {72 rotate 0 hpt L} repeat
  Opaque stroke grestore} def
/CircW {stroke [] 0 setdash 
  hpt 0 360 arc Opaque stroke} def
/BoxFill {gsave Rec 1 setgray fill grestore} def
/Density {
  /Fillden exch def
  currentrgbcolor
  /ColB exch def /ColG exch def /ColR exch def
  /ColR ColR Fillden mul Fillden sub 1 add def
  /ColG ColG Fillden mul Fillden sub 1 add def
  /ColB ColB Fillden mul Fillden sub 1 add def
  ColR ColG ColB setrgbcolor} def
/BoxColFill {gsave Rec PolyFill} def
/PolyFill {gsave Density fill grestore grestore} def
/h {rlineto rlineto rlineto closepath gsave fill grestore stroke} bind def
%
% PostScript Level 1 Pattern Fill routine for rectangles
% Usage: x y w h s a XX PatternFill
%	x,y = lower left corner of box to be filled
%	w,h = width and height of box
%	  a = angle in degrees between lines and x-axis
%	 XX = 0/1 for no/yes cross-hatch
%
/PatternFill {gsave /PFa [ 9 2 roll ] def
  PFa 0 get PFa 2 get 2 div add PFa 1 get PFa 3 get 2 div add translate
  PFa 2 get -2 div PFa 3 get -2 div PFa 2 get PFa 3 get Rec
  TransparentPatterns {} {gsave 1 setgray fill grestore} ifelse
  clip
  currentlinewidth 0.5 mul setlinewidth
  /PFs PFa 2 get dup mul PFa 3 get dup mul add sqrt def
  0 0 M PFa 5 get rotate PFs -2 div dup translate
  0 1 PFs PFa 4 get div 1 add floor cvi
	{PFa 4 get mul 0 M 0 PFs V} for
  0 PFa 6 get ne {
	0 1 PFs PFa 4 get div 1 add floor cvi
	{PFa 4 get mul 0 2 1 roll M PFs 0 V} for
 } if
  stroke grestore} def
%
/languagelevel where
 {pop languagelevel} {1} ifelse
dup 2 lt
	{/InterpretLevel1 true def
	 /InterpretLevel3 false def}
	{/InterpretLevel1 Level1 def
	 2 gt
	    {/InterpretLevel3 Level3 def}
	    {/InterpretLevel3 false def}
	 ifelse }
 ifelse
%
% PostScript level 2 pattern fill definitions
%
/Level2PatternFill {
/Tile8x8 {/PaintType 2 /PatternType 1 /TilingType 1 /BBox [0 0 8 8] /XStep 8 /YStep 8}
	bind def
/KeepColor {currentrgbcolor [/Pattern /DeviceRGB] setcolorspace} bind def
<< Tile8x8
 /PaintProc {0.5 setlinewidth pop 0 0 M 8 8 L 0 8 M 8 0 L stroke} 
>> matrix makepattern
/Pat1 exch def
<< Tile8x8
 /PaintProc {0.5 setlinewidth pop 0 0 M 8 8 L 0 8 M 8 0 L stroke
	0 4 M 4 8 L 8 4 L 4 0 L 0 4 L stroke}
>> matrix makepattern
/Pat2 exch def
<< Tile8x8
 /PaintProc {0.5 setlinewidth pop 0 0 M 0 8 L
	8 8 L 8 0 L 0 0 L fill}
>> matrix makepattern
/Pat3 exch def
<< Tile8x8
 /PaintProc {0.5 setlinewidth pop -4 8 M 8 -4 L
	0 12 M 12 0 L stroke}
>> matrix makepattern
/Pat4 exch def
<< Tile8x8
 /PaintProc {0.5 setlinewidth pop -4 0 M 8 12 L
	0 -4 M 12 8 L stroke}
>> matrix makepattern
/Pat5 exch def
<< Tile8x8
 /PaintProc {0.5 setlinewidth pop -2 8 M 4 -4 L
	0 12 M 8 -4 L 4 12 M 10 0 L stroke}
>> matrix makepattern
/Pat6 exch def
<< Tile8x8
 /PaintProc {0.5 setlinewidth pop -2 0 M 4 12 L
	0 -4 M 8 12 L 4 -4 M 10 8 L stroke}
>> matrix makepattern
/Pat7 exch def
<< Tile8x8
 /PaintProc {0.5 setlinewidth pop 8 -2 M -4 4 L
	12 0 M -4 8 L 12 4 M 0 10 L stroke}
>> matrix makepattern
/Pat8 exch def
<< Tile8x8
 /PaintProc {0.5 setlinewidth pop 0 -2 M 12 4 L
	-4 0 M 12 8 L -4 4 M 8 10 L stroke}
>> matrix makepattern
/Pat9 exch def
/Pattern1 {PatternBgnd KeepColor Pat1 setpattern} bind def
/Pattern2 {PatternBgnd KeepColor Pat2 setpattern} bind def
/Pattern3 {PatternBgnd KeepColor Pat3 setpattern} bind def
/Pattern4 {PatternBgnd KeepColor Landscape {Pat5} {Pat4} ifelse setpattern} bind def
/Pattern5 {PatternBgnd KeepColor Landscape {Pat4} {Pat5} ifelse setpattern} bind def
/Pattern6 {PatternBgnd KeepColor Landscape {Pat9} {Pat6} ifelse setpattern} bind def
/Pattern7 {PatternBgnd KeepColor Landscape {Pat8} {Pat7} ifelse setpattern} bind def
} def
%
%
%End of PostScript Level 2 code
%
/PatternBgnd {
  TransparentPatterns {} {gsave 1 setgray fill grestore} ifelse
} def
%
% Substitute for Level 2 pattern fill codes with
% grayscale if Level 2 support is not selected.
%
/Level1PatternFill {
/Pattern1 {0.250 Density} bind def
/Pattern2 {0.500 Density} bind def
/Pattern3 {0.750 Density} bind def
/Pattern4 {0.125 Density} bind def
/Pattern5 {0.375 Density} bind def
/Pattern6 {0.625 Density} bind def
/Pattern7 {0.875 Density} bind def
} def
%
% Now test for support of Level 2 code
%
Level1 {Level1PatternFill} {Level2PatternFill} ifelse
%
/Symbol-Oblique /Symbol findfont [1 0 .167 1 0 0] makefont
dup length dict begin {1 index /FID eq {pop pop} {def} ifelse} forall
currentdict end definefont pop
%
/Metrics {ExtendTextBox Gswidth} def
/Lwidth {currentpoint stroke M 0 vshift R Metrics} def
/Rwidth {currentpoint stroke M dup stringwidth pop neg vshift R Metrics} def
/Cwidth {currentpoint stroke M dup stringwidth pop -2 div vshift R Metrics} def
/GLwidth {currentpoint stroke M 0 vshift R {ExtendTextBox} forall} def
/GRwidth {currentpoint stroke M dup Gwidth vshift R {ExtendTextBox} forall} def
/GCwidth {currentpoint stroke M dup Gwidth 2 div vshift R {ExtendTextBox} forall} def
/GLwidth2 {0 Gwidth AddGlyphWidth} def
/GRwidth2 {Gwidth -1 mul 0 AddGlyphWidth} def
/GCwidth2 {Gwidth 2 div dup -1 mul AddGlyphWidth} def
/AddGlyphWidth { dup TBx2 gt {userdict /TBx2 3 -1 roll put} {pop} ifelse
                 dup TBx1 lt {userdict /TBx1 3 -1 roll put} {pop} ifelse } def
/MFshow {
   { dup 5 get 3 ge
     { 5 get 3 eq {gsave} {grestore} ifelse }
     {dup dup 0 get findfont exch 1 get scalefont setfont
     [ currentpoint ] exch dup 2 get 0 exch R dup 5 get 2 ne {dup dup 6
     get exch 4 get {textshow} {Metrics pop 0 R} ifelse }if dup 5 get 0 eq
     {dup 3 get {2 get neg 0 exch R pop} {pop aload pop M} ifelse} {dup 5
     get 1 eq {dup 2 get exch dup 3 get exch 6 get Gswidth pop -2 div
     dup 0 R} {dup 6 get Gswidth pop -2 div 0 R 6 get
     textshow 2 index {aload pop M neg 3 -1 roll neg R pop pop} {pop pop pop
     pop aload pop M} ifelse }ifelse }ifelse }
     ifelse }
   forall} def
/Gswidth {dup type /stringtype eq {stringwidth} {pop (n) stringwidth} ifelse} def
/MFwidth {0 exch { dup 5 get 3 ge { 5 get 3 eq { 0 } { pop } ifelse }
 {dup 3 get{dup dup 0 get findfont exch 1 get scalefont setfont
     6 get Gswidth pop add} {pop} ifelse} ifelse} forall} def
/MLshow { currentpoint stroke M
  0 exch R
  Blacktext {gsave 0 setgray MFshow grestore} {MFshow} ifelse } bind def
/MRshow { currentpoint stroke M
  exch dup MFwidth neg 3 -1 roll R
  Blacktext {gsave 0 setgray MFshow grestore} {MFshow} ifelse } bind def
/MCshow { currentpoint stroke M
  exch dup MFwidth -2 div 3 -1 roll R
  Blacktext {gsave 0 setgray MFshow grestore} {MFshow} ifelse } bind def
/XYsave    { [( ) 1 2 true false 3 ()] } bind def
/XYrestore { [( ) 1 2 true false 4 ()] } bind def
Level1 SuppressPDFMark or 
{} {
/SDict 10 dict def
systemdict /pdfmark known not {
  userdict /pdfmark systemdict /cleartomark get put
} if
SDict begin [
  /Title (inDeg.ER_20000_9999500_degrees.eps)
  /Subject (gnuplot plot)
  /Creator (gnuplot 5.2 patchlevel 8)
%  /Producer (gnuplot)
%  /Keywords ()
  /CreationDate (Fri Sep 18 22:19:14 2020)
  /DOCINFO pdfmark
end
} ifelse
%
% Support for boxed text - Ethan A Merritt Sep 2016
%
/InitTextBox { userdict /TBy2 3 -1 roll put userdict /TBx2 3 -1 roll put
           userdict /TBy1 3 -1 roll put userdict /TBx1 3 -1 roll put
	   /Boxing true def } def
/ExtendTextBox { dup type /stringtype eq
    { Boxing { gsave dup false charpath pathbbox
      dup TBy2 gt {userdict /TBy2 3 -1 roll put} {pop} ifelse
      dup TBx2 gt {userdict /TBx2 3 -1 roll put} {pop} ifelse
      dup TBy1 lt {userdict /TBy1 3 -1 roll put} {pop} ifelse
      dup TBx1 lt {userdict /TBx1 3 -1 roll put} {pop} ifelse
      grestore } if }
    {} ifelse} def
/PopTextBox { newpath TBx1 TBxmargin sub TBy1 TBymargin sub M
               TBx1 TBxmargin sub TBy2 TBymargin add L
	       TBx2 TBxmargin add TBy2 TBymargin add L
	       TBx2 TBxmargin add TBy1 TBymargin sub L closepath } def
/DrawTextBox { PopTextBox stroke /Boxing false def} def
/FillTextBox { gsave PopTextBox fill grestore /Boxing false def} def
0 0 0 0 InitTextBox
/TBxmargin 20 def
/TBymargin 20 def
/Boxing false def
/textshow { ExtendTextBox Gshow } def
%
end
%%EndProlog
%%Page: 1 1
gnudict begin
gsave
doclip
50 50 translate
0.050 0.050 scale
0 setgray
newpath
(Helvetica) findfont 200 scalefont setfont
BackgroundColor 0 lt 3 1 roll 0 lt exch 0 lt or or not {BackgroundColor C 1.000 0 0 7200.00 5040.00 BoxColFill} if
1.000 UL
LTb
LCb setrgbcolor
0.500 UL
LTa
LCa setrgbcolor
1220 640 M
5619 0 V
stroke
1.000 UL
LTb
LCb setrgbcolor
1220 640 M
126 0 V
5493 0 R
-126 0 V
stroke
1100 640 M
[ [(Helvetica) 200.0 0.0 true true 0 ( 0)]
] -66.7 MRshow
/Helvetica findfont 200 scalefont setfont
/vshift -66 def
1.000 UL
LTb
LCb setrgbcolor
1220 692 M
63 0 V
5556 0 R
-63 0 V
1220 745 M
63 0 V
5556 0 R
-63 0 V
1220 797 M
63 0 V
5556 0 R
-63 0 V
1220 850 M
63 0 V
5556 0 R
-63 0 V
1220 902 M
63 0 V
5556 0 R
-63 0 V
1220 955 M
63 0 V
5556 0 R
-63 0 V
-5556 52 R
63 0 V
5556 0 R
-63 0 V
-5556 53 R
63 0 V
5556 0 R
-63 0 V
-5556 52 R
63 0 V
5556 0 R
-63 0 V
stroke
0.500 UL
LTa
LCa setrgbcolor
1220 1165 M
5619 0 V
stroke
1.000 UL
LTb
LCb setrgbcolor
1220 1165 M
126 0 V
5493 0 R
-126 0 V
stroke
1100 1165 M
[ [(Helvetica) 200.0 0.0 true true 0 ( 0.002)]
] -66.7 MRshow
/Helvetica findfont 200 scalefont setfont
1.000 UL
LTb
LCb setrgbcolor
1220 1217 M
63 0 V
5556 0 R
-63 0 V
-5556 53 R
63 0 V
5556 0 R
-63 0 V
-5556 52 R
63 0 V
5556 0 R
-63 0 V
-5556 53 R
63 0 V
5556 0 R
-63 0 V
-5556 52 R
63 0 V
5556 0 R
-63 0 V
-5556 53 R
63 0 V
5556 0 R
-63 0 V
-5556 52 R
63 0 V
5556 0 R
-63 0 V
-5556 53 R
63 0 V
5556 0 R
-63 0 V
-5556 52 R
63 0 V
5556 0 R
-63 0 V
stroke
0.500 UL
LTa
LCa setrgbcolor
1220 1690 M
5619 0 V
stroke
1.000 UL
LTb
LCb setrgbcolor
1220 1690 M
126 0 V
5493 0 R
-126 0 V
stroke
1100 1690 M
[ [(Helvetica) 200.0 0.0 true true 0 ( 0.004)]
] -66.7 MRshow
/Helvetica findfont 200 scalefont setfont
1.000 UL
LTb
LCb setrgbcolor
1220 1742 M
63 0 V
5556 0 R
-63 0 V
-5556 53 R
63 0 V
5556 0 R
-63 0 V
-5556 52 R
63 0 V
5556 0 R
-63 0 V
-5556 53 R
63 0 V
5556 0 R
-63 0 V
-5556 52 R
63 0 V
5556 0 R
-63 0 V
-5556 53 R
63 0 V
5556 0 R
-63 0 V
-5556 52 R
63 0 V
5556 0 R
-63 0 V
-5556 53 R
63 0 V
5556 0 R
-63 0 V
-5556 52 R
63 0 V
5556 0 R
-63 0 V
stroke
0.500 UL
LTa
LCa setrgbcolor
1220 2215 M
5619 0 V
stroke
1.000 UL
LTb
LCb setrgbcolor
1220 2215 M
126 0 V
5493 0 R
-126 0 V
stroke
1100 2215 M
[ [(Helvetica) 200.0 0.0 true true 0 ( 0.006)]
] -66.7 MRshow
/Helvetica findfont 200 scalefont setfont
1.000 UL
LTb
LCb setrgbcolor
1220 2267 M
63 0 V
5556 0 R
-63 0 V
-5556 53 R
63 0 V
5556 0 R
-63 0 V
-5556 52 R
63 0 V
5556 0 R
-63 0 V
-5556 53 R
63 0 V
5556 0 R
-63 0 V
-5556 52 R
63 0 V
5556 0 R
-63 0 V
-5556 53 R
63 0 V
5556 0 R
-63 0 V
-5556 52 R
63 0 V
5556 0 R
-63 0 V
-5556 53 R
63 0 V
5556 0 R
-63 0 V
-5556 52 R
63 0 V
5556 0 R
-63 0 V
stroke
0.500 UL
LTa
LCa setrgbcolor
1220 2740 M
5619 0 V
stroke
1.000 UL
LTb
LCb setrgbcolor
1220 2740 M
126 0 V
5493 0 R
-126 0 V
stroke
1100 2740 M
[ [(Helvetica) 200.0 0.0 true true 0 ( 0.008)]
] -66.7 MRshow
/Helvetica findfont 200 scalefont setfont
1.000 UL
LTb
LCb setrgbcolor
1220 2792 M
63 0 V
5556 0 R
-63 0 V
-5556 52 R
63 0 V
5556 0 R
-63 0 V
-5556 53 R
63 0 V
5556 0 R
-63 0 V
-5556 52 R
63 0 V
5556 0 R
-63 0 V
-5556 53 R
63 0 V
5556 0 R
-63 0 V
-5556 52 R
63 0 V
5556 0 R
-63 0 V
-5556 53 R
63 0 V
5556 0 R
-63 0 V
-5556 52 R
63 0 V
5556 0 R
-63 0 V
-5556 53 R
63 0 V
5556 0 R
-63 0 V
stroke
0.500 UL
LTa
LCa setrgbcolor
1220 3264 M
5619 0 V
stroke
1.000 UL
LTb
LCb setrgbcolor
1220 3264 M
126 0 V
5493 0 R
-126 0 V
stroke
1100 3264 M
[ [(Helvetica) 200.0 0.0 true true 0 ( 0.01)]
] -66.7 MRshow
/Helvetica findfont 200 scalefont setfont
1.000 UL
LTb
LCb setrgbcolor
1220 3317 M
63 0 V
5556 0 R
-63 0 V
-5556 52 R
63 0 V
5556 0 R
-63 0 V
-5556 53 R
63 0 V
5556 0 R
-63 0 V
-5556 52 R
63 0 V
5556 0 R
-63 0 V
-5556 53 R
63 0 V
5556 0 R
-63 0 V
-5556 52 R
63 0 V
5556 0 R
-63 0 V
-5556 53 R
63 0 V
5556 0 R
-63 0 V
-5556 52 R
63 0 V
5556 0 R
-63 0 V
-5556 53 R
63 0 V
5556 0 R
-63 0 V
stroke
0.500 UL
LTa
LCa setrgbcolor
1220 3789 M
5619 0 V
stroke
1.000 UL
LTb
LCb setrgbcolor
1220 3789 M
126 0 V
5493 0 R
-126 0 V
stroke
1100 3789 M
[ [(Helvetica) 200.0 0.0 true true 0 ( 0.012)]
] -66.7 MRshow
/Helvetica findfont 200 scalefont setfont
1.000 UL
LTb
LCb setrgbcolor
1220 3842 M
63 0 V
5556 0 R
-63 0 V
-5556 52 R
63 0 V
5556 0 R
-63 0 V
-5556 53 R
63 0 V
5556 0 R
-63 0 V
-5556 52 R
63 0 V
5556 0 R
-63 0 V
-5556 53 R
63 0 V
5556 0 R
-63 0 V
-5556 52 R
63 0 V
5556 0 R
-63 0 V
-5556 53 R
63 0 V
5556 0 R
-63 0 V
-5556 52 R
63 0 V
5556 0 R
-63 0 V
-5556 53 R
63 0 V
5556 0 R
-63 0 V
stroke
0.500 UL
LTa
LCa setrgbcolor
1220 4314 M
5619 0 V
stroke
1.000 UL
LTb
LCb setrgbcolor
1220 4314 M
126 0 V
5493 0 R
-126 0 V
stroke
1100 4314 M
[ [(Helvetica) 200.0 0.0 true true 0 ( 0.014)]
] -66.7 MRshow
/Helvetica findfont 200 scalefont setfont
1.000 UL
LTb
LCb setrgbcolor
1220 4367 M
63 0 V
5556 0 R
-63 0 V
-5556 52 R
63 0 V
5556 0 R
-63 0 V
-5556 53 R
63 0 V
5556 0 R
-63 0 V
-5556 52 R
63 0 V
5556 0 R
-63 0 V
-5556 53 R
63 0 V
5556 0 R
-63 0 V
-5556 52 R
63 0 V
5556 0 R
-63 0 V
-5556 53 R
63 0 V
5556 0 R
-63 0 V
-5556 52 R
63 0 V
5556 0 R
-63 0 V
-5556 53 R
63 0 V
5556 0 R
-63 0 V
stroke
0.500 UL
LTa
LCa setrgbcolor
1220 4839 M
5619 0 V
stroke
1.000 UL
LTb
LCb setrgbcolor
1220 4839 M
126 0 V
5493 0 R
-126 0 V
stroke
1100 4839 M
[ [(Helvetica) 200.0 0.0 true true 0 ( 0.016)]
] -66.7 MRshow
/Helvetica findfont 200 scalefont setfont
1.000 UL
LTb
LCb setrgbcolor
0.500 UL
LTa
LCa setrgbcolor
1220 640 M
0 4199 V
stroke
1.000 UL
LTb
LCb setrgbcolor
1220 640 M
0 126 V
0 4073 R
0 -126 V
stroke
1220 440 M
[ [(Helvetica) 200.0 0.0 true true 0 ( 850)]
] -66.7 MCshow
/Helvetica findfont 200 scalefont setfont
1.000 UL
LTb
LCb setrgbcolor
1314 640 M
0 63 V
0 4136 R
0 -63 V
1407 640 M
0 63 V
0 4136 R
0 -63 V
1501 640 M
0 63 V
0 4136 R
0 -63 V
1595 640 M
0 63 V
0 4136 R
0 -63 V
1688 640 M
0 63 V
0 4136 R
0 -63 V
1782 640 M
0 63 V
0 4136 R
0 -63 V
1876 640 M
0 63 V
0 4136 R
0 -63 V
1969 640 M
0 63 V
0 4136 R
0 -63 V
2063 640 M
0 63 V
0 4136 R
0 -63 V
stroke
0.500 UL
LTa
LCa setrgbcolor
2157 640 M
0 4199 V
stroke
1.000 UL
LTb
LCb setrgbcolor
2157 640 M
0 126 V
0 4073 R
0 -126 V
stroke
2157 440 M
[ [(Helvetica) 200.0 0.0 true true 0 ( 900)]
] -66.7 MCshow
/Helvetica findfont 200 scalefont setfont
1.000 UL
LTb
LCb setrgbcolor
2250 640 M
0 63 V
0 4136 R
0 -63 V
2344 640 M
0 63 V
0 4136 R
0 -63 V
2437 640 M
0 63 V
0 4136 R
0 -63 V
2531 640 M
0 63 V
0 4136 R
0 -63 V
2625 640 M
0 63 V
0 4136 R
0 -63 V
2718 640 M
0 63 V
0 4136 R
0 -63 V
2812 640 M
0 63 V
0 4136 R
0 -63 V
2906 640 M
0 63 V
0 4136 R
0 -63 V
2999 640 M
0 63 V
0 4136 R
0 -63 V
stroke
0.500 UL
LTa
LCa setrgbcolor
3093 640 M
0 4199 V
stroke
1.000 UL
LTb
LCb setrgbcolor
3093 640 M
0 126 V
0 4073 R
0 -126 V
stroke
3093 440 M
[ [(Helvetica) 200.0 0.0 true true 0 ( 950)]
] -66.7 MCshow
/Helvetica findfont 200 scalefont setfont
1.000 UL
LTb
LCb setrgbcolor
3187 640 M
0 63 V
0 4136 R
0 -63 V
3280 640 M
0 63 V
0 4136 R
0 -63 V
3374 640 M
0 63 V
0 4136 R
0 -63 V
3468 640 M
0 63 V
0 4136 R
0 -63 V
3561 640 M
0 63 V
0 4136 R
0 -63 V
3655 640 M
0 63 V
0 4136 R
0 -63 V
3749 640 M
0 63 V
0 4136 R
0 -63 V
3842 640 M
0 63 V
0 4136 R
0 -63 V
3936 640 M
0 63 V
0 4136 R
0 -63 V
stroke
0.500 UL
LTa
LCa setrgbcolor
4030 640 M
0 3736 V
0 400 R
0 63 V
stroke
1.000 UL
LTb
LCb setrgbcolor
4030 640 M
0 126 V
0 4073 R
0 -126 V
stroke
4030 440 M
[ [(Helvetica) 200.0 0.0 true true 0 ( 1000)]
] -66.7 MCshow
/Helvetica findfont 200 scalefont setfont
1.000 UL
LTb
LCb setrgbcolor
4123 640 M
0 63 V
0 4136 R
0 -63 V
4217 640 M
0 63 V
0 4136 R
0 -63 V
4310 640 M
0 63 V
0 4136 R
0 -63 V
4404 640 M
0 63 V
0 4136 R
0 -63 V
4498 640 M
0 63 V
0 4136 R
0 -63 V
4591 640 M
0 63 V
0 4136 R
0 -63 V
4685 640 M
0 63 V
0 4136 R
0 -63 V
4779 640 M
0 63 V
0 4136 R
0 -63 V
4872 640 M
0 63 V
0 4136 R
0 -63 V
stroke
0.500 UL
LTa
LCa setrgbcolor
4966 640 M
0 3736 V
0 400 R
0 63 V
stroke
1.000 UL
LTb
LCb setrgbcolor
4966 640 M
0 126 V
0 4073 R
0 -126 V
stroke
4966 440 M
[ [(Helvetica) 200.0 0.0 true true 0 ( 1050)]
] -66.7 MCshow
/Helvetica findfont 200 scalefont setfont
1.000 UL
LTb
LCb setrgbcolor
5060 640 M
0 63 V
0 4136 R
0 -63 V
5153 640 M
0 63 V
0 4136 R
0 -63 V
5247 640 M
0 63 V
0 4136 R
0 -63 V
5341 640 M
0 63 V
0 4136 R
0 -63 V
5434 640 M
0 63 V
0 4136 R
0 -63 V
5528 640 M
0 63 V
0 4136 R
0 -63 V
5622 640 M
0 63 V
0 4136 R
0 -63 V
5715 640 M
0 63 V
0 4136 R
0 -63 V
5809 640 M
0 63 V
0 4136 R
0 -63 V
stroke
0.500 UL
LTa
LCa setrgbcolor
5903 640 M
0 3736 V
0 400 R
0 63 V
stroke
1.000 UL
LTb
LCb setrgbcolor
5903 640 M
0 126 V
0 4073 R
0 -126 V
stroke
5903 440 M
[ [(Helvetica) 200.0 0.0 true true 0 ( 1100)]
] -66.7 MCshow
/Helvetica findfont 200 scalefont setfont
1.000 UL
LTb
LCb setrgbcolor
5996 640 M
0 63 V
0 4136 R
0 -63 V
6090 640 M
0 63 V
0 4136 R
0 -63 V
6183 640 M
0 63 V
0 4136 R
0 -63 V
6277 640 M
0 63 V
0 4136 R
0 -63 V
6371 640 M
0 63 V
0 4136 R
0 -63 V
6464 640 M
0 63 V
0 4136 R
0 -63 V
6558 640 M
0 63 V
0 4136 R
0 -63 V
6652 640 M
0 63 V
0 4136 R
0 -63 V
6745 640 M
0 63 V
0 4136 R
0 -63 V
stroke
0.500 UL
LTa
LCa setrgbcolor
6839 640 M
0 4199 V
stroke
1.000 UL
LTb
LCb setrgbcolor
6839 640 M
0 126 V
0 4073 R
0 -126 V
stroke
6839 440 M
[ [(Helvetica) 200.0 0.0 true true 0 ( 1150)]
] -66.7 MCshow
/Helvetica findfont 200 scalefont setfont
1.000 UL
LTb
LCb setrgbcolor
1.000 UL
LTB
LCb setrgbcolor
1220 4839 N
0 -4199 V
5619 0 V
0 4199 V
-5619 0 V
Z stroke
1.000 UP
1.000 UL
LTb
LCb setrgbcolor
LCb setrgbcolor
190 2739 M
currentpoint gsave translate -270 rotate 0 0 moveto
[ [(Helvetica) 200.0 0.0 true true 0 (Probability)]
] -66.7 MCshow
grestore
/Helvetica findfont 200 scalefont setfont
LTb
LCb setrgbcolor
4029 140 M
[ [(Helvetica) 200.0 0.0 true true 0 (Vertex degree)]
] -66.7 MCshow
/Helvetica findfont 200 scalefont setfont
LTb
% Begin plot #1
1.000 UP
1.000 UL
LTb
0.58 0.00 0.83 C
LCb setrgbcolor
5936 4676 M
[ [(Helvetica) 200.0 0.0 true true 0 (Degree probability)]
] -66.7 MRshow
/Helvetica findfont 200 scalefont setfont
1.000 UP
1.000 UL
LTb
0.58 0.00 0.83 C
6056 4676 M
543 0 V
1819 653 M
94 0 V
37 0 V
75 0 V
19 0 V
19 13 V
19 0 V
18 0 V
38 -13 V
19 26 V
18 -13 V
19 -13 V
37 0 V
19 39 V
19 -26 V
19 -13 V
18 13 V
19 13 V
19 53 V
19 -53 V
37 40 V
37 39 V
19 -52 V
19 -27 V
19 132 V
18 -79 V
19 105 V
19 -118 V
19 -27 V
18 171 V
19 -26 V
19 39 V
18 -92 V
19 0 V
19 53 V
19 -13 V
18 13 V
19 26 V
19 26 V
19 40 V
18 -79 V
19 184 V
19 -40 V
19 197 V
18 -79 V
19 66 V
19 -52 V
18 196 V
19 -183 V
19 118 V
19 -27 V
18 132 V
19 144 V
19 -171 V
19 158 V
18 52 V
19 27 V
19 92 V
18 -53 V
19 13 V
19 53 V
19 52 V
18 -39 V
19 262 V
19 131 V
19 66 V
18 -223 V
19 118 V
19 262 V
18 -13 V
19 -118 V
19 302 V
19 66 V
18 -145 V
19 132 V
19 328 V
19 -184 V
18 499 V
19 -119 V
19 -262 V
19 551 V
18 -433 V
19 367 V
19 105 V
18 -144 V
19 -26 V
19 -13 V
19 39 V
18 696 V
19 -210 V
19 -40 V
19 -197 V
18 643 V
19 -564 V
19 197 V
18 420 V
19 -197 V
19 66 V
19 -341 V
18 301 V
19 237 V
19 -604 V
19 722 V
18 -617 V
19 420 V
19 -355 V
19 105 V
18 263 V
19 -249 V
19 91 V
18 -91 V
19 78 V
19 105 V
19 -236 V
18 -118 V
19 26 V
19 -52 V
19 -26 V
18 -145 V
19 131 V
19 -196 V
18 183 V
19 184 V
19 -157 V
19 -171 V
18 210 V
19 -263 V
19 158 V
19 -486 V
18 -26 V
19 79 V
19 -276 V
18 250 V
19 -250 V
19 -354 V
19 276 V
18 -145 V
19 -26 V
19 197 V
19 -289 V
18 0 V
19 -65 V
19 -394 V
19 157 V
18 -78 V
19 -237 V
19 171 V
18 53 V
19 -578 V
19 394 V
19 -210 V
18 -171 V
19 131 V
19 -39 V
19 -79 V
18 -91 V
19 -40 V
19 -184 V
18 276 V
19 -52 V
19 -250 V
19 -52 V
18 39 V
19 -223 V
19 92 V
19 52 V
18 13 V
19 -65 V
19 -66 V
18 -26 V
19 -52 V
19 0 V
19 -119 V
18 -13 V
19 13 V
19 92 V
19 -105 V
18 13 V
19 0 V
19 -65 V
19 39 V
18 -52 V
19 -53 V
19 13 V
18 -39 V
19 39 V
19 92 V
19 -184 V
18 79 V
19 -92 V
19 53 V
19 -13 V
18 26 V
19 -92 V
19 39 V
18 0 V
19 0 V
19 -39 V
19 66 V
18 -53 V
19 0 V
19 -13 V
19 39 V
18 -26 V
57 -13 V
18 0 V
19 0 V
56 0 V
56 0 V
19 0 V
19 0 V
19 0 V
18 0 V
244 0 V
37 0 V
1819 653 Circle
1913 653 Circle
1950 653 Circle
2025 653 Circle
2044 653 Circle
2063 666 Circle
2082 666 Circle
2100 666 Circle
2138 653 Circle
2157 679 Circle
2175 666 Circle
2194 653 Circle
2231 653 Circle
2250 692 Circle
2269 666 Circle
2288 653 Circle
2306 666 Circle
2325 679 Circle
2344 732 Circle
2363 679 Circle
2400 719 Circle
2437 758 Circle
2456 706 Circle
2475 679 Circle
2494 811 Circle
2512 732 Circle
2531 837 Circle
2550 719 Circle
2569 692 Circle
2587 863 Circle
2606 837 Circle
2625 876 Circle
2643 784 Circle
2662 784 Circle
2681 837 Circle
2700 824 Circle
2718 837 Circle
2737 863 Circle
2756 889 Circle
2775 929 Circle
2793 850 Circle
2812 1034 Circle
2831 994 Circle
2850 1191 Circle
2868 1112 Circle
2887 1178 Circle
2906 1126 Circle
2924 1322 Circle
2943 1139 Circle
2962 1257 Circle
2981 1230 Circle
2999 1362 Circle
3018 1506 Circle
3037 1335 Circle
3056 1493 Circle
3074 1545 Circle
3093 1572 Circle
3112 1664 Circle
3130 1611 Circle
3149 1624 Circle
3168 1677 Circle
3187 1729 Circle
3205 1690 Circle
3224 1952 Circle
3243 2083 Circle
3262 2149 Circle
3280 1926 Circle
3299 2044 Circle
3318 2306 Circle
3336 2293 Circle
3355 2175 Circle
3374 2477 Circle
3393 2543 Circle
3411 2398 Circle
3430 2530 Circle
3449 2858 Circle
3468 2674 Circle
3486 3173 Circle
3505 3054 Circle
3524 2792 Circle
3543 3343 Circle
3561 2910 Circle
3580 3277 Circle
3599 3382 Circle
3617 3238 Circle
3636 3212 Circle
3655 3199 Circle
3674 3238 Circle
3692 3934 Circle
3711 3724 Circle
3730 3684 Circle
3749 3487 Circle
3767 4130 Circle
3786 3566 Circle
3805 3763 Circle
3823 4183 Circle
3842 3986 Circle
3861 4052 Circle
3880 3711 Circle
3898 4012 Circle
3917 4249 Circle
3936 3645 Circle
3955 4367 Circle
3973 3750 Circle
3992 4170 Circle
4011 3815 Circle
4030 3920 Circle
4048 4183 Circle
4067 3934 Circle
4086 4025 Circle
4104 3934 Circle
4123 4012 Circle
4142 4117 Circle
4161 3881 Circle
4179 3763 Circle
4198 3789 Circle
4217 3737 Circle
4236 3711 Circle
4254 3566 Circle
4273 3697 Circle
4292 3501 Circle
4310 3684 Circle
4329 3868 Circle
4348 3711 Circle
4367 3540 Circle
4385 3750 Circle
4404 3487 Circle
4423 3645 Circle
4442 3159 Circle
4460 3133 Circle
4479 3212 Circle
4498 2936 Circle
4516 3186 Circle
4535 2936 Circle
4554 2582 Circle
4573 2858 Circle
4591 2713 Circle
4610 2687 Circle
4629 2884 Circle
4648 2595 Circle
4666 2595 Circle
4685 2530 Circle
4704 2136 Circle
4723 2293 Circle
4741 2215 Circle
4760 1978 Circle
4779 2149 Circle
4797 2202 Circle
4816 1624 Circle
4835 2018 Circle
4854 1808 Circle
4872 1637 Circle
4891 1768 Circle
4910 1729 Circle
4929 1650 Circle
4947 1559 Circle
4966 1519 Circle
4985 1335 Circle
5003 1611 Circle
5022 1559 Circle
5041 1309 Circle
5060 1257 Circle
5078 1296 Circle
5097 1073 Circle
5116 1165 Circle
5135 1217 Circle
5153 1230 Circle
5172 1165 Circle
5191 1099 Circle
5209 1073 Circle
5228 1021 Circle
5247 1021 Circle
5266 902 Circle
5284 889 Circle
5303 902 Circle
5322 994 Circle
5341 889 Circle
5359 902 Circle
5378 902 Circle
5397 837 Circle
5416 876 Circle
5434 824 Circle
5453 771 Circle
5472 784 Circle
5490 745 Circle
5509 784 Circle
5528 876 Circle
5547 692 Circle
5565 771 Circle
5584 679 Circle
5603 732 Circle
5622 719 Circle
5640 745 Circle
5659 653 Circle
5678 692 Circle
5696 692 Circle
5715 692 Circle
5734 653 Circle
5753 719 Circle
5771 666 Circle
5790 666 Circle
5809 653 Circle
5828 692 Circle
5846 666 Circle
5903 653 Circle
5921 653 Circle
5940 653 Circle
5996 653 Circle
6052 653 Circle
6071 653 Circle
6090 653 Circle
6109 653 Circle
6127 653 Circle
6371 653 Circle
6408 653 Circle
6327 4676 Circle
% End plot #1
% Begin plot #2
3.000 UL
LTb
0.00 0.62 0.45 C
LCb setrgbcolor
5936 4476 M
[ [(Helvetica) 200.0 0.0 true true 0 (Poisson distribution)]
] -66.7 MRshow
/Helvetica findfont 200 scalefont setfont
3.000 UL
LTb
0.00 0.62 0.45 C
6056 4476 M
543 0 V
1819 642 M
47 1 V
46 2 V
46 1 V
47 2 V
46 3 V
46 3 V
47 4 V
46 6 V
47 7 V
46 8 V
46 10 V
47 13 V
46 16 V
46 19 V
47 23 V
46 27 V
46 32 V
47 37 V
46 44 V
46 51 V
47 58 V
46 65 V
46 75 V
47 83 V
46 92 V
47 102 V
46 110 V
46 120 V
47 129 V
46 136 V
46 144 V
47 150 V
46 154 V
46 157 V
47 159 V
46 158 V
46 156 V
47 150 V
46 144 V
46 134 V
47 123 V
46 109 V
46 94 V
47 77 V
46 59 V
47 40 V
46 20 V
46 -1 V
47 -20 V
46 -40 V
46 -60 V
47 -77 V
46 -94 V
46 -108 V
47 -121 V
46 -133 V
46 -141 V
47 -148 V
46 -152 V
46 -155 V
47 -156 V
46 -154 V
47 -151 V
46 -146 V
46 -141 V
47 -134 V
46 -127 V
46 -118 V
47 -110 V
46 -101 V
46 -93 V
47 -83 V
46 -76 V
46 -67 V
47 -59 V
46 -53 V
46 -45 V
47 -40 V
46 -34 V
47 -30 V
46 -25 V
46 -21 V
47 -18 V
46 -14 V
46 -13 V
47 -10 V
46 -8 V
46 -7 V
47 -5 V
46 -4 V
46 -4 V
47 -3 V
46 -2 V
46 -1 V
47 -2 V
46 -1 V
47 -1 V
46 0 V
46 -1 V
% End plot #2
stroke
2.000 UL
LTb
LCb setrgbcolor
1.000 UL
LTB
LCb setrgbcolor
1220 4839 N
0 -4199 V
5619 0 V
0 4199 V
-5619 0 V
Z stroke
1.000 UP
1.000 UL
LTb
LCb setrgbcolor
stroke
grestore
end
showpage
%%Trailer
%%DocumentFonts: Helvetica
