%!PS-Adobe-2.0 EPSF-2.0
%%Title: inDeg.DD_10000_0.6_0_ER_20_190_degrees.eps
%%Creator: gnuplot 5.2 patchlevel 8
%%CreationDate: Sat Sep 19 01:57:52 2020
%%DocumentFonts: (atend)
%%BoundingBox: 50 50 410 302
%%EndComments
%%BeginProlog
/gnudict 256 dict def
gnudict begin
%
% The following true/false flags may be edited by hand if desired.
% The unit line width and grayscale image gamma correction may also be changed.
%
/Color true def
/Blacktext false def
/Solid false def
/Dashlength 1 def
/Landscape false def
/Level1 false def
/Level3 false def
/Rounded false def
/ClipToBoundingBox false def
/SuppressPDFMark false def
/TransparentPatterns false def
/gnulinewidth 5.000 def
/userlinewidth gnulinewidth def
/Gamma 1.0 def
/BackgroundColor {-1.000 -1.000 -1.000} def
%
/vshift -66 def
/dl1 {
  10.0 Dashlength userlinewidth gnulinewidth div mul mul mul
  Rounded { currentlinewidth 0.75 mul sub dup 0 le { pop 0.01 } if } if
} def
/dl2 {
  10.0 Dashlength userlinewidth gnulinewidth div mul mul mul
  Rounded { currentlinewidth 0.75 mul add } if
} def
/hpt_ 31.5 def
/vpt_ 31.5 def
/hpt hpt_ def
/vpt vpt_ def
/doclip {
  ClipToBoundingBox {
    newpath 50 50 moveto 410 50 lineto 410 302 lineto 50 302 lineto closepath
    clip
  } if
} def
%
% Gnuplot Prolog Version 5.2 (Dec 2017)
%
%/SuppressPDFMark true def
%
/M {moveto} bind def
/L {lineto} bind def
/R {rmoveto} bind def
/V {rlineto} bind def
/N {newpath moveto} bind def
/Z {closepath} bind def
/C {setrgbcolor} bind def
/f {rlineto fill} bind def
/g {setgray} bind def
/Gshow {show} def   % May be redefined later in the file to support UTF-8
/vpt2 vpt 2 mul def
/hpt2 hpt 2 mul def
/Lshow {currentpoint stroke M 0 vshift R 
	Blacktext {gsave 0 setgray textshow grestore} {textshow} ifelse} def
/Rshow {currentpoint stroke M dup stringwidth pop neg vshift R
	Blacktext {gsave 0 setgray textshow grestore} {textshow} ifelse} def
/Cshow {currentpoint stroke M dup stringwidth pop -2 div vshift R 
	Blacktext {gsave 0 setgray textshow grestore} {textshow} ifelse} def
/UP {dup vpt_ mul /vpt exch def hpt_ mul /hpt exch def
  /hpt2 hpt 2 mul def /vpt2 vpt 2 mul def} def
/DL {Color {setrgbcolor Solid {pop []} if 0 setdash}
 {pop pop pop 0 setgray Solid {pop []} if 0 setdash} ifelse} def
/BL {stroke userlinewidth 2 mul setlinewidth
	Rounded {1 setlinejoin 1 setlinecap} if} def
/AL {stroke userlinewidth 2 div setlinewidth
	Rounded {1 setlinejoin 1 setlinecap} if} def
/UL {dup gnulinewidth mul /userlinewidth exch def
	dup 1 lt {pop 1} if 10 mul /udl exch def} def
/PL {stroke userlinewidth setlinewidth
	Rounded {1 setlinejoin 1 setlinecap} if} def
3.8 setmiterlimit
% Classic Line colors (version 5.0)
/LCw {1 1 1} def
/LCb {0 0 0} def
/LCa {0 0 0} def
/LC0 {1 0 0} def
/LC1 {0 1 0} def
/LC2 {0 0 1} def
/LC3 {1 0 1} def
/LC4 {0 1 1} def
/LC5 {1 1 0} def
/LC6 {0 0 0} def
/LC7 {1 0.3 0} def
/LC8 {0.5 0.5 0.5} def
% Default dash patterns (version 5.0)
/LTB {BL [] LCb DL} def
/LTw {PL [] 1 setgray} def
/LTb {PL [] LCb DL} def
/LTa {AL [1 udl mul 2 udl mul] 0 setdash LCa setrgbcolor} def
/LT0 {PL [] LC0 DL} def
/LT1 {PL [2 dl1 3 dl2] LC1 DL} def
/LT2 {PL [1 dl1 1.5 dl2] LC2 DL} def
/LT3 {PL [6 dl1 2 dl2 1 dl1 2 dl2] LC3 DL} def
/LT4 {PL [1 dl1 2 dl2 6 dl1 2 dl2 1 dl1 2 dl2] LC4 DL} def
/LT5 {PL [4 dl1 2 dl2] LC5 DL} def
/LT6 {PL [1.5 dl1 1.5 dl2 1.5 dl1 1.5 dl2 1.5 dl1 6 dl2] LC6 DL} def
/LT7 {PL [3 dl1 3 dl2 1 dl1 3 dl2] LC7 DL} def
/LT8 {PL [2 dl1 2 dl2 2 dl1 6 dl2] LC8 DL} def
/SL {[] 0 setdash} def
/Pnt {stroke [] 0 setdash gsave 1 setlinecap M 0 0 V stroke grestore} def
/Dia {stroke [] 0 setdash 2 copy vpt add M
  hpt neg vpt neg V hpt vpt neg V
  hpt vpt V hpt neg vpt V closepath stroke
  Pnt} def
/Pls {stroke [] 0 setdash vpt sub M 0 vpt2 V
  currentpoint stroke M
  hpt neg vpt neg R hpt2 0 V stroke
 } def
/Box {stroke [] 0 setdash 2 copy exch hpt sub exch vpt add M
  0 vpt2 neg V hpt2 0 V 0 vpt2 V
  hpt2 neg 0 V closepath stroke
  Pnt} def
/Crs {stroke [] 0 setdash exch hpt sub exch vpt add M
  hpt2 vpt2 neg V currentpoint stroke M
  hpt2 neg 0 R hpt2 vpt2 V stroke} def
/TriU {stroke [] 0 setdash 2 copy vpt 1.12 mul add M
  hpt neg vpt -1.62 mul V
  hpt 2 mul 0 V
  hpt neg vpt 1.62 mul V closepath stroke
  Pnt} def
/Star {2 copy Pls Crs} def
/BoxF {stroke [] 0 setdash exch hpt sub exch vpt add M
  0 vpt2 neg V hpt2 0 V 0 vpt2 V
  hpt2 neg 0 V closepath fill} def
/TriUF {stroke [] 0 setdash vpt 1.12 mul add M
  hpt neg vpt -1.62 mul V
  hpt 2 mul 0 V
  hpt neg vpt 1.62 mul V closepath fill} def
/TriD {stroke [] 0 setdash 2 copy vpt 1.12 mul sub M
  hpt neg vpt 1.62 mul V
  hpt 2 mul 0 V
  hpt neg vpt -1.62 mul V closepath stroke
  Pnt} def
/TriDF {stroke [] 0 setdash vpt 1.12 mul sub M
  hpt neg vpt 1.62 mul V
  hpt 2 mul 0 V
  hpt neg vpt -1.62 mul V closepath fill} def
/DiaF {stroke [] 0 setdash vpt add M
  hpt neg vpt neg V hpt vpt neg V
  hpt vpt V hpt neg vpt V closepath fill} def
/Pent {stroke [] 0 setdash 2 copy gsave
  translate 0 hpt M 4 {72 rotate 0 hpt L} repeat
  closepath stroke grestore Pnt} def
/PentF {stroke [] 0 setdash gsave
  translate 0 hpt M 4 {72 rotate 0 hpt L} repeat
  closepath fill grestore} def
/Circle {stroke [] 0 setdash 2 copy
  hpt 0 360 arc stroke Pnt} def
/CircleF {stroke [] 0 setdash hpt 0 360 arc fill} def
/C0 {BL [] 0 setdash 2 copy moveto vpt 90 450 arc} bind def
/C1 {BL [] 0 setdash 2 copy moveto
	2 copy vpt 0 90 arc closepath fill
	vpt 0 360 arc closepath} bind def
/C2 {BL [] 0 setdash 2 copy moveto
	2 copy vpt 90 180 arc closepath fill
	vpt 0 360 arc closepath} bind def
/C3 {BL [] 0 setdash 2 copy moveto
	2 copy vpt 0 180 arc closepath fill
	vpt 0 360 arc closepath} bind def
/C4 {BL [] 0 setdash 2 copy moveto
	2 copy vpt 180 270 arc closepath fill
	vpt 0 360 arc closepath} bind def
/C5 {BL [] 0 setdash 2 copy moveto
	2 copy vpt 0 90 arc
	2 copy moveto
	2 copy vpt 180 270 arc closepath fill
	vpt 0 360 arc} bind def
/C6 {BL [] 0 setdash 2 copy moveto
	2 copy vpt 90 270 arc closepath fill
	vpt 0 360 arc closepath} bind def
/C7 {BL [] 0 setdash 2 copy moveto
	2 copy vpt 0 270 arc closepath fill
	vpt 0 360 arc closepath} bind def
/C8 {BL [] 0 setdash 2 copy moveto
	2 copy vpt 270 360 arc closepath fill
	vpt 0 360 arc closepath} bind def
/C9 {BL [] 0 setdash 2 copy moveto
	2 copy vpt 270 450 arc closepath fill
	vpt 0 360 arc closepath} bind def
/C10 {BL [] 0 setdash 2 copy 2 copy moveto vpt 270 360 arc closepath fill
	2 copy moveto
	2 copy vpt 90 180 arc closepath fill
	vpt 0 360 arc closepath} bind def
/C11 {BL [] 0 setdash 2 copy moveto
	2 copy vpt 0 180 arc closepath fill
	2 copy moveto
	2 copy vpt 270 360 arc closepath fill
	vpt 0 360 arc closepath} bind def
/C12 {BL [] 0 setdash 2 copy moveto
	2 copy vpt 180 360 arc closepath fill
	vpt 0 360 arc closepath} bind def
/C13 {BL [] 0 setdash 2 copy moveto
	2 copy vpt 0 90 arc closepath fill
	2 copy moveto
	2 copy vpt 180 360 arc closepath fill
	vpt 0 360 arc closepath} bind def
/C14 {BL [] 0 setdash 2 copy moveto
	2 copy vpt 90 360 arc closepath fill
	vpt 0 360 arc} bind def
/C15 {BL [] 0 setdash 2 copy vpt 0 360 arc closepath fill
	vpt 0 360 arc closepath} bind def
/Rec {newpath 4 2 roll moveto 1 index 0 rlineto 0 exch rlineto
	neg 0 rlineto closepath} bind def
/Square {dup Rec} bind def
/Bsquare {vpt sub exch vpt sub exch vpt2 Square} bind def
/S0 {BL [] 0 setdash 2 copy moveto 0 vpt rlineto BL Bsquare} bind def
/S1 {BL [] 0 setdash 2 copy vpt Square fill Bsquare} bind def
/S2 {BL [] 0 setdash 2 copy exch vpt sub exch vpt Square fill Bsquare} bind def
/S3 {BL [] 0 setdash 2 copy exch vpt sub exch vpt2 vpt Rec fill Bsquare} bind def
/S4 {BL [] 0 setdash 2 copy exch vpt sub exch vpt sub vpt Square fill Bsquare} bind def
/S5 {BL [] 0 setdash 2 copy 2 copy vpt Square fill
	exch vpt sub exch vpt sub vpt Square fill Bsquare} bind def
/S6 {BL [] 0 setdash 2 copy exch vpt sub exch vpt sub vpt vpt2 Rec fill Bsquare} bind def
/S7 {BL [] 0 setdash 2 copy exch vpt sub exch vpt sub vpt vpt2 Rec fill
	2 copy vpt Square fill Bsquare} bind def
/S8 {BL [] 0 setdash 2 copy vpt sub vpt Square fill Bsquare} bind def
/S9 {BL [] 0 setdash 2 copy vpt sub vpt vpt2 Rec fill Bsquare} bind def
/S10 {BL [] 0 setdash 2 copy vpt sub vpt Square fill 2 copy exch vpt sub exch vpt Square fill
	Bsquare} bind def
/S11 {BL [] 0 setdash 2 copy vpt sub vpt Square fill 2 copy exch vpt sub exch vpt2 vpt Rec fill
	Bsquare} bind def
/S12 {BL [] 0 setdash 2 copy exch vpt sub exch vpt sub vpt2 vpt Rec fill Bsquare} bind def
/S13 {BL [] 0 setdash 2 copy exch vpt sub exch vpt sub vpt2 vpt Rec fill
	2 copy vpt Square fill Bsquare} bind def
/S14 {BL [] 0 setdash 2 copy exch vpt sub exch vpt sub vpt2 vpt Rec fill
	2 copy exch vpt sub exch vpt Square fill Bsquare} bind def
/S15 {BL [] 0 setdash 2 copy Bsquare fill Bsquare} bind def
/D0 {gsave translate 45 rotate 0 0 S0 stroke grestore} bind def
/D1 {gsave translate 45 rotate 0 0 S1 stroke grestore} bind def
/D2 {gsave translate 45 rotate 0 0 S2 stroke grestore} bind def
/D3 {gsave translate 45 rotate 0 0 S3 stroke grestore} bind def
/D4 {gsave translate 45 rotate 0 0 S4 stroke grestore} bind def
/D5 {gsave translate 45 rotate 0 0 S5 stroke grestore} bind def
/D6 {gsave translate 45 rotate 0 0 S6 stroke grestore} bind def
/D7 {gsave translate 45 rotate 0 0 S7 stroke grestore} bind def
/D8 {gsave translate 45 rotate 0 0 S8 stroke grestore} bind def
/D9 {gsave translate 45 rotate 0 0 S9 stroke grestore} bind def
/D10 {gsave translate 45 rotate 0 0 S10 stroke grestore} bind def
/D11 {gsave translate 45 rotate 0 0 S11 stroke grestore} bind def
/D12 {gsave translate 45 rotate 0 0 S12 stroke grestore} bind def
/D13 {gsave translate 45 rotate 0 0 S13 stroke grestore} bind def
/D14 {gsave translate 45 rotate 0 0 S14 stroke grestore} bind def
/D15 {gsave translate 45 rotate 0 0 S15 stroke grestore} bind def
/DiaE {stroke [] 0 setdash vpt add M
  hpt neg vpt neg V hpt vpt neg V
  hpt vpt V hpt neg vpt V closepath stroke} def
/BoxE {stroke [] 0 setdash exch hpt sub exch vpt add M
  0 vpt2 neg V hpt2 0 V 0 vpt2 V
  hpt2 neg 0 V closepath stroke} def
/TriUE {stroke [] 0 setdash vpt 1.12 mul add M
  hpt neg vpt -1.62 mul V
  hpt 2 mul 0 V
  hpt neg vpt 1.62 mul V closepath stroke} def
/TriDE {stroke [] 0 setdash vpt 1.12 mul sub M
  hpt neg vpt 1.62 mul V
  hpt 2 mul 0 V
  hpt neg vpt -1.62 mul V closepath stroke} def
/PentE {stroke [] 0 setdash gsave
  translate 0 hpt M 4 {72 rotate 0 hpt L} repeat
  closepath stroke grestore} def
/CircE {stroke [] 0 setdash 
  hpt 0 360 arc stroke} def
/Opaque {gsave closepath 1 setgray fill grestore 0 setgray closepath} def
/DiaW {stroke [] 0 setdash vpt add M
  hpt neg vpt neg V hpt vpt neg V
  hpt vpt V hpt neg vpt V Opaque stroke} def
/BoxW {stroke [] 0 setdash exch hpt sub exch vpt add M
  0 vpt2 neg V hpt2 0 V 0 vpt2 V
  hpt2 neg 0 V Opaque stroke} def
/TriUW {stroke [] 0 setdash vpt 1.12 mul add M
  hpt neg vpt -1.62 mul V
  hpt 2 mul 0 V
  hpt neg vpt 1.62 mul V Opaque stroke} def
/TriDW {stroke [] 0 setdash vpt 1.12 mul sub M
  hpt neg vpt 1.62 mul V
  hpt 2 mul 0 V
  hpt neg vpt -1.62 mul V Opaque stroke} def
/PentW {stroke [] 0 setdash gsave
  translate 0 hpt M 4 {72 rotate 0 hpt L} repeat
  Opaque stroke grestore} def
/CircW {stroke [] 0 setdash 
  hpt 0 360 arc Opaque stroke} def
/BoxFill {gsave Rec 1 setgray fill grestore} def
/Density {
  /Fillden exch def
  currentrgbcolor
  /ColB exch def /ColG exch def /ColR exch def
  /ColR ColR Fillden mul Fillden sub 1 add def
  /ColG ColG Fillden mul Fillden sub 1 add def
  /ColB ColB Fillden mul Fillden sub 1 add def
  ColR ColG ColB setrgbcolor} def
/BoxColFill {gsave Rec PolyFill} def
/PolyFill {gsave Density fill grestore grestore} def
/h {rlineto rlineto rlineto closepath gsave fill grestore stroke} bind def
%
% PostScript Level 1 Pattern Fill routine for rectangles
% Usage: x y w h s a XX PatternFill
%	x,y = lower left corner of box to be filled
%	w,h = width and height of box
%	  a = angle in degrees between lines and x-axis
%	 XX = 0/1 for no/yes cross-hatch
%
/PatternFill {gsave /PFa [ 9 2 roll ] def
  PFa 0 get PFa 2 get 2 div add PFa 1 get PFa 3 get 2 div add translate
  PFa 2 get -2 div PFa 3 get -2 div PFa 2 get PFa 3 get Rec
  TransparentPatterns {} {gsave 1 setgray fill grestore} ifelse
  clip
  currentlinewidth 0.5 mul setlinewidth
  /PFs PFa 2 get dup mul PFa 3 get dup mul add sqrt def
  0 0 M PFa 5 get rotate PFs -2 div dup translate
  0 1 PFs PFa 4 get div 1 add floor cvi
	{PFa 4 get mul 0 M 0 PFs V} for
  0 PFa 6 get ne {
	0 1 PFs PFa 4 get div 1 add floor cvi
	{PFa 4 get mul 0 2 1 roll M PFs 0 V} for
 } if
  stroke grestore} def
%
/languagelevel where
 {pop languagelevel} {1} ifelse
dup 2 lt
	{/InterpretLevel1 true def
	 /InterpretLevel3 false def}
	{/InterpretLevel1 Level1 def
	 2 gt
	    {/InterpretLevel3 Level3 def}
	    {/InterpretLevel3 false def}
	 ifelse }
 ifelse
%
% PostScript level 2 pattern fill definitions
%
/Level2PatternFill {
/Tile8x8 {/PaintType 2 /PatternType 1 /TilingType 1 /BBox [0 0 8 8] /XStep 8 /YStep 8}
	bind def
/KeepColor {currentrgbcolor [/Pattern /DeviceRGB] setcolorspace} bind def
<< Tile8x8
 /PaintProc {0.5 setlinewidth pop 0 0 M 8 8 L 0 8 M 8 0 L stroke} 
>> matrix makepattern
/Pat1 exch def
<< Tile8x8
 /PaintProc {0.5 setlinewidth pop 0 0 M 8 8 L 0 8 M 8 0 L stroke
	0 4 M 4 8 L 8 4 L 4 0 L 0 4 L stroke}
>> matrix makepattern
/Pat2 exch def
<< Tile8x8
 /PaintProc {0.5 setlinewidth pop 0 0 M 0 8 L
	8 8 L 8 0 L 0 0 L fill}
>> matrix makepattern
/Pat3 exch def
<< Tile8x8
 /PaintProc {0.5 setlinewidth pop -4 8 M 8 -4 L
	0 12 M 12 0 L stroke}
>> matrix makepattern
/Pat4 exch def
<< Tile8x8
 /PaintProc {0.5 setlinewidth pop -4 0 M 8 12 L
	0 -4 M 12 8 L stroke}
>> matrix makepattern
/Pat5 exch def
<< Tile8x8
 /PaintProc {0.5 setlinewidth pop -2 8 M 4 -4 L
	0 12 M 8 -4 L 4 12 M 10 0 L stroke}
>> matrix makepattern
/Pat6 exch def
<< Tile8x8
 /PaintProc {0.5 setlinewidth pop -2 0 M 4 12 L
	0 -4 M 8 12 L 4 -4 M 10 8 L stroke}
>> matrix makepattern
/Pat7 exch def
<< Tile8x8
 /PaintProc {0.5 setlinewidth pop 8 -2 M -4 4 L
	12 0 M -4 8 L 12 4 M 0 10 L stroke}
>> matrix makepattern
/Pat8 exch def
<< Tile8x8
 /PaintProc {0.5 setlinewidth pop 0 -2 M 12 4 L
	-4 0 M 12 8 L -4 4 M 8 10 L stroke}
>> matrix makepattern
/Pat9 exch def
/Pattern1 {PatternBgnd KeepColor Pat1 setpattern} bind def
/Pattern2 {PatternBgnd KeepColor Pat2 setpattern} bind def
/Pattern3 {PatternBgnd KeepColor Pat3 setpattern} bind def
/Pattern4 {PatternBgnd KeepColor Landscape {Pat5} {Pat4} ifelse setpattern} bind def
/Pattern5 {PatternBgnd KeepColor Landscape {Pat4} {Pat5} ifelse setpattern} bind def
/Pattern6 {PatternBgnd KeepColor Landscape {Pat9} {Pat6} ifelse setpattern} bind def
/Pattern7 {PatternBgnd KeepColor Landscape {Pat8} {Pat7} ifelse setpattern} bind def
} def
%
%
%End of PostScript Level 2 code
%
/PatternBgnd {
  TransparentPatterns {} {gsave 1 setgray fill grestore} ifelse
} def
%
% Substitute for Level 2 pattern fill codes with
% grayscale if Level 2 support is not selected.
%
/Level1PatternFill {
/Pattern1 {0.250 Density} bind def
/Pattern2 {0.500 Density} bind def
/Pattern3 {0.750 Density} bind def
/Pattern4 {0.125 Density} bind def
/Pattern5 {0.375 Density} bind def
/Pattern6 {0.625 Density} bind def
/Pattern7 {0.875 Density} bind def
} def
%
% Now test for support of Level 2 code
%
Level1 {Level1PatternFill} {Level2PatternFill} ifelse
%
/Symbol-Oblique /Symbol findfont [1 0 .167 1 0 0] makefont
dup length dict begin {1 index /FID eq {pop pop} {def} ifelse} forall
currentdict end definefont pop
%
/Metrics {ExtendTextBox Gswidth} def
/Lwidth {currentpoint stroke M 0 vshift R Metrics} def
/Rwidth {currentpoint stroke M dup stringwidth pop neg vshift R Metrics} def
/Cwidth {currentpoint stroke M dup stringwidth pop -2 div vshift R Metrics} def
/GLwidth {currentpoint stroke M 0 vshift R {ExtendTextBox} forall} def
/GRwidth {currentpoint stroke M dup Gwidth vshift R {ExtendTextBox} forall} def
/GCwidth {currentpoint stroke M dup Gwidth 2 div vshift R {ExtendTextBox} forall} def
/GLwidth2 {0 Gwidth AddGlyphWidth} def
/GRwidth2 {Gwidth -1 mul 0 AddGlyphWidth} def
/GCwidth2 {Gwidth 2 div dup -1 mul AddGlyphWidth} def
/AddGlyphWidth { dup TBx2 gt {userdict /TBx2 3 -1 roll put} {pop} ifelse
                 dup TBx1 lt {userdict /TBx1 3 -1 roll put} {pop} ifelse } def
/MFshow {
   { dup 5 get 3 ge
     { 5 get 3 eq {gsave} {grestore} ifelse }
     {dup dup 0 get findfont exch 1 get scalefont setfont
     [ currentpoint ] exch dup 2 get 0 exch R dup 5 get 2 ne {dup dup 6
     get exch 4 get {textshow} {Metrics pop 0 R} ifelse }if dup 5 get 0 eq
     {dup 3 get {2 get neg 0 exch R pop} {pop aload pop M} ifelse} {dup 5
     get 1 eq {dup 2 get exch dup 3 get exch 6 get Gswidth pop -2 div
     dup 0 R} {dup 6 get Gswidth pop -2 div 0 R 6 get
     textshow 2 index {aload pop M neg 3 -1 roll neg R pop pop} {pop pop pop
     pop aload pop M} ifelse }ifelse }ifelse }
     ifelse }
   forall} def
/Gswidth {dup type /stringtype eq {stringwidth} {pop (n) stringwidth} ifelse} def
/MFwidth {0 exch { dup 5 get 3 ge { 5 get 3 eq { 0 } { pop } ifelse }
 {dup 3 get{dup dup 0 get findfont exch 1 get scalefont setfont
     6 get Gswidth pop add} {pop} ifelse} ifelse} forall} def
/MLshow { currentpoint stroke M
  0 exch R
  Blacktext {gsave 0 setgray MFshow grestore} {MFshow} ifelse } bind def
/MRshow { currentpoint stroke M
  exch dup MFwidth neg 3 -1 roll R
  Blacktext {gsave 0 setgray MFshow grestore} {MFshow} ifelse } bind def
/MCshow { currentpoint stroke M
  exch dup MFwidth -2 div 3 -1 roll R
  Blacktext {gsave 0 setgray MFshow grestore} {MFshow} ifelse } bind def
/XYsave    { [( ) 1 2 true false 3 ()] } bind def
/XYrestore { [( ) 1 2 true false 4 ()] } bind def
Level1 SuppressPDFMark or 
{} {
/SDict 10 dict def
systemdict /pdfmark known not {
  userdict /pdfmark systemdict /cleartomark get put
} if
SDict begin [
  /Title (inDeg.DD_10000_0.6_0_ER_20_190_degrees.eps)
  /Subject (gnuplot plot)
  /Creator (gnuplot 5.2 patchlevel 8)
%  /Producer (gnuplot)
%  /Keywords ()
  /CreationDate (Sat Sep 19 01:57:52 2020)
  /DOCINFO pdfmark
end
} ifelse
%
% Support for boxed text - Ethan A Merritt Sep 2016
%
/InitTextBox { userdict /TBy2 3 -1 roll put userdict /TBx2 3 -1 roll put
           userdict /TBy1 3 -1 roll put userdict /TBx1 3 -1 roll put
	   /Boxing true def } def
/ExtendTextBox { dup type /stringtype eq
    { Boxing { gsave dup false charpath pathbbox
      dup TBy2 gt {userdict /TBy2 3 -1 roll put} {pop} ifelse
      dup TBx2 gt {userdict /TBx2 3 -1 roll put} {pop} ifelse
      dup TBy1 lt {userdict /TBy1 3 -1 roll put} {pop} ifelse
      dup TBx1 lt {userdict /TBx1 3 -1 roll put} {pop} ifelse
      grestore } if }
    {} ifelse} def
/PopTextBox { newpath TBx1 TBxmargin sub TBy1 TBymargin sub M
               TBx1 TBxmargin sub TBy2 TBymargin add L
	       TBx2 TBxmargin add TBy2 TBymargin add L
	       TBx2 TBxmargin add TBy1 TBymargin sub L closepath } def
/DrawTextBox { PopTextBox stroke /Boxing false def} def
/FillTextBox { gsave PopTextBox fill grestore /Boxing false def} def
0 0 0 0 InitTextBox
/TBxmargin 20 def
/TBymargin 20 def
/Boxing false def
/textshow { ExtendTextBox Gshow } def
%
end
%%EndProlog
%%Page: 1 1
gnudict begin
gsave
doclip
50 50 translate
0.050 0.050 scale
0 setgray
newpath
(Helvetica) findfont 200 scalefont setfont
BackgroundColor 0 lt 3 1 roll 0 lt exch 0 lt or or not {BackgroundColor C 1.000 0 0 7200.00 5040.00 BoxColFill} if
1.000 UL
LTb
LCb setrgbcolor
0.500 UL
LTa
LCa setrgbcolor
740 640 M
6099 0 V
stroke
1.000 UL
LTb
LCb setrgbcolor
740 640 M
126 0 V
5973 0 R
-126 0 V
stroke
620 640 M
[ [(Helvetica) 200.0 0.0 true true 0 (10)]
[(Helvetica) 160.0 100.0 true true 0 (0)]
] -86.7 MRshow
/Helvetica findfont 200 scalefont setfont
/vshift -66 def
1.000 UL
LTb
LCb setrgbcolor
740 956 M
63 0 V
6036 0 R
-63 0 V
740 1141 M
63 0 V
6036 0 R
-63 0 V
740 1272 M
63 0 V
6036 0 R
-63 0 V
740 1374 M
63 0 V
6036 0 R
-63 0 V
740 1457 M
63 0 V
6036 0 R
-63 0 V
740 1527 M
63 0 V
6036 0 R
-63 0 V
740 1588 M
63 0 V
6036 0 R
-63 0 V
740 1642 M
63 0 V
6036 0 R
-63 0 V
stroke
0.500 UL
LTa
LCa setrgbcolor
740 1690 M
6099 0 V
stroke
1.000 UL
LTb
LCb setrgbcolor
740 1690 M
126 0 V
5973 0 R
-126 0 V
stroke
620 1690 M
[ [(Helvetica) 200.0 0.0 true true 0 (10)]
[(Helvetica) 160.0 100.0 true true 0 (1)]
] -86.7 MRshow
/Helvetica findfont 200 scalefont setfont
1.000 UL
LTb
LCb setrgbcolor
740 2006 M
63 0 V
6036 0 R
-63 0 V
740 2191 M
63 0 V
6036 0 R
-63 0 V
740 2322 M
63 0 V
6036 0 R
-63 0 V
740 2423 M
63 0 V
6036 0 R
-63 0 V
740 2507 M
63 0 V
6036 0 R
-63 0 V
740 2577 M
63 0 V
6036 0 R
-63 0 V
740 2638 M
63 0 V
6036 0 R
-63 0 V
740 2691 M
63 0 V
6036 0 R
-63 0 V
stroke
0.500 UL
LTa
LCa setrgbcolor
740 2740 M
6099 0 V
stroke
1.000 UL
LTb
LCb setrgbcolor
740 2740 M
126 0 V
5973 0 R
-126 0 V
stroke
620 2740 M
[ [(Helvetica) 200.0 0.0 true true 0 (10)]
[(Helvetica) 160.0 100.0 true true 0 (2)]
] -86.7 MRshow
/Helvetica findfont 200 scalefont setfont
1.000 UL
LTb
LCb setrgbcolor
740 3056 M
63 0 V
6036 0 R
-63 0 V
740 3240 M
63 0 V
6036 0 R
-63 0 V
740 3372 M
63 0 V
6036 0 R
-63 0 V
740 3473 M
63 0 V
6036 0 R
-63 0 V
740 3556 M
63 0 V
6036 0 R
-63 0 V
740 3627 M
63 0 V
6036 0 R
-63 0 V
740 3688 M
63 0 V
6036 0 R
-63 0 V
740 3741 M
63 0 V
6036 0 R
-63 0 V
stroke
0.500 UL
LTa
LCa setrgbcolor
740 3789 M
6099 0 V
stroke
1.000 UL
LTb
LCb setrgbcolor
740 3789 M
126 0 V
5973 0 R
-126 0 V
stroke
620 3789 M
[ [(Helvetica) 200.0 0.0 true true 0 (10)]
[(Helvetica) 160.0 100.0 true true 0 (3)]
] -86.7 MRshow
/Helvetica findfont 200 scalefont setfont
1.000 UL
LTb
LCb setrgbcolor
740 4105 M
63 0 V
6036 0 R
-63 0 V
740 4290 M
63 0 V
6036 0 R
-63 0 V
740 4421 M
63 0 V
6036 0 R
-63 0 V
740 4523 M
63 0 V
6036 0 R
-63 0 V
740 4606 M
63 0 V
6036 0 R
-63 0 V
740 4676 M
63 0 V
6036 0 R
-63 0 V
740 4737 M
63 0 V
6036 0 R
-63 0 V
740 4791 M
63 0 V
6036 0 R
-63 0 V
stroke
0.500 UL
LTa
LCa setrgbcolor
740 4839 M
6099 0 V
stroke
1.000 UL
LTb
LCb setrgbcolor
740 4839 M
126 0 V
5973 0 R
-126 0 V
stroke
620 4839 M
[ [(Helvetica) 200.0 0.0 true true 0 (10)]
[(Helvetica) 160.0 100.0 true true 0 (4)]
] -86.7 MRshow
/Helvetica findfont 200 scalefont setfont
1.000 UL
LTb
LCb setrgbcolor
0.500 UL
LTa
LCa setrgbcolor
740 640 M
0 4199 V
stroke
1.000 UL
LTb
LCb setrgbcolor
740 640 M
0 126 V
0 4073 R
0 -126 V
stroke
740 440 M
[ [(Helvetica) 200.0 0.0 true true 0 (10)]
[(Helvetica) 160.0 100.0 true true 0 (0)]
] -86.7 MCshow
/Helvetica findfont 200 scalefont setfont
1.000 UL
LTb
LCb setrgbcolor
1357 640 M
0 63 V
0 4136 R
0 -63 V
1718 640 M
0 63 V
0 4136 R
0 -63 V
1974 640 M
0 63 V
0 4136 R
0 -63 V
2173 640 M
0 63 V
0 4136 R
0 -63 V
2336 640 M
0 63 V
0 4136 R
0 -63 V
2473 640 M
0 63 V
0 4136 R
0 -63 V
2592 640 M
0 63 V
0 4136 R
0 -63 V
2697 640 M
0 63 V
0 4136 R
0 -63 V
stroke
0.500 UL
LTa
LCa setrgbcolor
2790 640 M
0 4199 V
stroke
1.000 UL
LTb
LCb setrgbcolor
2790 640 M
0 126 V
0 4073 R
0 -126 V
stroke
2790 440 M
[ [(Helvetica) 200.0 0.0 true true 0 (10)]
[(Helvetica) 160.0 100.0 true true 0 (1)]
] -86.7 MCshow
/Helvetica findfont 200 scalefont setfont
1.000 UL
LTb
LCb setrgbcolor
3408 640 M
0 63 V
0 4136 R
0 -63 V
3769 640 M
0 63 V
0 4136 R
0 -63 V
4025 640 M
0 63 V
0 4136 R
0 -63 V
4224 640 M
0 63 V
0 4136 R
0 -63 V
4386 640 M
0 63 V
0 4136 R
0 -63 V
4523 640 M
0 63 V
0 4136 R
0 -63 V
4642 640 M
0 63 V
0 4136 R
0 -63 V
4747 640 M
0 63 V
0 4136 R
0 -63 V
stroke
0.500 UL
LTa
LCa setrgbcolor
4841 640 M
0 3936 V
0 200 R
0 63 V
stroke
1.000 UL
LTb
LCb setrgbcolor
4841 640 M
0 126 V
0 4073 R
0 -126 V
stroke
4841 440 M
[ [(Helvetica) 200.0 0.0 true true 0 (10)]
[(Helvetica) 160.0 100.0 true true 0 (2)]
] -86.7 MCshow
/Helvetica findfont 200 scalefont setfont
1.000 UL
LTb
LCb setrgbcolor
5458 640 M
0 63 V
0 4136 R
0 -63 V
5819 640 M
0 63 V
0 4136 R
0 -63 V
6075 640 M
0 63 V
0 4136 R
0 -63 V
6274 640 M
0 63 V
0 4136 R
0 -63 V
6436 640 M
0 63 V
0 4136 R
0 -63 V
6574 640 M
0 63 V
0 4136 R
0 -63 V
6693 640 M
0 63 V
0 4136 R
0 -63 V
6797 640 M
0 63 V
0 4136 R
0 -63 V
stroke
LTB
LCb setrgbcolor
740 4839 N
740 640 L
6099 0 V
0 4199 V
-6099 0 V
Z stroke
1.000 UP
1.000 UL
LTb
LCb setrgbcolor
LCb setrgbcolor
190 2739 M
currentpoint gsave translate -270 rotate 0 0 moveto
[ [(Helvetica) 200.0 0.0 true true 0 (Count)]
] -66.7 MCshow
grestore
/Helvetica findfont 200 scalefont setfont
LTb
LCb setrgbcolor
3789 140 M
[ [(Helvetica) 200.0 0.0 true true 0 (In-degree)]
] -66.7 MCshow
/Helvetica findfont 200 scalefont setfont
LTb
% Begin plot #1
1.000 UP
1.000 UL
LTb
0.58 0.00 0.83 C
740 2945 M
617 9 V
361 -6 V
256 -21 V
199 -24 V
163 0 V
137 9 V
119 -60 V
105 84 V
93 -106 V
85 33 V
78 0 V
71 -44 V
66 29 V
61 42 V
58 -64 V
54 -47 V
51 -30 V
48 46 V
46 -119 V
43 -21 V
42 71 V
39 -25 V
38 10 V
36 -20 V
35 30 V
34 -113 V
32 103 V
32 -51 V
30 21 V
29 -49 V
28 69 V
28 0 V
26 -165 V
26 90 V
25 17 V
24 -107 V
24 72 V
23 -18 V
23 -7 V
22 -13 V
21 -71 V
21 91 V
21 24 V
20 -44 V
19 7 V
20 -34 V
18 21 V
19 -42 V
18 -72 V
17 72 V
18 -72 V
16 -75 V
17 189 V
16 -65 V
17 -49 V
15 -106 V
16 213 V
15 -143 V
15 -59 V
15 -33 V
14 111 V
14 -10 V
14 -38 V
14 48 V
14 -10 V
13 52 V
13 -110 V
13 49 V
13 -39 V
13 -77 V
12 -37 V
13 25 V
12 -12 V
12 -115 V
11 185 V
12 -11 V
12 -47 V
11 -80 V
11 55 V
11 37 V
11 -50 V
11 -73 V
11 99 V
10 12 V
11 47 V
10 -23 V
10 -49 V
10 -154 V
10 191 V
10 -173 V
10 50 V
9 0 V
10 73 V
9 -242 V
9 153 V
10 0 V
9 -34 V
9 0 V
9 -76 V
9 -91 V
8 233 V
9 119 V
9 -135 V
8 -106 V
9 20 V
8 0 V
8 -157 V
9 243 V
8 -16 V
8 -177 V
8 161 V
8 -36 V
8 36 V
7 -211 V
8 50 V
8 107 V
7 -131 V
8 70 V
7 79 V
8 -334 V
7 334 V
7 -175 V
7 26 V
8 48 V
7 -163 V
7 163 V
7 -233 V
7 70 V
6 139 V
7 -78 V
7 -95 V
7 149 V
6 -370 V
7 394 V
7 -249 V
6 -43 V
7 185 V
6 153 V
6 -338 V
7 83 V
6 102 V
6 -32 V
7 246 V
6 -246 V
6 -34 V
6 95 V
6 -95 V
6 -167 V
6 91 V
6 -91 V
6 290 V
6 50 V
5 -394 V
6 344 V
6 -57 V
6 -102 V
5 0 V
6 -131 V
5 -54 V
6 394 V
5 -292 V
6 -102 V
5 316 V
6 -377 V
5 206 V
6 -91 V
5 262 V
5 -316 V
5 102 V
6 -163 V
5 0 V
5 0 V
5 246 V
5 159 V
5 -123 V
5 0 V
5 0 V
5 -221 V
5 54 V
5 262 V
5 -377 V
5 246 V
5 36 V
5 -76 V
4 -359 V
5 153 V
5 -70 V
5 70 V
4 115 V
5 -268 V
5 83 V
4 -185 V
5 632 V
5 -262 V
4 48 V
5 -102 V
4 -316 V
5 102 V
4 359 V
5 -359 V
4 214 V
4 -131 V
5 70 V
4 0 V
4 -255 V
5 102 V
4 83 V
4 185 V
5 48 V
4 -418 V
4 -131 V
4 702 V
4 -316 V
4 -153 V
5 83 V
4 0 V
4 0 V
4 -83 V
4 -102 V
4 -316 V
4 316 V
4 -131 V
4 316 V
4 -501 V
4 571 V
4 0 V
4 -255 V
4 -131 V
4 316 V
3 0 V
4 -185 V
4 -316 V
4 686 V
4 -185 V
3 -83 V
4 0 V
4 83 V
4 -185 V
3 -632 V
4 887 V
4 -386 V
3 -185 V
4 185 V
4 316 V
3 -501 V
4 316 V
4 -131 V
3 0 V
4 -185 V
stroke 5657 956 M
3 418 V
4 0 V
7 0 V
3 -102 V
4 -316 V
3 316 V
4 -131 V
3 0 V
4 0 V
3 233 V
4 -418 V
3 185 V
3 -185 V
4 185 V
3 316 V
3 -185 V
4 316 V
3 -316 V
3 -131 V
4 0 V
3 316 V
3 -817 V
3 632 V
4 -316 V
3 185 V
3 0 V
3 233 V
4 153 V
3 -386 V
3 131 V
3 102 V
3 -418 V
3 316 V
3 -316 V
4 -316 V
3 316 V
3 316 V
3 102 V
3 -233 V
3 -501 V
3 316 V
3 501 V
3 -316 V
3 0 V
3 131 V
3 -316 V
3 0 V
3 0 V
3 -316 V
3 0 V
3 734 V
3 -734 V
3 316 V
3 316 V
3 -131 V
3 0 V
3 -501 V
5 501 V
3 -501 V
3 316 V
3 -316 V
3 0 V
3 316 V
2 316 V
3 -632 V
3 0 V
3 734 V
3 -734 V
2 501 V
3 -185 V
3 0 V
3 501 V
2 -817 V
6 501 V
3 0 V
2 -185 V
3 0 V
3 -316 V
2 501 V
3 131 V
3 102 V
2 -734 V
3 501 V
3 0 V
2 0 V
3 -501 V
3 632 V
2 -632 V
3 501 V
2 -185 V
3 0 V
5 -316 V
3 632 V
2 -316 V
3 0 V
5 -316 V
5 0 V
3 501 V
2 -501 V
3 316 V
5 -316 V
2 0 V
2 0 V
3 501 V
2 -501 V
3 0 V
5 501 V
2 233 V
3 -233 V
2 0 V
2 -501 V
3 0 V
2 316 V
5 0 V
5 185 V
2 -185 V
5 -316 V
7 0 V
2 0 V
3 0 V
2 0 V
11 0 V
3 0 V
7 0 V
2 0 V
2 0 V
5 0 V
2 0 V
2 0 V
2 316 V
3 -316 V
4 0 V
2 0 V
13 0 V
2 0 V
5 0 V
2 0 V
2 0 V
11 0 V
4 0 V
2 632 V
2 -316 V
4 0 V
2 -316 V
5 316 V
4 -316 V
2 0 V
2 0 V
2 0 V
4 632 V
2 -316 V
10 -316 V
2 316 V
2 -316 V
2 0 V
8 316 V
4 185 V
2 -501 V
2 316 V
4 -316 V
2 0 V
8 0 V
4 0 V
2 0 V
3 0 V
6 0 V
6 0 V
2 0 V
5 0 V
4 0 V
6 316 V
2 -316 V
5 316 V
4 0 V
5 -316 V
7 0 V
2 0 V
2 0 V
5 0 V
4 0 V
2 0 V
2 316 V
5 -316 V
5 0 V
5 0 V
11 0 V
2 0 V
1 0 V
4 0 V
5 501 V
1 -185 V
2 -316 V
4 501 V
1 -501 V
4 316 V
3 -316 V
3 0 V
9 0 V
4 316 V
4 -316 V
5 316 V
3 -316 V
2 0 V
3 0 V
3 0 V
3 0 V
2 316 V
5 -316 V
7 0 V
4 316 V
4 0 V
2 -316 V
1 0 V
3 0 V
13 0 V
3 0 V
1 0 V
5 0 V
1 0 V
6 0 V
2 0 V
16 0 V
2 0 V
3 0 V
20 0 V
10 0 V
4 0 V
20 0 V
12 0 V
37 0 V
24 0 V
23 0 V
7 0 V
6 0 V
33 0 V
13 0 V
64 0 V
4 0 V
13 0 V
12 0 V
25 0 V
25 0 V
2 0 V
3 0 V
2 0 V
6 0 V
23 0 V
1 0 V
740 2945 Circle
1357 2954 Circle
1718 2948 Circle
1974 2927 Circle
2173 2903 Circle
2336 2903 Circle
2473 2912 Circle
2592 2852 Circle
2697 2936 Circle
2790 2830 Circle
2875 2863 Circle
2953 2863 Circle
3024 2819 Circle
3090 2848 Circle
3151 2890 Circle
3209 2826 Circle
3263 2779 Circle
3314 2749 Circle
3362 2795 Circle
3408 2676 Circle
3451 2655 Circle
3493 2726 Circle
3532 2701 Circle
3570 2711 Circle
3606 2691 Circle
3641 2721 Circle
3675 2608 Circle
3707 2711 Circle
3739 2660 Circle
3769 2681 Circle
3798 2632 Circle
3826 2701 Circle
3854 2701 Circle
3880 2536 Circle
3906 2626 Circle
3931 2643 Circle
3955 2536 Circle
3979 2608 Circle
4002 2590 Circle
4025 2583 Circle
4047 2570 Circle
4068 2499 Circle
4089 2590 Circle
4110 2614 Circle
4130 2570 Circle
4149 2577 Circle
4169 2543 Circle
4187 2564 Circle
4206 2522 Circle
4224 2450 Circle
4241 2522 Circle
4259 2450 Circle
4275 2375 Circle
4292 2564 Circle
4308 2499 Circle
4325 2450 Circle
4340 2344 Circle
4356 2557 Circle
4371 2414 Circle
4386 2355 Circle
4401 2322 Circle
4415 2433 Circle
4429 2423 Circle
4443 2385 Circle
4457 2433 Circle
4471 2423 Circle
4484 2475 Circle
4497 2365 Circle
4510 2414 Circle
4523 2375 Circle
4536 2298 Circle
4548 2261 Circle
4561 2286 Circle
4573 2274 Circle
4585 2159 Circle
4596 2344 Circle
4608 2333 Circle
4620 2286 Circle
4631 2206 Circle
4642 2261 Circle
4653 2298 Circle
4664 2248 Circle
4675 2175 Circle
4686 2274 Circle
4696 2286 Circle
4707 2333 Circle
4717 2310 Circle
4727 2261 Circle
4737 2107 Circle
4747 2298 Circle
4757 2125 Circle
4767 2175 Circle
4776 2175 Circle
4786 2248 Circle
4795 2006 Circle
4804 2159 Circle
4814 2159 Circle
4823 2125 Circle
4832 2125 Circle
4841 2049 Circle
4850 1958 Circle
4858 2191 Circle
4867 2310 Circle
4876 2175 Circle
4884 2069 Circle
4893 2089 Circle
4901 2089 Circle
4909 1932 Circle
4918 2175 Circle
4926 2159 Circle
4934 1982 Circle
4942 2143 Circle
4950 2107 Circle
4958 2143 Circle
4965 1932 Circle
4973 1982 Circle
4981 2089 Circle
4988 1958 Circle
4996 2028 Circle
5003 2107 Circle
5011 1773 Circle
5018 2107 Circle
5025 1932 Circle
5032 1958 Circle
5040 2006 Circle
5047 1843 Circle
5054 2006 Circle
5061 1773 Circle
5068 1843 Circle
5074 1982 Circle
5081 1904 Circle
5088 1809 Circle
5095 1958 Circle
5101 1588 Circle
5108 1982 Circle
5115 1733 Circle
5121 1690 Circle
5128 1875 Circle
5134 2028 Circle
5140 1690 Circle
5147 1773 Circle
5153 1875 Circle
5159 1843 Circle
5166 2089 Circle
5172 1843 Circle
5178 1809 Circle
5184 1904 Circle
5190 1809 Circle
5196 1642 Circle
5202 1733 Circle
5208 1642 Circle
5214 1932 Circle
5220 1982 Circle
5225 1588 Circle
5231 1932 Circle
5237 1875 Circle
5243 1773 Circle
5248 1773 Circle
5254 1642 Circle
5259 1588 Circle
5265 1982 Circle
5270 1690 Circle
5276 1588 Circle
5281 1904 Circle
5287 1527 Circle
5292 1733 Circle
5298 1642 Circle
5303 1904 Circle
5308 1588 Circle
5313 1690 Circle
5319 1527 Circle
5324 1527 Circle
5329 1527 Circle
5334 1773 Circle
5339 1932 Circle
5344 1809 Circle
5349 1809 Circle
5354 1809 Circle
5359 1588 Circle
5364 1642 Circle
5369 1904 Circle
5374 1527 Circle
5379 1773 Circle
5384 1809 Circle
5389 1733 Circle
5393 1374 Circle
5398 1527 Circle
5403 1457 Circle
5408 1527 Circle
5412 1642 Circle
5417 1374 Circle
5422 1457 Circle
5426 1272 Circle
5431 1904 Circle
5436 1642 Circle
5440 1690 Circle
5445 1588 Circle
5449 1272 Circle
5454 1374 Circle
5458 1733 Circle
5463 1374 Circle
5467 1588 Circle
5471 1457 Circle
5476 1527 Circle
5480 1527 Circle
5484 1272 Circle
5489 1374 Circle
5493 1457 Circle
5497 1642 Circle
5502 1690 Circle
5506 1272 Circle
5510 1141 Circle
5514 1843 Circle
5518 1527 Circle
5522 1374 Circle
5527 1457 Circle
5531 1457 Circle
5535 1457 Circle
5539 1374 Circle
5543 1272 Circle
5547 956 Circle
5551 1272 Circle
5555 1141 Circle
5559 1457 Circle
5563 956 Circle
5567 1527 Circle
5571 1527 Circle
5575 1272 Circle
5579 1141 Circle
5583 1457 Circle
5586 1457 Circle
5590 1272 Circle
5594 956 Circle
5598 1642 Circle
5602 1457 Circle
5605 1374 Circle
5609 1374 Circle
5613 1457 Circle
5617 1272 Circle
5620 640 Circle
5624 1527 Circle
5628 1141 Circle
5631 956 Circle
5635 1141 Circle
5639 1457 Circle
5642 956 Circle
5646 1272 Circle
5650 1141 Circle
5653 1141 Circle
5657 956 Circle
5660 1374 Circle
5664 1374 Circle
5671 1374 Circle
5674 1272 Circle
5678 956 Circle
5681 1272 Circle
5685 1141 Circle
5688 1141 Circle
5692 1141 Circle
5695 1374 Circle
5699 956 Circle
5702 1141 Circle
5705 956 Circle
5709 1141 Circle
5712 1457 Circle
5715 1272 Circle
5719 1588 Circle
5722 1272 Circle
5725 1141 Circle
5729 1141 Circle
5732 1457 Circle
5735 640 Circle
5738 1272 Circle
5742 956 Circle
5745 1141 Circle
5748 1141 Circle
5751 1374 Circle
5755 1527 Circle
5758 1141 Circle
5761 1272 Circle
5764 1374 Circle
5767 956 Circle
5770 1272 Circle
5773 956 Circle
5777 640 Circle
5780 956 Circle
5783 1272 Circle
5786 1374 Circle
5789 1141 Circle
5792 640 Circle
5795 956 Circle
5798 1457 Circle
5801 1141 Circle
5804 1141 Circle
5807 1272 Circle
5810 956 Circle
5813 956 Circle
5816 956 Circle
5819 640 Circle
5822 640 Circle
5825 1374 Circle
5828 640 Circle
5831 956 Circle
5834 1272 Circle
5837 1141 Circle
5840 1141 Circle
5843 640 Circle
5848 1141 Circle
5851 640 Circle
5854 956 Circle
5857 640 Circle
5860 640 Circle
5863 956 Circle
5865 1272 Circle
5868 640 Circle
5871 640 Circle
5874 1374 Circle
5877 640 Circle
5879 1141 Circle
5882 956 Circle
5885 956 Circle
5888 1457 Circle
5890 640 Circle
5896 1141 Circle
5899 1141 Circle
5901 956 Circle
5904 956 Circle
5907 640 Circle
5909 1141 Circle
5912 1272 Circle
5915 1374 Circle
5917 640 Circle
5920 1141 Circle
5923 1141 Circle
5925 1141 Circle
5928 640 Circle
5931 1272 Circle
5933 640 Circle
5936 1141 Circle
5938 956 Circle
5941 956 Circle
5946 640 Circle
5949 1272 Circle
5951 956 Circle
5954 956 Circle
5959 640 Circle
5964 640 Circle
5967 1141 Circle
5969 640 Circle
5972 956 Circle
5977 640 Circle
5979 640 Circle
5981 640 Circle
5984 1141 Circle
5986 640 Circle
5989 640 Circle
5994 1141 Circle
5996 1374 Circle
5999 1141 Circle
6001 1141 Circle
6003 640 Circle
6006 640 Circle
6008 956 Circle
6013 956 Circle
6018 1141 Circle
6020 956 Circle
6025 640 Circle
6032 640 Circle
6034 640 Circle
6037 640 Circle
6039 640 Circle
6050 640 Circle
6053 640 Circle
6060 640 Circle
6062 640 Circle
6064 640 Circle
6069 640 Circle
6071 640 Circle
6073 640 Circle
6075 956 Circle
6078 640 Circle
6082 640 Circle
6084 640 Circle
6097 640 Circle
6099 640 Circle
6104 640 Circle
6106 640 Circle
6108 640 Circle
6119 640 Circle
6123 640 Circle
6125 1272 Circle
6127 956 Circle
6131 956 Circle
6133 640 Circle
6138 956 Circle
6142 640 Circle
6144 640 Circle
6146 640 Circle
6148 640 Circle
6152 1272 Circle
6154 956 Circle
6164 640 Circle
6166 956 Circle
6168 640 Circle
6170 640 Circle
6178 956 Circle
6182 1141 Circle
6184 640 Circle
6186 956 Circle
6190 640 Circle
6192 640 Circle
6200 640 Circle
6204 640 Circle
6206 640 Circle
6209 640 Circle
6215 640 Circle
6221 640 Circle
6223 640 Circle
6228 640 Circle
6232 640 Circle
6238 956 Circle
6240 640 Circle
6245 956 Circle
6249 956 Circle
6254 640 Circle
6261 640 Circle
6263 640 Circle
6265 640 Circle
6270 640 Circle
6274 640 Circle
6276 640 Circle
6278 956 Circle
6283 640 Circle
6288 640 Circle
6293 640 Circle
6304 640 Circle
6306 640 Circle
6307 640 Circle
6311 640 Circle
6316 1141 Circle
6317 956 Circle
6319 640 Circle
6323 1141 Circle
6324 640 Circle
6328 956 Circle
6331 640 Circle
6334 640 Circle
6343 640 Circle
6347 956 Circle
6351 640 Circle
6356 956 Circle
6359 640 Circle
6361 640 Circle
6364 640 Circle
6367 640 Circle
6370 640 Circle
6372 956 Circle
6377 640 Circle
6384 640 Circle
6388 956 Circle
6392 956 Circle
6394 640 Circle
6395 640 Circle
6398 640 Circle
6411 640 Circle
6414 640 Circle
6415 640 Circle
6420 640 Circle
6421 640 Circle
6427 640 Circle
6429 640 Circle
6445 640 Circle
6447 640 Circle
6450 640 Circle
6470 640 Circle
6480 640 Circle
6484 640 Circle
6504 640 Circle
6516 640 Circle
6553 640 Circle
6577 640 Circle
6600 640 Circle
6607 640 Circle
6613 640 Circle
6646 640 Circle
6659 640 Circle
6723 640 Circle
6727 640 Circle
6740 640 Circle
6752 640 Circle
6777 640 Circle
6802 640 Circle
6804 640 Circle
6807 640 Circle
6809 640 Circle
6815 640 Circle
6838 640 Circle
6839 640 Circle
% End plot #1
% Begin plot #2
3.000 UL
LTb
0.00 0.62 0.45 C
LCb setrgbcolor
5936 4676 M
[ [(Helvetica) 200.0 0.0 true true 0 (8e+03 * x)]
[(Helvetica) 160.0 100.0 true true 0 (-1.386)]
[(Helvetica) 200.0 0.0 true true 0 (  R)]
[(Helvetica) 160.0 100.0 true true 0 (2)]
[(Helvetica) 200.0 0.0 true true 0 (:0.84)]
] -86.7 MRshow
/Helvetica findfont 200 scalefont setfont
3.000 UL
LTb
0.00 0.62 0.45 C
6056 4676 M
543 0 V
740 4754 M
62 -44 V
61 -43 V
62 -44 V
61 -44 V
62 -44 V
62 -43 V
61 -44 V
62 -44 V
61 -43 V
62 -44 V
62 -44 V
61 -44 V
62 -43 V
61 -44 V
62 -44 V
62 -43 V
61 -44 V
62 -44 V
62 -44 V
61 -43 V
62 -44 V
61 -44 V
62 -43 V
62 -44 V
61 -44 V
62 -44 V
61 -43 V
62 -44 V
62 -44 V
61 -43 V
62 -44 V
61 -44 V
62 -44 V
62 -43 V
61 -44 V
62 -44 V
61 -43 V
62 -44 V
62 -44 V
61 -44 V
62 -43 V
61 -44 V
62 -44 V
62 -43 V
61 -44 V
62 -44 V
61 -44 V
62 -43 V
62 -44 V
61 -44 V
62 -43 V
62 -44 V
61 -44 V
62 -44 V
61 -43 V
62 -44 V
62 -44 V
61 -43 V
62 -44 V
61 -44 V
62 -43 V
62 -44 V
61 -44 V
62 -44 V
61 -43 V
62 -44 V
62 -44 V
61 -43 V
62 -44 V
61 -44 V
62 -44 V
62 -43 V
61 -44 V
62 -44 V
61 -43 V
62 -44 V
62 -44 V
61 -44 V
62 -43 V
61 -44 V
62 -44 V
62 -43 V
61 -44 V
62 -44 V
62 -44 V
61 -43 V
62 -44 V
61 -44 V
62 -43 V
62 -44 V
61 -44 V
62 -44 V
61 -43 V
62 -44 V
7 -5 V
% End plot #2
stroke
2.000 UL
LTb
LCb setrgbcolor
1.000 UL
LTB
LCb setrgbcolor
740 4839 N
740 640 L
6099 0 V
0 4199 V
-6099 0 V
Z stroke
1.000 UP
1.000 UL
LTb
LCb setrgbcolor
stroke
grestore
end
showpage
%%Trailer
%%DocumentFonts: Helvetica
