%!PS-Adobe-3.0 EPSF-3.0
%%Creator: graphviz version 2.43.0 (0)
%%Title: G
%%Pages: 1
%%BoundingBox: 36 36 405 282
%%EndComments
save
%%BeginProlog
/DotDict 200 dict def
DotDict begin

/setupLatin1 {
mark
/EncodingVector 256 array def
 EncodingVector 0

ISOLatin1Encoding 0 255 getinterval putinterval
EncodingVector 45 /hyphen put

% Set up ISO Latin 1 character encoding
/starnetISO {
        dup dup findfont dup length dict begin
        { 1 index /FID ne { def }{ pop pop } ifelse
        } forall
        /Encoding EncodingVector def
        currentdict end definefont
} def
/Times-Roman starnetISO def
/Times-Italic starnetISO def
/Times-Bold starnetISO def
/Times-BoldItalic starnetISO def
/Helvetica starnetISO def
/Helvetica-Oblique starnetISO def
/Helvetica-Bold starnetISO def
/Helvetica-BoldOblique starnetISO def
/Courier starnetISO def
/Courier-Oblique starnetISO def
/Courier-Bold starnetISO def
/Courier-BoldOblique starnetISO def
cleartomark
} bind def

%%BeginResource: procset graphviz 0 0
/coord-font-family /Times-Roman def
/default-font-family /Times-Roman def
/coordfont coord-font-family findfont 8 scalefont def

/InvScaleFactor 1.0 def
/set_scale {
       dup 1 exch div /InvScaleFactor exch def
       scale
} bind def

% styles
/solid { [] 0 setdash } bind def
/dashed { [9 InvScaleFactor mul dup ] 0 setdash } bind def
/dotted { [1 InvScaleFactor mul 6 InvScaleFactor mul] 0 setdash } bind def
/invis {/fill {newpath} def /stroke {newpath} def /show {pop newpath} def} bind def
/bold { 2 setlinewidth } bind def
/filled { } bind def
/unfilled { } bind def
/rounded { } bind def
/diagonals { } bind def
/tapered { } bind def

% hooks for setting color 
/nodecolor { sethsbcolor } bind def
/edgecolor { sethsbcolor } bind def
/graphcolor { sethsbcolor } bind def
/nopcolor {pop pop pop} bind def

/beginpage {	% i j npages
	/npages exch def
	/j exch def
	/i exch def
	/str 10 string def
	npages 1 gt {
		gsave
			coordfont setfont
			0 0 moveto
			(\() show i str cvs show (,) show j str cvs show (\)) show
		grestore
	} if
} bind def

/set_font {
	findfont exch
	scalefont setfont
} def

% draw text fitted to its expected width
/alignedtext {			% width text
	/text exch def
	/width exch def
	gsave
		width 0 gt {
			[] 0 setdash
			text stringwidth pop width exch sub text length div 0 text ashow
		} if
	grestore
} def

/boxprim {				% xcorner ycorner xsize ysize
		4 2 roll
		moveto
		2 copy
		exch 0 rlineto
		0 exch rlineto
		pop neg 0 rlineto
		closepath
} bind def

/ellipse_path {
	/ry exch def
	/rx exch def
	/y exch def
	/x exch def
	matrix currentmatrix
	newpath
	x y translate
	rx ry scale
	0 0 1 0 360 arc
	setmatrix
} bind def

/endpage { showpage } bind def
/showpage { } def

/layercolorseq
	[	% layer color sequence - darkest to lightest
		[0 0 0]
		[.2 .8 .8]
		[.4 .8 .8]
		[.6 .8 .8]
		[.8 .8 .8]
	]
def

/layerlen layercolorseq length def

/setlayer {/maxlayer exch def /curlayer exch def
	layercolorseq curlayer 1 sub layerlen mod get
	aload pop sethsbcolor
	/nodecolor {nopcolor} def
	/edgecolor {nopcolor} def
	/graphcolor {nopcolor} def
} bind def

/onlayer { curlayer ne {invis} if } def

/onlayers {
	/myupper exch def
	/mylower exch def
	curlayer mylower lt
	curlayer myupper gt
	or
	{invis} if
} def

/curlayer 0 def

%%EndResource
%%EndProlog
%%BeginSetup
14 default-font-family set_font
% /arrowlength 10 def
% /arrowwidth 5 def

% make sure pdfmark is harmless for PS-interpreters other than Distiller
/pdfmark where {pop} {userdict /pdfmark /cleartomark load put} ifelse
% make '<<' and '>>' safe on PS Level 1 devices
/languagelevel where {pop languagelevel}{1} ifelse
2 lt {
    userdict (<<) cvn ([) cvn load put
    userdict (>>) cvn ([) cvn load put
} if

%%EndSetup
setupLatin1
%%Page: 1 1
%%PageBoundingBox: 36 36 405 282
%%PageOrientation: Portrait
0 0 1 beginpage
gsave
36 36 369 246 boxprim clip newpath
1 1 set_scale 0 rotate 40 40 translate
% 0
gsave
1 setlinewidth
0 0 0 nodecolor
332.2635 221.8442 16.0303 16.0303 ellipse_path stroke
0 0 0 nodecolor
14 /Times-Roman set_font
328.7635 218.1442 moveto 7 (0) alignedtext
grestore
% 1
gsave
1 setlinewidth
0 0 0 nodecolor
206.2635 153.3173 16.0303 16.0303 ellipse_path stroke
0 0 0 nodecolor
14 /Times-Roman set_font
202.7635 149.6173 moveto 7 (1) alignedtext
grestore
% 0--1
gsave
1 setlinewidth
0 0 0 edgecolor
newpath 318.2978 213.4705 moveto
294.078 200.6826 244.5549 174.5348 220.2916 161.724 curveto
stroke
grestore
% 6
gsave
1 setlinewidth
0 0 0 nodecolor
332.2635 84.7904 16.0303 16.0303 ellipse_path stroke
0 0 0 nodecolor
14 /Times-Roman set_font
328.7635 81.0904 moveto 7 (6) alignedtext
grestore
% 0--6
gsave
1 setlinewidth
0 0 0 edgecolor
newpath 332.2635 205.3518 moveto
332.2635 179.3004 332.2635 127.0317 332.2635 101.1021 curveto
stroke
grestore
% 9
gsave
1 setlinewidth
0 0 0 nodecolor
332.2635 16.2635 16.0303 16.0303 ellipse_path stroke
0 0 0 nodecolor
14 /Times-Roman set_font
328.7635 12.5635 moveto 7 (9) alignedtext
grestore
% 0--9
gsave
1 setlinewidth
0 0 0 edgecolor
newpath 338.3396 206.4446 moveto
348.9875 179.272 368.8365 118.6602 357.2635 68.5269 curveto
354.1008 54.8266 346.7548 40.5524 340.8394 30.5563 curveto
stroke
grestore
% 2
gsave
1 setlinewidth
0 0 0 nodecolor
16.2635 84.7904 16.0303 16.0303 ellipse_path stroke
0 0 0 nodecolor
14 /Times-Roman set_font
12.7635 81.0904 moveto 7 (2) alignedtext
grestore
% 1--2
gsave
1 setlinewidth
0 0 0 edgecolor
newpath 190.4577 148.656 moveto
160.6981 141.4858 94.6328 124.2463 42.2635 101.0538 curveto
37.9561 99.1463 33.4639 96.6935 29.4491 94.3145 curveto
stroke
grestore
% 3
gsave
1 setlinewidth
0 0 0 nodecolor
67.2635 84.7904 16.0303 16.0303 ellipse_path stroke
0 0 0 nodecolor
14 /Times-Roman set_font
63.7635 81.0904 moveto 7 (3) alignedtext
grestore
% 1--3
gsave
1 setlinewidth
0 0 0 edgecolor
newpath 191.4008 146.1652 moveto
169.5679 136.9962 127.687 118.9039 93.2635 101.0538 curveto
89.1744 98.9335 84.8243 96.4673 80.8758 94.1435 curveto
stroke
grestore
% 4
gsave
1 setlinewidth
0 0 0 nodecolor
118.2635 84.7904 16.0303 16.0303 ellipse_path stroke
0 0 0 nodecolor
14 /Times-Roman set_font
114.7635 81.0904 moveto 7 (4) alignedtext
grestore
% 1--4
gsave
1 setlinewidth
0 0 0 edgecolor
newpath 193.6552 142.7856 moveto
176.9264 130.1388 147.5653 107.9422 130.8483 95.3044 curveto
stroke
grestore
% 5
gsave
1 setlinewidth
0 0 0 nodecolor
206.2635 84.7904 16.0303 16.0303 ellipse_path stroke
0 0 0 nodecolor
14 /Times-Roman set_font
202.7635 81.0904 moveto 7 (5) alignedtext
grestore
% 1--5
gsave
1 setlinewidth
0 0 0 edgecolor
newpath 206.2635 136.8875 moveto
206.2635 126.1399 206.2635 111.8657 206.2635 101.1365 curveto
stroke
grestore
% 1--6
gsave
1 setlinewidth
0 0 0 edgecolor
newpath 220.2291 144.9436 moveto
244.4489 132.1557 293.972 106.0079 318.2353 93.1971 curveto
stroke
grestore
% 7
gsave
1 setlinewidth
0 0 0 nodecolor
218.2635 16.2635 16.0303 16.0303 ellipse_path stroke
0 0 0 nodecolor
14 /Times-Roman set_font
214.7635 12.5635 moveto 7 (7) alignedtext
grestore
% 1--7
gsave
1 setlinewidth
0 0 0 edgecolor
newpath 214.8394 139.0244 moveto
220.7548 129.0283 228.1008 114.7541 231.2635 101.0538 curveto
236.8262 76.9563 229.4892 48.4013 223.7877 31.6172 curveto
stroke
grestore
% 8
gsave
1 setlinewidth
0 0 0 nodecolor
149.2635 16.2635 16.0303 16.0303 ellipse_path stroke
0 0 0 nodecolor
14 /Times-Roman set_font
145.7635 12.5635 moveto 7 (8) alignedtext
grestore
% 1--8
gsave
1 setlinewidth
0 0 0 edgecolor
newpath 199.1348 138.5479 moveto
193.9388 128.3149 186.8588 113.9532 181.2635 101.0538 curveto
170.915 77.1968 160.4504 48.8086 154.4249 31.9533 curveto
stroke
grestore
% 1--9
gsave
1 setlinewidth
0 0 0 edgecolor
newpath 217.0061 140.8027 moveto
240.8111 115.2872 297.7683 54.2373 321.548 28.7489 curveto
stroke
grestore
% 4--8
gsave
1 setlinewidth
0 0 0 edgecolor
newpath 124.8378 69.6817 moveto
130.0986 58.3919 137.4403 42.6362 142.6986 31.3518 curveto
stroke
grestore
% 5--7
gsave
1 setlinewidth
0 0 0 edgecolor
newpath 208.9864 68.6944 moveto
210.9503 57.8068 213.5899 43.1735 215.5512 32.2997 curveto
stroke
grestore
% 6--9
gsave
1 setlinewidth
0 0 0 edgecolor
newpath 332.2635 68.3605 moveto
332.2635 57.613 332.2635 43.3388 332.2635 32.6096 curveto
stroke
grestore
endpage
showpage
grestore
%%PageTrailer
%%EndPage: 1
%%Trailer
end
restore
%%EOF
