%!PS-Adobe-3.0 EPSF-3.0
%%Creator: graphviz version 2.43.0 (0)
%%Title: G
%%Pages: 1
%%BoundingBox: 36 36 554 282
%%EndComments
save
%%BeginProlog
/DotDict 200 dict def
DotDict begin

/setupLatin1 {
mark
/EncodingVector 256 array def
 EncodingVector 0

ISOLatin1Encoding 0 255 getinterval putinterval
EncodingVector 45 /hyphen put

% Set up ISO Latin 1 character encoding
/starnetISO {
        dup dup findfont dup length dict begin
        { 1 index /FID ne { def }{ pop pop } ifelse
        } forall
        /Encoding EncodingVector def
        currentdict end definefont
} def
/Times-Roman starnetISO def
/Times-Italic starnetISO def
/Times-Bold starnetISO def
/Times-BoldItalic starnetISO def
/Helvetica starnetISO def
/Helvetica-Oblique starnetISO def
/Helvetica-Bold starnetISO def
/Helvetica-BoldOblique starnetISO def
/Courier starnetISO def
/Courier-Oblique starnetISO def
/Courier-Bold starnetISO def
/Courier-BoldOblique starnetISO def
cleartomark
} bind def

%%BeginResource: procset graphviz 0 0
/coord-font-family /Times-Roman def
/default-font-family /Times-Roman def
/coordfont coord-font-family findfont 8 scalefont def

/InvScaleFactor 1.0 def
/set_scale {
       dup 1 exch div /InvScaleFactor exch def
       scale
} bind def

% styles
/solid { [] 0 setdash } bind def
/dashed { [9 InvScaleFactor mul dup ] 0 setdash } bind def
/dotted { [1 InvScaleFactor mul 6 InvScaleFactor mul] 0 setdash } bind def
/invis {/fill {newpath} def /stroke {newpath} def /show {pop newpath} def} bind def
/bold { 2 setlinewidth } bind def
/filled { } bind def
/unfilled { } bind def
/rounded { } bind def
/diagonals { } bind def
/tapered { } bind def

% hooks for setting color 
/nodecolor { sethsbcolor } bind def
/edgecolor { sethsbcolor } bind def
/graphcolor { sethsbcolor } bind def
/nopcolor {pop pop pop} bind def

/beginpage {	% i j npages
	/npages exch def
	/j exch def
	/i exch def
	/str 10 string def
	npages 1 gt {
		gsave
			coordfont setfont
			0 0 moveto
			(\() show i str cvs show (,) show j str cvs show (\)) show
		grestore
	} if
} bind def

/set_font {
	findfont exch
	scalefont setfont
} def

% draw text fitted to its expected width
/alignedtext {			% width text
	/text exch def
	/width exch def
	gsave
		width 0 gt {
			[] 0 setdash
			text stringwidth pop width exch sub text length div 0 text ashow
		} if
	grestore
} def

/boxprim {				% xcorner ycorner xsize ysize
		4 2 roll
		moveto
		2 copy
		exch 0 rlineto
		0 exch rlineto
		pop neg 0 rlineto
		closepath
} bind def

/ellipse_path {
	/ry exch def
	/rx exch def
	/y exch def
	/x exch def
	matrix currentmatrix
	newpath
	x y translate
	rx ry scale
	0 0 1 0 360 arc
	setmatrix
} bind def

/endpage { showpage } bind def
/showpage { } def

/layercolorseq
	[	% layer color sequence - darkest to lightest
		[0 0 0]
		[.2 .8 .8]
		[.4 .8 .8]
		[.6 .8 .8]
		[.8 .8 .8]
	]
def

/layerlen layercolorseq length def

/setlayer {/maxlayer exch def /curlayer exch def
	layercolorseq curlayer 1 sub layerlen mod get
	aload pop sethsbcolor
	/nodecolor {nopcolor} def
	/edgecolor {nopcolor} def
	/graphcolor {nopcolor} def
} bind def

/onlayer { curlayer ne {invis} if } def

/onlayers {
	/myupper exch def
	/mylower exch def
	curlayer mylower lt
	curlayer myupper gt
	or
	{invis} if
} def

/curlayer 0 def

%%EndResource
%%EndProlog
%%BeginSetup
14 default-font-family set_font
% /arrowlength 10 def
% /arrowwidth 5 def

% make sure pdfmark is harmless for PS-interpreters other than Distiller
/pdfmark where {pop} {userdict /pdfmark /cleartomark load put} ifelse
% make '<<' and '>>' safe on PS Level 1 devices
/languagelevel where {pop languagelevel}{1} ifelse
2 lt {
    userdict (<<) cvn ([) cvn load put
    userdict (>>) cvn ([) cvn load put
} if

%%EndSetup
setupLatin1
%%Page: 1 1
%%PageBoundingBox: 36 36 554 282
%%PageOrientation: Portrait
0 0 1 beginpage
gsave
36 36 518 246 boxprim clip newpath
1 1 set_scale 0 rotate 40 40 translate
% 0
gsave
1 setlinewidth
0 0 0 nodecolor
46.1934 221.8442 29.8983 16.0303 ellipse_path stroke
0 0 0 nodecolor
14 /Times-Roman set_font
33.1934 218.1442 moveto 26 (0 - 7) alignedtext
grestore
% 1
gsave
1 setlinewidth
0 0 0 nodecolor
248.1934 16.2635 29.8983 16.0303 ellipse_path stroke
0 0 0 nodecolor
14 /Times-Roman set_font
235.1934 12.5635 moveto 26 (1 - 0) alignedtext
grestore
% 0->1
gsave
1 setlinewidth
0 0 0 edgecolor
newpath 31.722 207.112 moveto
22.7554 197.5594 12.0522 183.9922 7.1934 169.5807 curveto
-7.8153 125.0642 2.0422 98.5282 38.1934 68.5269 curveto
86.6878 28.2823 161.9169 18.7773 207.9432 17.0008 curveto
stroke
0 0 0 edgecolor
newpath 208.2427 20.4938 moveto
218.1409 16.7154 lineto
208.0468 13.4966 lineto
closepath fill
1 setlinewidth
solid
0 0 0 edgecolor
newpath 208.2427 20.4938 moveto
218.1409 16.7154 lineto
208.0468 13.4966 lineto
closepath stroke
grestore
% 6
gsave
1 setlinewidth
0 0 0 nodecolor
46.1934 153.3173 29.8983 16.0303 ellipse_path stroke
0 0 0 nodecolor
14 /Times-Roman set_font
33.1934 149.6173 moveto 26 (6 - 8) alignedtext
grestore
% 0->6
gsave
1 setlinewidth
0 0 0 edgecolor
newpath 46.1934 205.4144 moveto
46.1934 197.7735 46.1934 188.3502 46.1934 179.6855 curveto
stroke
0 0 0 edgecolor
newpath 49.6935 179.6634 moveto
46.1934 169.6634 lineto
42.6935 179.6635 lineto
closepath fill
1 setlinewidth
solid
0 0 0 edgecolor
newpath 49.6935 179.6634 moveto
46.1934 169.6634 lineto
42.6935 179.6635 lineto
closepath stroke
grestore
% 9
gsave
1 setlinewidth
0 0 0 nodecolor
94.1934 84.7904 29.8983 16.0303 ellipse_path stroke
0 0 0 nodecolor
14 /Times-Roman set_font
81.1934 81.0904 moveto 26 (9 - 9) alignedtext
grestore
% 0->9
gsave
1 setlinewidth
0 0 0 edgecolor
newpath 59.7765 207.3495 moveto
68.601 197.6959 79.4882 183.9195 85.1934 169.5807 curveto
92.5588 151.0694 94.635 128.5436 94.965 111.5116 curveto
stroke
0 0 0 edgecolor
newpath 98.465 111.2109 moveto
94.9677 101.2099 lineto
91.465 111.209 lineto
closepath fill
1 setlinewidth
solid
0 0 0 edgecolor
newpath 98.465 111.2109 moveto
94.9677 101.2099 lineto
91.465 111.209 lineto
closepath stroke
grestore
% 2
gsave
1 setlinewidth
0 0 0 nodecolor
171.1934 84.7904 29.8983 16.0303 ellipse_path stroke
0 0 0 nodecolor
14 /Times-Roman set_font
158.1934 81.0904 moveto 26 (2 - 1) alignedtext
grestore
% 2->1
gsave
1 setlinewidth
0 0 0 edgecolor
newpath 186.4061 70.6468 moveto
197.4797 61.0794 212.6702 47.955 225.2181 37.1138 curveto
stroke
0 0 0 edgecolor
newpath 227.7336 39.5659 moveto
233.0123 30.3797 lineto
223.1571 34.269 lineto
closepath fill
1 setlinewidth
solid
0 0 0 edgecolor
newpath 227.7336 39.5659 moveto
233.0123 30.3797 lineto
223.1571 34.269 lineto
closepath stroke
grestore
% 3
gsave
1 setlinewidth
0 0 0 nodecolor
248.1934 84.7904 29.8983 16.0303 ellipse_path stroke
0 0 0 nodecolor
14 /Times-Roman set_font
235.1934 81.0904 moveto 26 (3 - 2) alignedtext
grestore
% 3->1
gsave
1 setlinewidth
0 0 0 edgecolor
newpath 248.1934 68.3605 moveto
248.1934 60.7197 248.1934 51.2964 248.1934 42.6317 curveto
stroke
0 0 0 edgecolor
newpath 251.6935 42.6096 moveto
248.1934 32.6096 lineto
244.6935 42.6096 lineto
closepath fill
1 setlinewidth
solid
0 0 0 edgecolor
newpath 251.6935 42.6096 moveto
248.1934 32.6096 lineto
244.6935 42.6096 lineto
closepath stroke
grestore
% 4
gsave
1 setlinewidth
0 0 0 nodecolor
325.1934 153.3173 29.8983 16.0303 ellipse_path stroke
0 0 0 nodecolor
14 /Times-Roman set_font
312.1934 149.6173 moveto 26 (4 - 3) alignedtext
grestore
% 4->1
gsave
1 setlinewidth
0 0 0 edgecolor
newpath 319.5651 137.2825 moveto
312.8695 120.1108 300.8637 91.4327 287.1934 68.5269 curveto
281.2002 58.4847 273.5952 48.0924 266.6955 39.3118 curveto
stroke
0 0 0 edgecolor
newpath 269.3673 37.0491 moveto
260.3721 31.4512 lineto
263.9131 41.4368 lineto
closepath fill
1 setlinewidth
solid
0 0 0 edgecolor
newpath 269.3673 37.0491 moveto
260.3721 31.4512 lineto
263.9131 41.4368 lineto
closepath stroke
grestore
% 8
gsave
1 setlinewidth
0 0 0 nodecolor
364.1934 84.7904 29.8983 16.0303 ellipse_path stroke
0 0 0 nodecolor
14 /Times-Roman set_font
351.1934 81.0904 moveto 26 (8 - 6) alignedtext
grestore
% 4->8
gsave
1 setlinewidth
0 0 0 edgecolor
newpath 333.8488 137.5528 moveto
338.696 129.2843 344.8541 118.7798 350.3543 109.3974 curveto
stroke
0 0 0 edgecolor
newpath 353.5243 110.9106 moveto
355.5623 100.5136 lineto
347.4855 107.3704 lineto
closepath fill
1 setlinewidth
solid
0 0 0 edgecolor
newpath 353.5243 110.9106 moveto
355.5623 100.5136 lineto
347.4855 107.3704 lineto
closepath stroke
grestore
% 5
gsave
1 setlinewidth
0 0 0 nodecolor
451.1934 153.3173 29.8983 16.0303 ellipse_path stroke
0 0 0 nodecolor
14 /Times-Roman set_font
438.1934 149.6173 moveto 26 (5 - 4) alignedtext
grestore
% 5->1
gsave
1 setlinewidth
0 0 0 edgecolor
newpath 446.2938 137.0659 moveto
439.516 118.3233 425.5243 86.7701 403.1934 68.5269 curveto
369.576 41.0632 320.7049 28.1124 286.8641 22.1392 curveto
stroke
0 0 0 edgecolor
newpath 287.3125 18.666 moveto
276.8778 20.5011 lineto
286.1794 25.5737 lineto
closepath fill
1 setlinewidth
solid
0 0 0 edgecolor
newpath 287.3125 18.666 moveto
276.8778 20.5011 lineto
286.1794 25.5737 lineto
closepath stroke
grestore
% 7
gsave
1 setlinewidth
0 0 0 nodecolor
480.1934 84.7904 29.8983 16.0303 ellipse_path stroke
0 0 0 nodecolor
14 /Times-Roman set_font
467.1934 81.0904 moveto 26 (7 - 5) alignedtext
grestore
% 5->7
gsave
1 setlinewidth
0 0 0 edgecolor
newpath 457.774 137.2213 moveto
461.2593 129.2258 465.6253 119.2101 469.5761 110.1468 curveto
stroke
0 0 0 edgecolor
newpath 472.8513 111.3921 moveto
473.6389 100.8266 lineto
466.4345 108.5949 lineto
closepath fill
1 setlinewidth
solid
0 0 0 edgecolor
newpath 472.8513 111.3921 moveto
473.6389 100.8266 lineto
466.4345 108.5949 lineto
closepath stroke
grestore
% 6->1
gsave
1 setlinewidth
0 0 0 edgecolor
newpath 43.1233 137.0191 moveto
40.3599 118.5218 38.9029 87.5147 55.1934 68.5269 curveto
75.0984 45.3262 159.166 29.7634 209.5511 22.3251 curveto
stroke
0 0 0 edgecolor
newpath 210.052 25.7892 moveto
219.4531 20.9036 lineto
209.0572 18.8602 lineto
closepath fill
1 setlinewidth
solid
0 0 0 edgecolor
newpath 210.052 25.7892 moveto
219.4531 20.9036 lineto
209.0572 18.8602 lineto
closepath stroke
grestore
% 6->9
gsave
1 setlinewidth
0 0 0 edgecolor
newpath 56.6087 137.8819 moveto
62.8358 129.2513 70.8822 118.0992 77.9313 108.3293 curveto
stroke
0 0 0 edgecolor
newpath 80.7856 110.355 moveto
83.7985 100.1975 lineto
75.109 106.2592 lineto
closepath fill
1 setlinewidth
solid
0 0 0 edgecolor
newpath 80.7856 110.355 moveto
83.7985 100.1975 lineto
75.109 106.2592 lineto
closepath stroke
grestore
% 7->1
gsave
1 setlinewidth
0 0 0 edgecolor
newpath 456.0833 75.0971 moveto
449.6494 72.8678 442.6818 70.5344 436.1934 68.5269 curveto
383.9049 52.3489 322.6188 36.1444 284.5925 26.4086 curveto
stroke
0 0 0 edgecolor
newpath 285.0654 22.9173 moveto
274.5107 23.8395 lineto
283.3368 29.7005 lineto
closepath fill
1 setlinewidth
solid
0 0 0 edgecolor
newpath 285.0654 22.9173 moveto
274.5107 23.8395 lineto
283.3368 29.7005 lineto
closepath stroke
grestore
% 8->1
gsave
1 setlinewidth
0 0 0 edgecolor
newpath 344.5156 72.505 moveto
325.9343 61.8485 297.8549 45.7447 276.8 33.6696 curveto
stroke
0 0 0 edgecolor
newpath 278.3837 30.5431 moveto
267.9678 28.6042 lineto
274.9012 36.6154 lineto
closepath fill
1 setlinewidth
solid
0 0 0 edgecolor
newpath 278.3837 30.5431 moveto
267.9678 28.6042 lineto
274.9012 36.6154 lineto
closepath stroke
grestore
% 9->1
gsave
1 setlinewidth
0 0 0 edgecolor
newpath 116.9167 73.9741 moveto
143.1509 62.6411 186.4879 43.9198 216.1407 31.11 curveto
stroke
0 0 0 edgecolor
newpath 217.8358 34.1904 moveto
225.6278 27.0116 lineto
215.0598 27.7644 lineto
closepath fill
1 setlinewidth
solid
0 0 0 edgecolor
newpath 217.8358 34.1904 moveto
225.6278 27.0116 lineto
215.0598 27.7644 lineto
closepath stroke
grestore
endpage
showpage
grestore
%%PageTrailer
%%EndPage: 1
%%Trailer
end
restore
%%EOF
