%!PS-Adobe-3.0 EPSF-3.0
%%Creator: graphviz version 2.43.0 (0)
%%Title: G
%%Pages: 1
%%BoundingBox: 36 36 214 217
%%EndComments
save
%%BeginProlog
/DotDict 200 dict def
DotDict begin

/setupLatin1 {
mark
/EncodingVector 256 array def
 EncodingVector 0

ISOLatin1Encoding 0 255 getinterval putinterval
EncodingVector 45 /hyphen put

% Set up ISO Latin 1 character encoding
/starnetISO {
        dup dup findfont dup length dict begin
        { 1 index /FID ne { def }{ pop pop } ifelse
        } forall
        /Encoding EncodingVector def
        currentdict end definefont
} def
/Times-Roman starnetISO def
/Times-Italic starnetISO def
/Times-Bold starnetISO def
/Times-BoldItalic starnetISO def
/Helvetica starnetISO def
/Helvetica-Oblique starnetISO def
/Helvetica-Bold starnetISO def
/Helvetica-BoldOblique starnetISO def
/Courier starnetISO def
/Courier-Oblique starnetISO def
/Courier-Bold starnetISO def
/Courier-BoldOblique starnetISO def
cleartomark
} bind def

%%BeginResource: procset graphviz 0 0
/coord-font-family /Times-Roman def
/default-font-family /Times-Roman def
/coordfont coord-font-family findfont 8 scalefont def

/InvScaleFactor 1.0 def
/set_scale {
       dup 1 exch div /InvScaleFactor exch def
       scale
} bind def

% styles
/solid { [] 0 setdash } bind def
/dashed { [9 InvScaleFactor mul dup ] 0 setdash } bind def
/dotted { [1 InvScaleFactor mul 6 InvScaleFactor mul] 0 setdash } bind def
/invis {/fill {newpath} def /stroke {newpath} def /show {pop newpath} def} bind def
/bold { 2 setlinewidth } bind def
/filled { } bind def
/unfilled { } bind def
/rounded { } bind def
/diagonals { } bind def
/tapered { } bind def

% hooks for setting color 
/nodecolor { sethsbcolor } bind def
/edgecolor { sethsbcolor } bind def
/graphcolor { sethsbcolor } bind def
/nopcolor {pop pop pop} bind def

/beginpage {	% i j npages
	/npages exch def
	/j exch def
	/i exch def
	/str 10 string def
	npages 1 gt {
		gsave
			coordfont setfont
			0 0 moveto
			(\() show i str cvs show (,) show j str cvs show (\)) show
		grestore
	} if
} bind def

/set_font {
	findfont exch
	scalefont setfont
} def

% draw text fitted to its expected width
/alignedtext {			% width text
	/text exch def
	/width exch def
	gsave
		width 0 gt {
			[] 0 setdash
			text stringwidth pop width exch sub text length div 0 text ashow
		} if
	grestore
} def

/boxprim {				% xcorner ycorner xsize ysize
		4 2 roll
		moveto
		2 copy
		exch 0 rlineto
		0 exch rlineto
		pop neg 0 rlineto
		closepath
} bind def

/ellipse_path {
	/ry exch def
	/rx exch def
	/y exch def
	/x exch def
	matrix currentmatrix
	newpath
	x y translate
	rx ry scale
	0 0 1 0 360 arc
	setmatrix
} bind def

/endpage { showpage } bind def
/showpage { } def

/layercolorseq
	[	% layer color sequence - darkest to lightest
		[0 0 0]
		[.2 .8 .8]
		[.4 .8 .8]
		[.6 .8 .8]
		[.8 .8 .8]
	]
def

/layerlen layercolorseq length def

/setlayer {/maxlayer exch def /curlayer exch def
	layercolorseq curlayer 1 sub layerlen mod get
	aload pop sethsbcolor
	/nodecolor {nopcolor} def
	/edgecolor {nopcolor} def
	/graphcolor {nopcolor} def
} bind def

/onlayer { curlayer ne {invis} if } def

/onlayers {
	/myupper exch def
	/mylower exch def
	curlayer mylower lt
	curlayer myupper gt
	or
	{invis} if
} def

/curlayer 0 def

%%EndResource
%%EndProlog
%%BeginSetup
14 default-font-family set_font
% /arrowlength 10 def
% /arrowwidth 5 def

% make sure pdfmark is harmless for PS-interpreters other than Distiller
/pdfmark where {pop} {userdict /pdfmark /cleartomark load put} ifelse
% make '<<' and '>>' safe on PS Level 1 devices
/languagelevel where {pop languagelevel}{1} ifelse
2 lt {
    userdict (<<) cvn ([) cvn load put
    userdict (>>) cvn ([) cvn load put
} if

%%EndSetup
setupLatin1
%%Page: 1 1
%%PageBoundingBox: 36 36 214 217
%%PageOrientation: Portrait
0 0 1 beginpage
gsave
36 36 178 181 boxprim clip newpath
1 1 set_scale 0 rotate 40 40 translate
% 0
gsave
0 0 0 nodecolor
76.9516 86.1381 1.8 1.8 ellipse_path fill
1 setlinewidth
filled
0 0 0 nodecolor
76.9516 86.1381 1.8 1.8 ellipse_path stroke
grestore
% 1
gsave
0 0 0 nodecolor
53.7715 85.3708 1.8 1.8 ellipse_path fill
1 setlinewidth
filled
0 0 0 nodecolor
53.7715 85.3708 1.8 1.8 ellipse_path stroke
grestore
% 0--1
gsave
1 setlinewidth
0 0 0 edgecolor
newpath 75.1327 86.0779 moveto
70.8636 85.9366 60.2271 85.5845 55.778 85.4372 curveto
stroke
grestore
% 2
gsave
0 0 0 nodecolor
122.2397 81.9095 1.8 1.8 ellipse_path fill
1 setlinewidth
filled
0 0 0 nodecolor
122.2397 81.9095 1.8 1.8 ellipse_path stroke
grestore
% 0--2
gsave
1 setlinewidth
0 0 0 edgecolor
newpath 78.8976 85.9564 moveto
86.347 85.2608 113.002 82.772 120.3514 82.0858 curveto
stroke
grestore
% 3
gsave
0 0 0 nodecolor
49.2561 47.1797 1.8 1.8 ellipse_path fill
1 setlinewidth
filled
0 0 0 nodecolor
49.2561 47.1797 1.8 1.8 ellipse_path stroke
grestore
% 0--3
gsave
1 setlinewidth
0 0 0 edgecolor
newpath 75.7616 84.4641 moveto
71.2059 78.0559 54.9053 55.1263 50.4109 48.8041 curveto
stroke
grestore
% 4
gsave
0 0 0 nodecolor
112.6439 96.1258 1.8 1.8 ellipse_path fill
1 setlinewidth
filled
0 0 0 nodecolor
112.6439 96.1258 1.8 1.8 ellipse_path stroke
grestore
% 0--4
gsave
1 setlinewidth
0 0 0 edgecolor
newpath 78.8706 86.6751 moveto
85.1259 88.4255 104.8691 93.9502 110.8861 95.6339 curveto
stroke
grestore
% 5
gsave
0 0 0 nodecolor
42.2821 71.127 1.8 1.8 ellipse_path fill
1 setlinewidth
filled
0 0 0 nodecolor
42.2821 71.127 1.8 1.8 ellipse_path stroke
grestore
% 0--5
gsave
1 setlinewidth
0 0 0 edgecolor
newpath 75.0876 85.331 moveto
69.0116 82.7003 49.8342 74.3969 43.9896 71.8663 curveto
stroke
grestore
% 6
gsave
0 0 0 nodecolor
95.4168 73.142 1.8 1.8 ellipse_path fill
1 setlinewidth
filled
0 0 0 nodecolor
95.4168 73.142 1.8 1.8 ellipse_path stroke
grestore
% 0--6
gsave
1 setlinewidth
0 0 0 edgecolor
newpath 78.6557 84.9388 moveto
82.2269 82.4252 90.4483 76.6389 93.8742 74.2276 curveto
stroke
grestore
% 7
gsave
0 0 0 nodecolor
67.0547 66.0458 1.8 1.8 ellipse_path fill
1 setlinewidth
filled
0 0 0 nodecolor
67.0547 66.0458 1.8 1.8 ellipse_path stroke
grestore
% 0--7
gsave
1 setlinewidth
0 0 0 edgecolor
newpath 76.0383 84.2839 moveto
74.1242 80.3979 69.7177 71.4522 67.8815 67.7243 curveto
stroke
grestore
% 8
gsave
0 0 0 nodecolor
44.2042 115.3044 1.8 1.8 ellipse_path fill
1 setlinewidth
filled
0 0 0 nodecolor
44.2042 115.3044 1.8 1.8 ellipse_path stroke
grestore
% 0--8
gsave
1 setlinewidth
0 0 0 edgecolor
newpath 75.5445 87.3913 moveto
70.1579 92.1889 50.8839 109.3552 45.5696 114.0883 curveto
stroke
grestore
% 9
gsave
0 0 0 nodecolor
124.5931 112.67 1.8 1.8 ellipse_path fill
1 setlinewidth
filled
0 0 0 nodecolor
124.5931 112.67 1.8 1.8 ellipse_path stroke
grestore
% 0--9
gsave
1 setlinewidth
0 0 0 edgecolor
newpath 78.5367 87.0209 moveto
85.7699 91.0491 115.6069 107.6656 122.9531 111.7568 curveto
stroke
grestore
% 10
gsave
0 0 0 nodecolor
88.5635 84.7452 1.8 1.8 ellipse_path fill
1 setlinewidth
filled
0 0 0 nodecolor
88.5635 84.7452 1.8 1.8 ellipse_path stroke
grestore
% 0--10
gsave
1 setlinewidth
0 0 0 edgecolor
newpath 78.766 85.9205 moveto
80.9092 85.6634 84.4589 85.2376 86.6461 84.9752 curveto
stroke
grestore
% 11
gsave
0 0 0 nodecolor
29.917 57.9736 1.8 1.8 ellipse_path fill
1 setlinewidth
filled
0 0 0 nodecolor
29.917 57.9736 1.8 1.8 ellipse_path stroke
grestore
% 0--11
gsave
1 setlinewidth
0 0 0 edgecolor
newpath 75.3867 85.201 moveto
68.2456 80.9249 38.7887 63.286 31.5361 58.9431 curveto
stroke
grestore
% 12
gsave
0 0 0 nodecolor
89.7805 128.6884 1.8 1.8 ellipse_path fill
1 setlinewidth
filled
0 0 0 nodecolor
89.7805 128.6884 1.8 1.8 ellipse_path stroke
grestore
% 0--12
gsave
1 setlinewidth
0 0 0 edgecolor
newpath 77.5028 87.9664 moveto
79.6131 94.9655 87.1637 120.0091 89.2456 126.9142 curveto
stroke
grestore
% 14
gsave
0 0 0 nodecolor
85.5368 41.8697 1.8 1.8 ellipse_path fill
1 setlinewidth
filled
0 0 0 nodecolor
85.5368 41.8697 1.8 1.8 ellipse_path stroke
grestore
% 0--14
gsave
1 setlinewidth
0 0 0 edgecolor
newpath 77.3205 84.236 moveto
78.7327 76.9543 83.7856 50.8995 85.1788 43.7155 curveto
stroke
grestore
% 15
gsave
0 0 0 nodecolor
32.5146 94.3428 1.8 1.8 ellipse_path fill
1 setlinewidth
filled
0 0 0 nodecolor
32.5146 94.3428 1.8 1.8 ellipse_path stroke
grestore
% 0--15
gsave
1 setlinewidth
0 0 0 edgecolor
newpath 75.0422 86.4907 moveto
67.7328 87.8402 41.5787 92.6692 34.3674 94.0007 curveto
stroke
grestore
% 16
gsave
0 0 0 nodecolor
135.3984 73.9814 1.8 1.8 ellipse_path fill
1 setlinewidth
filled
0 0 0 nodecolor
135.3984 73.9814 1.8 1.8 ellipse_path stroke
grestore
% 0--16
gsave
1 setlinewidth
0 0 0 edgecolor
newpath 78.8962 85.7336 moveto
87.77 83.8879 124.3742 76.2744 133.3866 74.3999 curveto
stroke
grestore
% 17
gsave
0 0 0 nodecolor
50.4603 35.5755 1.8 1.8 ellipse_path fill
1 setlinewidth
filled
0 0 0 nodecolor
50.4603 35.5755 1.8 1.8 ellipse_path stroke
grestore
% 0--17
gsave
1 setlinewidth
0 0 0 edgecolor
newpath 76.0702 84.4558 moveto
72.0481 76.7791 55.4571 45.1126 51.3722 37.316 curveto
stroke
grestore
% 18
gsave
0 0 0 nodecolor
112.9875 119.3447 1.8 1.8 ellipse_path fill
1 setlinewidth
filled
0 0 0 nodecolor
112.9875 119.3447 1.8 1.8 ellipse_path stroke
grestore
% 0--18
gsave
1 setlinewidth
0 0 0 edgecolor
newpath 78.5 87.565 moveto
84.4276 93.0271 105.637 112.5713 111.4849 117.9601 curveto
stroke
grestore
% 19
gsave
0 0 0 nodecolor
100.9216 84.7597 1.8 1.8 ellipse_path fill
1 setlinewidth
filled
0 0 0 nodecolor
100.9216 84.7597 1.8 1.8 ellipse_path stroke
grestore
% 0--19
gsave
1 setlinewidth
0 0 0 edgecolor
newpath 78.8325 86.0299 moveto
83.3354 85.771 94.6886 85.1181 99.115 84.8635 curveto
stroke
grestore
% 20
gsave
0 0 0 nodecolor
65.3365 97.6912 1.8 1.8 ellipse_path fill
1 setlinewidth
filled
0 0 0 nodecolor
65.3365 97.6912 1.8 1.8 ellipse_path stroke
grestore
% 0--20
gsave
1 setlinewidth
0 0 0 edgecolor
newpath 75.5274 87.5548 moveto
73.2981 89.7721 69.0088 94.0385 66.7724 96.263 curveto
stroke
grestore
% 23
gsave
0 0 0 nodecolor
123.7994 62.375 1.8 1.8 ellipse_path fill
1 setlinewidth
filled
0 0 0 nodecolor
123.7994 62.375 1.8 1.8 ellipse_path stroke
grestore
% 0--23
gsave
1 setlinewidth
0 0 0 edgecolor
newpath 78.9646 85.117 moveto
86.6706 81.2083 114.2435 67.2221 121.846 63.3659 curveto
stroke
grestore
% 24
gsave
0 0 0 nodecolor
72.0817 126.6976 1.8 1.8 ellipse_path fill
1 setlinewidth
filled
0 0 0 nodecolor
72.0817 126.6976 1.8 1.8 ellipse_path stroke
grestore
% 0--24
gsave
1 setlinewidth
0 0 0 edgecolor
newpath 76.6898 88.3188 moveto
75.8363 95.427 73.1425 117.8625 72.3216 124.7001 curveto
stroke
grestore
% 26
gsave
0 0 0 nodecolor
90.906 140.2994 1.8 1.8 ellipse_path fill
1 setlinewidth
filled
0 0 0 nodecolor
90.906 140.2994 1.8 1.8 ellipse_path stroke
grestore
% 0--26
gsave
1 setlinewidth
0 0 0 edgecolor
newpath 77.4159 87.9402 moveto
79.5345 96.1632 88.2739 130.0835 90.4257 138.435 curveto
stroke
grestore
% 27
gsave
0 0 0 nodecolor
89.6905 109.9121 1.8 1.8 ellipse_path fill
1 setlinewidth
filled
0 0 0 nodecolor
89.6905 109.9121 1.8 1.8 ellipse_path stroke
grestore
% 0--27
gsave
1 setlinewidth
0 0 0 edgecolor
newpath 77.9512 88.0036 moveto
80.3443 92.4697 86.378 103.7301 88.7304 108.1203 curveto
stroke
grestore
% 28
gsave
0 0 0 nodecolor
61.2359 48.3208 1.8 1.8 ellipse_path fill
1 setlinewidth
filled
0 0 0 nodecolor
61.2359 48.3208 1.8 1.8 ellipse_path stroke
grestore
% 0--28
gsave
1 setlinewidth
0 0 0 edgecolor
newpath 76.1067 84.1049 moveto
73.3524 77.4772 64.6593 56.5585 62.0099 50.1832 curveto
stroke
grestore
% 29
gsave
0 0 0 nodecolor
60.0085 128.4931 1.8 1.8 ellipse_path fill
1 setlinewidth
filled
0 0 0 nodecolor
60.0085 128.4931 1.8 1.8 ellipse_path stroke
grestore
% 0--29
gsave
1 setlinewidth
0 0 0 edgecolor
newpath 76.2236 87.9581 moveto
73.4366 94.925 63.4645 119.8537 60.7149 126.7271 curveto
stroke
grestore
% 30
gsave
0 0 0 nodecolor
115.7283 131.369 1.8 1.8 ellipse_path fill
1 setlinewidth
filled
0 0 0 nodecolor
115.7283 131.369 1.8 1.8 ellipse_path stroke
grestore
% 0--30
gsave
1 setlinewidth
0 0 0 edgecolor
newpath 78.2418 87.643 moveto
84.1291 94.5102 108.4142 122.8376 114.3935 129.8121 curveto
stroke
grestore
% 31
gsave
0 0 0 nodecolor
41.5229 58.7886 1.8 1.8 ellipse_path fill
1 setlinewidth
filled
0 0 0 nodecolor
41.5229 58.7886 1.8 1.8 ellipse_path stroke
grestore
% 0--31
gsave
1 setlinewidth
0 0 0 edgecolor
newpath 75.4293 84.9629 moveto
69.6016 80.4642 48.7495 64.3672 43.0001 59.9289 curveto
stroke
grestore
% 32
gsave
0 0 0 nodecolor
36.797 129.1576 1.8 1.8 ellipse_path fill
1 setlinewidth
filled
0 0 0 nodecolor
36.797 129.1576 1.8 1.8 ellipse_path stroke
grestore
% 0--32
gsave
1 setlinewidth
0 0 0 edgecolor
newpath 75.6156 87.5694 moveto
69.5191 94.1009 44.371 121.0433 38.1792 127.6768 curveto
stroke
grestore
% 33
gsave
0 0 0 nodecolor
90.0594 98.3049 1.8 1.8 ellipse_path fill
1 setlinewidth
filled
0 0 0 nodecolor
90.0594 98.3049 1.8 1.8 ellipse_path stroke
grestore
% 0--33
gsave
1 setlinewidth
0 0 0 edgecolor
newpath 78.5589 87.63 moveto
81.0746 89.9651 85.9152 94.4582 88.439 96.8008 curveto
stroke
grestore
% 34
gsave
0 0 0 nodecolor
106.52 107.7278 1.8 1.8 ellipse_path fill
1 setlinewidth
filled
0 0 0 nodecolor
106.52 107.7278 1.8 1.8 ellipse_path stroke
grestore
% 0--34
gsave
1 setlinewidth
0 0 0 edgecolor
newpath 78.5413 87.2989 moveto
83.7233 91.0826 100.0791 103.0249 105.0637 106.6645 curveto
stroke
grestore
% 35
gsave
0 0 0 nodecolor
79.2407 66.9026 1.8 1.8 ellipse_path fill
1 setlinewidth
filled
0 0 0 nodecolor
79.2407 66.9026 1.8 1.8 ellipse_path stroke
grestore
% 0--35
gsave
1 setlinewidth
0 0 0 edgecolor
newpath 77.1966 84.0796 moveto
77.6395 80.3579 78.5679 72.5567 79.0044 68.8887 curveto
stroke
grestore
% 36
gsave
0 0 0 nodecolor
21.131 81.1843 1.8 1.8 ellipse_path fill
1 setlinewidth
filled
0 0 0 nodecolor
21.131 81.1843 1.8 1.8 ellipse_path stroke
grestore
% 0--36
gsave
1 setlinewidth
0 0 0 edgecolor
newpath 75.0944 85.9733 moveto
66.6193 85.2212 31.6599 82.1187 23.0525 81.3548 curveto
stroke
grestore
% 38
gsave
0 0 0 nodecolor
55.0487 153.0038 1.8 1.8 ellipse_path fill
1 setlinewidth
filled
0 0 0 nodecolor
55.0487 153.0038 1.8 1.8 ellipse_path stroke
grestore
% 0--38
gsave
1 setlinewidth
0 0 0 edgecolor
newpath 76.3197 88.0672 moveto
73.1213 97.8314 58.7476 141.7117 55.6416 151.1937 curveto
stroke
grestore
% 39
gsave
0 0 0 nodecolor
128.4839 127.6486 1.8 1.8 ellipse_path fill
1 setlinewidth
filled
0 0 0 nodecolor
128.4839 127.6486 1.8 1.8 ellipse_path stroke
grestore
% 0--39
gsave
1 setlinewidth
0 0 0 edgecolor
newpath 78.6662 87.5192 moveto
86.4901 93.8216 118.7638 119.8189 126.71 126.2197 curveto
stroke
grestore
% 40
gsave
0 0 0 nodecolor
67.6904 140.1033 1.8 1.8 ellipse_path fill
1 setlinewidth
filled
0 0 0 nodecolor
67.6904 140.1033 1.8 1.8 ellipse_path stroke
grestore
% 0--40
gsave
1 setlinewidth
0 0 0 edgecolor
newpath 76.6435 87.9336 moveto
75.2374 96.1269 69.4372 129.9244 68.0091 138.2457 curveto
stroke
grestore
% 44
gsave
0 0 0 nodecolor
73.8996 46.9964 1.8 1.8 ellipse_path fill
1 setlinewidth
filled
0 0 0 nodecolor
73.8996 46.9964 1.8 1.8 ellipse_path stroke
grestore
% 0--44
gsave
1 setlinewidth
0 0 0 edgecolor
newpath 76.7875 84.0337 moveto
76.2526 77.1739 74.5644 55.5226 74.0499 48.9241 curveto
stroke
grestore
% 48
gsave
0 0 0 nodecolor
118.9187 50.7688 1.8 1.8 ellipse_path fill
1 setlinewidth
filled
0 0 0 nodecolor
118.9187 50.7688 1.8 1.8 ellipse_path stroke
grestore
% 0--48
gsave
1 setlinewidth
0 0 0 edgecolor
newpath 78.3479 84.9613 moveto
84.7196 79.5913 111.0029 57.4402 117.4741 51.9863 curveto
stroke
grestore
% 49
gsave
0 0 0 nodecolor
124.4248 93.5181 1.8 1.8 ellipse_path fill
1 setlinewidth
filled
0 0 0 nodecolor
124.4248 93.5181 1.8 1.8 ellipse_path stroke
grestore
% 0--49
gsave
1 setlinewidth
0 0 0 edgecolor
newpath 78.9915 86.4552 moveto
86.8003 87.6692 114.7414 92.0128 122.4454 93.2104 curveto
stroke
grestore
% 50
gsave
0 0 0 nodecolor
78.0529 113.0156 1.8 1.8 ellipse_path fill
1 setlinewidth
filled
0 0 0 nodecolor
78.0529 113.0156 1.8 1.8 ellipse_path stroke
grestore
% 0--50
gsave
1 setlinewidth
0 0 0 edgecolor
newpath 77.038 88.2471 moveto
77.2449 93.2962 77.7665 106.0265 77.9699 110.9899 curveto
stroke
grestore
% 53
gsave
0 0 0 nodecolor
39.9816 82.7382 1.8 1.8 ellipse_path fill
1 setlinewidth
filled
0 0 0 nodecolor
39.9816 82.7382 1.8 1.8 ellipse_path stroke
grestore
% 0--53
gsave
1 setlinewidth
0 0 0 edgecolor
newpath 74.9639 85.9553 moveto
68.4847 85.3595 48.0348 83.4788 41.8024 82.9056 curveto
stroke
grestore
% 54
gsave
0 0 0 nodecolor
147.01 74.8177 1.8 1.8 ellipse_path fill
1 setlinewidth
filled
0 0 0 nodecolor
147.01 74.8177 1.8 1.8 ellipse_path stroke
grestore
% 0--54
gsave
1 setlinewidth
0 0 0 edgecolor
newpath 78.9728 85.8115 moveto
89.2032 84.1584 135.1787 76.7295 145.1135 75.1242 curveto
stroke
grestore
% 55
gsave
0 0 0 nodecolor
97.0619 30.2671 1.8 1.8 ellipse_path fill
1 setlinewidth
filled
0 0 0 nodecolor
97.0619 30.2671 1.8 1.8 ellipse_path stroke
grestore
% 0--55
gsave
1 setlinewidth
0 0 0 edgecolor
newpath 77.6207 84.2792 moveto
80.674 75.7965 93.2687 40.8055 96.3696 32.1903 curveto
stroke
grestore
% 58
gsave
0 0 0 nodecolor
90.855 61.5396 1.8 1.8 ellipse_path fill
1 setlinewidth
filled
0 0 0 nodecolor
90.855 61.5396 1.8 1.8 ellipse_path stroke
grestore
% 0--58
gsave
1 setlinewidth
0 0 0 edgecolor
newpath 77.8638 84.5241 moveto
80.377 80.0777 87.3825 67.6834 89.9211 63.1918 curveto
stroke
grestore
% 60
gsave
0 0 0 nodecolor
92.8711 153.546 1.8 1.8 ellipse_path fill
1 setlinewidth
filled
0 0 0 nodecolor
92.8711 153.546 1.8 1.8 ellipse_path stroke
grestore
% 0--60
gsave
1 setlinewidth
0 0 0 edgecolor
newpath 77.4109 88.0828 moveto
79.7356 97.9262 90.1826 142.1623 92.4401 151.7212 curveto
stroke
grestore
% 61
gsave
0 0 0 nodecolor
44.8954 102.6935 1.8 1.8 ellipse_path fill
1 setlinewidth
filled
0 0 0 nodecolor
44.8954 102.6935 1.8 1.8 ellipse_path stroke
grestore
% 0--61
gsave
1 setlinewidth
0 0 0 edgecolor
newpath 75.2281 87.0282 moveto
69.7141 89.8759 52.5308 98.7502 46.7869 101.7166 curveto
stroke
grestore
% 64
gsave
0 0 0 nodecolor
62.2544 36.7124 1.8 1.8 ellipse_path fill
1 setlinewidth
filled
0 0 0 nodecolor
62.2544 36.7124 1.8 1.8 ellipse_path stroke
grestore
% 0--64
gsave
1 setlinewidth
0 0 0 edgecolor
newpath 76.3201 84.0143 moveto
73.9025 75.8843 65.2523 46.7941 62.8672 38.7732 curveto
stroke
grestore
% 66
gsave
0 0 0 nodecolor
136.8613 98.765 1.8 1.8 ellipse_path fill
1 setlinewidth
filled
0 0 0 nodecolor
136.8613 98.765 1.8 1.8 ellipse_path stroke
grestore
% 0--66
gsave
1 setlinewidth
0 0 0 edgecolor
newpath 78.9449 86.5582 moveto
88.0408 88.4753 125.5611 96.3833 134.7991 98.3303 curveto
stroke
grestore
% 73
gsave
0 0 0 nodecolor
85.4594 21.649 1.8 1.8 ellipse_path fill
1 setlinewidth
filled
0 0 0 nodecolor
85.4594 21.649 1.8 1.8 ellipse_path stroke
grestore
% 0--73
gsave
1 setlinewidth
0 0 0 edgecolor
newpath 77.1971 84.2776 moveto
78.4176 75.0257 83.8281 34.0146 85.1616 23.9064 curveto
stroke
grestore
% 74
gsave
0 0 0 nodecolor
48.4025 140.0348 1.8 1.8 ellipse_path fill
1 setlinewidth
filled
0 0 0 nodecolor
48.4025 140.0348 1.8 1.8 ellipse_path stroke
grestore
% 0--74
gsave
1 setlinewidth
0 0 0 edgecolor
newpath 76.0017 87.9313 moveto
71.6672 96.1143 53.7874 129.8688 49.3852 138.1795 curveto
stroke
grestore
% 78
gsave
0 0 0 nodecolor
66.4159 109.9475 1.8 1.8 ellipse_path fill
1 setlinewidth
filled
0 0 0 nodecolor
66.4159 109.9475 1.8 1.8 ellipse_path stroke
grestore
% 0--78
gsave
1 setlinewidth
0 0 0 edgecolor
newpath 76.1249 88.0064 moveto
74.1457 92.4791 69.1555 103.7563 67.21 108.1531 curveto
stroke
grestore
% 79
gsave
0 0 0 nodecolor
79.2962 147.5901 1.8 1.8 ellipse_path fill
1 setlinewidth
filled
0 0 0 nodecolor
79.2962 147.5901 1.8 1.8 ellipse_path stroke
grestore
% 0--79
gsave
1 setlinewidth
0 0 0 edgecolor
newpath 77.0296 88.1827 moveto
77.3856 97.5127 78.854 135.999 79.2155 145.4748 curveto
stroke
grestore
% 81
gsave
0 0 0 nodecolor
20.9067 92.7891 1.8 1.8 ellipse_path fill
1 setlinewidth
filled
0 0 0 nodecolor
20.9067 92.7891 1.8 1.8 ellipse_path stroke
grestore
% 0--81
gsave
1 setlinewidth
0 0 0 edgecolor
newpath 75.0869 86.3594 moveto
66.5778 87.3692 31.4779 91.5346 22.8359 92.5602 curveto
stroke
grestore
% 83
gsave
0 0 0 nodecolor
54.3233 72.7568 1.8 1.8 ellipse_path fill
1 setlinewidth
filled
0 0 0 nodecolor
54.3233 72.7568 1.8 1.8 ellipse_path stroke
grestore
% 0--83
gsave
1 setlinewidth
0 0 0 edgecolor
newpath 75.176 85.0881 moveto
71.0085 82.6236 60.6252 76.4834 56.282 73.915 curveto
stroke
grestore
% 84
gsave
0 0 0 nodecolor
27.8353 105.9537 1.8 1.8 ellipse_path fill
1 setlinewidth
filled
0 0 0 nodecolor
27.8353 105.9537 1.8 1.8 ellipse_path stroke
grestore
% 0--84
gsave
1 setlinewidth
0 0 0 edgecolor
newpath 74.8411 86.9896 moveto
66.762 90.249 37.8539 101.9118 29.8833 105.1275 curveto
stroke
grestore
% 85
gsave
0 0 0 nodecolor
73.8546 26.6092 1.8 1.8 ellipse_path fill
1 setlinewidth
filled
0 0 0 nodecolor
73.8546 26.6092 1.8 1.8 ellipse_path stroke
grestore
% 0--85
gsave
1 setlinewidth
0 0 0 edgecolor
newpath 76.8486 84.1575 moveto
76.3784 75.1194 74.4388 37.8375 73.9612 28.6583 curveto
stroke
grestore
% 86
gsave
0 0 0 nodecolor
111.3057 143.0923 1.8 1.8 ellipse_path fill
1 setlinewidth
filled
0 0 0 nodecolor
111.3057 143.0923 1.8 1.8 ellipse_path stroke
grestore
% 0--86
gsave
1 setlinewidth
0 0 0 edgecolor
newpath 78.0946 88.0331 moveto
83.3105 96.6802 104.8258 132.3496 110.1231 141.1318 curveto
stroke
grestore
% 91
gsave
0 0 0 nodecolor
29.9647 117.557 1.8 1.8 ellipse_path fill
1 setlinewidth
filled
0 0 0 nodecolor
29.9647 117.557 1.8 1.8 ellipse_path stroke
grestore
% 0--91
gsave
1 setlinewidth
0 0 0 edgecolor
newpath 75.3883 87.1835 moveto
68.2544 91.9537 38.8274 111.6307 31.5821 116.4755 curveto
stroke
grestore
% 93
gsave
0 0 0 nodecolor
136.1951 110.3761 1.8 1.8 ellipse_path fill
1 setlinewidth
filled
0 0 0 nodecolor
136.1951 110.3761 1.8 1.8 ellipse_path stroke
grestore
% 0--93
gsave
1 setlinewidth
0 0 0 edgecolor
newpath 78.6608 86.8374 moveto
87.1601 90.3147 124.8353 105.7286 134.1213 109.5277 curveto
stroke
grestore
% 95
gsave
0 0 0 nodecolor
136.1182 54.9721 1.8 1.8 ellipse_path fill
1 setlinewidth
filled
0 0 0 nodecolor
136.1182 54.9721 1.8 1.8 ellipse_path stroke
grestore
% 0--95
gsave
1 setlinewidth
0 0 0 edgecolor
newpath 78.6585 85.239 moveto
87.2985 80.6879 126.1263 60.2354 134.5165 55.8158 curveto
stroke
grestore
% 96
gsave
0 0 0 nodecolor
25.218 69.5808 1.8 1.8 ellipse_path fill
1 setlinewidth
filled
0 0 0 nodecolor
25.218 69.5808 1.8 1.8 ellipse_path stroke
grestore
% 0--96
gsave
1 setlinewidth
0 0 0 edgecolor
newpath 75.2303 85.5872 moveto
67.3758 83.0734 34.976 72.7039 26.9988 70.1508 curveto
stroke
grestore
% 98
gsave
0 0 0 nodecolor
114.5751 39.1623 1.8 1.8 ellipse_path fill
1 setlinewidth
filled
0 0 0 nodecolor
114.5751 39.1623 1.8 1.8 ellipse_path stroke
grestore
% 0--98
gsave
1 setlinewidth
0 0 0 edgecolor
newpath 78.2034 84.5751 moveto
83.9156 77.443 107.4785 48.0229 113.28 40.7793 curveto
stroke
grestore
% 99
gsave
0 0 0 nodecolor
102.3218 45.3891 1.8 1.8 ellipse_path fill
1 setlinewidth
filled
0 0 0 nodecolor
102.3218 45.3891 1.8 1.8 ellipse_path stroke
grestore
% 0--99
gsave
1 setlinewidth
0 0 0 edgecolor
newpath 78.0417 84.3872 moveto
82.2149 77.6844 97.1468 53.7009 101.2639 47.0881 curveto
stroke
grestore
% 1--4
gsave
1 setlinewidth
0 0 0 edgecolor
newpath 55.7303 85.7286 moveto
64.6687 87.3615 101.5394 94.0972 110.6174 95.7556 curveto
stroke
grestore
% 1--5
gsave
1 setlinewidth
0 0 0 edgecolor
newpath 52.3627 83.6242 moveto
50.0617 80.7716 45.5419 75.1682 43.4258 72.5448 curveto
stroke
grestore
% 1--8
gsave
1 setlinewidth
0 0 0 edgecolor
newpath 53.1438 87.3348 moveto
51.4144 92.7456 46.5937 107.8282 44.8468 113.2939 curveto
stroke
grestore
% 1--10
gsave
1 setlinewidth
0 0 0 edgecolor
newpath 55.6421 85.3372 moveto
61.6267 85.2296 80.2765 84.8942 86.5106 84.7821 curveto
stroke
grestore
% 1--11
gsave
1 setlinewidth
0 0 0 edgecolor
newpath 52.489 83.8978 moveto
48.3858 79.1852 35.5989 64.4992 31.3246 59.5902 curveto
stroke
grestore
% 13
gsave
0 0 0 nodecolor
66.6537 151.7156 1.8 1.8 ellipse_path fill
1 setlinewidth
filled
0 0 0 nodecolor
66.6537 151.7156 1.8 1.8 ellipse_path stroke
grestore
% 1--13
gsave
1 setlinewidth
0 0 0 edgecolor
newpath 54.1432 87.2848 moveto
56.0243 96.973 64.4782 140.5114 66.3049 149.9196 curveto
stroke
grestore
% 1--14
gsave
1 setlinewidth
0 0 0 edgecolor
newpath 55.1364 83.5016 moveto
60.3615 76.3461 79.0574 50.7429 84.2123 43.6836 curveto
stroke
grestore
% 21
gsave
0 0 0 nodecolor
108.6714 27.0292 1.8 1.8 ellipse_path fill
1 setlinewidth
filled
0 0 0 nodecolor
108.6714 27.0292 1.8 1.8 ellipse_path stroke
grestore
% 1--21
gsave
1 setlinewidth
0 0 0 edgecolor
newpath 55.1286 83.9286 moveto
62.6581 75.9272 99.2465 37.0449 107.1602 28.6352 curveto
stroke
grestore
% 1--24
gsave
1 setlinewidth
0 0 0 edgecolor
newpath 54.5583 87.1466 moveto
57.5701 93.9444 68.3469 118.2679 71.3183 124.9744 curveto
stroke
grestore
% 1--27
gsave
1 setlinewidth
0 0 0 edgecolor
newpath 55.3149 86.4253 moveto
61.2232 90.4621 82.3639 104.9062 88.1929 108.8888 curveto
stroke
grestore
% 1--31
gsave
1 setlinewidth
0 0 0 edgecolor
newpath 52.9679 83.6267 moveto
50.7538 78.8217 44.5821 65.4278 42.3456 60.574 curveto
stroke
grestore
% 42
gsave
0 0 0 nodecolor
3.029 74.6841 1.8 1.8 ellipse_path fill
1 setlinewidth
filled
0 0 0 nodecolor
3.029 74.6841 1.8 1.8 ellipse_path stroke
grestore
% 1--42
gsave
1 setlinewidth
0 0 0 edgecolor
newpath 51.5912 84.9116 moveto
43.2446 83.1538 13.3793 76.864 5.1447 75.1297 curveto
stroke
grestore
% 43
gsave
0 0 0 nodecolor
81.2638 159.1944 1.8 1.8 ellipse_path fill
1 setlinewidth
filled
0 0 0 nodecolor
81.2638 159.1944 1.8 1.8 ellipse_path stroke
grestore
% 1--43
gsave
1 setlinewidth
0 0 0 edgecolor
newpath 54.4511 87.1957 moveto
58.2547 97.4093 76.8667 147.387 80.608 157.4333 curveto
stroke
grestore
% 1--50
gsave
1 setlinewidth
0 0 0 edgecolor
newpath 55.077 86.8571 moveto
59.3324 91.702 72.7637 106.9937 76.857 111.6541 curveto
stroke
grestore
% 52
gsave
0 0 0 nodecolor
37.5083 40.7532 1.8 1.8 ellipse_path fill
1 setlinewidth
filled
0 0 0 nodecolor
37.5083 40.7532 1.8 1.8 ellipse_path stroke
grestore
% 1--52
gsave
1 setlinewidth
0 0 0 edgecolor
newpath 53.0727 83.4536 moveto
50.3976 76.1145 40.8256 49.8541 38.1864 42.6135 curveto
stroke
grestore
% 1--58
gsave
1 setlinewidth
0 0 0 edgecolor
newpath 55.3649 84.3468 moveto
61.4648 80.4268 83.2908 66.4006 89.3088 62.5333 curveto
stroke
grestore
% 1--61
gsave
1 setlinewidth
0 0 0 edgecolor
newpath 52.8216 87.2246 moveto
51.1043 90.5762 47.5044 97.6016 45.8119 100.9049 curveto
stroke
grestore
% 62
gsave
0 0 0 nodecolor
6.4324 55.6364 1.8 1.8 ellipse_path fill
1 setlinewidth
filled
0 0 0 nodecolor
6.4324 55.6364 1.8 1.8 ellipse_path stroke
grestore
% 1--62
gsave
1 setlinewidth
0 0 0 edgecolor
newpath 52.1965 84.3815 moveto
45.0091 79.867 15.3615 61.2449 8.0619 56.66 curveto
stroke
grestore
% 63
gsave
0 0 0 nodecolor
36.7419 151.594 1.8 1.8 ellipse_path fill
1 setlinewidth
filled
0 0 0 nodecolor
36.7419 151.594 1.8 1.8 ellipse_path stroke
grestore
% 1--63
gsave
1 setlinewidth
0 0 0 edgecolor
newpath 53.2802 87.2813 moveto
50.7934 96.9517 39.6178 140.4103 37.2029 149.8012 curveto
stroke
grestore
% 70
gsave
0 0 0 nodecolor
18.3027 51.0692 1.8 1.8 ellipse_path fill
1 setlinewidth
filled
0 0 0 nodecolor
18.3027 51.0692 1.8 1.8 ellipse_path stroke
grestore
% 1--70
gsave
1 setlinewidth
0 0 0 edgecolor
newpath 52.2475 83.8969 moveto
46.4132 78.2546 25.5375 58.0659 19.7816 52.4994 curveto
stroke
grestore
% 1--74
gsave
1 setlinewidth
0 0 0 edgecolor
newpath 53.5929 87.1896 moveto
52.7777 95.489 49.4152 129.724 48.5873 138.1531 curveto
stroke
grestore
% 80
gsave
0 0 0 nodecolor
13.4109 104.7177 1.8 1.8 ellipse_path fill
1 setlinewidth
filled
0 0 0 nodecolor
13.4109 104.7177 1.8 1.8 ellipse_path stroke
grestore
% 1--80
gsave
1 setlinewidth
0 0 0 edgecolor
newpath 52.0373 86.2021 moveto
45.3984 89.3845 21.6436 100.7714 15.0938 103.9111 curveto
stroke
grestore
% 1--81
gsave
1 setlinewidth
0 0 0 edgecolor
newpath 52.0046 85.7696 moveto
46.3515 87.0457 28.7347 91.0222 22.8459 92.3514 curveto
stroke
grestore
% 88
gsave
0 0 0 nodecolor
18.3539 117.5687 1.8 1.8 ellipse_path fill
1 setlinewidth
filled
0 0 0 nodecolor
18.3539 117.5687 1.8 1.8 ellipse_path stroke
grestore
% 1--88
gsave
1 setlinewidth
0 0 0 edgecolor
newpath 52.2497 86.7543 moveto
46.4238 92.0505 25.5783 111.001 19.8307 116.2261 curveto
stroke
grestore
% 1--91
gsave
1 setlinewidth
0 0 0 edgecolor
newpath 52.4916 87.1013 moveto
48.3193 92.7421 35.1506 110.5459 31.1372 115.9718 curveto
stroke
grestore
% 94
gsave
0 0 0 nodecolor
1.8 101.3309 1.8 1.8 ellipse_path fill
1 setlinewidth
filled
0 0 0 nodecolor
1.8 101.3309 1.8 1.8 ellipse_path stroke
grestore
% 1--94
gsave
1 setlinewidth
0 0 0 edgecolor
newpath 52.0423 85.9018 moveto
44.1517 88.325 11.6029 98.3205 3.589 100.7815 curveto
stroke
grestore
% 1--96
gsave
1 setlinewidth
0 0 0 edgecolor
newpath 51.898 84.3348 moveto
46.6375 81.4257 31.7928 73.2167 26.8453 70.4807 curveto
stroke
grestore
% 2--6
gsave
1 setlinewidth
0 0 0 edgecolor
newpath 120.4798 81.3342 moveto
115.6313 79.7494 102.1161 75.3317 97.2184 73.7308 curveto
stroke
grestore
% 25
gsave
0 0 0 nodecolor
131.8888 21.0235 1.8 1.8 ellipse_path fill
1 setlinewidth
filled
0 0 0 nodecolor
131.8888 21.0235 1.8 1.8 ellipse_path stroke
grestore
% 2--25
gsave
1 setlinewidth
0 0 0 edgecolor
newpath 122.5608 79.8837 moveto
124.0258 70.6396 130.0688 32.5079 131.5567 23.1194 curveto
stroke
grestore
% 45
gsave
0 0 0 nodecolor
154.1747 135.4837 1.8 1.8 ellipse_path fill
1 setlinewidth
filled
0 0 0 nodecolor
154.1747 135.4837 1.8 1.8 ellipse_path stroke
grestore
% 2--45
gsave
1 setlinewidth
0 0 0 edgecolor
newpath 123.3023 83.692 moveto
128.1508 91.826 148.1511 125.3785 153.0754 133.6395 curveto
stroke
grestore
% 76
gsave
0 0 0 nodecolor
142.4313 43.0354 1.8 1.8 ellipse_path fill
1 setlinewidth
filled
0 0 0 nodecolor
142.4313 43.0354 1.8 1.8 ellipse_path stroke
grestore
% 2--76
gsave
1 setlinewidth
0 0 0 edgecolor
newpath 123.1073 80.2391 moveto
126.4287 73.8447 138.3127 50.9648 141.5894 44.6563 curveto
stroke
grestore
% 2--78
gsave
1 setlinewidth
0 0 0 edgecolor
newpath 120.3824 82.8424 moveto
111.9069 87.0993 76.9454 104.659 68.3375 108.9824 curveto
stroke
grestore
% 3--36
gsave
1 setlinewidth
0 0 0 edgecolor
newpath 48.0476 48.6409 moveto
43.4213 54.2343 26.8679 74.2481 22.3037 79.7664 curveto
stroke
grestore
% 3--84
gsave
1 setlinewidth
0 0 0 edgecolor
newpath 48.6381 48.8753 moveto
45.565 57.3074 31.9427 94.684 28.5851 103.8964 curveto
stroke
grestore
% 89
gsave
0 0 0 nodecolor
120.2797 27.5569 1.8 1.8 ellipse_path fill
1 setlinewidth
filled
0 0 0 nodecolor
120.2797 27.5569 1.8 1.8 ellipse_path stroke
grestore
% 3--89
gsave
1 setlinewidth
0 0 0 edgecolor
newpath 51.0117 46.6947 moveto
60.7525 44.0034 108.0868 30.9257 118.3246 28.0971 curveto
stroke
grestore
% 4--13
gsave
1 setlinewidth
0 0 0 edgecolor
newpath 111.1137 97.9754 moveto
104.0065 106.5661 74.2927 142.482 67.8779 150.2359 curveto
stroke
grestore
% 4--16
gsave
1 setlinewidth
0 0 0 edgecolor
newpath 114.1369 94.6729 moveto
118.25 90.6701 129.7152 79.5122 133.8701 75.4688 curveto
stroke
grestore
% 4--18
gsave
1 setlinewidth
0 0 0 edgecolor
newpath 112.6709 97.9478 moveto
112.7341 102.2241 112.8918 112.8783 112.9577 117.3349 curveto
stroke
grestore
% 4--23
gsave
1 setlinewidth
0 0 0 edgecolor
newpath 113.2437 94.3112 moveto
115.1625 88.5058 121.1423 70.414 123.1411 64.3665 curveto
stroke
grestore
% 37
gsave
0 0 0 nodecolor
159.4087 123.2511 1.8 1.8 ellipse_path fill
1 setlinewidth
filled
0 0 0 nodecolor
159.4087 123.2511 1.8 1.8 ellipse_path stroke
grestore
% 4--37
gsave
1 setlinewidth
0 0 0 edgecolor
newpath 114.6533 97.2914 moveto
122.3457 101.7532 149.8698 117.7182 157.4588 122.1201 curveto
stroke
grestore
% 47
gsave
0 0 0 nodecolor
142.1866 131.0412 1.8 1.8 ellipse_path fill
1 setlinewidth
filled
0 0 0 nodecolor
142.1866 131.0412 1.8 1.8 ellipse_path stroke
grestore
% 4--47
gsave
1 setlinewidth
0 0 0 edgecolor
newpath 113.9133 97.6261 moveto
118.7728 103.3693 136.1605 123.9193 140.9548 129.5854 curveto
stroke
grestore
% 71
gsave
0 0 0 nodecolor
139.8795 154.3103 1.8 1.8 ellipse_path fill
1 setlinewidth
filled
0 0 0 nodecolor
139.8795 154.3103 1.8 1.8 ellipse_path stroke
grestore
% 4--71
gsave
1 setlinewidth
0 0 0 edgecolor
newpath 113.5501 98.0617 moveto
117.6852 106.8956 134.7423 143.3356 138.942 152.3075 curveto
stroke
grestore
% 4--76
gsave
1 setlinewidth
0 0 0 edgecolor
newpath 113.635 94.3594 moveto
118.1575 86.2989 136.8128 53.0493 141.406 44.8629 curveto
stroke
grestore
% 4--99
gsave
1 setlinewidth
0 0 0 edgecolor
newpath 112.2004 93.9457 moveto
110.5025 85.6001 104.4272 55.7382 102.7521 47.5046 curveto
stroke
grestore
% 5--7
gsave
1 setlinewidth
0 0 0 edgecolor
newpath 44.226 70.7283 moveto
48.8797 69.7738 60.613 67.3671 65.1877 66.4288 curveto
stroke
grestore
% 5--8
gsave
1 setlinewidth
0 0 0 edgecolor
newpath 42.3647 73.0252 moveto
42.6809 80.292 43.8121 106.2933 44.124 113.4624 curveto
stroke
grestore
% 5--20
gsave
1 setlinewidth
0 0 0 edgecolor
newpath 43.5216 72.5552 moveto
47.4872 77.1245 59.8453 91.364 63.9762 96.1238 curveto
stroke
grestore
% 5--42
gsave
1 setlinewidth
0 0 0 edgecolor
newpath 40.1717 71.3182 moveto
33.2924 71.9417 11.5795 73.9093 4.9622 74.5089 curveto
stroke
grestore
% 5--44
gsave
1 setlinewidth
0 0 0 edgecolor
newpath 43.982 69.8296 moveto
49.5232 65.6006 67.0124 52.2527 72.3425 48.1848 curveto
stroke
grestore
% 5--73
gsave
1 setlinewidth
0 0 0 edgecolor
newpath 43.7187 69.4808 moveto
50.2741 61.9687 77.3153 30.9816 83.9732 23.3521 curveto
stroke
grestore
% 6--13
gsave
1 setlinewidth
0 0 0 edgecolor
newpath 94.7058 75.0842 moveto
90.7263 85.955 71.2541 139.1484 67.3398 149.8412 curveto
stroke
grestore
% 6--16
gsave
1 setlinewidth
0 0 0 edgecolor
newpath 97.5664 73.1871 moveto
104.5734 73.3342 126.6892 73.7986 133.4294 73.9401 curveto
stroke
grestore
% 6--18
gsave
1 setlinewidth
0 0 0 edgecolor
newpath 96.1718 75.1272 moveto
99.062 82.7271 109.4035 109.9204 112.2548 117.4183 curveto
stroke
grestore
% 6--21
gsave
1 setlinewidth
0 0 0 edgecolor
newpath 95.9863 71.1606 moveto
98.1666 63.5755 105.9678 36.4351 108.1187 28.9519 curveto
stroke
grestore
% 6--49
gsave
1 setlinewidth
0 0 0 edgecolor
newpath 96.9764 74.2375 moveto
101.966 77.7424 117.5155 88.6648 122.7132 92.3158 curveto
stroke
grestore
% 6--53
gsave
1 setlinewidth
0 0 0 edgecolor
newpath 93.5723 73.4612 moveto
85.1559 74.9182 50.4378 80.9282 41.8898 82.4079 curveto
stroke
grestore
% 56
gsave
0 0 0 nodecolor
83.3818 8.1866 1.8 1.8 ellipse_path fill
1 setlinewidth
filled
0 0 0 nodecolor
83.3818 8.1866 1.8 1.8 ellipse_path stroke
grestore
% 6--56
gsave
1 setlinewidth
0 0 0 edgecolor
newpath 95.0696 71.268 moveto
93.343 61.9492 85.6895 20.6416 83.8031 10.4603 curveto
stroke
grestore
% 59
gsave
0 0 0 nodecolor
104.8434 9.8345 1.8 1.8 ellipse_path fill
1 setlinewidth
filled
0 0 0 nodecolor
104.8434 9.8345 1.8 1.8 ellipse_path stroke
grestore
% 6--59
gsave
1 setlinewidth
0 0 0 edgecolor
newpath 95.6887 71.3156 moveto
97.0411 62.2331 103.0359 21.9736 104.5135 12.0506 curveto
stroke
grestore
% 7--15
gsave
1 setlinewidth
0 0 0 edgecolor
newpath 65.5706 67.2617 moveto
59.8891 71.9163 39.5599 88.5709 33.9547 93.1629 curveto
stroke
grestore
% 7--34
gsave
1 setlinewidth
0 0 0 edgecolor
newpath 68.3678 67.4327 moveto
74.3596 73.7611 99.076 99.8657 105.1615 106.293 curveto
stroke
grestore
% 22
gsave
0 0 0 nodecolor
101.3857 120.5824 1.8 1.8 ellipse_path fill
1 setlinewidth
filled
0 0 0 nodecolor
101.3857 120.5824 1.8 1.8 ellipse_path stroke
grestore
% 8--22
gsave
1 setlinewidth
0 0 0 edgecolor
newpath 46.1067 115.48 moveto
54.7884 116.2814 90.6001 119.5869 99.4174 120.4008 curveto
stroke
grestore
% 8--29
gsave
1 setlinewidth
0 0 0 edgecolor
newpath 45.6627 116.5216 moveto
48.5971 118.9703 55.1994 124.4799 58.3171 127.0817 curveto
stroke
grestore
% 8--35
gsave
1 setlinewidth
0 0 0 edgecolor
newpath 45.3699 113.694 moveto
50.6894 106.3454 72.6321 76.0322 78.0347 68.5687 curveto
stroke
grestore
% 8--43
gsave
1 setlinewidth
0 0 0 edgecolor
newpath 45.4372 116.7647 moveto
51.0638 123.4284 74.2736 150.9158 79.9882 157.6836 curveto
stroke
grestore
% 65
gsave
0 0 0 nodecolor
8.3018 147.9966 1.8 1.8 ellipse_path fill
1 setlinewidth
filled
0 0 0 nodecolor
8.3018 147.9966 1.8 1.8 ellipse_path stroke
grestore
% 8--65
gsave
1 setlinewidth
0 0 0 edgecolor
newpath 42.6615 116.7092 moveto
36.7559 122.0867 15.625 141.3282 9.7988 146.6335 curveto
stroke
grestore
% 8--88
gsave
1 setlinewidth
0 0 0 edgecolor
newpath 42.1758 115.4821 moveto
37.3196 115.9075 25.0758 116.9799 20.3022 117.398 curveto
stroke
grestore
% 9--12
gsave
1 setlinewidth
0 0 0 edgecolor
newpath 122.7214 113.5313 moveto
116.6203 116.3386 97.3637 125.1991 91.495 127.8995 curveto
stroke
grestore
% 9--26
gsave
1 setlinewidth
0 0 0 edgecolor
newpath 123.1456 113.8572 moveto
117.6044 118.402 97.7774 134.6636 92.3106 139.1474 curveto
stroke
grestore
% 9--33
gsave
1 setlinewidth
0 0 0 edgecolor
newpath 122.7364 111.8977 moveto
116.6842 109.3801 97.5819 101.434 91.7602 99.0123 curveto
stroke
grestore
% 9--39
gsave
1 setlinewidth
0 0 0 edgecolor
newpath 125.0701 114.5067 moveto
125.8169 117.3815 127.2537 122.9129 128.0029 125.7969 curveto
stroke
grestore
% 9--40
gsave
1 setlinewidth
0 0 0 edgecolor
newpath 122.6998 113.5828 moveto
114.0605 117.7479 78.4234 134.9289 69.6491 139.159 curveto
stroke
grestore
% 9--45
gsave
1 setlinewidth
0 0 0 edgecolor
newpath 126.1835 113.8966 moveto
131.3678 117.8948 147.7309 130.5142 152.7178 134.3601 curveto
stroke
grestore
% 9--48
gsave
1 setlinewidth
0 0 0 edgecolor
newpath 124.4043 110.6105 moveto
123.5427 101.2123 119.989 62.4446 119.114 52.8996 curveto
stroke
grestore
% 9--60
gsave
1 setlinewidth
0 0 0 edgecolor
newpath 123.23 114.4264 moveto
118.0121 121.1501 99.3416 145.2083 94.1937 151.8417 curveto
stroke
grestore
% 72
gsave
0 0 0 nodecolor
168.3566 89.0255 1.8 1.8 ellipse_path fill
1 setlinewidth
filled
0 0 0 nodecolor
168.3566 89.0255 1.8 1.8 ellipse_path stroke
grestore
% 9--72
gsave
1 setlinewidth
0 0 0 edgecolor
newpath 126.4735 111.6541 moveto
133.6722 107.7648 159.4298 93.8484 166.5318 90.0114 curveto
stroke
grestore
% 9--86
gsave
1 setlinewidth
0 0 0 edgecolor
newpath 123.7212 114.6661 moveto
121.2732 120.271 114.3653 136.0872 112.063 141.3585 curveto
stroke
grestore
% 10--22
gsave
1 setlinewidth
0 0 0 edgecolor
newpath 89.2529 86.672 moveto
91.5001 92.9527 98.5927 112.776 100.7542 118.8175 curveto
stroke
grestore
% 10--27
gsave
1 setlinewidth
0 0 0 edgecolor
newpath 88.652 86.72 moveto
88.8637 91.4478 89.3975 103.3679 89.6056 108.0153 curveto
stroke
grestore
% 10--28
gsave
1 setlinewidth
0 0 0 edgecolor
newpath 87.3893 83.1801 moveto
82.8942 77.1887 66.8101 55.7505 62.3754 49.8395 curveto
stroke
grestore
% 75
gsave
0 0 0 nodecolor
147.7974 119.4343 1.8 1.8 ellipse_path fill
1 setlinewidth
filled
0 0 0 nodecolor
147.7974 119.4343 1.8 1.8 ellipse_path stroke
grestore
% 10--75
gsave
1 setlinewidth
0 0 0 edgecolor
newpath 90.2724 85.746 moveto
98.9222 90.8115 137.7941 113.5761 146.1939 118.4953 curveto
stroke
grestore
% 10--83
gsave
1 setlinewidth
0 0 0 edgecolor
newpath 86.7226 84.1007 moveto
80.833 82.0385 62.4789 75.6123 56.3437 73.4642 curveto
stroke
grestore
% 11--15
gsave
1 setlinewidth
0 0 0 edgecolor
newpath 30.0567 59.9289 moveto
30.5035 66.1848 31.8959 85.6801 32.3613 92.1968 curveto
stroke
grestore
% 46
gsave
0 0 0 nodecolor
29.9676 26.7652 1.8 1.8 ellipse_path fill
1 setlinewidth
filled
0 0 0 nodecolor
29.9676 26.7652 1.8 1.8 ellipse_path stroke
grestore
% 11--46
gsave
1 setlinewidth
0 0 0 edgecolor
newpath 29.9203 55.9259 moveto
29.9295 50.2847 29.955 34.5598 29.9642 28.8613 curveto
stroke
grestore
% 11--64
gsave
1 setlinewidth
0 0 0 edgecolor
newpath 31.6556 56.8305 moveto
37.3229 53.1043 55.2103 41.3437 60.6618 37.7594 curveto
stroke
grestore
% 11--81
gsave
1 setlinewidth
0 0 0 edgecolor
newpath 29.4326 59.8454 moveto
27.8827 65.834 23.0528 84.4965 21.4383 90.7348 curveto
stroke
grestore
% 12--19
gsave
1 setlinewidth
0 0 0 edgecolor
newpath 90.2592 126.8008 moveto
92.0918 119.575 98.6491 93.7201 100.4571 86.5913 curveto
stroke
grestore
% 12--20
gsave
1 setlinewidth
0 0 0 edgecolor
newpath 88.4663 127.0218 moveto
84.1823 121.5894 70.6611 104.4433 66.5404 99.2178 curveto
stroke
grestore
% 12--49
gsave
1 setlinewidth
0 0 0 edgecolor
newpath 91.2691 127.1771 moveto
96.9677 121.392 117.3582 100.692 122.9803 94.9845 curveto
stroke
grestore
% 12--63
gsave
1 setlinewidth
0 0 0 edgecolor
newpath 88.0158 129.4505 moveto
79.9632 132.9281 46.7461 147.2735 38.5676 150.8055 curveto
stroke
grestore
% 13--38
gsave
1 setlinewidth
0 0 0 edgecolor
newpath 64.8404 151.9169 moveto
62.6984 152.1546 59.1509 152.5484 56.965 152.7911 curveto
stroke
grestore
% 13--91
gsave
1 setlinewidth
0 0 0 edgecolor
newpath 65.0772 150.2478 moveto
59.0422 144.6291 37.4484 124.5245 31.4945 118.9812 curveto
stroke
grestore
% 92
gsave
0 0 0 nodecolor
58.7716 170.1445 1.8 1.8 ellipse_path fill
1 setlinewidth
filled
0 0 0 nodecolor
58.7716 170.1445 1.8 1.8 ellipse_path stroke
grestore
% 13--92
gsave
1 setlinewidth
0 0 0 edgecolor
newpath 65.9263 153.4163 moveto
64.4628 156.838 61.1701 164.5368 59.6152 168.1723 curveto
stroke
grestore
% 14--17
gsave
1 setlinewidth
0 0 0 edgecolor
newpath 83.6509 41.5313 moveto
77.6174 40.4487 58.8151 37.0747 52.53 35.9469 curveto
stroke
grestore
% 14--19
gsave
1 setlinewidth
0 0 0 edgecolor
newpath 86.1978 43.7127 moveto
88.7285 50.7676 97.7834 76.0111 100.2801 82.9713 curveto
stroke
grestore
% 14--21
gsave
1 setlinewidth
0 0 0 edgecolor
newpath 87.0547 40.896 moveto
91.2365 38.2134 102.8933 30.7358 107.1175 28.026 curveto
stroke
grestore
% 14--23
gsave
1 setlinewidth
0 0 0 edgecolor
newpath 87.1809 42.7508 moveto
93.4747 46.1237 115.9947 58.1924 122.204 61.5201 curveto
stroke
grestore
% 14--25
gsave
1 setlinewidth
0 0 0 edgecolor
newpath 87.5285 40.974 moveto
95.1529 37.545 122.4341 25.2757 129.9561 21.8927 curveto
stroke
grestore
% 14--46
gsave
1 setlinewidth
0 0 0 edgecolor
newpath 83.6879 41.3672 moveto
75.251 39.0739 40.4491 29.6142 31.8804 27.2851 curveto
stroke
grestore
% 14--56
gsave
1 setlinewidth
0 0 0 edgecolor
newpath 85.4209 40.0588 moveto
85.0502 34.265 83.8951 16.2095 83.509 10.1741 curveto
stroke
grestore
% 14--58
gsave
1 setlinewidth
0 0 0 edgecolor
newpath 86.0276 43.685 moveto
87.015 47.3371 89.2367 55.5543 90.2858 59.4346 curveto
stroke
grestore
% 14--59
gsave
1 setlinewidth
0 0 0 edgecolor
newpath 86.5748 40.1474 moveto
89.9584 34.5331 100.6379 16.8128 103.8926 11.4123 curveto
stroke
grestore
% 14--64
gsave
1 setlinewidth
0 0 0 edgecolor
newpath 83.7098 41.4651 moveto
79.4219 40.5152 68.7385 38.1487 64.2697 37.1588 curveto
stroke
grestore
% 68
gsave
0 0 0 nodecolor
130.7332 41.3612 1.8 1.8 ellipse_path fill
1 setlinewidth
filled
0 0 0 nodecolor
130.7332 41.3612 1.8 1.8 ellipse_path stroke
grestore
% 14--68
gsave
1 setlinewidth
0 0 0 edgecolor
newpath 87.4788 41.8479 moveto
94.9131 41.7642 121.5142 41.4649 128.8487 41.3824 curveto
stroke
grestore
% 69
gsave
0 0 0 nodecolor
56.3654 12.4635 1.8 1.8 ellipse_path fill
1 setlinewidth
filled
0 0 0 nodecolor
56.3654 12.4635 1.8 1.8 ellipse_path stroke
grestore
% 14--69
gsave
1 setlinewidth
0 0 0 edgecolor
newpath 83.9684 40.2887 moveto
78.8559 35.1351 62.7198 18.869 57.8021 13.9117 curveto
stroke
grestore
% 14--70
gsave
1 setlinewidth
0 0 0 edgecolor
newpath 83.5971 42.1351 moveto
73.7791 43.4785 29.6571 49.5156 20.1228 50.8201 curveto
stroke
grestore
% 15--32
gsave
1 setlinewidth
0 0 0 edgecolor
newpath 32.7448 96.2146 moveto
33.4814 102.2031 35.777 120.8652 36.5443 127.1033 curveto
stroke
grestore
% 15--40
gsave
1 setlinewidth
0 0 0 edgecolor
newpath 33.6849 95.8653 moveto
39.0255 102.8129 61.0555 131.472 66.4795 138.5282 curveto
stroke
grestore
% 15--46
gsave
1 setlinewidth
0 0 0 edgecolor
newpath 32.4411 92.3932 moveto
32.0691 82.525 30.3977 38.1775 30.0365 28.5946 curveto
stroke
grestore
% 15--74
gsave
1 setlinewidth
0 0 0 edgecolor
newpath 33.1972 96.3061 moveto
35.8106 103.822 45.1617 130.7147 47.74 138.1296 curveto
stroke
grestore
% 15--79
gsave
1 setlinewidth
0 0 0 edgecolor
newpath 34.0711 96.1144 moveto
41.3006 104.3431 71.5257 138.7457 78.0509 146.1728 curveto
stroke
grestore
% 15--80
gsave
1 setlinewidth
0 0 0 edgecolor
newpath 30.7516 95.3002 moveto
27.0568 97.3068 18.5512 101.9261 15.0068 103.851 curveto
stroke
grestore
% 16--66
gsave
1 setlinewidth
0 0 0 edgecolor
newpath 135.5132 75.9261 moveto
135.788 80.5819 136.4809 92.3204 136.7511 96.8971 curveto
stroke
grestore
% 17--52
gsave
1 setlinewidth
0 0 0 edgecolor
newpath 48.4366 36.3845 moveto
45.9322 37.3857 41.706 39.0751 39.3092 40.0332 curveto
stroke
grestore
% 57
gsave
0 0 0 nodecolor
15.633 23.9085 1.8 1.8 ellipse_path fill
1 setlinewidth
filled
0 0 0 nodecolor
15.633 23.9085 1.8 1.8 ellipse_path stroke
grestore
% 17--57
gsave
1 setlinewidth
0 0 0 edgecolor
newpath 48.5878 34.9482 moveto
42.4842 32.9035 23.2195 26.4499 17.3483 24.4831 curveto
stroke
grestore
% 17--62
gsave
1 setlinewidth
0 0 0 edgecolor
newpath 48.5685 36.4375 moveto
41.3263 39.7373 15.413 51.5445 8.2681 54.8 curveto
stroke
grestore
% 17--69
gsave
1 setlinewidth
0 0 0 edgecolor
newpath 50.9237 33.7619 moveto
52.0112 29.5053 54.7209 18.9001 55.8543 14.464 curveto
stroke
grestore
% 17--99
gsave
1 setlinewidth
0 0 0 edgecolor
newpath 52.6887 35.9972 moveto
61.2194 37.6114 91.7432 43.3873 100.1594 44.9799 curveto
stroke
grestore
% 18--34
gsave
1 setlinewidth
0 0 0 edgecolor
newpath 111.9769 117.5296 moveto
110.7264 115.2833 108.6161 111.4928 107.4192 109.3431 curveto
stroke
grestore
% 18--60
gsave
1 setlinewidth
0 0 0 edgecolor
newpath 111.9059 121.1835 moveto
108.3804 127.1775 97.253 146.096 93.8618 151.8617 curveto
stroke
grestore
% 18--63
gsave
1 setlinewidth
0 0 0 edgecolor
newpath 111.1027 120.1419 moveto
100.554 124.6036 48.9367 146.436 38.5608 150.8246 curveto
stroke
grestore
% 67
gsave
0 0 0 nodecolor
166.3378 134.8526 1.8 1.8 ellipse_path fill
1 setlinewidth
filled
0 0 0 nodecolor
166.3378 134.8526 1.8 1.8 ellipse_path stroke
grestore
% 18--67
gsave
1 setlinewidth
0 0 0 edgecolor
newpath 114.7625 119.8607 moveto
122.8625 122.2152 156.2748 131.9275 164.5013 134.3188 curveto
stroke
grestore
% 90
gsave
0 0 0 nodecolor
70.3846 170.7978 1.8 1.8 ellipse_path fill
1 setlinewidth
filled
0 0 0 nodecolor
70.3846 170.7978 1.8 1.8 ellipse_path stroke
grestore
% 18--90
gsave
1 setlinewidth
0 0 0 edgecolor
newpath 111.57 121.0567 moveto
105.1018 128.8686 78.4203 161.0927 71.8511 169.0266 curveto
stroke
grestore
% 19--45
gsave
1 setlinewidth
0 0 0 edgecolor
newpath 102.238 86.0135 moveto
109.5416 92.9703 145.0325 126.7757 152.7088 134.0874 curveto
stroke
grestore
% 19--48
gsave
1 setlinewidth
0 0 0 edgecolor
newpath 101.8892 82.9322 moveto
105.0433 76.9751 114.9984 58.173 118.0324 52.4428 curveto
stroke
grestore
% 19--61
gsave
1 setlinewidth
0 0 0 edgecolor
newpath 99.0575 85.3563 moveto
90.5513 88.0792 55.4631 99.3108 46.8239 102.0762 curveto
stroke
grestore
% 20--22
gsave
1 setlinewidth
0 0 0 edgecolor
newpath 66.8855 98.6749 moveto
72.7074 102.3718 93.266 115.4264 99.5485 119.4158 curveto
stroke
grestore
% 20--24
gsave
1 setlinewidth
0 0 0 edgecolor
newpath 65.7791 99.5944 moveto
66.9984 104.8376 70.397 119.4529 71.6287 124.7494 curveto
stroke
grestore
% 20--26
gsave
1 setlinewidth
0 0 0 edgecolor
newpath 66.4352 99.5221 moveto
70.6411 106.5307 85.6905 131.6083 89.8399 138.5228 curveto
stroke
grestore
% 20--28
gsave
1 setlinewidth
0 0 0 edgecolor
newpath 65.1603 95.5699 moveto
64.4858 87.4489 62.0724 58.3912 61.4069 50.3793 curveto
stroke
grestore
% 20--30
gsave
1 setlinewidth
0 0 0 edgecolor
newpath 67.0131 98.8118 moveto
74.6639 103.9249 106.2234 125.0167 113.9937 130.2098 curveto
stroke
grestore
% 41
gsave
0 0 0 nodecolor
87.1078 170.8011 1.8 1.8 ellipse_path fill
1 setlinewidth
filled
0 0 0 nodecolor
87.1078 170.8011 1.8 1.8 ellipse_path stroke
grestore
% 20--41
gsave
1 setlinewidth
0 0 0 edgecolor
newpath 65.8747 99.4985 moveto
68.8868 109.6133 83.6257 159.1078 86.5885 169.057 curveto
stroke
grestore
% 20--44
gsave
1 setlinewidth
0 0 0 edgecolor
newpath 65.7045 95.513 moveto
67.113 87.1742 72.153 57.337 73.5426 49.1101 curveto
stroke
grestore
% 20--80
gsave
1 setlinewidth
0 0 0 edgecolor
newpath 63.1053 97.9932 moveto
54.5641 99.149 24.0025 103.2845 15.576 104.4248 curveto
stroke
grestore
% 21--25
gsave
1 setlinewidth
0 0 0 edgecolor
newpath 110.4932 26.5579 moveto
114.8548 25.4297 125.8515 22.5852 130.139 21.4762 curveto
stroke
grestore
% 21--54
gsave
1 setlinewidth
0 0 0 edgecolor
newpath 109.947 28.6192 moveto
115.7678 35.8747 139.7786 65.8038 145.6903 73.1727 curveto
stroke
grestore
% 77
gsave
0 0 0 nodecolor
155.0239 55.5932 1.8 1.8 ellipse_path fill
1 setlinewidth
filled
0 0 0 nodecolor
155.0239 55.5932 1.8 1.8 ellipse_path stroke
grestore
% 21--77
gsave
1 setlinewidth
0 0 0 edgecolor
newpath 110.2136 27.9796 moveto
117.2511 32.3163 146.2809 50.2054 153.4283 54.61 curveto
stroke
grestore
% 22--30
gsave
1 setlinewidth
0 0 0 edgecolor
newpath 103.1444 121.9051 moveto
105.8971 123.9753 111.1937 127.9587 113.9552 130.0356 curveto
stroke
grestore
% 22--32
gsave
1 setlinewidth
0 0 0 edgecolor
newpath 99.5223 120.8298 moveto
90.2561 122.0601 49.1817 127.5133 39.0579 128.8574 curveto
stroke
grestore
% 22--37
gsave
1 setlinewidth
0 0 0 edgecolor
newpath 103.3162 120.6712 moveto
112.1256 121.0764 148.4644 122.7478 157.4114 123.1593 curveto
stroke
grestore
% 22--39
gsave
1 setlinewidth
0 0 0 edgecolor
newpath 103.1637 121.0461 moveto
108.0619 122.3233 121.7158 125.8837 126.6638 127.174 curveto
stroke
grestore
% 22--41
gsave
1 setlinewidth
0 0 0 edgecolor
newpath 100.7722 122.7403 moveto
98.4236 131.0007 90.0202 160.5576 87.7031 168.7072 curveto
stroke
grestore
% 22--75
gsave
1 setlinewidth
0 0 0 edgecolor
newpath 103.38 120.5331 moveto
111.0142 120.3442 138.3305 119.6685 145.8623 119.4822 curveto
stroke
grestore
% 22--88
gsave
1 setlinewidth
0 0 0 edgecolor
newpath 99.3332 120.5079 moveto
87.8456 120.091 31.6341 118.0507 20.3346 117.6406 curveto
stroke
grestore
% 22--89
gsave
1 setlinewidth
0 0 0 edgecolor
newpath 101.7803 118.6395 moveto
104.2392 106.5331 117.4347 41.5644 119.8872 29.4892 curveto
stroke
grestore
% 51
gsave
0 0 0 nodecolor
165.5506 68.3736 1.8 1.8 ellipse_path fill
1 setlinewidth
filled
0 0 0 nodecolor
165.5506 68.3736 1.8 1.8 ellipse_path stroke
grestore
% 23--51
gsave
1 setlinewidth
0 0 0 edgecolor
newpath 125.5934 62.6328 moveto
132.3361 63.6015 156.1466 67.0225 163.4227 68.0678 curveto
stroke
grestore
% 23--72
gsave
1 setlinewidth
0 0 0 edgecolor
newpath 125.7139 63.5202 moveto
133.0431 67.9039 159.2679 83.5894 166.4987 87.9143 curveto
stroke
grestore
% 24--75
gsave
1 setlinewidth
0 0 0 edgecolor
newpath 73.9534 126.518 moveto
84.4288 125.5132 135.6874 120.596 145.9912 119.6076 curveto
stroke
grestore
% 24--92
gsave
1 setlinewidth
0 0 0 edgecolor
newpath 71.5098 128.5645 moveto
69.3204 135.711 61.4866 161.2824 59.3266 168.333 curveto
stroke
grestore
% 25--51
gsave
1 setlinewidth
0 0 0 edgecolor
newpath 133.0088 22.599 moveto
138.1195 29.7879 159.2013 59.4424 164.3919 66.7437 curveto
stroke
grestore
% 25--73
gsave
1 setlinewidth
0 0 0 edgecolor
newpath 129.8938 21.0504 moveto
122.2567 21.1533 94.93 21.5214 87.3953 21.6229 curveto
stroke
grestore
% 26--29
gsave
1 setlinewidth
0 0 0 edgecolor
newpath 88.8788 139.5247 moveto
83.1863 137.3496 67.123 131.2117 61.7694 129.166 curveto
stroke
grestore
% 26--33
gsave
1 setlinewidth
0 0 0 edgecolor
newpath 90.8697 138.4949 moveto
90.7329 131.7129 90.2501 107.7637 90.1025 100.4451 curveto
stroke
grestore
% 26--37
gsave
1 setlinewidth
0 0 0 edgecolor
newpath 92.8823 139.8075 moveto
102.8856 137.318 147.8401 126.1302 157.5543 123.7127 curveto
stroke
grestore
% 26--41
gsave
1 setlinewidth
0 0 0 edgecolor
newpath 90.6568 142.3007 moveto
89.9703 147.8141 88.0565 163.1829 87.3629 168.7524 curveto
stroke
grestore
% 82
gsave
0 0 0 nodecolor
30.3493 163.6948 1.8 1.8 ellipse_path fill
1 setlinewidth
filled
0 0 0 nodecolor
30.3493 163.6948 1.8 1.8 ellipse_path stroke
grestore
% 26--82
gsave
1 setlinewidth
0 0 0 edgecolor
newpath 89.159 140.9743 moveto
80.4712 144.3308 41.9609 159.2088 32.4691 162.8758 curveto
stroke
grestore
% 27--71
gsave
1 setlinewidth
0 0 0 edgecolor
newpath 91.3604 111.3893 moveto
98.9804 118.1301 130.4129 145.9359 138.1519 152.7821 curveto
stroke
grestore
% 28--69
gsave
1 setlinewidth
0 0 0 edgecolor
newpath 60.9741 46.3929 moveto
60.1363 40.2251 57.5255 21.0042 56.6528 14.5792 curveto
stroke
grestore
% 29--52
gsave
1 setlinewidth
0 0 0 edgecolor
newpath 59.5385 126.6606 moveto
56.6103 115.242 40.8963 53.9648 37.9757 42.5757 curveto
stroke
grestore
% 29--90
gsave
1 setlinewidth
0 0 0 edgecolor
newpath 60.4543 130.3109 moveto
62.1611 137.2696 68.2681 162.1686 69.9519 169.0339 curveto
stroke
grestore
% 30--43
gsave
1 setlinewidth
0 0 0 edgecolor
newpath 114.2474 132.5646 moveto
108.5784 137.1416 88.2938 153.5187 82.7009 158.0342 curveto
stroke
grestore
% 30--71
gsave
1 setlinewidth
0 0 0 edgecolor
newpath 117.3129 132.8743 moveto
121.6785 137.0211 133.8475 148.5805 138.2574 152.7695 curveto
stroke
grestore
% 32--65
gsave
1 setlinewidth
0 0 0 edgecolor
newpath 35.2649 130.1705 moveto
30.3635 133.411 15.089 143.5094 9.9832 146.885 curveto
stroke
grestore
% 32--82
gsave
1 setlinewidth
0 0 0 edgecolor
newpath 36.4503 131.0145 moveto
35.3413 136.9552 31.8851 155.4684 30.7298 161.6569 curveto
stroke
grestore
% 33--35
gsave
1 setlinewidth
0 0 0 edgecolor
newpath 89.3496 96.2445 moveto
87.3564 90.4591 81.7319 74.1333 79.8573 68.6923 curveto
stroke
grestore
% 33--36
gsave
1 setlinewidth
0 0 0 edgecolor
newpath 88.0708 97.8109 moveto
78.0054 95.3109 32.7715 84.0756 22.997 81.6477 curveto
stroke
grestore
% 33--66
gsave
1 setlinewidth
0 0 0 edgecolor
newpath 92.0704 98.3246 moveto
99.7689 98.4003 127.3148 98.6711 134.9099 98.7458 curveto
stroke
grestore
% 34--38
gsave
1 setlinewidth
0 0 0 edgecolor
newpath 104.8074 109.2342 moveto
96.8532 116.231 63.5981 145.4834 56.4187 151.7986 curveto
stroke
grestore
% 34--54
gsave
1 setlinewidth
0 0 0 edgecolor
newpath 108.2598 106.3137 moveto
114.92 100.9003 138.751 81.5306 145.3218 76.1899 curveto
stroke
grestore
% 35--98
gsave
1 setlinewidth
0 0 0 edgecolor
newpath 80.759 65.7106 moveto
86.5711 61.1476 107.3677 44.8206 113.1018 40.3189 curveto
stroke
grestore
% 36--57
gsave
1 setlinewidth
0 0 0 edgecolor
newpath 20.9481 79.2786 moveto
20.1134 70.5826 16.6701 34.7119 15.8223 25.88 curveto
stroke
grestore
% 36--62
gsave
1 setlinewidth
0 0 0 edgecolor
newpath 20.1666 79.508 moveto
17.5097 74.89 10.1035 62.0173 7.4196 57.3524 curveto
stroke
grestore
% 36--82
gsave
1 setlinewidth
0 0 0 edgecolor
newpath 21.3589 83.2239 moveto
22.6343 94.6393 28.875 150.4979 30.1294 161.7265 curveto
stroke
grestore
% 37--77
gsave
1 setlinewidth
0 0 0 edgecolor
newpath 159.2822 121.2992 moveto
158.6419 111.4193 155.7644 67.0191 155.1426 57.4248 curveto
stroke
grestore
% 41--47
gsave
1 setlinewidth
0 0 0 edgecolor
newpath 88.9404 169.4782 moveto
97.4521 163.3338 133.0379 137.6454 140.7204 132.0996 curveto
stroke
grestore
% 41--86
gsave
1 setlinewidth
0 0 0 edgecolor
newpath 88.4088 169.3113 moveto
92.6496 164.4552 106.0347 149.1281 110.114 144.4569 curveto
stroke
grestore
% 87
gsave
0 0 0 nodecolor
14.6615 130.5433 1.8 1.8 ellipse_path fill
1 setlinewidth
filled
0 0 0 nodecolor
14.6615 130.5433 1.8 1.8 ellipse_path stroke
grestore
% 41--87
gsave
1 setlinewidth
0 0 0 edgecolor
newpath 85.317 169.8059 moveto
75.2939 164.2362 26.2486 136.9822 16.3897 131.5036 curveto
stroke
grestore
% 42--53
gsave
1 setlinewidth
0 0 0 edgecolor
newpath 5.0157 75.1172 moveto
11.4919 76.5287 31.9323 80.9838 38.1618 82.3415 curveto
stroke
grestore
% 43--67
gsave
1 setlinewidth
0 0 0 edgecolor
newpath 83.0407 158.686 moveto
94.1123 155.5181 153.5276 138.5179 164.5706 135.3582 curveto
stroke
grestore
% 44--59
gsave
1 setlinewidth
0 0 0 edgecolor
newpath 75.2293 45.3996 moveto
80.3192 39.2868 98.5316 17.4147 103.5532 11.384 curveto
stroke
grestore
% 45--79
gsave
1 setlinewidth
0 0 0 edgecolor
newpath 152.3238 135.7829 moveto
141.9642 137.4579 91.2723 145.6538 81.0824 147.3013 curveto
stroke
grestore
% 45--93
gsave
1 setlinewidth
0 0 0 edgecolor
newpath 152.995 133.8363 moveto
149.745 129.2979 140.6857 116.647 137.4027 112.0625 curveto
stroke
grestore
% 46--57
gsave
1 setlinewidth
0 0 0 edgecolor
newpath 27.7278 26.3188 moveto
24.9561 25.7664 20.2788 24.8343 17.6262 24.3057 curveto
stroke
grestore
% 47--50
gsave
1 setlinewidth
0 0 0 edgecolor
newpath 140.3363 130.5212 moveto
130.9711 127.889 88.8836 116.0597 79.7891 113.5036 curveto
stroke
grestore
% 47--68
gsave
1 setlinewidth
0 0 0 edgecolor
newpath 141.9473 129.1681 moveto
140.4568 117.4971 132.4578 54.8649 130.9711 43.224 curveto
stroke
grestore
% 48--51
gsave
1 setlinewidth
0 0 0 edgecolor
newpath 120.9224 51.5252 moveto
128.5929 54.421 156.0388 64.7826 163.6062 67.6395 curveto
stroke
grestore
% 48--85
gsave
1 setlinewidth
0 0 0 edgecolor
newpath 116.9824 49.7307 moveto
109.5698 45.7567 83.0466 31.5372 75.7336 27.6165 curveto
stroke
grestore
% 51--67
gsave
1 setlinewidth
0 0 0 edgecolor
newpath 165.5733 70.2915 moveto
165.6862 79.8289 166.1868 122.1055 166.3102 132.5256 curveto
stroke
grestore
% 52--55
gsave
1 setlinewidth
0 0 0 edgecolor
newpath 39.4898 40.4043 moveto
48.5315 38.8122 85.8288 32.245 95.0119 30.628 curveto
stroke
grestore
% 52--56
gsave
1 setlinewidth
0 0 0 edgecolor
newpath 39.0346 39.6696 moveto
45.9994 34.7252 74.7291 14.3293 81.8028 9.3076 curveto
stroke
grestore
% 52--68
gsave
1 setlinewidth
0 0 0 edgecolor
newpath 39.4554 40.7659 moveto
51.5878 40.845 116.6957 41.2696 128.7968 41.3486 curveto
stroke
grestore
% 52--87
gsave
1 setlinewidth
0 0 0 edgecolor
newpath 37.0311 42.6286 moveto
34.0578 54.3139 18.1017 117.023 15.136 128.6782 curveto
stroke
grestore
% 97
gsave
0 0 0 nodecolor
68.7406 1.8 1.8 1.8 ellipse_path fill
1 setlinewidth
filled
0 0 0 nodecolor
68.7406 1.8 1.8 1.8 ellipse_path stroke
grestore
% 52--97
gsave
1 setlinewidth
0 0 0 edgecolor
newpath 38.8503 39.0794 moveto
43.9877 32.672 62.3699 9.7455 67.4383 3.4242 curveto
stroke
grestore
% 53--78
gsave
1 setlinewidth
0 0 0 edgecolor
newpath 41.4029 84.2011 moveto
46.0356 88.9697 60.6577 104.0205 65.114 108.6075 curveto
stroke
grestore
% 57--85
gsave
1 setlinewidth
0 0 0 edgecolor
newpath 17.5702 23.9983 moveto
26.4097 24.4084 62.8728 26.0998 71.8505 26.5162 curveto
stroke
grestore
% 58--77
gsave
1 setlinewidth
0 0 0 edgecolor
newpath 92.7062 61.3681 moveto
101.9122 60.515 142.7197 56.7334 152.7777 55.8014 curveto
stroke
grestore
% 59--76
gsave
1 setlinewidth
0 0 0 edgecolor
newpath 106.4585 11.2611 moveto
112.6414 16.7223 134.7643 36.2632 140.8641 41.6511 curveto
stroke
grestore
% 59--97
gsave
1 setlinewidth
0 0 0 edgecolor
newpath 102.9024 9.4026 moveto
96.5752 7.9945 76.6049 3.5502 70.5186 2.1957 curveto
stroke
grestore
% 60--84
gsave
1 setlinewidth
0 0 0 edgecolor
newpath 91.2634 152.3696 moveto
82.3439 145.8424 39.0003 114.1241 29.6256 107.2638 curveto
stroke
grestore
% 63--70
gsave
1 setlinewidth
0 0 0 edgecolor
newpath 36.3568 149.4944 moveto
33.9571 136.412 21.0792 66.2059 18.6857 53.1572 curveto
stroke
grestore
% 67--93
gsave
1 setlinewidth
0 0 0 edgecolor
newpath 164.7172 133.5367 moveto
159.4345 129.247 142.761 115.7078 137.6796 111.5816 curveto
stroke
grestore
% 68--72
gsave
1 setlinewidth
0 0 0 edgecolor
newpath 131.985 42.9471 moveto
137.6972 50.1838 161.26 80.035 167.0615 87.3848 curveto
stroke
grestore
% 74--87
gsave
1 setlinewidth
0 0 0 edgecolor
newpath 46.5884 139.5245 moveto
40.7846 137.8918 22.6981 132.804 16.6524 131.1033 curveto
stroke
grestore
% 74--90
gsave
1 setlinewidth
0 0 0 edgecolor
newpath 49.5843 141.6887 moveto
53.4368 147.0801 65.5962 164.0967 69.302 169.2827 curveto
stroke
grestore
% 75--95
gsave
1 setlinewidth
0 0 0 edgecolor
newpath 147.4605 117.5746 moveto
145.7849 108.3265 138.3577 67.3326 136.527 57.2286 curveto
stroke
grestore
% 76--89
gsave
1 setlinewidth
0 0 0 edgecolor
newpath 140.6931 41.8208 moveto
136.6134 38.9701 126.4489 31.8677 122.1971 28.8967 curveto
stroke
grestore
% 78--83
gsave
1 setlinewidth
0 0 0 edgecolor
newpath 65.7658 107.948 moveto
63.6465 101.4301 56.9574 80.858 54.9189 74.5884 curveto
stroke
grestore
% 78--92
gsave
1 setlinewidth
0 0 0 edgecolor
newpath 66.1616 111.9504 moveto
65.001 121.0898 60.2135 158.7901 59.0348 168.0724 curveto
stroke
grestore
% 85--97
gsave
1 setlinewidth
0 0 0 edgecolor
newpath 73.4533 24.6624 moveto
72.4926 20.0019 70.0704 8.2512 69.126 3.6698 curveto
stroke
grestore
% 87--94
gsave
1 setlinewidth
0 0 0 edgecolor
newpath 13.8176 128.6266 moveto
11.448 123.2446 4.7615 108.0574 2.533 102.9958 curveto
stroke
grestore
% 88--96
gsave
1 setlinewidth
0 0 0 edgecolor
newpath 18.6488 115.5067 moveto
19.7779 107.6132 23.8179 79.3692 24.9318 71.5817 curveto
stroke
grestore
endpage
showpage
grestore
%%PageTrailer
%%EndPage: 1
%%Trailer
end
restore
%%EOF
