%!PS-Adobe-2.0 EPSF-2.0
%%Title: files/output/PLOT_benchmark3_TDepth_samples.eps
%%Creator: gnuplot 5.2 patchlevel 8
%%CreationDate: Tue Sep 22 01:35:27 2020
%%DocumentFonts: (atend)
%%BoundingBox: 50 50 410 302
%%EndComments
%%BeginProlog
/gnudict 256 dict def
gnudict begin
%
% The following true/false flags may be edited by hand if desired.
% The unit line width and grayscale image gamma correction may also be changed.
%
/Color true def
/Blacktext false def
/Solid false def
/Dashlength 1 def
/Landscape false def
/Level1 false def
/Level3 false def
/Rounded false def
/ClipToBoundingBox false def
/SuppressPDFMark false def
/TransparentPatterns false def
/gnulinewidth 5.000 def
/userlinewidth gnulinewidth def
/Gamma 1.0 def
/BackgroundColor {-1.000 -1.000 -1.000} def
%
/vshift -66 def
/dl1 {
  10.0 Dashlength userlinewidth gnulinewidth div mul mul mul
  Rounded { currentlinewidth 0.75 mul sub dup 0 le { pop 0.01 } if } if
} def
/dl2 {
  10.0 Dashlength userlinewidth gnulinewidth div mul mul mul
  Rounded { currentlinewidth 0.75 mul add } if
} def
/hpt_ 31.5 def
/vpt_ 31.5 def
/hpt hpt_ def
/vpt vpt_ def
/doclip {
  ClipToBoundingBox {
    newpath 50 50 moveto 410 50 lineto 410 302 lineto 50 302 lineto closepath
    clip
  } if
} def
%
% Gnuplot Prolog Version 5.2 (Dec 2017)
%
%/SuppressPDFMark true def
%
/M {moveto} bind def
/L {lineto} bind def
/R {rmoveto} bind def
/V {rlineto} bind def
/N {newpath moveto} bind def
/Z {closepath} bind def
/C {setrgbcolor} bind def
/f {rlineto fill} bind def
/g {setgray} bind def
/Gshow {show} def   % May be redefined later in the file to support UTF-8
/vpt2 vpt 2 mul def
/hpt2 hpt 2 mul def
/Lshow {currentpoint stroke M 0 vshift R 
	Blacktext {gsave 0 setgray textshow grestore} {textshow} ifelse} def
/Rshow {currentpoint stroke M dup stringwidth pop neg vshift R
	Blacktext {gsave 0 setgray textshow grestore} {textshow} ifelse} def
/Cshow {currentpoint stroke M dup stringwidth pop -2 div vshift R 
	Blacktext {gsave 0 setgray textshow grestore} {textshow} ifelse} def
/UP {dup vpt_ mul /vpt exch def hpt_ mul /hpt exch def
  /hpt2 hpt 2 mul def /vpt2 vpt 2 mul def} def
/DL {Color {setrgbcolor Solid {pop []} if 0 setdash}
 {pop pop pop 0 setgray Solid {pop []} if 0 setdash} ifelse} def
/BL {stroke userlinewidth 2 mul setlinewidth
	Rounded {1 setlinejoin 1 setlinecap} if} def
/AL {stroke userlinewidth 2 div setlinewidth
	Rounded {1 setlinejoin 1 setlinecap} if} def
/UL {dup gnulinewidth mul /userlinewidth exch def
	dup 1 lt {pop 1} if 10 mul /udl exch def} def
/PL {stroke userlinewidth setlinewidth
	Rounded {1 setlinejoin 1 setlinecap} if} def
3.8 setmiterlimit
% Classic Line colors (version 5.0)
/LCw {1 1 1} def
/LCb {0 0 0} def
/LCa {0 0 0} def
/LC0 {1 0 0} def
/LC1 {0 1 0} def
/LC2 {0 0 1} def
/LC3 {1 0 1} def
/LC4 {0 1 1} def
/LC5 {1 1 0} def
/LC6 {0 0 0} def
/LC7 {1 0.3 0} def
/LC8 {0.5 0.5 0.5} def
% Default dash patterns (version 5.0)
/LTB {BL [] LCb DL} def
/LTw {PL [] 1 setgray} def
/LTb {PL [] LCb DL} def
/LTa {AL [1 udl mul 2 udl mul] 0 setdash LCa setrgbcolor} def
/LT0 {PL [] LC0 DL} def
/LT1 {PL [2 dl1 3 dl2] LC1 DL} def
/LT2 {PL [1 dl1 1.5 dl2] LC2 DL} def
/LT3 {PL [6 dl1 2 dl2 1 dl1 2 dl2] LC3 DL} def
/LT4 {PL [1 dl1 2 dl2 6 dl1 2 dl2 1 dl1 2 dl2] LC4 DL} def
/LT5 {PL [4 dl1 2 dl2] LC5 DL} def
/LT6 {PL [1.5 dl1 1.5 dl2 1.5 dl1 1.5 dl2 1.5 dl1 6 dl2] LC6 DL} def
/LT7 {PL [3 dl1 3 dl2 1 dl1 3 dl2] LC7 DL} def
/LT8 {PL [2 dl1 2 dl2 2 dl1 6 dl2] LC8 DL} def
/SL {[] 0 setdash} def
/Pnt {stroke [] 0 setdash gsave 1 setlinecap M 0 0 V stroke grestore} def
/Dia {stroke [] 0 setdash 2 copy vpt add M
  hpt neg vpt neg V hpt vpt neg V
  hpt vpt V hpt neg vpt V closepath stroke
  Pnt} def
/Pls {stroke [] 0 setdash vpt sub M 0 vpt2 V
  currentpoint stroke M
  hpt neg vpt neg R hpt2 0 V stroke
 } def
/Box {stroke [] 0 setdash 2 copy exch hpt sub exch vpt add M
  0 vpt2 neg V hpt2 0 V 0 vpt2 V
  hpt2 neg 0 V closepath stroke
  Pnt} def
/Crs {stroke [] 0 setdash exch hpt sub exch vpt add M
  hpt2 vpt2 neg V currentpoint stroke M
  hpt2 neg 0 R hpt2 vpt2 V stroke} def
/TriU {stroke [] 0 setdash 2 copy vpt 1.12 mul add M
  hpt neg vpt -1.62 mul V
  hpt 2 mul 0 V
  hpt neg vpt 1.62 mul V closepath stroke
  Pnt} def
/Star {2 copy Pls Crs} def
/BoxF {stroke [] 0 setdash exch hpt sub exch vpt add M
  0 vpt2 neg V hpt2 0 V 0 vpt2 V
  hpt2 neg 0 V closepath fill} def
/TriUF {stroke [] 0 setdash vpt 1.12 mul add M
  hpt neg vpt -1.62 mul V
  hpt 2 mul 0 V
  hpt neg vpt 1.62 mul V closepath fill} def
/TriD {stroke [] 0 setdash 2 copy vpt 1.12 mul sub M
  hpt neg vpt 1.62 mul V
  hpt 2 mul 0 V
  hpt neg vpt -1.62 mul V closepath stroke
  Pnt} def
/TriDF {stroke [] 0 setdash vpt 1.12 mul sub M
  hpt neg vpt 1.62 mul V
  hpt 2 mul 0 V
  hpt neg vpt -1.62 mul V closepath fill} def
/DiaF {stroke [] 0 setdash vpt add M
  hpt neg vpt neg V hpt vpt neg V
  hpt vpt V hpt neg vpt V closepath fill} def
/Pent {stroke [] 0 setdash 2 copy gsave
  translate 0 hpt M 4 {72 rotate 0 hpt L} repeat
  closepath stroke grestore Pnt} def
/PentF {stroke [] 0 setdash gsave
  translate 0 hpt M 4 {72 rotate 0 hpt L} repeat
  closepath fill grestore} def
/Circle {stroke [] 0 setdash 2 copy
  hpt 0 360 arc stroke Pnt} def
/CircleF {stroke [] 0 setdash hpt 0 360 arc fill} def
/C0 {BL [] 0 setdash 2 copy moveto vpt 90 450 arc} bind def
/C1 {BL [] 0 setdash 2 copy moveto
	2 copy vpt 0 90 arc closepath fill
	vpt 0 360 arc closepath} bind def
/C2 {BL [] 0 setdash 2 copy moveto
	2 copy vpt 90 180 arc closepath fill
	vpt 0 360 arc closepath} bind def
/C3 {BL [] 0 setdash 2 copy moveto
	2 copy vpt 0 180 arc closepath fill
	vpt 0 360 arc closepath} bind def
/C4 {BL [] 0 setdash 2 copy moveto
	2 copy vpt 180 270 arc closepath fill
	vpt 0 360 arc closepath} bind def
/C5 {BL [] 0 setdash 2 copy moveto
	2 copy vpt 0 90 arc
	2 copy moveto
	2 copy vpt 180 270 arc closepath fill
	vpt 0 360 arc} bind def
/C6 {BL [] 0 setdash 2 copy moveto
	2 copy vpt 90 270 arc closepath fill
	vpt 0 360 arc closepath} bind def
/C7 {BL [] 0 setdash 2 copy moveto
	2 copy vpt 0 270 arc closepath fill
	vpt 0 360 arc closepath} bind def
/C8 {BL [] 0 setdash 2 copy moveto
	2 copy vpt 270 360 arc closepath fill
	vpt 0 360 arc closepath} bind def
/C9 {BL [] 0 setdash 2 copy moveto
	2 copy vpt 270 450 arc closepath fill
	vpt 0 360 arc closepath} bind def
/C10 {BL [] 0 setdash 2 copy 2 copy moveto vpt 270 360 arc closepath fill
	2 copy moveto
	2 copy vpt 90 180 arc closepath fill
	vpt 0 360 arc closepath} bind def
/C11 {BL [] 0 setdash 2 copy moveto
	2 copy vpt 0 180 arc closepath fill
	2 copy moveto
	2 copy vpt 270 360 arc closepath fill
	vpt 0 360 arc closepath} bind def
/C12 {BL [] 0 setdash 2 copy moveto
	2 copy vpt 180 360 arc closepath fill
	vpt 0 360 arc closepath} bind def
/C13 {BL [] 0 setdash 2 copy moveto
	2 copy vpt 0 90 arc closepath fill
	2 copy moveto
	2 copy vpt 180 360 arc closepath fill
	vpt 0 360 arc closepath} bind def
/C14 {BL [] 0 setdash 2 copy moveto
	2 copy vpt 90 360 arc closepath fill
	vpt 0 360 arc} bind def
/C15 {BL [] 0 setdash 2 copy vpt 0 360 arc closepath fill
	vpt 0 360 arc closepath} bind def
/Rec {newpath 4 2 roll moveto 1 index 0 rlineto 0 exch rlineto
	neg 0 rlineto closepath} bind def
/Square {dup Rec} bind def
/Bsquare {vpt sub exch vpt sub exch vpt2 Square} bind def
/S0 {BL [] 0 setdash 2 copy moveto 0 vpt rlineto BL Bsquare} bind def
/S1 {BL [] 0 setdash 2 copy vpt Square fill Bsquare} bind def
/S2 {BL [] 0 setdash 2 copy exch vpt sub exch vpt Square fill Bsquare} bind def
/S3 {BL [] 0 setdash 2 copy exch vpt sub exch vpt2 vpt Rec fill Bsquare} bind def
/S4 {BL [] 0 setdash 2 copy exch vpt sub exch vpt sub vpt Square fill Bsquare} bind def
/S5 {BL [] 0 setdash 2 copy 2 copy vpt Square fill
	exch vpt sub exch vpt sub vpt Square fill Bsquare} bind def
/S6 {BL [] 0 setdash 2 copy exch vpt sub exch vpt sub vpt vpt2 Rec fill Bsquare} bind def
/S7 {BL [] 0 setdash 2 copy exch vpt sub exch vpt sub vpt vpt2 Rec fill
	2 copy vpt Square fill Bsquare} bind def
/S8 {BL [] 0 setdash 2 copy vpt sub vpt Square fill Bsquare} bind def
/S9 {BL [] 0 setdash 2 copy vpt sub vpt vpt2 Rec fill Bsquare} bind def
/S10 {BL [] 0 setdash 2 copy vpt sub vpt Square fill 2 copy exch vpt sub exch vpt Square fill
	Bsquare} bind def
/S11 {BL [] 0 setdash 2 copy vpt sub vpt Square fill 2 copy exch vpt sub exch vpt2 vpt Rec fill
	Bsquare} bind def
/S12 {BL [] 0 setdash 2 copy exch vpt sub exch vpt sub vpt2 vpt Rec fill Bsquare} bind def
/S13 {BL [] 0 setdash 2 copy exch vpt sub exch vpt sub vpt2 vpt Rec fill
	2 copy vpt Square fill Bsquare} bind def
/S14 {BL [] 0 setdash 2 copy exch vpt sub exch vpt sub vpt2 vpt Rec fill
	2 copy exch vpt sub exch vpt Square fill Bsquare} bind def
/S15 {BL [] 0 setdash 2 copy Bsquare fill Bsquare} bind def
/D0 {gsave translate 45 rotate 0 0 S0 stroke grestore} bind def
/D1 {gsave translate 45 rotate 0 0 S1 stroke grestore} bind def
/D2 {gsave translate 45 rotate 0 0 S2 stroke grestore} bind def
/D3 {gsave translate 45 rotate 0 0 S3 stroke grestore} bind def
/D4 {gsave translate 45 rotate 0 0 S4 stroke grestore} bind def
/D5 {gsave translate 45 rotate 0 0 S5 stroke grestore} bind def
/D6 {gsave translate 45 rotate 0 0 S6 stroke grestore} bind def
/D7 {gsave translate 45 rotate 0 0 S7 stroke grestore} bind def
/D8 {gsave translate 45 rotate 0 0 S8 stroke grestore} bind def
/D9 {gsave translate 45 rotate 0 0 S9 stroke grestore} bind def
/D10 {gsave translate 45 rotate 0 0 S10 stroke grestore} bind def
/D11 {gsave translate 45 rotate 0 0 S11 stroke grestore} bind def
/D12 {gsave translate 45 rotate 0 0 S12 stroke grestore} bind def
/D13 {gsave translate 45 rotate 0 0 S13 stroke grestore} bind def
/D14 {gsave translate 45 rotate 0 0 S14 stroke grestore} bind def
/D15 {gsave translate 45 rotate 0 0 S15 stroke grestore} bind def
/DiaE {stroke [] 0 setdash vpt add M
  hpt neg vpt neg V hpt vpt neg V
  hpt vpt V hpt neg vpt V closepath stroke} def
/BoxE {stroke [] 0 setdash exch hpt sub exch vpt add M
  0 vpt2 neg V hpt2 0 V 0 vpt2 V
  hpt2 neg 0 V closepath stroke} def
/TriUE {stroke [] 0 setdash vpt 1.12 mul add M
  hpt neg vpt -1.62 mul V
  hpt 2 mul 0 V
  hpt neg vpt 1.62 mul V closepath stroke} def
/TriDE {stroke [] 0 setdash vpt 1.12 mul sub M
  hpt neg vpt 1.62 mul V
  hpt 2 mul 0 V
  hpt neg vpt -1.62 mul V closepath stroke} def
/PentE {stroke [] 0 setdash gsave
  translate 0 hpt M 4 {72 rotate 0 hpt L} repeat
  closepath stroke grestore} def
/CircE {stroke [] 0 setdash 
  hpt 0 360 arc stroke} def
/Opaque {gsave closepath 1 setgray fill grestore 0 setgray closepath} def
/DiaW {stroke [] 0 setdash vpt add M
  hpt neg vpt neg V hpt vpt neg V
  hpt vpt V hpt neg vpt V Opaque stroke} def
/BoxW {stroke [] 0 setdash exch hpt sub exch vpt add M
  0 vpt2 neg V hpt2 0 V 0 vpt2 V
  hpt2 neg 0 V Opaque stroke} def
/TriUW {stroke [] 0 setdash vpt 1.12 mul add M
  hpt neg vpt -1.62 mul V
  hpt 2 mul 0 V
  hpt neg vpt 1.62 mul V Opaque stroke} def
/TriDW {stroke [] 0 setdash vpt 1.12 mul sub M
  hpt neg vpt 1.62 mul V
  hpt 2 mul 0 V
  hpt neg vpt -1.62 mul V Opaque stroke} def
/PentW {stroke [] 0 setdash gsave
  translate 0 hpt M 4 {72 rotate 0 hpt L} repeat
  Opaque stroke grestore} def
/CircW {stroke [] 0 setdash 
  hpt 0 360 arc Opaque stroke} def
/BoxFill {gsave Rec 1 setgray fill grestore} def
/Density {
  /Fillden exch def
  currentrgbcolor
  /ColB exch def /ColG exch def /ColR exch def
  /ColR ColR Fillden mul Fillden sub 1 add def
  /ColG ColG Fillden mul Fillden sub 1 add def
  /ColB ColB Fillden mul Fillden sub 1 add def
  ColR ColG ColB setrgbcolor} def
/BoxColFill {gsave Rec PolyFill} def
/PolyFill {gsave Density fill grestore grestore} def
/h {rlineto rlineto rlineto closepath gsave fill grestore stroke} bind def
%
% PostScript Level 1 Pattern Fill routine for rectangles
% Usage: x y w h s a XX PatternFill
%	x,y = lower left corner of box to be filled
%	w,h = width and height of box
%	  a = angle in degrees between lines and x-axis
%	 XX = 0/1 for no/yes cross-hatch
%
/PatternFill {gsave /PFa [ 9 2 roll ] def
  PFa 0 get PFa 2 get 2 div add PFa 1 get PFa 3 get 2 div add translate
  PFa 2 get -2 div PFa 3 get -2 div PFa 2 get PFa 3 get Rec
  TransparentPatterns {} {gsave 1 setgray fill grestore} ifelse
  clip
  currentlinewidth 0.5 mul setlinewidth
  /PFs PFa 2 get dup mul PFa 3 get dup mul add sqrt def
  0 0 M PFa 5 get rotate PFs -2 div dup translate
  0 1 PFs PFa 4 get div 1 add floor cvi
	{PFa 4 get mul 0 M 0 PFs V} for
  0 PFa 6 get ne {
	0 1 PFs PFa 4 get div 1 add floor cvi
	{PFa 4 get mul 0 2 1 roll M PFs 0 V} for
 } if
  stroke grestore} def
%
/languagelevel where
 {pop languagelevel} {1} ifelse
dup 2 lt
	{/InterpretLevel1 true def
	 /InterpretLevel3 false def}
	{/InterpretLevel1 Level1 def
	 2 gt
	    {/InterpretLevel3 Level3 def}
	    {/InterpretLevel3 false def}
	 ifelse }
 ifelse
%
% PostScript level 2 pattern fill definitions
%
/Level2PatternFill {
/Tile8x8 {/PaintType 2 /PatternType 1 /TilingType 1 /BBox [0 0 8 8] /XStep 8 /YStep 8}
	bind def
/KeepColor {currentrgbcolor [/Pattern /DeviceRGB] setcolorspace} bind def
<< Tile8x8
 /PaintProc {0.5 setlinewidth pop 0 0 M 8 8 L 0 8 M 8 0 L stroke} 
>> matrix makepattern
/Pat1 exch def
<< Tile8x8
 /PaintProc {0.5 setlinewidth pop 0 0 M 8 8 L 0 8 M 8 0 L stroke
	0 4 M 4 8 L 8 4 L 4 0 L 0 4 L stroke}
>> matrix makepattern
/Pat2 exch def
<< Tile8x8
 /PaintProc {0.5 setlinewidth pop 0 0 M 0 8 L
	8 8 L 8 0 L 0 0 L fill}
>> matrix makepattern
/Pat3 exch def
<< Tile8x8
 /PaintProc {0.5 setlinewidth pop -4 8 M 8 -4 L
	0 12 M 12 0 L stroke}
>> matrix makepattern
/Pat4 exch def
<< Tile8x8
 /PaintProc {0.5 setlinewidth pop -4 0 M 8 12 L
	0 -4 M 12 8 L stroke}
>> matrix makepattern
/Pat5 exch def
<< Tile8x8
 /PaintProc {0.5 setlinewidth pop -2 8 M 4 -4 L
	0 12 M 8 -4 L 4 12 M 10 0 L stroke}
>> matrix makepattern
/Pat6 exch def
<< Tile8x8
 /PaintProc {0.5 setlinewidth pop -2 0 M 4 12 L
	0 -4 M 8 12 L 4 -4 M 10 8 L stroke}
>> matrix makepattern
/Pat7 exch def
<< Tile8x8
 /PaintProc {0.5 setlinewidth pop 8 -2 M -4 4 L
	12 0 M -4 8 L 12 4 M 0 10 L stroke}
>> matrix makepattern
/Pat8 exch def
<< Tile8x8
 /PaintProc {0.5 setlinewidth pop 0 -2 M 12 4 L
	-4 0 M 12 8 L -4 4 M 8 10 L stroke}
>> matrix makepattern
/Pat9 exch def
/Pattern1 {PatternBgnd KeepColor Pat1 setpattern} bind def
/Pattern2 {PatternBgnd KeepColor Pat2 setpattern} bind def
/Pattern3 {PatternBgnd KeepColor Pat3 setpattern} bind def
/Pattern4 {PatternBgnd KeepColor Landscape {Pat5} {Pat4} ifelse setpattern} bind def
/Pattern5 {PatternBgnd KeepColor Landscape {Pat4} {Pat5} ifelse setpattern} bind def
/Pattern6 {PatternBgnd KeepColor Landscape {Pat9} {Pat6} ifelse setpattern} bind def
/Pattern7 {PatternBgnd KeepColor Landscape {Pat8} {Pat7} ifelse setpattern} bind def
} def
%
%
%End of PostScript Level 2 code
%
/PatternBgnd {
  TransparentPatterns {} {gsave 1 setgray fill grestore} ifelse
} def
%
% Substitute for Level 2 pattern fill codes with
% grayscale if Level 2 support is not selected.
%
/Level1PatternFill {
/Pattern1 {0.250 Density} bind def
/Pattern2 {0.500 Density} bind def
/Pattern3 {0.750 Density} bind def
/Pattern4 {0.125 Density} bind def
/Pattern5 {0.375 Density} bind def
/Pattern6 {0.625 Density} bind def
/Pattern7 {0.875 Density} bind def
} def
%
% Now test for support of Level 2 code
%
Level1 {Level1PatternFill} {Level2PatternFill} ifelse
%
/Symbol-Oblique /Symbol findfont [1 0 .167 1 0 0] makefont
dup length dict begin {1 index /FID eq {pop pop} {def} ifelse} forall
currentdict end definefont pop
%
/Metrics {ExtendTextBox Gswidth} def
/Lwidth {currentpoint stroke M 0 vshift R Metrics} def
/Rwidth {currentpoint stroke M dup stringwidth pop neg vshift R Metrics} def
/Cwidth {currentpoint stroke M dup stringwidth pop -2 div vshift R Metrics} def
/GLwidth {currentpoint stroke M 0 vshift R {ExtendTextBox} forall} def
/GRwidth {currentpoint stroke M dup Gwidth vshift R {ExtendTextBox} forall} def
/GCwidth {currentpoint stroke M dup Gwidth 2 div vshift R {ExtendTextBox} forall} def
/GLwidth2 {0 Gwidth AddGlyphWidth} def
/GRwidth2 {Gwidth -1 mul 0 AddGlyphWidth} def
/GCwidth2 {Gwidth 2 div dup -1 mul AddGlyphWidth} def
/AddGlyphWidth { dup TBx2 gt {userdict /TBx2 3 -1 roll put} {pop} ifelse
                 dup TBx1 lt {userdict /TBx1 3 -1 roll put} {pop} ifelse } def
/MFshow {
   { dup 5 get 3 ge
     { 5 get 3 eq {gsave} {grestore} ifelse }
     {dup dup 0 get findfont exch 1 get scalefont setfont
     [ currentpoint ] exch dup 2 get 0 exch R dup 5 get 2 ne {dup dup 6
     get exch 4 get {textshow} {Metrics pop 0 R} ifelse }if dup 5 get 0 eq
     {dup 3 get {2 get neg 0 exch R pop} {pop aload pop M} ifelse} {dup 5
     get 1 eq {dup 2 get exch dup 3 get exch 6 get Gswidth pop -2 div
     dup 0 R} {dup 6 get Gswidth pop -2 div 0 R 6 get
     textshow 2 index {aload pop M neg 3 -1 roll neg R pop pop} {pop pop pop
     pop aload pop M} ifelse }ifelse }ifelse }
     ifelse }
   forall} def
/Gswidth {dup type /stringtype eq {stringwidth} {pop (n) stringwidth} ifelse} def
/MFwidth {0 exch { dup 5 get 3 ge { 5 get 3 eq { 0 } { pop } ifelse }
 {dup 3 get{dup dup 0 get findfont exch 1 get scalefont setfont
     6 get Gswidth pop add} {pop} ifelse} ifelse} forall} def
/MLshow { currentpoint stroke M
  0 exch R
  Blacktext {gsave 0 setgray MFshow grestore} {MFshow} ifelse } bind def
/MRshow { currentpoint stroke M
  exch dup MFwidth neg 3 -1 roll R
  Blacktext {gsave 0 setgray MFshow grestore} {MFshow} ifelse } bind def
/MCshow { currentpoint stroke M
  exch dup MFwidth -2 div 3 -1 roll R
  Blacktext {gsave 0 setgray MFshow grestore} {MFshow} ifelse } bind def
/XYsave    { [( ) 1 2 true false 3 ()] } bind def
/XYrestore { [( ) 1 2 true false 4 ()] } bind def
Level1 SuppressPDFMark or 
{} {
/SDict 10 dict def
systemdict /pdfmark known not {
  userdict /pdfmark systemdict /cleartomark get put
} if
SDict begin [
  /Title (files/output/PLOT_benchmark3_TDepth_samples.eps)
  /Subject (gnuplot plot)
  /Creator (gnuplot 5.2 patchlevel 8)
%  /Producer (gnuplot)
%  /Keywords ()
  /CreationDate (Tue Sep 22 01:35:27 2020)
  /DOCINFO pdfmark
end
} ifelse
%
% Support for boxed text - Ethan A Merritt Sep 2016
%
/InitTextBox { userdict /TBy2 3 -1 roll put userdict /TBx2 3 -1 roll put
           userdict /TBy1 3 -1 roll put userdict /TBx1 3 -1 roll put
	   /Boxing true def } def
/ExtendTextBox { dup type /stringtype eq
    { Boxing { gsave dup false charpath pathbbox
      dup TBy2 gt {userdict /TBy2 3 -1 roll put} {pop} ifelse
      dup TBx2 gt {userdict /TBx2 3 -1 roll put} {pop} ifelse
      dup TBy1 lt {userdict /TBy1 3 -1 roll put} {pop} ifelse
      dup TBx1 lt {userdict /TBx1 3 -1 roll put} {pop} ifelse
      grestore } if }
    {} ifelse} def
/PopTextBox { newpath TBx1 TBxmargin sub TBy1 TBymargin sub M
               TBx1 TBxmargin sub TBy2 TBymargin add L
	       TBx2 TBxmargin add TBy2 TBymargin add L
	       TBx2 TBxmargin add TBy1 TBymargin sub L closepath } def
/DrawTextBox { PopTextBox stroke /Boxing false def} def
/FillTextBox { gsave PopTextBox fill grestore /Boxing false def} def
0 0 0 0 InitTextBox
/TBxmargin 20 def
/TBymargin 20 def
/Boxing false def
/textshow { ExtendTextBox Gshow } def
%
end
%%EndProlog
%%Page: 1 1
gnudict begin
gsave
doclip
50 50 translate
0.050 0.050 scale
0 setgray
newpath
(Helvetica) findfont 200 scalefont setfont
BackgroundColor 0 lt 3 1 roll 0 lt exch 0 lt or or not {BackgroundColor C 1.000 0 0 7200.00 5040.00 BoxColFill} if
1.000 UL
LTB
LCb setrgbcolor
860 4439 N
860 640 L
5979 0 V
0 3799 V
-5979 0 V
Z stroke
1.000 UP
1.000 UL
LTb
LCb setrgbcolor
LCb setrgbcolor
190 2539 M
currentpoint gsave translate -270 rotate 0 0 moveto
[ [(Helvetica) 200.0 0.0 true true 0 (Tree depth)]
] -66.7 MCshow
grestore
/Helvetica findfont 200 scalefont setfont
/vshift -66 def
LTb
LCb setrgbcolor
3849 140 M
[ [(Helvetica) 200.0 0.0 true true 0 (Number of vertices)]
] -66.7 MCshow
/Helvetica findfont 200 scalefont setfont
LTb
LCb setrgbcolor
3849 4739 M
[ [(Helvetica) 200.0 0.0 true true 0 (Dmin depth)]
] -66.7 MCshow
/Helvetica findfont 200 scalefont setfont
LTb
1.000 UL
LTb
LCb setrgbcolor
4856 703 N
0 400 V
1863 0 V
0 -400 V
-1863 0 V
Z stroke
% Begin plot #1
1.000 UL
LTb
0.58 0.00 0.83 C
gsave 1024 640 N 15 317 V 15 0 V 15 0 V 15 0 V 15 0 V 15 0 V 15 0 V 15 0 V 15 0 V 15 316 V 15 -316 V 15 316 V 15 0 V 15 0 V 15 0 V 15 0 V 15 0 V 14 0 V 15 0 V 15 0 V 15 0 V 15 0 V 15 0 V 15 0 V 15 0 V 15 0 V 15 0 V 15 0 V 15 0 V 15 0 V 15 0 V 15 0 V 15 0 V 15 0 V 15 0 V 15 317 V 14 -317 V 15 317 V 15 -317 V 15 317 V 15 0 V 15 0 V 15 0 V 15 0 V 15 0 V 15 0 V 15 -317 V 15 317 V 15 -317 V 15 317 V 15 0 V 15 0 V 15 0 V 15 0 V 15 0 V 14 0 V 15 0 V 15 0 V 15 0 V 15 0 V 15 0 V 15 0 V 15 0 V 15 0 V 15 0 V 15 0 V 15 0 V 15 0 V 15 0 V 15 0 V 15 0 V 15 0 V 15 0 V 15 0 V 14 0 V 15 0 V 15 0 V 15 0 V 15 0 V 15 0 V 15 0 V 15 0 V 15 0 V 15 0 V 15 0 V 15 0 V 15 316 V 15 -316 V 15 0 V 149 316 V 150 0 V 149 0 V 150 0 V 149 0 V 150 0 V 149 0 V 150 0 V 149 0 V 150 0 V 149 0 V 149 0 V 150 0 V 149 0 V 150 317 V 149 -317 V 150 0 V 149 0 V 150 317 V 149 0 V 150 0 V 149 0 V 150 0 V 149 0 V 150 0 V 149 0 V 150 0 V 149 0 V 150 0 V 149 0 V 0 1266 V -149 0 V -150 317 V -149 -317 V -150 0 V -149 0 V -150 317 V -149 -633 V -150 316 V -149 0 V -150 0 V -149 0 V -150 0 V -149 317 V -150 316 V -149 -633 V -150 -316 V -149 316 V -150 -316 V -149 0 V -149 0 V -150 0 V -149 316 V -150 0 V -149 -316 V -150 0 V -149 0 V -150 0 V -149 0 V -150 0 V -149 0 V -15 -317 V -15 317 V -15 0 V -15 -317 V -15 0 V -15 0 V -15 0 V -15 0 V -15 317 V -15 -317 V -15 317 V -15 -317 V -15 0 V -15 0 V -14 0 V -15 0 V -15 0 V -15 0 V -15 0 V -15 317 V -15 -317 V -15 0 V -15 317 V -15 -317 V -15 0 V -15 0 V -15 -316 V -15 316 V -15 317 V -15 -633 V -15 316 V -15 0 V -15 0 V -14 0 V -15 0 V -15 317 V -15 -633 V -15 316 V -15 -316 V -15 0 V -15 0 V -15 0 V -15 316 V -15 317 V -15 -317 V -15 317 V -15 -317 V -15 -316 V -15 0 V -15 316 V -15 -316 V -15 633 V -14 -633 V -15 0 V -15 0 V -15 316 V -15 0 V -15 -316 V -15 316 V -15 -316 V -15 316 V -15 -316 V -15 0 V -15 0 V -15 0 V -15 0 V -15 0 V -15 -317 V -15 633 V -15 -633 V -15 317 V -14 316 V -15 -633 V -15 0 V -15 317 V -15 0 V -15 -317 V -15 317 V -15 -317 V -15 0 V -15 -317 V -15 317 V -15 317 V -15 0 V -15 0 V -15 -317 V -15 -317 V -15 0 V -15 634 V 0.15 PolyFill
% End plot #1
% Begin plot #2
1.000 UP
1.000 UL
LTb
0.13 0.55 0.13 C
LCb setrgbcolor
5936 1003 M
[ [(Helvetica) 200.0 0.0 true true 0 (log n)]
] -66.7 MRshow
/Helvetica findfont 200 scalefont setfont
1.000 UP
1.000 UL
LTb
0.13 0.55 0.13 C
6056 1003 M
543 0 V
1024 2572 M
15 40 V
15 36 V
15 34 V
15 32 V
15 29 V
15 28 V
15 26 V
15 25 V
15 23 V
15 23 V
15 21 V
15 20 V
15 20 V
15 18 V
15 18 V
15 17 V
15 17 V
14 16 V
15 15 V
15 15 V
15 15 V
15 14 V
15 14 V
15 13 V
15 13 V
15 12 V
15 12 V
15 12 V
15 12 V
15 11 V
15 11 V
15 11 V
15 10 V
15 11 V
15 10 V
15 9 V
14 10 V
15 10 V
15 9 V
15 9 V
15 9 V
15 8 V
15 9 V
15 8 V
15 9 V
15 8 V
15 8 V
15 7 V
15 8 V
15 8 V
15 7 V
15 7 V
15 8 V
15 7 V
15 7 V
14 6 V
15 7 V
15 7 V
15 6 V
15 7 V
15 6 V
15 7 V
15 6 V
15 6 V
15 6 V
15 6 V
15 6 V
15 6 V
15 5 V
15 6 V
15 6 V
15 5 V
15 6 V
15 5 V
14 5 V
15 6 V
15 5 V
15 5 V
15 5 V
15 5 V
15 5 V
15 5 V
15 5 V
15 5 V
15 5 V
15 4 V
15 5 V
15 5 V
15 4 V
149 44 V
150 40 V
149 36 V
150 34 V
149 32 V
150 29 V
149 28 V
150 26 V
149 24 V
150 24 V
149 22 V
149 21 V
150 21 V
149 19 V
150 19 V
149 18 V
150 17 V
149 17 V
150 16 V
149 15 V
150 15 V
149 15 V
150 14 V
149 13 V
150 14 V
149 12 V
150 13 V
149 12 V
150 12 V
149 11 V
1024 2572 Circle
1039 2612 Circle
1054 2648 Circle
1069 2682 Circle
1084 2714 Circle
1099 2743 Circle
1114 2771 Circle
1129 2797 Circle
1144 2822 Circle
1159 2845 Circle
1174 2868 Circle
1189 2889 Circle
1204 2909 Circle
1219 2929 Circle
1234 2947 Circle
1249 2965 Circle
1264 2982 Circle
1279 2999 Circle
1293 3015 Circle
1308 3030 Circle
1323 3045 Circle
1338 3060 Circle
1353 3074 Circle
1368 3088 Circle
1383 3101 Circle
1398 3114 Circle
1413 3126 Circle
1428 3138 Circle
1443 3150 Circle
1458 3162 Circle
1473 3173 Circle
1488 3184 Circle
1503 3195 Circle
1518 3205 Circle
1533 3216 Circle
1548 3226 Circle
1563 3235 Circle
1577 3245 Circle
1592 3255 Circle
1607 3264 Circle
1622 3273 Circle
1637 3282 Circle
1652 3290 Circle
1667 3299 Circle
1682 3307 Circle
1697 3316 Circle
1712 3324 Circle
1727 3332 Circle
1742 3339 Circle
1757 3347 Circle
1772 3355 Circle
1787 3362 Circle
1802 3369 Circle
1817 3377 Circle
1832 3384 Circle
1847 3391 Circle
1861 3397 Circle
1876 3404 Circle
1891 3411 Circle
1906 3417 Circle
1921 3424 Circle
1936 3430 Circle
1951 3437 Circle
1966 3443 Circle
1981 3449 Circle
1996 3455 Circle
2011 3461 Circle
2026 3467 Circle
2041 3473 Circle
2056 3478 Circle
2071 3484 Circle
2086 3490 Circle
2101 3495 Circle
2116 3501 Circle
2131 3506 Circle
2145 3511 Circle
2160 3517 Circle
2175 3522 Circle
2190 3527 Circle
2205 3532 Circle
2220 3537 Circle
2235 3542 Circle
2250 3547 Circle
2265 3552 Circle
2280 3557 Circle
2295 3562 Circle
2310 3566 Circle
2325 3571 Circle
2340 3576 Circle
2355 3580 Circle
2504 3624 Circle
2654 3664 Circle
2803 3700 Circle
2953 3734 Circle
3102 3766 Circle
3252 3795 Circle
3401 3823 Circle
3551 3849 Circle
3700 3873 Circle
3850 3897 Circle
3999 3919 Circle
4148 3940 Circle
4298 3961 Circle
4447 3980 Circle
4597 3999 Circle
4746 4017 Circle
4896 4034 Circle
5045 4051 Circle
5195 4067 Circle
5344 4082 Circle
5494 4097 Circle
5643 4112 Circle
5793 4126 Circle
5942 4139 Circle
6092 4153 Circle
6241 4165 Circle
6391 4178 Circle
6540 4190 Circle
6690 4202 Circle
6839 4213 Circle
6327 1003 Circle
% End plot #2
% Begin plot #3
1.000 UP
1.000 UL
LTb
0.58 0.00 0.83 C
LCb setrgbcolor
5936 803 M
[ [(Helvetica) 200.0 0.0 true true 0 (DAG depth)]
] -66.7 MRshow
/Helvetica findfont 200 scalefont setfont
1.000 UP
1.000 UL
LTb
0.58 0.00 0.83 C
1024 1298 Circle
1039 1327 Circle
1054 1349 Circle
1069 1378 Circle
1084 1409 Circle
1099 1425 Circle
1114 1450 Circle
1129 1454 Circle
1144 1495 Circle
1159 1495 Circle
1174 1561 Circle
1189 1558 Circle
1204 1542 Circle
1219 1593 Circle
1234 1647 Circle
1249 1682 Circle
1264 1669 Circle
1279 1675 Circle
1293 1637 Circle
1308 1672 Circle
1323 1701 Circle
1338 1666 Circle
1353 1710 Circle
1368 1732 Circle
1383 1739 Circle
1398 1792 Circle
1413 1773 Circle
1428 1796 Circle
1443 1802 Circle
1458 1840 Circle
1473 1811 Circle
1488 1767 Circle
1503 1843 Circle
1518 1891 Circle
1533 1837 Circle
1548 1875 Circle
1563 1875 Circle
1577 1900 Circle
1592 1846 Circle
1607 1903 Circle
1622 1909 Circle
1637 1909 Circle
1652 1932 Circle
1667 1906 Circle
1682 1919 Circle
1697 1947 Circle
1712 1960 Circle
1727 1909 Circle
1742 1960 Circle
1757 2001 Circle
1772 1970 Circle
1787 1989 Circle
1802 1973 Circle
1817 1989 Circle
1832 1963 Circle
1847 1992 Circle
1861 2001 Circle
1876 2004 Circle
1891 2001 Circle
1906 1992 Circle
1921 2039 Circle
1936 2030 Circle
1951 1998 Circle
1966 2027 Circle
1981 2103 Circle
1996 2036 Circle
2011 2080 Circle
2026 2071 Circle
2041 2096 Circle
2056 2080 Circle
2071 2042 Circle
2086 2128 Circle
2101 2068 Circle
2116 2093 Circle
2131 2074 Circle
2145 2099 Circle
2160 2125 Circle
2175 2118 Circle
2190 2118 Circle
2205 2172 Circle
2220 2122 Circle
2235 2175 Circle
2250 2115 Circle
2265 2118 Circle
2280 2156 Circle
2295 2131 Circle
2310 2118 Circle
2325 2172 Circle
2340 2134 Circle
2355 2175 Circle
2504 2213 Circle
2654 2283 Circle
2803 2261 Circle
2953 2293 Circle
3102 2346 Circle
3252 2337 Circle
3401 2435 Circle
3551 2432 Circle
3700 2438 Circle
3850 2470 Circle
3999 2432 Circle
4148 2489 Circle
4298 2486 Circle
4447 2521 Circle
4597 2562 Circle
4746 2568 Circle
4896 2555 Circle
5045 2574 Circle
5195 2584 Circle
5344 2590 Circle
5494 2663 Circle
5643 2685 Circle
5793 2596 Circle
5942 2669 Circle
6092 2710 Circle
6241 2691 Circle
6391 2742 Circle
6540 2755 Circle
6690 2723 Circle
6839 2710 Circle
6327 803 Circle
% End plot #3
1.000 UL
LTb
LCb setrgbcolor
0.500 UL
LTa
LCa setrgbcolor
860 640 M
5979 0 V
stroke
1.000 UL
LTb
LCb setrgbcolor
860 640 M
126 0 V
5853 0 R
-126 0 V
stroke
740 640 M
[ [(Helvetica) 200.0 0.0 true true 0 ( 4)]
] -66.7 MRshow
/Helvetica findfont 200 scalefont setfont
1.000 UL
LTb
LCb setrgbcolor
0.500 UL
LTa
LCa setrgbcolor
860 1273 M
5979 0 V
stroke
1.000 UL
LTb
LCb setrgbcolor
860 1273 M
126 0 V
5853 0 R
-126 0 V
stroke
740 1273 M
[ [(Helvetica) 200.0 0.0 true true 0 ( 6)]
] -66.7 MRshow
/Helvetica findfont 200 scalefont setfont
1.000 UL
LTb
LCb setrgbcolor
0.500 UL
LTa
LCa setrgbcolor
860 1906 M
5979 0 V
stroke
1.000 UL
LTb
LCb setrgbcolor
860 1906 M
126 0 V
5853 0 R
-126 0 V
stroke
740 1906 M
[ [(Helvetica) 200.0 0.0 true true 0 ( 8)]
] -66.7 MRshow
/Helvetica findfont 200 scalefont setfont
1.000 UL
LTb
LCb setrgbcolor
0.500 UL
LTa
LCa setrgbcolor
860 2540 M
5979 0 V
stroke
1.000 UL
LTb
LCb setrgbcolor
860 2540 M
126 0 V
5853 0 R
-126 0 V
stroke
740 2540 M
[ [(Helvetica) 200.0 0.0 true true 0 ( 10)]
] -66.7 MRshow
/Helvetica findfont 200 scalefont setfont
1.000 UL
LTb
LCb setrgbcolor
0.500 UL
LTa
LCa setrgbcolor
860 3173 M
5979 0 V
stroke
1.000 UL
LTb
LCb setrgbcolor
860 3173 M
126 0 V
5853 0 R
-126 0 V
stroke
740 3173 M
[ [(Helvetica) 200.0 0.0 true true 0 ( 12)]
] -66.7 MRshow
/Helvetica findfont 200 scalefont setfont
1.000 UL
LTb
LCb setrgbcolor
0.500 UL
LTa
LCa setrgbcolor
860 3806 M
5979 0 V
stroke
1.000 UL
LTb
LCb setrgbcolor
860 3806 M
126 0 V
5853 0 R
-126 0 V
stroke
740 3806 M
[ [(Helvetica) 200.0 0.0 true true 0 ( 14)]
] -66.7 MRshow
/Helvetica findfont 200 scalefont setfont
1.000 UL
LTb
LCb setrgbcolor
0.500 UL
LTa
LCa setrgbcolor
860 4439 M
5979 0 V
stroke
1.000 UL
LTb
LCb setrgbcolor
860 4439 M
126 0 V
5853 0 R
-126 0 V
stroke
740 4439 M
[ [(Helvetica) 200.0 0.0 true true 0 ( 16)]
] -66.7 MRshow
/Helvetica findfont 200 scalefont setfont
1.000 UL
LTb
LCb setrgbcolor
0.500 UL
LTa
LCa setrgbcolor
860 640 M
0 3799 V
stroke
1.000 UL
LTb
LCb setrgbcolor
860 640 M
0 126 V
0 3673 R
0 -126 V
stroke
860 440 M
[ [(Helvetica) 200.0 0.0 true true 0 (0 )]
] -66.7 MCshow
/Helvetica findfont 200 scalefont setfont
1.000 UL
LTb
LCb setrgbcolor
0.500 UL
LTa
LCa setrgbcolor
1607 640 M
0 3799 V
stroke
1.000 UL
LTb
LCb setrgbcolor
1607 640 M
0 126 V
0 3673 R
0 -126 V
stroke
1607 440 M
[ [(Helvetica) 200.0 0.0 true true 0 (5k)]
] -66.7 MCshow
/Helvetica findfont 200 scalefont setfont
1.000 UL
LTb
LCb setrgbcolor
0.500 UL
LTa
LCa setrgbcolor
2355 640 M
0 3799 V
stroke
1.000 UL
LTb
LCb setrgbcolor
2355 640 M
0 126 V
0 3673 R
0 -126 V
stroke
2355 440 M
[ [(Helvetica) 200.0 0.0 true true 0 (10k)]
] -66.7 MCshow
/Helvetica findfont 200 scalefont setfont
1.000 UL
LTb
LCb setrgbcolor
0.500 UL
LTa
LCa setrgbcolor
3102 640 M
0 3799 V
stroke
1.000 UL
LTb
LCb setrgbcolor
3102 640 M
0 126 V
0 3673 R
0 -126 V
stroke
3102 440 M
[ [(Helvetica) 200.0 0.0 true true 0 (15k)]
] -66.7 MCshow
/Helvetica findfont 200 scalefont setfont
1.000 UL
LTb
LCb setrgbcolor
0.500 UL
LTa
LCa setrgbcolor
3850 640 M
0 3799 V
stroke
1.000 UL
LTb
LCb setrgbcolor
3850 640 M
0 126 V
0 3673 R
0 -126 V
stroke
3850 440 M
[ [(Helvetica) 200.0 0.0 true true 0 (20k)]
] -66.7 MCshow
/Helvetica findfont 200 scalefont setfont
1.000 UL
LTb
LCb setrgbcolor
0.500 UL
LTa
LCa setrgbcolor
4597 640 M
0 3799 V
stroke
1.000 UL
LTb
LCb setrgbcolor
4597 640 M
0 126 V
0 3673 R
0 -126 V
stroke
4597 440 M
[ [(Helvetica) 200.0 0.0 true true 0 (25k)]
] -66.7 MCshow
/Helvetica findfont 200 scalefont setfont
1.000 UL
LTb
LCb setrgbcolor
0.500 UL
LTa
LCa setrgbcolor
5344 640 M
0 63 V
0 400 R
0 3336 V
stroke
1.000 UL
LTb
LCb setrgbcolor
5344 640 M
0 126 V
0 3673 R
0 -126 V
stroke
5344 440 M
[ [(Helvetica) 200.0 0.0 true true 0 (30k)]
] -66.7 MCshow
/Helvetica findfont 200 scalefont setfont
1.000 UL
LTb
LCb setrgbcolor
0.500 UL
LTa
LCa setrgbcolor
6092 640 M
0 63 V
0 400 R
0 3336 V
stroke
1.000 UL
LTb
LCb setrgbcolor
6092 640 M
0 126 V
0 3673 R
0 -126 V
stroke
6092 440 M
[ [(Helvetica) 200.0 0.0 true true 0 (35k)]
] -66.7 MCshow
/Helvetica findfont 200 scalefont setfont
1.000 UL
LTb
LCb setrgbcolor
0.500 UL
LTa
LCa setrgbcolor
6839 640 M
0 3799 V
stroke
1.000 UL
LTb
LCb setrgbcolor
6839 640 M
0 126 V
0 3673 R
0 -126 V
stroke
6839 440 M
[ [(Helvetica) 200.0 0.0 true true 0 (40k)]
] -66.7 MCshow
/Helvetica findfont 200 scalefont setfont
1.000 UL
LTb
LCb setrgbcolor
2.000 UL
LTb
LCb setrgbcolor
1.000 UL
LTB
LCb setrgbcolor
860 4439 N
860 640 L
5979 0 V
0 3799 V
-5979 0 V
Z stroke
1.000 UP
1.000 UL
LTb
LCb setrgbcolor
stroke
grestore
end
showpage
%%Trailer
%%DocumentFonts: Helvetica
