%!PS-Adobe-2.0 EPSF-2.0
%%Title: files/output/PLOT_benchmark3_compression_size.eps
%%Creator: gnuplot 5.2 patchlevel 8
%%CreationDate: Mon Sep 14 01:23:04 2020
%%DocumentFonts: (atend)
%%BoundingBox: 50 50 410 302
%%EndComments
%%BeginProlog
/gnudict 256 dict def
gnudict begin
%
% The following true/false flags may be edited by hand if desired.
% The unit line width and grayscale image gamma correction may also be changed.
%
/Color true def
/Blacktext false def
/Solid false def
/Dashlength 1 def
/Landscape false def
/Level1 false def
/Level3 false def
/Rounded false def
/ClipToBoundingBox false def
/SuppressPDFMark false def
/TransparentPatterns false def
/gnulinewidth 5.000 def
/userlinewidth gnulinewidth def
/Gamma 1.0 def
/BackgroundColor {-1.000 -1.000 -1.000} def
%
/vshift -66 def
/dl1 {
  10.0 Dashlength userlinewidth gnulinewidth div mul mul mul
  Rounded { currentlinewidth 0.75 mul sub dup 0 le { pop 0.01 } if } if
} def
/dl2 {
  10.0 Dashlength userlinewidth gnulinewidth div mul mul mul
  Rounded { currentlinewidth 0.75 mul add } if
} def
/hpt_ 31.5 def
/vpt_ 31.5 def
/hpt hpt_ def
/vpt vpt_ def
/doclip {
  ClipToBoundingBox {
    newpath 50 50 moveto 410 50 lineto 410 302 lineto 50 302 lineto closepath
    clip
  } if
} def
%
% Gnuplot Prolog Version 5.2 (Dec 2017)
%
%/SuppressPDFMark true def
%
/M {moveto} bind def
/L {lineto} bind def
/R {rmoveto} bind def
/V {rlineto} bind def
/N {newpath moveto} bind def
/Z {closepath} bind def
/C {setrgbcolor} bind def
/f {rlineto fill} bind def
/g {setgray} bind def
/Gshow {show} def   % May be redefined later in the file to support UTF-8
/vpt2 vpt 2 mul def
/hpt2 hpt 2 mul def
/Lshow {currentpoint stroke M 0 vshift R 
	Blacktext {gsave 0 setgray textshow grestore} {textshow} ifelse} def
/Rshow {currentpoint stroke M dup stringwidth pop neg vshift R
	Blacktext {gsave 0 setgray textshow grestore} {textshow} ifelse} def
/Cshow {currentpoint stroke M dup stringwidth pop -2 div vshift R 
	Blacktext {gsave 0 setgray textshow grestore} {textshow} ifelse} def
/UP {dup vpt_ mul /vpt exch def hpt_ mul /hpt exch def
  /hpt2 hpt 2 mul def /vpt2 vpt 2 mul def} def
/DL {Color {setrgbcolor Solid {pop []} if 0 setdash}
 {pop pop pop 0 setgray Solid {pop []} if 0 setdash} ifelse} def
/BL {stroke userlinewidth 2 mul setlinewidth
	Rounded {1 setlinejoin 1 setlinecap} if} def
/AL {stroke userlinewidth 2 div setlinewidth
	Rounded {1 setlinejoin 1 setlinecap} if} def
/UL {dup gnulinewidth mul /userlinewidth exch def
	dup 1 lt {pop 1} if 10 mul /udl exch def} def
/PL {stroke userlinewidth setlinewidth
	Rounded {1 setlinejoin 1 setlinecap} if} def
3.8 setmiterlimit
% Classic Line colors (version 5.0)
/LCw {1 1 1} def
/LCb {0 0 0} def
/LCa {0 0 0} def
/LC0 {1 0 0} def
/LC1 {0 1 0} def
/LC2 {0 0 1} def
/LC3 {1 0 1} def
/LC4 {0 1 1} def
/LC5 {1 1 0} def
/LC6 {0 0 0} def
/LC7 {1 0.3 0} def
/LC8 {0.5 0.5 0.5} def
% Default dash patterns (version 5.0)
/LTB {BL [] LCb DL} def
/LTw {PL [] 1 setgray} def
/LTb {PL [] LCb DL} def
/LTa {AL [1 udl mul 2 udl mul] 0 setdash LCa setrgbcolor} def
/LT0 {PL [] LC0 DL} def
/LT1 {PL [2 dl1 3 dl2] LC1 DL} def
/LT2 {PL [1 dl1 1.5 dl2] LC2 DL} def
/LT3 {PL [6 dl1 2 dl2 1 dl1 2 dl2] LC3 DL} def
/LT4 {PL [1 dl1 2 dl2 6 dl1 2 dl2 1 dl1 2 dl2] LC4 DL} def
/LT5 {PL [4 dl1 2 dl2] LC5 DL} def
/LT6 {PL [1.5 dl1 1.5 dl2 1.5 dl1 1.5 dl2 1.5 dl1 6 dl2] LC6 DL} def
/LT7 {PL [3 dl1 3 dl2 1 dl1 3 dl2] LC7 DL} def
/LT8 {PL [2 dl1 2 dl2 2 dl1 6 dl2] LC8 DL} def
/SL {[] 0 setdash} def
/Pnt {stroke [] 0 setdash gsave 1 setlinecap M 0 0 V stroke grestore} def
/Dia {stroke [] 0 setdash 2 copy vpt add M
  hpt neg vpt neg V hpt vpt neg V
  hpt vpt V hpt neg vpt V closepath stroke
  Pnt} def
/Pls {stroke [] 0 setdash vpt sub M 0 vpt2 V
  currentpoint stroke M
  hpt neg vpt neg R hpt2 0 V stroke
 } def
/Box {stroke [] 0 setdash 2 copy exch hpt sub exch vpt add M
  0 vpt2 neg V hpt2 0 V 0 vpt2 V
  hpt2 neg 0 V closepath stroke
  Pnt} def
/Crs {stroke [] 0 setdash exch hpt sub exch vpt add M
  hpt2 vpt2 neg V currentpoint stroke M
  hpt2 neg 0 R hpt2 vpt2 V stroke} def
/TriU {stroke [] 0 setdash 2 copy vpt 1.12 mul add M
  hpt neg vpt -1.62 mul V
  hpt 2 mul 0 V
  hpt neg vpt 1.62 mul V closepath stroke
  Pnt} def
/Star {2 copy Pls Crs} def
/BoxF {stroke [] 0 setdash exch hpt sub exch vpt add M
  0 vpt2 neg V hpt2 0 V 0 vpt2 V
  hpt2 neg 0 V closepath fill} def
/TriUF {stroke [] 0 setdash vpt 1.12 mul add M
  hpt neg vpt -1.62 mul V
  hpt 2 mul 0 V
  hpt neg vpt 1.62 mul V closepath fill} def
/TriD {stroke [] 0 setdash 2 copy vpt 1.12 mul sub M
  hpt neg vpt 1.62 mul V
  hpt 2 mul 0 V
  hpt neg vpt -1.62 mul V closepath stroke
  Pnt} def
/TriDF {stroke [] 0 setdash vpt 1.12 mul sub M
  hpt neg vpt 1.62 mul V
  hpt 2 mul 0 V
  hpt neg vpt -1.62 mul V closepath fill} def
/DiaF {stroke [] 0 setdash vpt add M
  hpt neg vpt neg V hpt vpt neg V
  hpt vpt V hpt neg vpt V closepath fill} def
/Pent {stroke [] 0 setdash 2 copy gsave
  translate 0 hpt M 4 {72 rotate 0 hpt L} repeat
  closepath stroke grestore Pnt} def
/PentF {stroke [] 0 setdash gsave
  translate 0 hpt M 4 {72 rotate 0 hpt L} repeat
  closepath fill grestore} def
/Circle {stroke [] 0 setdash 2 copy
  hpt 0 360 arc stroke Pnt} def
/CircleF {stroke [] 0 setdash hpt 0 360 arc fill} def
/C0 {BL [] 0 setdash 2 copy moveto vpt 90 450 arc} bind def
/C1 {BL [] 0 setdash 2 copy moveto
	2 copy vpt 0 90 arc closepath fill
	vpt 0 360 arc closepath} bind def
/C2 {BL [] 0 setdash 2 copy moveto
	2 copy vpt 90 180 arc closepath fill
	vpt 0 360 arc closepath} bind def
/C3 {BL [] 0 setdash 2 copy moveto
	2 copy vpt 0 180 arc closepath fill
	vpt 0 360 arc closepath} bind def
/C4 {BL [] 0 setdash 2 copy moveto
	2 copy vpt 180 270 arc closepath fill
	vpt 0 360 arc closepath} bind def
/C5 {BL [] 0 setdash 2 copy moveto
	2 copy vpt 0 90 arc
	2 copy moveto
	2 copy vpt 180 270 arc closepath fill
	vpt 0 360 arc} bind def
/C6 {BL [] 0 setdash 2 copy moveto
	2 copy vpt 90 270 arc closepath fill
	vpt 0 360 arc closepath} bind def
/C7 {BL [] 0 setdash 2 copy moveto
	2 copy vpt 0 270 arc closepath fill
	vpt 0 360 arc closepath} bind def
/C8 {BL [] 0 setdash 2 copy moveto
	2 copy vpt 270 360 arc closepath fill
	vpt 0 360 arc closepath} bind def
/C9 {BL [] 0 setdash 2 copy moveto
	2 copy vpt 270 450 arc closepath fill
	vpt 0 360 arc closepath} bind def
/C10 {BL [] 0 setdash 2 copy 2 copy moveto vpt 270 360 arc closepath fill
	2 copy moveto
	2 copy vpt 90 180 arc closepath fill
	vpt 0 360 arc closepath} bind def
/C11 {BL [] 0 setdash 2 copy moveto
	2 copy vpt 0 180 arc closepath fill
	2 copy moveto
	2 copy vpt 270 360 arc closepath fill
	vpt 0 360 arc closepath} bind def
/C12 {BL [] 0 setdash 2 copy moveto
	2 copy vpt 180 360 arc closepath fill
	vpt 0 360 arc closepath} bind def
/C13 {BL [] 0 setdash 2 copy moveto
	2 copy vpt 0 90 arc closepath fill
	2 copy moveto
	2 copy vpt 180 360 arc closepath fill
	vpt 0 360 arc closepath} bind def
/C14 {BL [] 0 setdash 2 copy moveto
	2 copy vpt 90 360 arc closepath fill
	vpt 0 360 arc} bind def
/C15 {BL [] 0 setdash 2 copy vpt 0 360 arc closepath fill
	vpt 0 360 arc closepath} bind def
/Rec {newpath 4 2 roll moveto 1 index 0 rlineto 0 exch rlineto
	neg 0 rlineto closepath} bind def
/Square {dup Rec} bind def
/Bsquare {vpt sub exch vpt sub exch vpt2 Square} bind def
/S0 {BL [] 0 setdash 2 copy moveto 0 vpt rlineto BL Bsquare} bind def
/S1 {BL [] 0 setdash 2 copy vpt Square fill Bsquare} bind def
/S2 {BL [] 0 setdash 2 copy exch vpt sub exch vpt Square fill Bsquare} bind def
/S3 {BL [] 0 setdash 2 copy exch vpt sub exch vpt2 vpt Rec fill Bsquare} bind def
/S4 {BL [] 0 setdash 2 copy exch vpt sub exch vpt sub vpt Square fill Bsquare} bind def
/S5 {BL [] 0 setdash 2 copy 2 copy vpt Square fill
	exch vpt sub exch vpt sub vpt Square fill Bsquare} bind def
/S6 {BL [] 0 setdash 2 copy exch vpt sub exch vpt sub vpt vpt2 Rec fill Bsquare} bind def
/S7 {BL [] 0 setdash 2 copy exch vpt sub exch vpt sub vpt vpt2 Rec fill
	2 copy vpt Square fill Bsquare} bind def
/S8 {BL [] 0 setdash 2 copy vpt sub vpt Square fill Bsquare} bind def
/S9 {BL [] 0 setdash 2 copy vpt sub vpt vpt2 Rec fill Bsquare} bind def
/S10 {BL [] 0 setdash 2 copy vpt sub vpt Square fill 2 copy exch vpt sub exch vpt Square fill
	Bsquare} bind def
/S11 {BL [] 0 setdash 2 copy vpt sub vpt Square fill 2 copy exch vpt sub exch vpt2 vpt Rec fill
	Bsquare} bind def
/S12 {BL [] 0 setdash 2 copy exch vpt sub exch vpt sub vpt2 vpt Rec fill Bsquare} bind def
/S13 {BL [] 0 setdash 2 copy exch vpt sub exch vpt sub vpt2 vpt Rec fill
	2 copy vpt Square fill Bsquare} bind def
/S14 {BL [] 0 setdash 2 copy exch vpt sub exch vpt sub vpt2 vpt Rec fill
	2 copy exch vpt sub exch vpt Square fill Bsquare} bind def
/S15 {BL [] 0 setdash 2 copy Bsquare fill Bsquare} bind def
/D0 {gsave translate 45 rotate 0 0 S0 stroke grestore} bind def
/D1 {gsave translate 45 rotate 0 0 S1 stroke grestore} bind def
/D2 {gsave translate 45 rotate 0 0 S2 stroke grestore} bind def
/D3 {gsave translate 45 rotate 0 0 S3 stroke grestore} bind def
/D4 {gsave translate 45 rotate 0 0 S4 stroke grestore} bind def
/D5 {gsave translate 45 rotate 0 0 S5 stroke grestore} bind def
/D6 {gsave translate 45 rotate 0 0 S6 stroke grestore} bind def
/D7 {gsave translate 45 rotate 0 0 S7 stroke grestore} bind def
/D8 {gsave translate 45 rotate 0 0 S8 stroke grestore} bind def
/D9 {gsave translate 45 rotate 0 0 S9 stroke grestore} bind def
/D10 {gsave translate 45 rotate 0 0 S10 stroke grestore} bind def
/D11 {gsave translate 45 rotate 0 0 S11 stroke grestore} bind def
/D12 {gsave translate 45 rotate 0 0 S12 stroke grestore} bind def
/D13 {gsave translate 45 rotate 0 0 S13 stroke grestore} bind def
/D14 {gsave translate 45 rotate 0 0 S14 stroke grestore} bind def
/D15 {gsave translate 45 rotate 0 0 S15 stroke grestore} bind def
/DiaE {stroke [] 0 setdash vpt add M
  hpt neg vpt neg V hpt vpt neg V
  hpt vpt V hpt neg vpt V closepath stroke} def
/BoxE {stroke [] 0 setdash exch hpt sub exch vpt add M
  0 vpt2 neg V hpt2 0 V 0 vpt2 V
  hpt2 neg 0 V closepath stroke} def
/TriUE {stroke [] 0 setdash vpt 1.12 mul add M
  hpt neg vpt -1.62 mul V
  hpt 2 mul 0 V
  hpt neg vpt 1.62 mul V closepath stroke} def
/TriDE {stroke [] 0 setdash vpt 1.12 mul sub M
  hpt neg vpt 1.62 mul V
  hpt 2 mul 0 V
  hpt neg vpt -1.62 mul V closepath stroke} def
/PentE {stroke [] 0 setdash gsave
  translate 0 hpt M 4 {72 rotate 0 hpt L} repeat
  closepath stroke grestore} def
/CircE {stroke [] 0 setdash 
  hpt 0 360 arc stroke} def
/Opaque {gsave closepath 1 setgray fill grestore 0 setgray closepath} def
/DiaW {stroke [] 0 setdash vpt add M
  hpt neg vpt neg V hpt vpt neg V
  hpt vpt V hpt neg vpt V Opaque stroke} def
/BoxW {stroke [] 0 setdash exch hpt sub exch vpt add M
  0 vpt2 neg V hpt2 0 V 0 vpt2 V
  hpt2 neg 0 V Opaque stroke} def
/TriUW {stroke [] 0 setdash vpt 1.12 mul add M
  hpt neg vpt -1.62 mul V
  hpt 2 mul 0 V
  hpt neg vpt 1.62 mul V Opaque stroke} def
/TriDW {stroke [] 0 setdash vpt 1.12 mul sub M
  hpt neg vpt 1.62 mul V
  hpt 2 mul 0 V
  hpt neg vpt -1.62 mul V Opaque stroke} def
/PentW {stroke [] 0 setdash gsave
  translate 0 hpt M 4 {72 rotate 0 hpt L} repeat
  Opaque stroke grestore} def
/CircW {stroke [] 0 setdash 
  hpt 0 360 arc Opaque stroke} def
/BoxFill {gsave Rec 1 setgray fill grestore} def
/Density {
  /Fillden exch def
  currentrgbcolor
  /ColB exch def /ColG exch def /ColR exch def
  /ColR ColR Fillden mul Fillden sub 1 add def
  /ColG ColG Fillden mul Fillden sub 1 add def
  /ColB ColB Fillden mul Fillden sub 1 add def
  ColR ColG ColB setrgbcolor} def
/BoxColFill {gsave Rec PolyFill} def
/PolyFill {gsave Density fill grestore grestore} def
/h {rlineto rlineto rlineto closepath gsave fill grestore stroke} bind def
%
% PostScript Level 1 Pattern Fill routine for rectangles
% Usage: x y w h s a XX PatternFill
%	x,y = lower left corner of box to be filled
%	w,h = width and height of box
%	  a = angle in degrees between lines and x-axis
%	 XX = 0/1 for no/yes cross-hatch
%
/PatternFill {gsave /PFa [ 9 2 roll ] def
  PFa 0 get PFa 2 get 2 div add PFa 1 get PFa 3 get 2 div add translate
  PFa 2 get -2 div PFa 3 get -2 div PFa 2 get PFa 3 get Rec
  TransparentPatterns {} {gsave 1 setgray fill grestore} ifelse
  clip
  currentlinewidth 0.5 mul setlinewidth
  /PFs PFa 2 get dup mul PFa 3 get dup mul add sqrt def
  0 0 M PFa 5 get rotate PFs -2 div dup translate
  0 1 PFs PFa 4 get div 1 add floor cvi
	{PFa 4 get mul 0 M 0 PFs V} for
  0 PFa 6 get ne {
	0 1 PFs PFa 4 get div 1 add floor cvi
	{PFa 4 get mul 0 2 1 roll M PFs 0 V} for
 } if
  stroke grestore} def
%
/languagelevel where
 {pop languagelevel} {1} ifelse
dup 2 lt
	{/InterpretLevel1 true def
	 /InterpretLevel3 false def}
	{/InterpretLevel1 Level1 def
	 2 gt
	    {/InterpretLevel3 Level3 def}
	    {/InterpretLevel3 false def}
	 ifelse }
 ifelse
%
% PostScript level 2 pattern fill definitions
%
/Level2PatternFill {
/Tile8x8 {/PaintType 2 /PatternType 1 /TilingType 1 /BBox [0 0 8 8] /XStep 8 /YStep 8}
	bind def
/KeepColor {currentrgbcolor [/Pattern /DeviceRGB] setcolorspace} bind def
<< Tile8x8
 /PaintProc {0.5 setlinewidth pop 0 0 M 8 8 L 0 8 M 8 0 L stroke} 
>> matrix makepattern
/Pat1 exch def
<< Tile8x8
 /PaintProc {0.5 setlinewidth pop 0 0 M 8 8 L 0 8 M 8 0 L stroke
	0 4 M 4 8 L 8 4 L 4 0 L 0 4 L stroke}
>> matrix makepattern
/Pat2 exch def
<< Tile8x8
 /PaintProc {0.5 setlinewidth pop 0 0 M 0 8 L
	8 8 L 8 0 L 0 0 L fill}
>> matrix makepattern
/Pat3 exch def
<< Tile8x8
 /PaintProc {0.5 setlinewidth pop -4 8 M 8 -4 L
	0 12 M 12 0 L stroke}
>> matrix makepattern
/Pat4 exch def
<< Tile8x8
 /PaintProc {0.5 setlinewidth pop -4 0 M 8 12 L
	0 -4 M 12 8 L stroke}
>> matrix makepattern
/Pat5 exch def
<< Tile8x8
 /PaintProc {0.5 setlinewidth pop -2 8 M 4 -4 L
	0 12 M 8 -4 L 4 12 M 10 0 L stroke}
>> matrix makepattern
/Pat6 exch def
<< Tile8x8
 /PaintProc {0.5 setlinewidth pop -2 0 M 4 12 L
	0 -4 M 8 12 L 4 -4 M 10 8 L stroke}
>> matrix makepattern
/Pat7 exch def
<< Tile8x8
 /PaintProc {0.5 setlinewidth pop 8 -2 M -4 4 L
	12 0 M -4 8 L 12 4 M 0 10 L stroke}
>> matrix makepattern
/Pat8 exch def
<< Tile8x8
 /PaintProc {0.5 setlinewidth pop 0 -2 M 12 4 L
	-4 0 M 12 8 L -4 4 M 8 10 L stroke}
>> matrix makepattern
/Pat9 exch def
/Pattern1 {PatternBgnd KeepColor Pat1 setpattern} bind def
/Pattern2 {PatternBgnd KeepColor Pat2 setpattern} bind def
/Pattern3 {PatternBgnd KeepColor Pat3 setpattern} bind def
/Pattern4 {PatternBgnd KeepColor Landscape {Pat5} {Pat4} ifelse setpattern} bind def
/Pattern5 {PatternBgnd KeepColor Landscape {Pat4} {Pat5} ifelse setpattern} bind def
/Pattern6 {PatternBgnd KeepColor Landscape {Pat9} {Pat6} ifelse setpattern} bind def
/Pattern7 {PatternBgnd KeepColor Landscape {Pat8} {Pat7} ifelse setpattern} bind def
} def
%
%
%End of PostScript Level 2 code
%
/PatternBgnd {
  TransparentPatterns {} {gsave 1 setgray fill grestore} ifelse
} def
%
% Substitute for Level 2 pattern fill codes with
% grayscale if Level 2 support is not selected.
%
/Level1PatternFill {
/Pattern1 {0.250 Density} bind def
/Pattern2 {0.500 Density} bind def
/Pattern3 {0.750 Density} bind def
/Pattern4 {0.125 Density} bind def
/Pattern5 {0.375 Density} bind def
/Pattern6 {0.625 Density} bind def
/Pattern7 {0.875 Density} bind def
} def
%
% Now test for support of Level 2 code
%
Level1 {Level1PatternFill} {Level2PatternFill} ifelse
%
/Symbol-Oblique /Symbol findfont [1 0 .167 1 0 0] makefont
dup length dict begin {1 index /FID eq {pop pop} {def} ifelse} forall
currentdict end definefont pop
%
/Metrics {ExtendTextBox Gswidth} def
/Lwidth {currentpoint stroke M 0 vshift R Metrics} def
/Rwidth {currentpoint stroke M dup stringwidth pop neg vshift R Metrics} def
/Cwidth {currentpoint stroke M dup stringwidth pop -2 div vshift R Metrics} def
/GLwidth {currentpoint stroke M 0 vshift R {ExtendTextBox} forall} def
/GRwidth {currentpoint stroke M dup Gwidth vshift R {ExtendTextBox} forall} def
/GCwidth {currentpoint stroke M dup Gwidth 2 div vshift R {ExtendTextBox} forall} def
/GLwidth2 {0 Gwidth AddGlyphWidth} def
/GRwidth2 {Gwidth -1 mul 0 AddGlyphWidth} def
/GCwidth2 {Gwidth 2 div dup -1 mul AddGlyphWidth} def
/AddGlyphWidth { dup TBx2 gt {userdict /TBx2 3 -1 roll put} {pop} ifelse
                 dup TBx1 lt {userdict /TBx1 3 -1 roll put} {pop} ifelse } def
/MFshow {
   { dup 5 get 3 ge
     { 5 get 3 eq {gsave} {grestore} ifelse }
     {dup dup 0 get findfont exch 1 get scalefont setfont
     [ currentpoint ] exch dup 2 get 0 exch R dup 5 get 2 ne {dup dup 6
     get exch 4 get {textshow} {Metrics pop 0 R} ifelse }if dup 5 get 0 eq
     {dup 3 get {2 get neg 0 exch R pop} {pop aload pop M} ifelse} {dup 5
     get 1 eq {dup 2 get exch dup 3 get exch 6 get Gswidth pop -2 div
     dup 0 R} {dup 6 get Gswidth pop -2 div 0 R 6 get
     textshow 2 index {aload pop M neg 3 -1 roll neg R pop pop} {pop pop pop
     pop aload pop M} ifelse }ifelse }ifelse }
     ifelse }
   forall} def
/Gswidth {dup type /stringtype eq {stringwidth} {pop (n) stringwidth} ifelse} def
/MFwidth {0 exch { dup 5 get 3 ge { 5 get 3 eq { 0 } { pop } ifelse }
 {dup 3 get{dup dup 0 get findfont exch 1 get scalefont setfont
     6 get Gswidth pop add} {pop} ifelse} ifelse} forall} def
/MLshow { currentpoint stroke M
  0 exch R
  Blacktext {gsave 0 setgray MFshow grestore} {MFshow} ifelse } bind def
/MRshow { currentpoint stroke M
  exch dup MFwidth neg 3 -1 roll R
  Blacktext {gsave 0 setgray MFshow grestore} {MFshow} ifelse } bind def
/MCshow { currentpoint stroke M
  exch dup MFwidth -2 div 3 -1 roll R
  Blacktext {gsave 0 setgray MFshow grestore} {MFshow} ifelse } bind def
/XYsave    { [( ) 1 2 true false 3 ()] } bind def
/XYrestore { [( ) 1 2 true false 4 ()] } bind def
Level1 SuppressPDFMark or 
{} {
/SDict 10 dict def
systemdict /pdfmark known not {
  userdict /pdfmark systemdict /cleartomark get put
} if
SDict begin [
  /Title (files/output/PLOT_benchmark3_compression_size.eps)
  /Subject (gnuplot plot)
  /Creator (gnuplot 5.2 patchlevel 8)
%  /Producer (gnuplot)
%  /Keywords ()
  /CreationDate (Mon Sep 14 01:23:04 2020)
  /DOCINFO pdfmark
end
} ifelse
%
% Support for boxed text - Ethan A Merritt Sep 2016
%
/InitTextBox { userdict /TBy2 3 -1 roll put userdict /TBx2 3 -1 roll put
           userdict /TBy1 3 -1 roll put userdict /TBx1 3 -1 roll put
	   /Boxing true def } def
/ExtendTextBox { dup type /stringtype eq
    { Boxing { gsave dup false charpath pathbbox
      dup TBy2 gt {userdict /TBy2 3 -1 roll put} {pop} ifelse
      dup TBx2 gt {userdict /TBx2 3 -1 roll put} {pop} ifelse
      dup TBy1 lt {userdict /TBy1 3 -1 roll put} {pop} ifelse
      dup TBx1 lt {userdict /TBx1 3 -1 roll put} {pop} ifelse
      grestore } if }
    {} ifelse} def
/PopTextBox { newpath TBx1 TBxmargin sub TBy1 TBymargin sub M
               TBx1 TBxmargin sub TBy2 TBymargin add L
	       TBx2 TBxmargin add TBy2 TBymargin add L
	       TBx2 TBxmargin add TBy1 TBymargin sub L closepath } def
/DrawTextBox { PopTextBox stroke /Boxing false def} def
/FillTextBox { gsave PopTextBox fill grestore /Boxing false def} def
0 0 0 0 InitTextBox
/TBxmargin 20 def
/TBymargin 20 def
/Boxing false def
/textshow { ExtendTextBox Gshow } def
%
end
%%EndProlog
%%Page: 1 1
gnudict begin
gsave
doclip
50 50 translate
0.050 0.050 scale
0 setgray
newpath
(Helvetica) findfont 200 scalefont setfont
BackgroundColor 0 lt 3 1 roll 0 lt exch 0 lt or or not {BackgroundColor C 1.000 0 0 7200.00 5040.00 BoxColFill} if
1.000 UL
LTb
LCb setrgbcolor
0.500 UL
LTa
LCa setrgbcolor
980 640 M
5859 0 V
stroke
1.000 UL
LTb
LCb setrgbcolor
980 640 M
126 0 V
5733 0 R
-126 0 V
stroke
860 640 M
[ [(Helvetica) 200.0 0.0 true true 0 (0 )]
] -66.7 MRshow
/Helvetica findfont 200 scalefont setfont
/vshift -66 def
1.000 UL
LTb
LCb setrgbcolor
0.500 UL
LTa
LCa setrgbcolor
980 1183 M
3396 0 V
2343 0 R
120 0 V
stroke
1.000 UL
LTb
LCb setrgbcolor
980 1183 M
126 0 V
5733 0 R
-126 0 V
stroke
860 1183 M
[ [(Helvetica) 200.0 0.0 true true 0 (100k)]
] -66.7 MRshow
/Helvetica findfont 200 scalefont setfont
1.000 UL
LTb
LCb setrgbcolor
0.500 UL
LTa
LCa setrgbcolor
980 1725 M
5859 0 V
stroke
1.000 UL
LTb
LCb setrgbcolor
980 1725 M
126 0 V
5733 0 R
-126 0 V
stroke
860 1725 M
[ [(Helvetica) 200.0 0.0 true true 0 (200k)]
] -66.7 MRshow
/Helvetica findfont 200 scalefont setfont
1.000 UL
LTb
LCb setrgbcolor
0.500 UL
LTa
LCa setrgbcolor
980 2268 M
5859 0 V
stroke
1.000 UL
LTb
LCb setrgbcolor
980 2268 M
126 0 V
5733 0 R
-126 0 V
stroke
860 2268 M
[ [(Helvetica) 200.0 0.0 true true 0 (300k)]
] -66.7 MRshow
/Helvetica findfont 200 scalefont setfont
1.000 UL
LTb
LCb setrgbcolor
0.500 UL
LTa
LCa setrgbcolor
980 2811 M
5859 0 V
stroke
1.000 UL
LTb
LCb setrgbcolor
980 2811 M
126 0 V
5733 0 R
-126 0 V
stroke
860 2811 M
[ [(Helvetica) 200.0 0.0 true true 0 (400k)]
] -66.7 MRshow
/Helvetica findfont 200 scalefont setfont
1.000 UL
LTb
LCb setrgbcolor
0.500 UL
LTa
LCa setrgbcolor
980 3354 M
5859 0 V
stroke
1.000 UL
LTb
LCb setrgbcolor
980 3354 M
126 0 V
5733 0 R
-126 0 V
stroke
860 3354 M
[ [(Helvetica) 200.0 0.0 true true 0 (500k)]
] -66.7 MRshow
/Helvetica findfont 200 scalefont setfont
1.000 UL
LTb
LCb setrgbcolor
0.500 UL
LTa
LCa setrgbcolor
980 3896 M
5859 0 V
stroke
1.000 UL
LTb
LCb setrgbcolor
980 3896 M
126 0 V
5733 0 R
-126 0 V
stroke
860 3896 M
[ [(Helvetica) 200.0 0.0 true true 0 (600k)]
] -66.7 MRshow
/Helvetica findfont 200 scalefont setfont
1.000 UL
LTb
LCb setrgbcolor
0.500 UL
LTa
LCa setrgbcolor
980 4439 M
5859 0 V
stroke
1.000 UL
LTb
LCb setrgbcolor
980 4439 M
126 0 V
5733 0 R
-126 0 V
stroke
860 4439 M
[ [(Helvetica) 200.0 0.0 true true 0 (700k)]
] -66.7 MRshow
/Helvetica findfont 200 scalefont setfont
1.000 UL
LTb
LCb setrgbcolor
0.500 UL
LTa
LCa setrgbcolor
980 640 M
0 3799 V
stroke
1.000 UL
LTb
LCb setrgbcolor
980 640 M
0 126 V
0 3673 R
0 -126 V
stroke
980 440 M
[ [(Helvetica) 200.0 0.0 true true 0 (0 )]
] -66.7 MCshow
/Helvetica findfont 200 scalefont setfont
1.000 UL
LTb
LCb setrgbcolor
0.500 UL
LTa
LCa setrgbcolor
1712 640 M
0 3799 V
stroke
1.000 UL
LTb
LCb setrgbcolor
1712 640 M
0 126 V
0 3673 R
0 -126 V
stroke
1712 440 M
[ [(Helvetica) 200.0 0.0 true true 0 (5k)]
] -66.7 MCshow
/Helvetica findfont 200 scalefont setfont
1.000 UL
LTb
LCb setrgbcolor
0.500 UL
LTa
LCa setrgbcolor
2445 640 M
0 3799 V
stroke
1.000 UL
LTb
LCb setrgbcolor
2445 640 M
0 126 V
0 3673 R
0 -126 V
stroke
2445 440 M
[ [(Helvetica) 200.0 0.0 true true 0 (10k)]
] -66.7 MCshow
/Helvetica findfont 200 scalefont setfont
1.000 UL
LTb
LCb setrgbcolor
0.500 UL
LTa
LCa setrgbcolor
3177 640 M
0 3799 V
stroke
1.000 UL
LTb
LCb setrgbcolor
3177 640 M
0 126 V
0 3673 R
0 -126 V
stroke
3177 440 M
[ [(Helvetica) 200.0 0.0 true true 0 (15k)]
] -66.7 MCshow
/Helvetica findfont 200 scalefont setfont
1.000 UL
LTb
LCb setrgbcolor
0.500 UL
LTa
LCa setrgbcolor
3910 640 M
0 3799 V
stroke
1.000 UL
LTb
LCb setrgbcolor
3910 640 M
0 126 V
0 3673 R
0 -126 V
stroke
3910 440 M
[ [(Helvetica) 200.0 0.0 true true 0 (20k)]
] -66.7 MCshow
/Helvetica findfont 200 scalefont setfont
1.000 UL
LTb
LCb setrgbcolor
0.500 UL
LTa
LCa setrgbcolor
4642 640 M
0 63 V
0 600 R
0 3136 V
stroke
1.000 UL
LTb
LCb setrgbcolor
4642 640 M
0 126 V
0 3673 R
0 -126 V
stroke
4642 440 M
[ [(Helvetica) 200.0 0.0 true true 0 (25k)]
] -66.7 MCshow
/Helvetica findfont 200 scalefont setfont
1.000 UL
LTb
LCb setrgbcolor
0.500 UL
LTa
LCa setrgbcolor
5374 640 M
0 63 V
0 600 R
0 3136 V
stroke
1.000 UL
LTb
LCb setrgbcolor
5374 640 M
0 126 V
0 3673 R
0 -126 V
stroke
5374 440 M
[ [(Helvetica) 200.0 0.0 true true 0 (30k)]
] -66.7 MCshow
/Helvetica findfont 200 scalefont setfont
1.000 UL
LTb
LCb setrgbcolor
0.500 UL
LTa
LCa setrgbcolor
6107 640 M
0 63 V
0 600 R
0 3136 V
stroke
1.000 UL
LTb
LCb setrgbcolor
6107 640 M
0 126 V
0 3673 R
0 -126 V
stroke
6107 440 M
[ [(Helvetica) 200.0 0.0 true true 0 (35k)]
] -66.7 MCshow
/Helvetica findfont 200 scalefont setfont
1.000 UL
LTb
LCb setrgbcolor
0.500 UL
LTa
LCa setrgbcolor
6839 640 M
0 3799 V
stroke
1.000 UL
LTb
LCb setrgbcolor
6839 640 M
0 126 V
0 3673 R
0 -126 V
stroke
6839 440 M
[ [(Helvetica) 200.0 0.0 true true 0 (40k)]
] -66.7 MCshow
/Helvetica findfont 200 scalefont setfont
1.000 UL
LTb
LCb setrgbcolor
1.000 UL
LTB
LCb setrgbcolor
980 4439 N
980 640 L
5859 0 V
0 3799 V
-5859 0 V
Z stroke
1.000 UP
1.000 UL
LTb
LCb setrgbcolor
LCb setrgbcolor
190 2539 M
currentpoint gsave translate -270 rotate 0 0 moveto
[ [(Helvetica) 200.0 0.0 true true 0 (Bits in big O)]
] -66.7 MCshow
grestore
/Helvetica findfont 200 scalefont setfont
LTb
LCb setrgbcolor
3909 140 M
[ [(Helvetica) 200.0 0.0 true true 0 (Number of vertices)]
] -66.7 MCshow
/Helvetica findfont 200 scalefont setfont
LTb
LCb setrgbcolor
3909 4739 M
[ [(Helvetica) 200.0 0.0 true true 0 (Bits in big O)]
] -66.7 MCshow
/Helvetica findfont 200 scalefont setfont
LTb
% Begin plot #1
1.000 UP
1.000 UL
LTb
0.58 0.00 0.83 C
LCb setrgbcolor
5936 1203 M
[ [(Helvetica) 200.0 0.0 true true 0 (Bits in big O)]
] -66.7 MRshow
/Helvetica findfont 200 scalefont setfont
1.000 UP
1.000 UL
LTb
0.58 0.00 0.83 C
6056 1203 M
543 0 V
1141 682 M
15 4 V
14 4 V
15 4 V
15 4 V
14 3 V
15 4 V
15 4 V
14 4 V
15 4 V
15 3 V
14 4 V
15 4 V
15 4 V
14 4 V
15 4 V
14 3 V
15 4 V
15 4 V
14 4 V
15 3 V
15 4 V
14 4 V
15 4 V
15 4 V
14 3 V
15 4 V
15 4 V
14 4 V
15 4 V
15 3 V
14 4 V
15 4 V
14 4 V
15 4 V
15 3 V
14 4 V
15 4 V
15 4 V
14 4 V
15 4 V
15 3 V
14 4 V
15 4 V
15 4 V
14 4 V
15 3 V
15 4 V
14 4 V
15 4 V
14 4 V
15 3 V
15 4 V
14 4 V
15 4 V
15 4 V
14 3 V
15 4 V
15 4 V
14 4 V
15 4 V
15 3 V
14 4 V
15 4 V
15 4 V
14 4 V
15 3 V
15 4 V
14 4 V
15 4 V
14 4 V
15 4 V
15 3 V
14 4 V
15 4 V
15 4 V
14 3 V
15 4 V
15 4 V
14 4 V
15 4 V
15 3 V
14 4 V
15 4 V
15 4 V
14 4 V
15 4 V
14 3 V
15 4 V
15 4 V
146 38 V
147 38 V
146 38 V
147 38 V
146 38 V
147 38 V
146 38 V
147 38 V
146 38 V
147 38 V
146 38 V
146 38 V
147 38 V
146 38 V
147 38 V
146 38 V
147 38 V
146 38 V
147 38 V
146 38 V
147 38 V
146 38 V
147 38 V
146 39 V
147 37 V
146 38 V
147 38 V
146 38 V
147 38 V
146 38 V
1141 682 Circle
1156 686 Circle
1170 690 Circle
1185 694 Circle
1200 698 Circle
1214 701 Circle
1229 705 Circle
1244 709 Circle
1258 713 Circle
1273 717 Circle
1288 720 Circle
1302 724 Circle
1317 728 Circle
1332 732 Circle
1346 736 Circle
1361 740 Circle
1375 743 Circle
1390 747 Circle
1405 751 Circle
1419 755 Circle
1434 758 Circle
1449 762 Circle
1463 766 Circle
1478 770 Circle
1493 774 Circle
1507 777 Circle
1522 781 Circle
1537 785 Circle
1551 789 Circle
1566 793 Circle
1581 796 Circle
1595 800 Circle
1610 804 Circle
1624 808 Circle
1639 812 Circle
1654 815 Circle
1668 819 Circle
1683 823 Circle
1698 827 Circle
1712 831 Circle
1727 835 Circle
1742 838 Circle
1756 842 Circle
1771 846 Circle
1786 850 Circle
1800 854 Circle
1815 857 Circle
1830 861 Circle
1844 865 Circle
1859 869 Circle
1873 873 Circle
1888 876 Circle
1903 880 Circle
1917 884 Circle
1932 888 Circle
1947 892 Circle
1961 895 Circle
1976 899 Circle
1991 903 Circle
2005 907 Circle
2020 911 Circle
2035 914 Circle
2049 918 Circle
2064 922 Circle
2079 926 Circle
2093 930 Circle
2108 933 Circle
2123 937 Circle
2137 941 Circle
2152 945 Circle
2166 949 Circle
2181 953 Circle
2196 956 Circle
2210 960 Circle
2225 964 Circle
2240 968 Circle
2254 971 Circle
2269 975 Circle
2284 979 Circle
2298 983 Circle
2313 987 Circle
2328 990 Circle
2342 994 Circle
2357 998 Circle
2372 1002 Circle
2386 1006 Circle
2401 1010 Circle
2415 1013 Circle
2430 1017 Circle
2445 1021 Circle
2591 1059 Circle
2738 1097 Circle
2884 1135 Circle
3031 1173 Circle
3177 1211 Circle
3324 1249 Circle
3470 1287 Circle
3617 1325 Circle
3763 1363 Circle
3910 1401 Circle
4056 1439 Circle
4202 1477 Circle
4349 1515 Circle
4495 1553 Circle
4642 1591 Circle
4788 1629 Circle
4935 1667 Circle
5081 1705 Circle
5228 1743 Circle
5374 1781 Circle
5521 1819 Circle
5667 1857 Circle
5814 1895 Circle
5960 1934 Circle
6107 1971 Circle
6253 2009 Circle
6400 2047 Circle
6546 2085 Circle
6693 2123 Circle
6839 2161 Circle
6327 1203 Circle
% End plot #1
% Begin plot #2
1.000 UP
1.000 UL
LTb
0.00 0.62 0.45 C
LCb setrgbcolor
5936 1003 M
[ [(Helvetica) 200.0 0.0 true true 0 (n log log n)]
] -66.7 MRshow
/Helvetica findfont 200 scalefont setfont
1.000 UP
1.000 UL
LTb
0.00 0.62 0.45 C
6056 1003 M
543 0 V
1141 660 M
15 2 V
14 2 V
15 2 V
15 2 V
14 2 V
15 2 V
15 2 V
14 2 V
15 2 V
15 1 V
14 2 V
15 2 V
15 2 V
14 2 V
15 2 V
14 2 V
15 2 V
15 2 V
14 2 V
15 2 V
15 3 V
14 2 V
15 2 V
15 2 V
14 2 V
15 2 V
15 2 V
14 2 V
15 2 V
15 2 V
14 2 V
15 2 V
14 2 V
15 2 V
15 2 V
14 2 V
15 2 V
15 2 V
14 2 V
15 2 V
15 2 V
14 2 V
15 2 V
15 3 V
14 2 V
15 2 V
15 2 V
14 2 V
15 2 V
14 2 V
15 2 V
15 2 V
14 2 V
15 2 V
15 2 V
14 2 V
15 2 V
15 3 V
14 2 V
15 2 V
15 2 V
14 2 V
15 2 V
15 2 V
14 2 V
15 2 V
15 2 V
14 2 V
15 2 V
14 3 V
15 2 V
15 2 V
14 2 V
15 2 V
15 2 V
14 2 V
15 2 V
15 2 V
14 2 V
15 3 V
15 2 V
14 2 V
15 2 V
15 2 V
14 2 V
15 2 V
14 2 V
15 2 V
15 3 V
146 21 V
147 21 V
146 21 V
147 21 V
146 22 V
147 21 V
146 22 V
147 21 V
146 22 V
147 21 V
146 22 V
146 22 V
147 21 V
146 22 V
147 22 V
146 22 V
147 22 V
146 21 V
147 22 V
146 22 V
147 22 V
146 22 V
147 22 V
146 22 V
147 22 V
146 22 V
147 22 V
146 22 V
147 22 V
146 22 V
1141 660 Circle
1156 662 Circle
1170 664 Circle
1185 666 Circle
1200 668 Circle
1214 670 Circle
1229 672 Circle
1244 674 Circle
1258 676 Circle
1273 678 Circle
1288 679 Circle
1302 681 Circle
1317 683 Circle
1332 685 Circle
1346 687 Circle
1361 689 Circle
1375 691 Circle
1390 693 Circle
1405 695 Circle
1419 697 Circle
1434 699 Circle
1449 702 Circle
1463 704 Circle
1478 706 Circle
1493 708 Circle
1507 710 Circle
1522 712 Circle
1537 714 Circle
1551 716 Circle
1566 718 Circle
1581 720 Circle
1595 722 Circle
1610 724 Circle
1624 726 Circle
1639 728 Circle
1654 730 Circle
1668 732 Circle
1683 734 Circle
1698 736 Circle
1712 738 Circle
1727 740 Circle
1742 742 Circle
1756 744 Circle
1771 746 Circle
1786 749 Circle
1800 751 Circle
1815 753 Circle
1830 755 Circle
1844 757 Circle
1859 759 Circle
1873 761 Circle
1888 763 Circle
1903 765 Circle
1917 767 Circle
1932 769 Circle
1947 771 Circle
1961 773 Circle
1976 775 Circle
1991 778 Circle
2005 780 Circle
2020 782 Circle
2035 784 Circle
2049 786 Circle
2064 788 Circle
2079 790 Circle
2093 792 Circle
2108 794 Circle
2123 796 Circle
2137 798 Circle
2152 800 Circle
2166 803 Circle
2181 805 Circle
2196 807 Circle
2210 809 Circle
2225 811 Circle
2240 813 Circle
2254 815 Circle
2269 817 Circle
2284 819 Circle
2298 821 Circle
2313 824 Circle
2328 826 Circle
2342 828 Circle
2357 830 Circle
2372 832 Circle
2386 834 Circle
2401 836 Circle
2415 838 Circle
2430 840 Circle
2445 843 Circle
2591 864 Circle
2738 885 Circle
2884 906 Circle
3031 927 Circle
3177 949 Circle
3324 970 Circle
3470 992 Circle
3617 1013 Circle
3763 1035 Circle
3910 1056 Circle
4056 1078 Circle
4202 1100 Circle
4349 1121 Circle
4495 1143 Circle
4642 1165 Circle
4788 1187 Circle
4935 1209 Circle
5081 1230 Circle
5228 1252 Circle
5374 1274 Circle
5521 1296 Circle
5667 1318 Circle
5814 1340 Circle
5960 1362 Circle
6107 1384 Circle
6253 1406 Circle
6400 1428 Circle
6546 1450 Circle
6693 1472 Circle
6839 1494 Circle
6327 1003 Circle
% End plot #2
% Begin plot #3
1.000 UP
1.000 UL
LTb
0.34 0.71 0.91 C
LCb setrgbcolor
5936 803 M
[ [(Helvetica) 200.0 0.0 true true 0 (n log n)]
] -66.7 MRshow
/Helvetica findfont 200 scalefont setfont
1.000 UP
1.000 UL
LTb
0.34 0.71 0.91 C
6056 803 M
543 0 V
1141 700 M
15 7 V
14 6 V
15 6 V
15 7 V
14 6 V
15 7 V
15 7 V
14 6 V
15 7 V
15 7 V
14 7 V
15 6 V
15 7 V
14 7 V
15 7 V
14 7 V
15 7 V
15 7 V
14 7 V
15 7 V
15 7 V
14 7 V
15 7 V
15 8 V
14 7 V
15 7 V
15 7 V
14 7 V
15 8 V
15 7 V
14 7 V
15 8 V
14 7 V
15 7 V
15 8 V
14 7 V
15 8 V
15 7 V
14 7 V
15 8 V
15 7 V
14 8 V
15 7 V
15 8 V
14 7 V
15 8 V
15 8 V
14 7 V
15 8 V
14 7 V
15 8 V
15 8 V
14 7 V
15 8 V
15 7 V
14 8 V
15 8 V
15 8 V
14 7 V
15 8 V
15 8 V
14 7 V
15 8 V
15 8 V
14 8 V
15 8 V
15 7 V
14 8 V
15 8 V
14 8 V
15 8 V
15 7 V
14 8 V
15 8 V
15 8 V
14 8 V
15 8 V
15 8 V
14 8 V
15 8 V
15 7 V
14 8 V
15 8 V
15 8 V
14 8 V
15 8 V
14 8 V
15 8 V
15 8 V
146 80 V
147 82 V
146 81 V
147 82 V
146 83 V
147 84 V
146 84 V
147 84 V
146 85 V
147 85 V
146 85 V
146 86 V
147 87 V
146 86 V
147 87 V
146 87 V
147 88 V
146 88 V
147 88 V
146 88 V
147 89 V
146 89 V
147 89 V
146 90 V
147 89 V
146 90 V
147 90 V
146 91 V
147 90 V
146 91 V
1141 700 Circle
1156 707 Circle
1170 713 Circle
1185 719 Circle
1200 726 Circle
1214 732 Circle
1229 739 Circle
1244 746 Circle
1258 752 Circle
1273 759 Circle
1288 766 Circle
1302 773 Circle
1317 779 Circle
1332 786 Circle
1346 793 Circle
1361 800 Circle
1375 807 Circle
1390 814 Circle
1405 821 Circle
1419 828 Circle
1434 835 Circle
1449 842 Circle
1463 849 Circle
1478 856 Circle
1493 864 Circle
1507 871 Circle
1522 878 Circle
1537 885 Circle
1551 892 Circle
1566 900 Circle
1581 907 Circle
1595 914 Circle
1610 922 Circle
1624 929 Circle
1639 936 Circle
1654 944 Circle
1668 951 Circle
1683 959 Circle
1698 966 Circle
1712 973 Circle
1727 981 Circle
1742 988 Circle
1756 996 Circle
1771 1003 Circle
1786 1011 Circle
1800 1018 Circle
1815 1026 Circle
1830 1034 Circle
1844 1041 Circle
1859 1049 Circle
1873 1056 Circle
1888 1064 Circle
1903 1072 Circle
1917 1079 Circle
1932 1087 Circle
1947 1094 Circle
1961 1102 Circle
1976 1110 Circle
1991 1118 Circle
2005 1125 Circle
2020 1133 Circle
2035 1141 Circle
2049 1148 Circle
2064 1156 Circle
2079 1164 Circle
2093 1172 Circle
2108 1180 Circle
2123 1187 Circle
2137 1195 Circle
2152 1203 Circle
2166 1211 Circle
2181 1219 Circle
2196 1226 Circle
2210 1234 Circle
2225 1242 Circle
2240 1250 Circle
2254 1258 Circle
2269 1266 Circle
2284 1274 Circle
2298 1282 Circle
2313 1290 Circle
2328 1297 Circle
2342 1305 Circle
2357 1313 Circle
2372 1321 Circle
2386 1329 Circle
2401 1337 Circle
2415 1345 Circle
2430 1353 Circle
2445 1361 Circle
2591 1441 Circle
2738 1523 Circle
2884 1604 Circle
3031 1686 Circle
3177 1769 Circle
3324 1853 Circle
3470 1937 Circle
3617 2021 Circle
3763 2106 Circle
3910 2191 Circle
4056 2276 Circle
4202 2362 Circle
4349 2449 Circle
4495 2535 Circle
4642 2622 Circle
4788 2709 Circle
4935 2797 Circle
5081 2885 Circle
5228 2973 Circle
5374 3061 Circle
5521 3150 Circle
5667 3239 Circle
5814 3328 Circle
5960 3418 Circle
6107 3507 Circle
6253 3597 Circle
6400 3687 Circle
6546 3778 Circle
6693 3868 Circle
6839 3959 Circle
6327 803 Circle
% End plot #3
2.000 UL
LTb
LCb setrgbcolor
1.000 UL
LTB
LCb setrgbcolor
980 4439 N
980 640 L
5859 0 V
0 3799 V
-5859 0 V
Z stroke
1.000 UP
1.000 UL
LTb
LCb setrgbcolor
stroke
grestore
end
showpage
%%Trailer
%%DocumentFonts: Helvetica
