%!PS-Adobe-2.0 EPSF-2.0
%%Title: files/output/PLOT_benchmark1_compression_size_samples.eps
%%Creator: gnuplot 5.2 patchlevel 8
%%CreationDate: Tue Sep 22 01:20:13 2020
%%DocumentFonts: (atend)
%%BoundingBox: 50 50 410 302
%%EndComments
%%BeginProlog
/gnudict 256 dict def
gnudict begin
%
% The following true/false flags may be edited by hand if desired.
% The unit line width and grayscale image gamma correction may also be changed.
%
/Color true def
/Blacktext false def
/Solid false def
/Dashlength 1 def
/Landscape false def
/Level1 false def
/Level3 false def
/Rounded false def
/ClipToBoundingBox false def
/SuppressPDFMark false def
/TransparentPatterns false def
/gnulinewidth 5.000 def
/userlinewidth gnulinewidth def
/Gamma 1.0 def
/BackgroundColor {-1.000 -1.000 -1.000} def
%
/vshift -66 def
/dl1 {
  10.0 Dashlength userlinewidth gnulinewidth div mul mul mul
  Rounded { currentlinewidth 0.75 mul sub dup 0 le { pop 0.01 } if } if
} def
/dl2 {
  10.0 Dashlength userlinewidth gnulinewidth div mul mul mul
  Rounded { currentlinewidth 0.75 mul add } if
} def
/hpt_ 31.5 def
/vpt_ 31.5 def
/hpt hpt_ def
/vpt vpt_ def
/doclip {
  ClipToBoundingBox {
    newpath 50 50 moveto 410 50 lineto 410 302 lineto 50 302 lineto closepath
    clip
  } if
} def
%
% Gnuplot Prolog Version 5.2 (Dec 2017)
%
%/SuppressPDFMark true def
%
/M {moveto} bind def
/L {lineto} bind def
/R {rmoveto} bind def
/V {rlineto} bind def
/N {newpath moveto} bind def
/Z {closepath} bind def
/C {setrgbcolor} bind def
/f {rlineto fill} bind def
/g {setgray} bind def
/Gshow {show} def   % May be redefined later in the file to support UTF-8
/vpt2 vpt 2 mul def
/hpt2 hpt 2 mul def
/Lshow {currentpoint stroke M 0 vshift R 
	Blacktext {gsave 0 setgray textshow grestore} {textshow} ifelse} def
/Rshow {currentpoint stroke M dup stringwidth pop neg vshift R
	Blacktext {gsave 0 setgray textshow grestore} {textshow} ifelse} def
/Cshow {currentpoint stroke M dup stringwidth pop -2 div vshift R 
	Blacktext {gsave 0 setgray textshow grestore} {textshow} ifelse} def
/UP {dup vpt_ mul /vpt exch def hpt_ mul /hpt exch def
  /hpt2 hpt 2 mul def /vpt2 vpt 2 mul def} def
/DL {Color {setrgbcolor Solid {pop []} if 0 setdash}
 {pop pop pop 0 setgray Solid {pop []} if 0 setdash} ifelse} def
/BL {stroke userlinewidth 2 mul setlinewidth
	Rounded {1 setlinejoin 1 setlinecap} if} def
/AL {stroke userlinewidth 2 div setlinewidth
	Rounded {1 setlinejoin 1 setlinecap} if} def
/UL {dup gnulinewidth mul /userlinewidth exch def
	dup 1 lt {pop 1} if 10 mul /udl exch def} def
/PL {stroke userlinewidth setlinewidth
	Rounded {1 setlinejoin 1 setlinecap} if} def
3.8 setmiterlimit
% Classic Line colors (version 5.0)
/LCw {1 1 1} def
/LCb {0 0 0} def
/LCa {0 0 0} def
/LC0 {1 0 0} def
/LC1 {0 1 0} def
/LC2 {0 0 1} def
/LC3 {1 0 1} def
/LC4 {0 1 1} def
/LC5 {1 1 0} def
/LC6 {0 0 0} def
/LC7 {1 0.3 0} def
/LC8 {0.5 0.5 0.5} def
% Default dash patterns (version 5.0)
/LTB {BL [] LCb DL} def
/LTw {PL [] 1 setgray} def
/LTb {PL [] LCb DL} def
/LTa {AL [1 udl mul 2 udl mul] 0 setdash LCa setrgbcolor} def
/LT0 {PL [] LC0 DL} def
/LT1 {PL [2 dl1 3 dl2] LC1 DL} def
/LT2 {PL [1 dl1 1.5 dl2] LC2 DL} def
/LT3 {PL [6 dl1 2 dl2 1 dl1 2 dl2] LC3 DL} def
/LT4 {PL [1 dl1 2 dl2 6 dl1 2 dl2 1 dl1 2 dl2] LC4 DL} def
/LT5 {PL [4 dl1 2 dl2] LC5 DL} def
/LT6 {PL [1.5 dl1 1.5 dl2 1.5 dl1 1.5 dl2 1.5 dl1 6 dl2] LC6 DL} def
/LT7 {PL [3 dl1 3 dl2 1 dl1 3 dl2] LC7 DL} def
/LT8 {PL [2 dl1 2 dl2 2 dl1 6 dl2] LC8 DL} def
/SL {[] 0 setdash} def
/Pnt {stroke [] 0 setdash gsave 1 setlinecap M 0 0 V stroke grestore} def
/Dia {stroke [] 0 setdash 2 copy vpt add M
  hpt neg vpt neg V hpt vpt neg V
  hpt vpt V hpt neg vpt V closepath stroke
  Pnt} def
/Pls {stroke [] 0 setdash vpt sub M 0 vpt2 V
  currentpoint stroke M
  hpt neg vpt neg R hpt2 0 V stroke
 } def
/Box {stroke [] 0 setdash 2 copy exch hpt sub exch vpt add M
  0 vpt2 neg V hpt2 0 V 0 vpt2 V
  hpt2 neg 0 V closepath stroke
  Pnt} def
/Crs {stroke [] 0 setdash exch hpt sub exch vpt add M
  hpt2 vpt2 neg V currentpoint stroke M
  hpt2 neg 0 R hpt2 vpt2 V stroke} def
/TriU {stroke [] 0 setdash 2 copy vpt 1.12 mul add M
  hpt neg vpt -1.62 mul V
  hpt 2 mul 0 V
  hpt neg vpt 1.62 mul V closepath stroke
  Pnt} def
/Star {2 copy Pls Crs} def
/BoxF {stroke [] 0 setdash exch hpt sub exch vpt add M
  0 vpt2 neg V hpt2 0 V 0 vpt2 V
  hpt2 neg 0 V closepath fill} def
/TriUF {stroke [] 0 setdash vpt 1.12 mul add M
  hpt neg vpt -1.62 mul V
  hpt 2 mul 0 V
  hpt neg vpt 1.62 mul V closepath fill} def
/TriD {stroke [] 0 setdash 2 copy vpt 1.12 mul sub M
  hpt neg vpt 1.62 mul V
  hpt 2 mul 0 V
  hpt neg vpt -1.62 mul V closepath stroke
  Pnt} def
/TriDF {stroke [] 0 setdash vpt 1.12 mul sub M
  hpt neg vpt 1.62 mul V
  hpt 2 mul 0 V
  hpt neg vpt -1.62 mul V closepath fill} def
/DiaF {stroke [] 0 setdash vpt add M
  hpt neg vpt neg V hpt vpt neg V
  hpt vpt V hpt neg vpt V closepath fill} def
/Pent {stroke [] 0 setdash 2 copy gsave
  translate 0 hpt M 4 {72 rotate 0 hpt L} repeat
  closepath stroke grestore Pnt} def
/PentF {stroke [] 0 setdash gsave
  translate 0 hpt M 4 {72 rotate 0 hpt L} repeat
  closepath fill grestore} def
/Circle {stroke [] 0 setdash 2 copy
  hpt 0 360 arc stroke Pnt} def
/CircleF {stroke [] 0 setdash hpt 0 360 arc fill} def
/C0 {BL [] 0 setdash 2 copy moveto vpt 90 450 arc} bind def
/C1 {BL [] 0 setdash 2 copy moveto
	2 copy vpt 0 90 arc closepath fill
	vpt 0 360 arc closepath} bind def
/C2 {BL [] 0 setdash 2 copy moveto
	2 copy vpt 90 180 arc closepath fill
	vpt 0 360 arc closepath} bind def
/C3 {BL [] 0 setdash 2 copy moveto
	2 copy vpt 0 180 arc closepath fill
	vpt 0 360 arc closepath} bind def
/C4 {BL [] 0 setdash 2 copy moveto
	2 copy vpt 180 270 arc closepath fill
	vpt 0 360 arc closepath} bind def
/C5 {BL [] 0 setdash 2 copy moveto
	2 copy vpt 0 90 arc
	2 copy moveto
	2 copy vpt 180 270 arc closepath fill
	vpt 0 360 arc} bind def
/C6 {BL [] 0 setdash 2 copy moveto
	2 copy vpt 90 270 arc closepath fill
	vpt 0 360 arc closepath} bind def
/C7 {BL [] 0 setdash 2 copy moveto
	2 copy vpt 0 270 arc closepath fill
	vpt 0 360 arc closepath} bind def
/C8 {BL [] 0 setdash 2 copy moveto
	2 copy vpt 270 360 arc closepath fill
	vpt 0 360 arc closepath} bind def
/C9 {BL [] 0 setdash 2 copy moveto
	2 copy vpt 270 450 arc closepath fill
	vpt 0 360 arc closepath} bind def
/C10 {BL [] 0 setdash 2 copy 2 copy moveto vpt 270 360 arc closepath fill
	2 copy moveto
	2 copy vpt 90 180 arc closepath fill
	vpt 0 360 arc closepath} bind def
/C11 {BL [] 0 setdash 2 copy moveto
	2 copy vpt 0 180 arc closepath fill
	2 copy moveto
	2 copy vpt 270 360 arc closepath fill
	vpt 0 360 arc closepath} bind def
/C12 {BL [] 0 setdash 2 copy moveto
	2 copy vpt 180 360 arc closepath fill
	vpt 0 360 arc closepath} bind def
/C13 {BL [] 0 setdash 2 copy moveto
	2 copy vpt 0 90 arc closepath fill
	2 copy moveto
	2 copy vpt 180 360 arc closepath fill
	vpt 0 360 arc closepath} bind def
/C14 {BL [] 0 setdash 2 copy moveto
	2 copy vpt 90 360 arc closepath fill
	vpt 0 360 arc} bind def
/C15 {BL [] 0 setdash 2 copy vpt 0 360 arc closepath fill
	vpt 0 360 arc closepath} bind def
/Rec {newpath 4 2 roll moveto 1 index 0 rlineto 0 exch rlineto
	neg 0 rlineto closepath} bind def
/Square {dup Rec} bind def
/Bsquare {vpt sub exch vpt sub exch vpt2 Square} bind def
/S0 {BL [] 0 setdash 2 copy moveto 0 vpt rlineto BL Bsquare} bind def
/S1 {BL [] 0 setdash 2 copy vpt Square fill Bsquare} bind def
/S2 {BL [] 0 setdash 2 copy exch vpt sub exch vpt Square fill Bsquare} bind def
/S3 {BL [] 0 setdash 2 copy exch vpt sub exch vpt2 vpt Rec fill Bsquare} bind def
/S4 {BL [] 0 setdash 2 copy exch vpt sub exch vpt sub vpt Square fill Bsquare} bind def
/S5 {BL [] 0 setdash 2 copy 2 copy vpt Square fill
	exch vpt sub exch vpt sub vpt Square fill Bsquare} bind def
/S6 {BL [] 0 setdash 2 copy exch vpt sub exch vpt sub vpt vpt2 Rec fill Bsquare} bind def
/S7 {BL [] 0 setdash 2 copy exch vpt sub exch vpt sub vpt vpt2 Rec fill
	2 copy vpt Square fill Bsquare} bind def
/S8 {BL [] 0 setdash 2 copy vpt sub vpt Square fill Bsquare} bind def
/S9 {BL [] 0 setdash 2 copy vpt sub vpt vpt2 Rec fill Bsquare} bind def
/S10 {BL [] 0 setdash 2 copy vpt sub vpt Square fill 2 copy exch vpt sub exch vpt Square fill
	Bsquare} bind def
/S11 {BL [] 0 setdash 2 copy vpt sub vpt Square fill 2 copy exch vpt sub exch vpt2 vpt Rec fill
	Bsquare} bind def
/S12 {BL [] 0 setdash 2 copy exch vpt sub exch vpt sub vpt2 vpt Rec fill Bsquare} bind def
/S13 {BL [] 0 setdash 2 copy exch vpt sub exch vpt sub vpt2 vpt Rec fill
	2 copy vpt Square fill Bsquare} bind def
/S14 {BL [] 0 setdash 2 copy exch vpt sub exch vpt sub vpt2 vpt Rec fill
	2 copy exch vpt sub exch vpt Square fill Bsquare} bind def
/S15 {BL [] 0 setdash 2 copy Bsquare fill Bsquare} bind def
/D0 {gsave translate 45 rotate 0 0 S0 stroke grestore} bind def
/D1 {gsave translate 45 rotate 0 0 S1 stroke grestore} bind def
/D2 {gsave translate 45 rotate 0 0 S2 stroke grestore} bind def
/D3 {gsave translate 45 rotate 0 0 S3 stroke grestore} bind def
/D4 {gsave translate 45 rotate 0 0 S4 stroke grestore} bind def
/D5 {gsave translate 45 rotate 0 0 S5 stroke grestore} bind def
/D6 {gsave translate 45 rotate 0 0 S6 stroke grestore} bind def
/D7 {gsave translate 45 rotate 0 0 S7 stroke grestore} bind def
/D8 {gsave translate 45 rotate 0 0 S8 stroke grestore} bind def
/D9 {gsave translate 45 rotate 0 0 S9 stroke grestore} bind def
/D10 {gsave translate 45 rotate 0 0 S10 stroke grestore} bind def
/D11 {gsave translate 45 rotate 0 0 S11 stroke grestore} bind def
/D12 {gsave translate 45 rotate 0 0 S12 stroke grestore} bind def
/D13 {gsave translate 45 rotate 0 0 S13 stroke grestore} bind def
/D14 {gsave translate 45 rotate 0 0 S14 stroke grestore} bind def
/D15 {gsave translate 45 rotate 0 0 S15 stroke grestore} bind def
/DiaE {stroke [] 0 setdash vpt add M
  hpt neg vpt neg V hpt vpt neg V
  hpt vpt V hpt neg vpt V closepath stroke} def
/BoxE {stroke [] 0 setdash exch hpt sub exch vpt add M
  0 vpt2 neg V hpt2 0 V 0 vpt2 V
  hpt2 neg 0 V closepath stroke} def
/TriUE {stroke [] 0 setdash vpt 1.12 mul add M
  hpt neg vpt -1.62 mul V
  hpt 2 mul 0 V
  hpt neg vpt 1.62 mul V closepath stroke} def
/TriDE {stroke [] 0 setdash vpt 1.12 mul sub M
  hpt neg vpt 1.62 mul V
  hpt 2 mul 0 V
  hpt neg vpt -1.62 mul V closepath stroke} def
/PentE {stroke [] 0 setdash gsave
  translate 0 hpt M 4 {72 rotate 0 hpt L} repeat
  closepath stroke grestore} def
/CircE {stroke [] 0 setdash 
  hpt 0 360 arc stroke} def
/Opaque {gsave closepath 1 setgray fill grestore 0 setgray closepath} def
/DiaW {stroke [] 0 setdash vpt add M
  hpt neg vpt neg V hpt vpt neg V
  hpt vpt V hpt neg vpt V Opaque stroke} def
/BoxW {stroke [] 0 setdash exch hpt sub exch vpt add M
  0 vpt2 neg V hpt2 0 V 0 vpt2 V
  hpt2 neg 0 V Opaque stroke} def
/TriUW {stroke [] 0 setdash vpt 1.12 mul add M
  hpt neg vpt -1.62 mul V
  hpt 2 mul 0 V
  hpt neg vpt 1.62 mul V Opaque stroke} def
/TriDW {stroke [] 0 setdash vpt 1.12 mul sub M
  hpt neg vpt 1.62 mul V
  hpt 2 mul 0 V
  hpt neg vpt -1.62 mul V Opaque stroke} def
/PentW {stroke [] 0 setdash gsave
  translate 0 hpt M 4 {72 rotate 0 hpt L} repeat
  Opaque stroke grestore} def
/CircW {stroke [] 0 setdash 
  hpt 0 360 arc Opaque stroke} def
/BoxFill {gsave Rec 1 setgray fill grestore} def
/Density {
  /Fillden exch def
  currentrgbcolor
  /ColB exch def /ColG exch def /ColR exch def
  /ColR ColR Fillden mul Fillden sub 1 add def
  /ColG ColG Fillden mul Fillden sub 1 add def
  /ColB ColB Fillden mul Fillden sub 1 add def
  ColR ColG ColB setrgbcolor} def
/BoxColFill {gsave Rec PolyFill} def
/PolyFill {gsave Density fill grestore grestore} def
/h {rlineto rlineto rlineto closepath gsave fill grestore stroke} bind def
%
% PostScript Level 1 Pattern Fill routine for rectangles
% Usage: x y w h s a XX PatternFill
%	x,y = lower left corner of box to be filled
%	w,h = width and height of box
%	  a = angle in degrees between lines and x-axis
%	 XX = 0/1 for no/yes cross-hatch
%
/PatternFill {gsave /PFa [ 9 2 roll ] def
  PFa 0 get PFa 2 get 2 div add PFa 1 get PFa 3 get 2 div add translate
  PFa 2 get -2 div PFa 3 get -2 div PFa 2 get PFa 3 get Rec
  TransparentPatterns {} {gsave 1 setgray fill grestore} ifelse
  clip
  currentlinewidth 0.5 mul setlinewidth
  /PFs PFa 2 get dup mul PFa 3 get dup mul add sqrt def
  0 0 M PFa 5 get rotate PFs -2 div dup translate
  0 1 PFs PFa 4 get div 1 add floor cvi
	{PFa 4 get mul 0 M 0 PFs V} for
  0 PFa 6 get ne {
	0 1 PFs PFa 4 get div 1 add floor cvi
	{PFa 4 get mul 0 2 1 roll M PFs 0 V} for
 } if
  stroke grestore} def
%
/languagelevel where
 {pop languagelevel} {1} ifelse
dup 2 lt
	{/InterpretLevel1 true def
	 /InterpretLevel3 false def}
	{/InterpretLevel1 Level1 def
	 2 gt
	    {/InterpretLevel3 Level3 def}
	    {/InterpretLevel3 false def}
	 ifelse }
 ifelse
%
% PostScript level 2 pattern fill definitions
%
/Level2PatternFill {
/Tile8x8 {/PaintType 2 /PatternType 1 /TilingType 1 /BBox [0 0 8 8] /XStep 8 /YStep 8}
	bind def
/KeepColor {currentrgbcolor [/Pattern /DeviceRGB] setcolorspace} bind def
<< Tile8x8
 /PaintProc {0.5 setlinewidth pop 0 0 M 8 8 L 0 8 M 8 0 L stroke} 
>> matrix makepattern
/Pat1 exch def
<< Tile8x8
 /PaintProc {0.5 setlinewidth pop 0 0 M 8 8 L 0 8 M 8 0 L stroke
	0 4 M 4 8 L 8 4 L 4 0 L 0 4 L stroke}
>> matrix makepattern
/Pat2 exch def
<< Tile8x8
 /PaintProc {0.5 setlinewidth pop 0 0 M 0 8 L
	8 8 L 8 0 L 0 0 L fill}
>> matrix makepattern
/Pat3 exch def
<< Tile8x8
 /PaintProc {0.5 setlinewidth pop -4 8 M 8 -4 L
	0 12 M 12 0 L stroke}
>> matrix makepattern
/Pat4 exch def
<< Tile8x8
 /PaintProc {0.5 setlinewidth pop -4 0 M 8 12 L
	0 -4 M 12 8 L stroke}
>> matrix makepattern
/Pat5 exch def
<< Tile8x8
 /PaintProc {0.5 setlinewidth pop -2 8 M 4 -4 L
	0 12 M 8 -4 L 4 12 M 10 0 L stroke}
>> matrix makepattern
/Pat6 exch def
<< Tile8x8
 /PaintProc {0.5 setlinewidth pop -2 0 M 4 12 L
	0 -4 M 8 12 L 4 -4 M 10 8 L stroke}
>> matrix makepattern
/Pat7 exch def
<< Tile8x8
 /PaintProc {0.5 setlinewidth pop 8 -2 M -4 4 L
	12 0 M -4 8 L 12 4 M 0 10 L stroke}
>> matrix makepattern
/Pat8 exch def
<< Tile8x8
 /PaintProc {0.5 setlinewidth pop 0 -2 M 12 4 L
	-4 0 M 12 8 L -4 4 M 8 10 L stroke}
>> matrix makepattern
/Pat9 exch def
/Pattern1 {PatternBgnd KeepColor Pat1 setpattern} bind def
/Pattern2 {PatternBgnd KeepColor Pat2 setpattern} bind def
/Pattern3 {PatternBgnd KeepColor Pat3 setpattern} bind def
/Pattern4 {PatternBgnd KeepColor Landscape {Pat5} {Pat4} ifelse setpattern} bind def
/Pattern5 {PatternBgnd KeepColor Landscape {Pat4} {Pat5} ifelse setpattern} bind def
/Pattern6 {PatternBgnd KeepColor Landscape {Pat9} {Pat6} ifelse setpattern} bind def
/Pattern7 {PatternBgnd KeepColor Landscape {Pat8} {Pat7} ifelse setpattern} bind def
} def
%
%
%End of PostScript Level 2 code
%
/PatternBgnd {
  TransparentPatterns {} {gsave 1 setgray fill grestore} ifelse
} def
%
% Substitute for Level 2 pattern fill codes with
% grayscale if Level 2 support is not selected.
%
/Level1PatternFill {
/Pattern1 {0.250 Density} bind def
/Pattern2 {0.500 Density} bind def
/Pattern3 {0.750 Density} bind def
/Pattern4 {0.125 Density} bind def
/Pattern5 {0.375 Density} bind def
/Pattern6 {0.625 Density} bind def
/Pattern7 {0.875 Density} bind def
} def
%
% Now test for support of Level 2 code
%
Level1 {Level1PatternFill} {Level2PatternFill} ifelse
%
/Symbol-Oblique /Symbol findfont [1 0 .167 1 0 0] makefont
dup length dict begin {1 index /FID eq {pop pop} {def} ifelse} forall
currentdict end definefont pop
%
/Metrics {ExtendTextBox Gswidth} def
/Lwidth {currentpoint stroke M 0 vshift R Metrics} def
/Rwidth {currentpoint stroke M dup stringwidth pop neg vshift R Metrics} def
/Cwidth {currentpoint stroke M dup stringwidth pop -2 div vshift R Metrics} def
/GLwidth {currentpoint stroke M 0 vshift R {ExtendTextBox} forall} def
/GRwidth {currentpoint stroke M dup Gwidth vshift R {ExtendTextBox} forall} def
/GCwidth {currentpoint stroke M dup Gwidth 2 div vshift R {ExtendTextBox} forall} def
/GLwidth2 {0 Gwidth AddGlyphWidth} def
/GRwidth2 {Gwidth -1 mul 0 AddGlyphWidth} def
/GCwidth2 {Gwidth 2 div dup -1 mul AddGlyphWidth} def
/AddGlyphWidth { dup TBx2 gt {userdict /TBx2 3 -1 roll put} {pop} ifelse
                 dup TBx1 lt {userdict /TBx1 3 -1 roll put} {pop} ifelse } def
/MFshow {
   { dup 5 get 3 ge
     { 5 get 3 eq {gsave} {grestore} ifelse }
     {dup dup 0 get findfont exch 1 get scalefont setfont
     [ currentpoint ] exch dup 2 get 0 exch R dup 5 get 2 ne {dup dup 6
     get exch 4 get {textshow} {Metrics pop 0 R} ifelse }if dup 5 get 0 eq
     {dup 3 get {2 get neg 0 exch R pop} {pop aload pop M} ifelse} {dup 5
     get 1 eq {dup 2 get exch dup 3 get exch 6 get Gswidth pop -2 div
     dup 0 R} {dup 6 get Gswidth pop -2 div 0 R 6 get
     textshow 2 index {aload pop M neg 3 -1 roll neg R pop pop} {pop pop pop
     pop aload pop M} ifelse }ifelse }ifelse }
     ifelse }
   forall} def
/Gswidth {dup type /stringtype eq {stringwidth} {pop (n) stringwidth} ifelse} def
/MFwidth {0 exch { dup 5 get 3 ge { 5 get 3 eq { 0 } { pop } ifelse }
 {dup 3 get{dup dup 0 get findfont exch 1 get scalefont setfont
     6 get Gswidth pop add} {pop} ifelse} ifelse} forall} def
/MLshow { currentpoint stroke M
  0 exch R
  Blacktext {gsave 0 setgray MFshow grestore} {MFshow} ifelse } bind def
/MRshow { currentpoint stroke M
  exch dup MFwidth neg 3 -1 roll R
  Blacktext {gsave 0 setgray MFshow grestore} {MFshow} ifelse } bind def
/MCshow { currentpoint stroke M
  exch dup MFwidth -2 div 3 -1 roll R
  Blacktext {gsave 0 setgray MFshow grestore} {MFshow} ifelse } bind def
/XYsave    { [( ) 1 2 true false 3 ()] } bind def
/XYrestore { [( ) 1 2 true false 4 ()] } bind def
Level1 SuppressPDFMark or 
{} {
/SDict 10 dict def
systemdict /pdfmark known not {
  userdict /pdfmark systemdict /cleartomark get put
} if
SDict begin [
  /Title (files/output/PLOT_benchmark1_compression_size_samples.eps)
  /Subject (gnuplot plot)
  /Creator (gnuplot 5.2 patchlevel 8)
%  /Producer (gnuplot)
%  /Keywords ()
  /CreationDate (Tue Sep 22 01:20:13 2020)
  /DOCINFO pdfmark
end
} ifelse
%
% Support for boxed text - Ethan A Merritt Sep 2016
%
/InitTextBox { userdict /TBy2 3 -1 roll put userdict /TBx2 3 -1 roll put
           userdict /TBy1 3 -1 roll put userdict /TBx1 3 -1 roll put
	   /Boxing true def } def
/ExtendTextBox { dup type /stringtype eq
    { Boxing { gsave dup false charpath pathbbox
      dup TBy2 gt {userdict /TBy2 3 -1 roll put} {pop} ifelse
      dup TBx2 gt {userdict /TBx2 3 -1 roll put} {pop} ifelse
      dup TBy1 lt {userdict /TBy1 3 -1 roll put} {pop} ifelse
      dup TBx1 lt {userdict /TBx1 3 -1 roll put} {pop} ifelse
      grestore } if }
    {} ifelse} def
/PopTextBox { newpath TBx1 TBxmargin sub TBy1 TBymargin sub M
               TBx1 TBxmargin sub TBy2 TBymargin add L
	       TBx2 TBxmargin add TBy2 TBymargin add L
	       TBx2 TBxmargin add TBy1 TBymargin sub L closepath } def
/DrawTextBox { PopTextBox stroke /Boxing false def} def
/FillTextBox { gsave PopTextBox fill grestore /Boxing false def} def
0 0 0 0 InitTextBox
/TBxmargin 20 def
/TBymargin 20 def
/Boxing false def
/textshow { ExtendTextBox Gshow } def
%
end
%%EndProlog
%%Page: 1 1
gnudict begin
gsave
doclip
50 50 translate
0.050 0.050 scale
0 setgray
newpath
(Helvetica) findfont 200 scalefont setfont
BackgroundColor 0 lt 3 1 roll 0 lt exch 0 lt or or not {BackgroundColor C 1.000 0 0 7200.00 5040.00 BoxColFill} if
1.000 UL
LTB
LCb setrgbcolor
980 4439 N
980 640 L
5859 0 V
0 3799 V
-5859 0 V
Z stroke
1.000 UP
1.000 UL
LTb
LCb setrgbcolor
LCb setrgbcolor
190 2539 M
currentpoint gsave translate -270 rotate 0 0 moveto
[ [(Helvetica) 200.0 0.0 true true 0 (Gain over graph entropy)]
] -66.7 MCshow
grestore
/Helvetica findfont 200 scalefont setfont
/vshift -66 def
LTb
LCb setrgbcolor
3909 140 M
[ [(Helvetica) 200.0 0.0 true true 0 (Number of vertices)]
] -66.7 MCshow
/Helvetica findfont 200 scalefont setfont
LTb
LCb setrgbcolor
3909 4739 M
[ [(Helvetica) 200.0 0.0 true true 0 (Gain in compression over graph entropy)]
] -66.7 MCshow
/Helvetica findfont 200 scalefont setfont
LTb
1.000 UL
LTb
LCb setrgbcolor
4856 703 N
0 400 V
1863 0 V
0 -400 V
-1863 0 V
Z stroke
% Begin plot #1
1.000 UL
LTb
0.58 0.00 0.83 C
gsave 1141 672 N 15 4 V 14 3 V 15 5 V 15 4 V 14 4 V 15 6 V 15 3 V 14 6 V 15 4 V 15 3 V 14 6 V 15 5 V 15 5 V 14 1 V 15 8 V 14 6 V 15 2 V 15 5 V 14 7 V 15 4 V 15 4 V 14 3 V 15 8 V 15 3 V 14 6 V 15 7 V 15 4 V 14 4 V 15 5 V 15 4 V 14 3 V 15 8 V 14 5 V 15 5 V 15 5 V 14 6 V 15 3 V 15 7 V 14 5 V 15 4 V 15 6 V 14 5 V 15 4 V 15 6 V 14 5 V 15 3 V 15 7 V 14 6 V 15 4 V 14 6 V 15 5 V 15 4 V 14 5 V 15 5 V 15 6 V 14 5 V 15 5 V 15 5 V 14 6 V 15 5 V 15 5 V 14 5 V 15 4 V 15 6 V 14 6 V 15 5 V 15 4 V 14 5 V 15 7 V 14 5 V 15 5 V 15 5 V 14 5 V 15 5 V 15 5 V 14 6 V 15 4 V 15 4 V 14 7 V 15 5 V 15 3 V 14 7 V 15 5 V 15 6 V 14 4 V 15 5 V 14 6 V 15 5 V 15 6 V 146 49 V 147 55 V 146 49 V 147 52 V 146 49 V 147 52 V 146 51 V 147 49 V 146 50 V 147 50 V 146 46 V 146 48 V 147 52 V 146 44 V 147 44 V 146 37 V 147 53 V 146 41 V 147 42 V 146 39 V 147 33 V 146 23 V 147 19 V 146 25 V 147 4 V 146 14 V 147 2 V 146 -30 V 147 10 V 146 -16 V 0 119 V -146 32 V -147 -27 V -146 2 V -147 -16 V -146 -16 V -147 -10 V -146 -37 V -147 -28 V -146 -38 V -147 -26 V -146 -50 V -147 -43 V -146 -43 V -147 -47 V -146 -47 V -147 -48 V -146 -49 V -147 -45 V -146 -52 V -146 -49 V -147 -51 V -146 -51 V -147 -50 V -146 -51 V -147 -50 V -146 -51 V -147 -52 V -146 -53 V -147 -51 V -146 -52 V -15 -6 V -15 -6 V -14 -4 V -15 -5 V -14 -6 V -15 -5 V -15 -5 V -14 -5 V -15 -6 V -15 -4 V -14 -6 V -15 -5 V -15 -5 V -14 -5 V -15 -5 V -15 -6 V -14 -5 V -15 -6 V -15 -5 V -14 -4 V -15 -6 V -14 -5 V -15 -5 V -15 -5 V -14 -6 V -15 -5 V -15 -5 V -14 -5 V -15 -6 V -15 -5 V -14 -5 V -15 -4 V -15 -6 V -14 -5 V -15 -5 V -15 -6 V -14 -5 V -15 -5 V -15 -5 V -14 -5 V -15 -5 V -14 -5 V -15 -6 V -15 -5 V -14 -5 V -15 -5 V -15 -5 V -14 -5 V -15 -5 V -15 -5 V -14 -4 V -15 -6 V -15 -5 V -14 -5 V -15 -5 V -15 -5 V -14 -5 V -15 -5 V -14 -5 V -15 -5 V -15 -6 V -14 -5 V -15 -4 V -15 -5 V -14 -5 V -15 -5 V -15 -5 V -14 -5 V -15 -5 V -15 -5 V -14 -4 V -15 -5 V -15 -6 V -14 -4 V -15 -5 V -14 -4 V -15 -5 V -15 -5 V -14 -5 V -15 -4 V -15 -5 V -14 -4 V -15 -5 V -15 -4 V -14 -5 V -15 -4 V -15 -5 V -14 -4 V -15 -4 V 0.15 PolyFill
% End plot #1
% Begin plot #2
1.000 UP
1.000 UL
LTb
0.58 0.00 0.83 C
LCb setrgbcolor
5936 1003 M
[ [(Helvetica) 200.0 0.0 true true 0 (Szip gain)]
] -66.7 MRshow
/Helvetica findfont 200 scalefont setfont
1.000 UP
1.000 UL
LTb
0.58 0.00 0.83 C
1141 674 Circle
1156 678 Circle
1170 682 Circle
1185 687 Circle
1200 691 Circle
1214 696 Circle
1229 700 Circle
1244 705 Circle
1258 709 Circle
1273 714 Circle
1288 718 Circle
1302 723 Circle
1317 728 Circle
1332 732 Circle
1346 737 Circle
1361 742 Circle
1375 746 Circle
1390 751 Circle
1405 756 Circle
1419 761 Circle
1434 766 Circle
1449 770 Circle
1463 775 Circle
1478 780 Circle
1493 785 Circle
1507 790 Circle
1522 795 Circle
1537 800 Circle
1551 805 Circle
1566 810 Circle
1581 815 Circle
1595 820 Circle
1610 825 Circle
1624 830 Circle
1639 835 Circle
1654 840 Circle
1668 845 Circle
1683 850 Circle
1698 855 Circle
1712 860 Circle
1727 865 Circle
1742 870 Circle
1756 875 Circle
1771 880 Circle
1786 885 Circle
1800 891 Circle
1815 896 Circle
1830 901 Circle
1844 906 Circle
1859 911 Circle
1873 916 Circle
1888 921 Circle
1903 926 Circle
1917 931 Circle
1932 936 Circle
1947 942 Circle
1961 947 Circle
1976 952 Circle
1991 957 Circle
2005 962 Circle
2020 968 Circle
2035 973 Circle
2049 978 Circle
2064 983 Circle
2079 988 Circle
2093 993 Circle
2108 999 Circle
2123 1004 Circle
2137 1009 Circle
2152 1014 Circle
2166 1019 Circle
2181 1024 Circle
2196 1030 Circle
2210 1035 Circle
2225 1040 Circle
2240 1045 Circle
2254 1051 Circle
2269 1055 Circle
2284 1061 Circle
2298 1066 Circle
2313 1071 Circle
2328 1076 Circle
2342 1081 Circle
2357 1087 Circle
2372 1092 Circle
2386 1097 Circle
2401 1102 Circle
2415 1107 Circle
2430 1112 Circle
2445 1118 Circle
2591 1169 Circle
2738 1221 Circle
2884 1272 Circle
3031 1324 Circle
3177 1375 Circle
3324 1426 Circle
3470 1477 Circle
3617 1527 Circle
3763 1577 Circle
3910 1626 Circle
4056 1676 Circle
4202 1725 Circle
4349 1773 Circle
4495 1820 Circle
4642 1867 Circle
4788 1912 Circle
4935 1957 Circle
5081 2001 Circle
5228 2043 Circle
5374 2081 Circle
5521 2118 Circle
5667 2147 Circle
5814 2175 Circle
5960 2200 Circle
6107 2215 Circle
6253 2226 Circle
6400 2232 Circle
6546 2229 Circle
6693 2224 Circle
6839 2202 Circle
6327 1003 Circle
% End plot #2
% Begin plot #3
1.000 UP
1.000 UL
LTb
0.13 0.55 0.13 C
LCb setrgbcolor
5936 803 M
[ [(Helvetica) 200.0 0.0 true true 0 (n log n)]
] -66.7 MRshow
/Helvetica findfont 200 scalefont setfont
1.000 UP
1.000 UL
LTb
0.13 0.55 0.13 C
6056 803 M
543 0 V
1141 700 M
15 7 V
14 6 V
15 6 V
15 7 V
14 6 V
15 7 V
15 7 V
14 6 V
15 7 V
15 7 V
14 7 V
15 6 V
15 7 V
14 7 V
15 7 V
14 7 V
15 7 V
15 7 V
14 7 V
15 7 V
15 7 V
14 7 V
15 7 V
15 8 V
14 7 V
15 7 V
15 7 V
14 7 V
15 8 V
15 7 V
14 7 V
15 8 V
14 7 V
15 7 V
15 8 V
14 7 V
15 8 V
15 7 V
14 7 V
15 8 V
15 7 V
14 8 V
15 7 V
15 8 V
14 7 V
15 8 V
15 8 V
14 7 V
15 8 V
14 7 V
15 8 V
15 8 V
14 7 V
15 8 V
15 7 V
14 8 V
15 8 V
15 8 V
14 7 V
15 8 V
15 8 V
14 7 V
15 8 V
15 8 V
14 8 V
15 8 V
15 7 V
14 8 V
15 8 V
14 8 V
15 8 V
15 7 V
14 8 V
15 8 V
15 8 V
14 8 V
15 8 V
15 8 V
14 8 V
15 8 V
15 7 V
14 8 V
15 8 V
15 8 V
14 8 V
15 8 V
14 8 V
15 8 V
15 8 V
146 80 V
147 82 V
146 81 V
147 82 V
146 83 V
147 84 V
146 84 V
147 84 V
146 85 V
147 85 V
146 85 V
146 86 V
147 87 V
146 86 V
147 87 V
146 87 V
147 88 V
146 88 V
147 88 V
146 88 V
147 89 V
146 89 V
147 89 V
146 90 V
147 89 V
146 90 V
147 90 V
146 91 V
147 90 V
146 91 V
1141 700 Circle
1156 707 Circle
1170 713 Circle
1185 719 Circle
1200 726 Circle
1214 732 Circle
1229 739 Circle
1244 746 Circle
1258 752 Circle
1273 759 Circle
1288 766 Circle
1302 773 Circle
1317 779 Circle
1332 786 Circle
1346 793 Circle
1361 800 Circle
1375 807 Circle
1390 814 Circle
1405 821 Circle
1419 828 Circle
1434 835 Circle
1449 842 Circle
1463 849 Circle
1478 856 Circle
1493 864 Circle
1507 871 Circle
1522 878 Circle
1537 885 Circle
1551 892 Circle
1566 900 Circle
1581 907 Circle
1595 914 Circle
1610 922 Circle
1624 929 Circle
1639 936 Circle
1654 944 Circle
1668 951 Circle
1683 959 Circle
1698 966 Circle
1712 973 Circle
1727 981 Circle
1742 988 Circle
1756 996 Circle
1771 1003 Circle
1786 1011 Circle
1800 1018 Circle
1815 1026 Circle
1830 1034 Circle
1844 1041 Circle
1859 1049 Circle
1873 1056 Circle
1888 1064 Circle
1903 1072 Circle
1917 1079 Circle
1932 1087 Circle
1947 1094 Circle
1961 1102 Circle
1976 1110 Circle
1991 1118 Circle
2005 1125 Circle
2020 1133 Circle
2035 1141 Circle
2049 1148 Circle
2064 1156 Circle
2079 1164 Circle
2093 1172 Circle
2108 1180 Circle
2123 1187 Circle
2137 1195 Circle
2152 1203 Circle
2166 1211 Circle
2181 1219 Circle
2196 1226 Circle
2210 1234 Circle
2225 1242 Circle
2240 1250 Circle
2254 1258 Circle
2269 1266 Circle
2284 1274 Circle
2298 1282 Circle
2313 1290 Circle
2328 1297 Circle
2342 1305 Circle
2357 1313 Circle
2372 1321 Circle
2386 1329 Circle
2401 1337 Circle
2415 1345 Circle
2430 1353 Circle
2445 1361 Circle
2591 1441 Circle
2738 1523 Circle
2884 1604 Circle
3031 1686 Circle
3177 1769 Circle
3324 1853 Circle
3470 1937 Circle
3617 2021 Circle
3763 2106 Circle
3910 2191 Circle
4056 2276 Circle
4202 2362 Circle
4349 2449 Circle
4495 2535 Circle
4642 2622 Circle
4788 2709 Circle
4935 2797 Circle
5081 2885 Circle
5228 2973 Circle
5374 3061 Circle
5521 3150 Circle
5667 3239 Circle
5814 3328 Circle
5960 3418 Circle
6107 3507 Circle
6253 3597 Circle
6400 3687 Circle
6546 3778 Circle
6693 3868 Circle
6839 3959 Circle
6327 803 Circle
% End plot #3
1.000 UL
LTb
LCb setrgbcolor
0.500 UL
LTa
LCa setrgbcolor
980 640 M
5859 0 V
stroke
1.000 UL
LTb
LCb setrgbcolor
980 640 M
126 0 V
5733 0 R
-126 0 V
stroke
860 640 M
[ [(Helvetica) 200.0 0.0 true true 0 (0 )]
] -66.7 MRshow
/Helvetica findfont 200 scalefont setfont
1.000 UL
LTb
LCb setrgbcolor
0.500 UL
LTa
LCa setrgbcolor
980 1183 M
5859 0 V
stroke
1.000 UL
LTb
LCb setrgbcolor
980 1183 M
126 0 V
5733 0 R
-126 0 V
stroke
860 1183 M
[ [(Helvetica) 200.0 0.0 true true 0 (100k)]
] -66.7 MRshow
/Helvetica findfont 200 scalefont setfont
1.000 UL
LTb
LCb setrgbcolor
0.500 UL
LTa
LCa setrgbcolor
980 1725 M
5859 0 V
stroke
1.000 UL
LTb
LCb setrgbcolor
980 1725 M
126 0 V
5733 0 R
-126 0 V
stroke
860 1725 M
[ [(Helvetica) 200.0 0.0 true true 0 (200k)]
] -66.7 MRshow
/Helvetica findfont 200 scalefont setfont
1.000 UL
LTb
LCb setrgbcolor
0.500 UL
LTa
LCa setrgbcolor
980 2268 M
5859 0 V
stroke
1.000 UL
LTb
LCb setrgbcolor
980 2268 M
126 0 V
5733 0 R
-126 0 V
stroke
860 2268 M
[ [(Helvetica) 200.0 0.0 true true 0 (300k)]
] -66.7 MRshow
/Helvetica findfont 200 scalefont setfont
1.000 UL
LTb
LCb setrgbcolor
0.500 UL
LTa
LCa setrgbcolor
980 2811 M
5859 0 V
stroke
1.000 UL
LTb
LCb setrgbcolor
980 2811 M
126 0 V
5733 0 R
-126 0 V
stroke
860 2811 M
[ [(Helvetica) 200.0 0.0 true true 0 (400k)]
] -66.7 MRshow
/Helvetica findfont 200 scalefont setfont
1.000 UL
LTb
LCb setrgbcolor
0.500 UL
LTa
LCa setrgbcolor
980 3354 M
5859 0 V
stroke
1.000 UL
LTb
LCb setrgbcolor
980 3354 M
126 0 V
5733 0 R
-126 0 V
stroke
860 3354 M
[ [(Helvetica) 200.0 0.0 true true 0 (500k)]
] -66.7 MRshow
/Helvetica findfont 200 scalefont setfont
1.000 UL
LTb
LCb setrgbcolor
0.500 UL
LTa
LCa setrgbcolor
980 3896 M
5859 0 V
stroke
1.000 UL
LTb
LCb setrgbcolor
980 3896 M
126 0 V
5733 0 R
-126 0 V
stroke
860 3896 M
[ [(Helvetica) 200.0 0.0 true true 0 (600k)]
] -66.7 MRshow
/Helvetica findfont 200 scalefont setfont
1.000 UL
LTb
LCb setrgbcolor
0.500 UL
LTa
LCa setrgbcolor
980 4439 M
5859 0 V
stroke
1.000 UL
LTb
LCb setrgbcolor
980 4439 M
126 0 V
5733 0 R
-126 0 V
stroke
860 4439 M
[ [(Helvetica) 200.0 0.0 true true 0 (700k)]
] -66.7 MRshow
/Helvetica findfont 200 scalefont setfont
1.000 UL
LTb
LCb setrgbcolor
0.500 UL
LTa
LCa setrgbcolor
980 640 M
0 3799 V
stroke
1.000 UL
LTb
LCb setrgbcolor
980 640 M
0 126 V
0 3673 R
0 -126 V
stroke
980 440 M
[ [(Helvetica) 200.0 0.0 true true 0 (0 )]
] -66.7 MCshow
/Helvetica findfont 200 scalefont setfont
1.000 UL
LTb
LCb setrgbcolor
0.500 UL
LTa
LCa setrgbcolor
1712 640 M
0 3799 V
stroke
1.000 UL
LTb
LCb setrgbcolor
1712 640 M
0 126 V
0 3673 R
0 -126 V
stroke
1712 440 M
[ [(Helvetica) 200.0 0.0 true true 0 (5k)]
] -66.7 MCshow
/Helvetica findfont 200 scalefont setfont
1.000 UL
LTb
LCb setrgbcolor
0.500 UL
LTa
LCa setrgbcolor
2445 640 M
0 3799 V
stroke
1.000 UL
LTb
LCb setrgbcolor
2445 640 M
0 126 V
0 3673 R
0 -126 V
stroke
2445 440 M
[ [(Helvetica) 200.0 0.0 true true 0 (10k)]
] -66.7 MCshow
/Helvetica findfont 200 scalefont setfont
1.000 UL
LTb
LCb setrgbcolor
0.500 UL
LTa
LCa setrgbcolor
3177 640 M
0 3799 V
stroke
1.000 UL
LTb
LCb setrgbcolor
3177 640 M
0 126 V
0 3673 R
0 -126 V
stroke
3177 440 M
[ [(Helvetica) 200.0 0.0 true true 0 (15k)]
] -66.7 MCshow
/Helvetica findfont 200 scalefont setfont
1.000 UL
LTb
LCb setrgbcolor
0.500 UL
LTa
LCa setrgbcolor
3910 640 M
0 3799 V
stroke
1.000 UL
LTb
LCb setrgbcolor
3910 640 M
0 126 V
0 3673 R
0 -126 V
stroke
3910 440 M
[ [(Helvetica) 200.0 0.0 true true 0 (20k)]
] -66.7 MCshow
/Helvetica findfont 200 scalefont setfont
1.000 UL
LTb
LCb setrgbcolor
0.500 UL
LTa
LCa setrgbcolor
4642 640 M
0 3799 V
stroke
1.000 UL
LTb
LCb setrgbcolor
4642 640 M
0 126 V
0 3673 R
0 -126 V
stroke
4642 440 M
[ [(Helvetica) 200.0 0.0 true true 0 (25k)]
] -66.7 MCshow
/Helvetica findfont 200 scalefont setfont
1.000 UL
LTb
LCb setrgbcolor
0.500 UL
LTa
LCa setrgbcolor
5374 640 M
0 63 V
0 400 R
0 3336 V
stroke
1.000 UL
LTb
LCb setrgbcolor
5374 640 M
0 126 V
0 3673 R
0 -126 V
stroke
5374 440 M
[ [(Helvetica) 200.0 0.0 true true 0 (30k)]
] -66.7 MCshow
/Helvetica findfont 200 scalefont setfont
1.000 UL
LTb
LCb setrgbcolor
0.500 UL
LTa
LCa setrgbcolor
6107 640 M
0 63 V
0 400 R
0 3336 V
stroke
1.000 UL
LTb
LCb setrgbcolor
6107 640 M
0 126 V
0 3673 R
0 -126 V
stroke
6107 440 M
[ [(Helvetica) 200.0 0.0 true true 0 (35k)]
] -66.7 MCshow
/Helvetica findfont 200 scalefont setfont
1.000 UL
LTb
LCb setrgbcolor
0.500 UL
LTa
LCa setrgbcolor
6839 640 M
0 3799 V
stroke
1.000 UL
LTb
LCb setrgbcolor
6839 640 M
0 126 V
0 3673 R
0 -126 V
stroke
6839 440 M
[ [(Helvetica) 200.0 0.0 true true 0 (40k)]
] -66.7 MCshow
/Helvetica findfont 200 scalefont setfont
1.000 UL
LTb
LCb setrgbcolor
2.000 UL
LTb
LCb setrgbcolor
1.000 UL
LTB
LCb setrgbcolor
980 4439 N
980 640 L
5859 0 V
0 3799 V
-5859 0 V
Z stroke
1.000 UP
1.000 UL
LTb
LCb setrgbcolor
stroke
grestore
end
showpage
%%Trailer
%%DocumentFonts: Helvetica
